Time Stamp,Time Zone,Fuel Category,Gen MW
08/04/2019 00:05:00,EDT,Dual Fuel,4668.0
08/04/2019 00:05:00,EDT,Natural Gas,3273.0
08/04/2019 00:05:00,EDT,Nuclear,5216.0
08/04/2019 00:05:00,EDT,Other Fossil Fuels,100.0
08/04/2019 00:05:00,EDT,Other Renewables,250.0
08/04/2019 00:05:00,EDT,Wind,127.0
08/04/2019 00:05:00,EDT,Hydro,2057.0
08/04/2019 00:10:00,EDT,Dual Fuel,4643.0
08/04/2019 00:10:00,EDT,Natural Gas,3148.0
08/04/2019 00:10:00,EDT,Nuclear,5216.0
08/04/2019 00:10:00,EDT,Other Fossil Fuels,101.0
08/04/2019 00:10:00,EDT,Other Renewables,249.0
08/04/2019 00:10:00,EDT,Wind,142.0
08/04/2019 00:10:00,EDT,Hydro,2040.0
08/04/2019 00:15:00,EDT,Dual Fuel,4509.0
08/04/2019 00:15:00,EDT,Natural Gas,3106.0
08/04/2019 00:15:00,EDT,Nuclear,5214.0
08/04/2019 00:15:00,EDT,Other Fossil Fuels,100.0
08/04/2019 00:15:00,EDT,Other Renewables,260.0
08/04/2019 00:15:00,EDT,Wind,145.0
08/04/2019 00:15:00,EDT,Hydro,2040.0
08/04/2019 00:20:00,EDT,Dual Fuel,4475.0
08/04/2019 00:20:00,EDT,Natural Gas,3122.0
08/04/2019 00:20:00,EDT,Nuclear,5216.0
08/04/2019 00:20:00,EDT,Other Fossil Fuels,91.0
08/04/2019 00:20:00,EDT,Other Renewables,258.0
08/04/2019 00:20:00,EDT,Wind,142.0
08/04/2019 00:20:00,EDT,Hydro,2047.0
08/04/2019 00:25:00,EDT,Dual Fuel,4510.0
08/04/2019 00:25:00,EDT,Natural Gas,3143.0
08/04/2019 00:25:00,EDT,Nuclear,5217.0
08/04/2019 00:25:00,EDT,Other Fossil Fuels,54.0
08/04/2019 00:25:00,EDT,Other Renewables,256.0
08/04/2019 00:25:00,EDT,Wind,140.0
08/04/2019 00:25:00,EDT,Hydro,2042.0
08/04/2019 00:30:00,EDT,Dual Fuel,4500.0
08/04/2019 00:30:00,EDT,Natural Gas,3096.0
08/04/2019 00:30:00,EDT,Nuclear,5218.0
08/04/2019 00:30:00,EDT,Other Fossil Fuels,50.0
08/04/2019 00:30:00,EDT,Other Renewables,252.0
08/04/2019 00:30:00,EDT,Wind,138.0
08/04/2019 00:30:00,EDT,Hydro,2031.0
08/04/2019 00:35:00,EDT,Dual Fuel,4357.0
08/04/2019 00:35:00,EDT,Natural Gas,3049.0
08/04/2019 00:35:00,EDT,Nuclear,5221.0
08/04/2019 00:35:00,EDT,Other Fossil Fuels,51.0
08/04/2019 00:35:00,EDT,Other Renewables,253.0
08/04/2019 00:35:00,EDT,Wind,141.0
08/04/2019 00:35:00,EDT,Hydro,2040.0
08/04/2019 00:40:00,EDT,Dual Fuel,4242.0
08/04/2019 00:40:00,EDT,Natural Gas,3051.0
08/04/2019 00:40:00,EDT,Nuclear,5223.0
08/04/2019 00:40:00,EDT,Other Fossil Fuels,50.0
08/04/2019 00:40:00,EDT,Other Renewables,251.0
08/04/2019 00:40:00,EDT,Wind,141.0
08/04/2019 00:40:00,EDT,Hydro,2044.0
08/04/2019 00:45:00,EDT,Dual Fuel,4181.0
08/04/2019 00:45:00,EDT,Natural Gas,3037.0
08/04/2019 00:45:00,EDT,Nuclear,5222.0
08/04/2019 00:45:00,EDT,Other Fossil Fuels,51.0
08/04/2019 00:45:00,EDT,Other Renewables,250.0
08/04/2019 00:45:00,EDT,Wind,138.0
08/04/2019 00:45:00,EDT,Hydro,2038.0
08/04/2019 00:50:00,EDT,Dual Fuel,4133.0
08/04/2019 00:50:00,EDT,Natural Gas,3023.0
08/04/2019 00:50:00,EDT,Nuclear,5225.0
08/04/2019 00:50:00,EDT,Other Fossil Fuels,51.0
08/04/2019 00:50:00,EDT,Other Renewables,249.0
08/04/2019 00:50:00,EDT,Wind,136.0
08/04/2019 00:50:00,EDT,Hydro,2041.0
08/04/2019 00:55:00,EDT,Dual Fuel,4036.0
08/04/2019 00:55:00,EDT,Natural Gas,3013.0
08/04/2019 00:55:00,EDT,Nuclear,5225.0
08/04/2019 00:55:00,EDT,Other Fossil Fuels,50.0
08/04/2019 00:55:00,EDT,Other Renewables,249.0
08/04/2019 00:55:00,EDT,Wind,137.0
08/04/2019 00:55:00,EDT,Hydro,2052.0
08/04/2019 01:00:00,EDT,Dual Fuel,3884.0
08/04/2019 01:00:00,EDT,Natural Gas,3055.0
08/04/2019 01:00:00,EDT,Nuclear,5226.0
08/04/2019 01:00:00,EDT,Other Fossil Fuels,51.0
08/04/2019 01:00:00,EDT,Other Renewables,251.0
08/04/2019 01:00:00,EDT,Wind,136.0
08/04/2019 01:00:00,EDT,Hydro,2049.0
08/04/2019 01:05:00,EDT,Dual Fuel,3865.0
08/04/2019 01:05:00,EDT,Natural Gas,3084.0
08/04/2019 01:05:00,EDT,Nuclear,5224.0
08/04/2019 01:05:00,EDT,Other Fossil Fuels,51.0
08/04/2019 01:05:00,EDT,Other Renewables,253.0
08/04/2019 01:05:00,EDT,Wind,134.0
08/04/2019 01:05:00,EDT,Hydro,2055.0
08/04/2019 01:10:00,EDT,Dual Fuel,3877.0
08/04/2019 01:10:00,EDT,Natural Gas,3093.0
08/04/2019 01:10:00,EDT,Nuclear,5224.0
08/04/2019 01:10:00,EDT,Other Fossil Fuels,50.0
08/04/2019 01:10:00,EDT,Other Renewables,254.0
08/04/2019 01:10:00,EDT,Wind,131.0
08/04/2019 01:10:00,EDT,Hydro,2057.0
08/04/2019 01:15:00,EDT,Dual Fuel,3840.0
08/04/2019 01:15:00,EDT,Natural Gas,3066.0
08/04/2019 01:15:00,EDT,Nuclear,5222.0
08/04/2019 01:15:00,EDT,Other Fossil Fuels,51.0
08/04/2019 01:15:00,EDT,Other Renewables,252.0
08/04/2019 01:15:00,EDT,Wind,129.0
08/04/2019 01:15:00,EDT,Hydro,2042.0
08/04/2019 01:20:00,EDT,Dual Fuel,3808.0
08/04/2019 01:20:00,EDT,Natural Gas,3061.0
08/04/2019 01:20:00,EDT,Nuclear,5222.0
08/04/2019 01:20:00,EDT,Other Fossil Fuels,50.0
08/04/2019 01:20:00,EDT,Other Renewables,252.0
08/04/2019 01:20:00,EDT,Wind,125.0
08/04/2019 01:20:00,EDT,Hydro,2055.0
08/04/2019 01:25:00,EDT,Dual Fuel,3797.0
08/04/2019 01:25:00,EDT,Natural Gas,3061.0
08/04/2019 01:25:00,EDT,Nuclear,5220.0
08/04/2019 01:25:00,EDT,Other Fossil Fuels,51.0
08/04/2019 01:25:00,EDT,Other Renewables,251.0
08/04/2019 01:25:00,EDT,Wind,128.0
08/04/2019 01:25:00,EDT,Hydro,2048.0
08/04/2019 01:30:00,EDT,Dual Fuel,3759.0
08/04/2019 01:30:00,EDT,Natural Gas,3032.0
08/04/2019 01:30:00,EDT,Nuclear,5220.0
08/04/2019 01:30:00,EDT,Other Fossil Fuels,51.0
08/04/2019 01:30:00,EDT,Other Renewables,247.0
08/04/2019 01:30:00,EDT,Wind,129.0
08/04/2019 01:30:00,EDT,Hydro,2040.0
08/04/2019 01:35:00,EDT,Dual Fuel,3732.0
08/04/2019 01:35:00,EDT,Natural Gas,3021.0
08/04/2019 01:35:00,EDT,Nuclear,5221.0
08/04/2019 01:35:00,EDT,Other Fossil Fuels,50.0
08/04/2019 01:35:00,EDT,Other Renewables,253.0
08/04/2019 01:35:00,EDT,Wind,129.0
08/04/2019 01:35:00,EDT,Hydro,2042.0
08/04/2019 01:40:00,EDT,Dual Fuel,3747.0
08/04/2019 01:40:00,EDT,Natural Gas,2987.0
08/04/2019 01:40:00,EDT,Nuclear,5220.0
08/04/2019 01:40:00,EDT,Other Fossil Fuels,51.0
08/04/2019 01:40:00,EDT,Other Renewables,249.0
08/04/2019 01:40:00,EDT,Wind,125.0
08/04/2019 01:40:00,EDT,Hydro,2042.0
08/04/2019 01:45:00,EDT,Dual Fuel,3743.0
08/04/2019 01:45:00,EDT,Natural Gas,2932.0
08/04/2019 01:45:00,EDT,Nuclear,5221.0
08/04/2019 01:45:00,EDT,Other Fossil Fuels,51.0
08/04/2019 01:45:00,EDT,Other Renewables,249.0
08/04/2019 01:45:00,EDT,Wind,119.0
08/04/2019 01:45:00,EDT,Hydro,2049.0
08/04/2019 01:50:00,EDT,Dual Fuel,3739.0
08/04/2019 01:50:00,EDT,Natural Gas,2889.0
08/04/2019 01:50:00,EDT,Nuclear,5221.0
08/04/2019 01:50:00,EDT,Other Fossil Fuels,51.0
08/04/2019 01:50:00,EDT,Other Renewables,253.0
08/04/2019 01:50:00,EDT,Wind,116.0
08/04/2019 01:50:00,EDT,Hydro,2043.0
08/04/2019 01:55:00,EDT,Dual Fuel,3736.0
08/04/2019 01:55:00,EDT,Natural Gas,2879.0
08/04/2019 01:55:00,EDT,Nuclear,5221.0
08/04/2019 01:55:00,EDT,Other Fossil Fuels,51.0
08/04/2019 01:55:00,EDT,Other Renewables,250.0
08/04/2019 01:55:00,EDT,Wind,113.0
08/04/2019 01:55:00,EDT,Hydro,2047.0
08/04/2019 02:00:00,EDT,Dual Fuel,3695.0
08/04/2019 02:00:00,EDT,Natural Gas,2809.0
08/04/2019 02:00:00,EDT,Nuclear,5220.0
08/04/2019 02:00:00,EDT,Other Fossil Fuels,50.0
08/04/2019 02:00:00,EDT,Other Renewables,249.0
08/04/2019 02:00:00,EDT,Wind,111.0
08/04/2019 02:00:00,EDT,Hydro,2043.0
08/04/2019 02:05:00,EDT,Dual Fuel,3629.0
08/04/2019 02:05:00,EDT,Natural Gas,2674.0
08/04/2019 02:05:00,EDT,Nuclear,5222.0
08/04/2019 02:05:00,EDT,Other Fossil Fuels,51.0
08/04/2019 02:05:00,EDT,Other Renewables,249.0
08/04/2019 02:05:00,EDT,Wind,111.0
08/04/2019 02:05:00,EDT,Hydro,2047.0
08/04/2019 02:10:00,EDT,Dual Fuel,3611.0
08/04/2019 02:10:00,EDT,Natural Gas,2612.0
08/04/2019 02:10:00,EDT,Nuclear,5221.0
08/04/2019 02:10:00,EDT,Other Fossil Fuels,51.0
08/04/2019 02:10:00,EDT,Other Renewables,250.0
08/04/2019 02:10:00,EDT,Wind,112.0
08/04/2019 02:10:00,EDT,Hydro,2045.0
08/04/2019 02:15:00,EDT,Dual Fuel,3633.0
08/04/2019 02:15:00,EDT,Natural Gas,2563.0
08/04/2019 02:15:00,EDT,Nuclear,5222.0
08/04/2019 02:15:00,EDT,Other Fossil Fuels,50.0
08/04/2019 02:15:00,EDT,Other Renewables,246.0
08/04/2019 02:15:00,EDT,Wind,118.0
08/04/2019 02:15:00,EDT,Hydro,2042.0
08/04/2019 02:20:00,EDT,Dual Fuel,3612.0
08/04/2019 02:20:00,EDT,Natural Gas,2515.0
08/04/2019 02:20:00,EDT,Nuclear,5223.0
08/04/2019 02:20:00,EDT,Other Fossil Fuels,51.0
08/04/2019 02:20:00,EDT,Other Renewables,251.0
08/04/2019 02:20:00,EDT,Wind,118.0
08/04/2019 02:20:00,EDT,Hydro,2043.0
08/04/2019 02:25:00,EDT,Dual Fuel,3608.0
08/04/2019 02:25:00,EDT,Natural Gas,2470.0
08/04/2019 02:25:00,EDT,Nuclear,5223.0
08/04/2019 02:25:00,EDT,Other Fossil Fuels,51.0
08/04/2019 02:25:00,EDT,Other Renewables,250.0
08/04/2019 02:25:00,EDT,Wind,121.0
08/04/2019 02:25:00,EDT,Hydro,2037.0
08/04/2019 02:30:00,EDT,Dual Fuel,3573.0
08/04/2019 02:30:00,EDT,Natural Gas,2468.0
08/04/2019 02:30:00,EDT,Nuclear,5224.0
08/04/2019 02:30:00,EDT,Other Fossil Fuels,51.0
08/04/2019 02:30:00,EDT,Other Renewables,255.0
08/04/2019 02:30:00,EDT,Wind,123.0
08/04/2019 02:30:00,EDT,Hydro,2046.0
08/04/2019 02:35:00,EDT,Dual Fuel,3517.0
08/04/2019 02:35:00,EDT,Natural Gas,2472.0
08/04/2019 02:35:00,EDT,Nuclear,5224.0
08/04/2019 02:35:00,EDT,Other Fossil Fuels,50.0
08/04/2019 02:35:00,EDT,Other Renewables,251.0
08/04/2019 02:35:00,EDT,Wind,126.0
08/04/2019 02:35:00,EDT,Hydro,2042.0
08/04/2019 02:40:00,EDT,Dual Fuel,3441.0
08/04/2019 02:40:00,EDT,Natural Gas,2480.0
08/04/2019 02:40:00,EDT,Nuclear,5224.0
08/04/2019 02:40:00,EDT,Other Fossil Fuels,51.0
08/04/2019 02:40:00,EDT,Other Renewables,251.0
08/04/2019 02:40:00,EDT,Wind,131.0
08/04/2019 02:40:00,EDT,Hydro,2041.0
08/04/2019 02:45:00,EDT,Dual Fuel,3399.0
08/04/2019 02:45:00,EDT,Natural Gas,2482.0
08/04/2019 02:45:00,EDT,Nuclear,5225.0
08/04/2019 02:45:00,EDT,Other Fossil Fuels,51.0
08/04/2019 02:45:00,EDT,Other Renewables,251.0
08/04/2019 02:45:00,EDT,Wind,138.0
08/04/2019 02:45:00,EDT,Hydro,2037.0
08/04/2019 02:50:00,EDT,Dual Fuel,3351.0
08/04/2019 02:50:00,EDT,Natural Gas,2472.0
08/04/2019 02:50:00,EDT,Nuclear,5227.0
08/04/2019 02:50:00,EDT,Other Fossil Fuels,51.0
08/04/2019 02:50:00,EDT,Other Renewables,252.0
08/04/2019 02:50:00,EDT,Wind,136.0
08/04/2019 02:50:00,EDT,Hydro,2039.0
08/04/2019 02:55:00,EDT,Dual Fuel,3336.0
08/04/2019 02:55:00,EDT,Natural Gas,2469.0
08/04/2019 02:55:00,EDT,Nuclear,5226.0
08/04/2019 02:55:00,EDT,Other Fossil Fuels,51.0
08/04/2019 02:55:00,EDT,Other Renewables,251.0
08/04/2019 02:55:00,EDT,Wind,134.0
08/04/2019 02:55:00,EDT,Hydro,2041.0
08/04/2019 03:00:00,EDT,Dual Fuel,3296.0
08/04/2019 03:00:00,EDT,Natural Gas,2471.0
08/04/2019 03:00:00,EDT,Nuclear,5228.0
08/04/2019 03:00:00,EDT,Other Fossil Fuels,51.0
08/04/2019 03:00:00,EDT,Other Renewables,252.0
08/04/2019 03:00:00,EDT,Wind,135.0
08/04/2019 03:00:00,EDT,Hydro,2041.0
08/04/2019 03:05:00,EDT,Dual Fuel,3314.0
08/04/2019 03:05:00,EDT,Natural Gas,2474.0
08/04/2019 03:05:00,EDT,Nuclear,5230.0
08/04/2019 03:05:00,EDT,Other Fossil Fuels,50.0
08/04/2019 03:05:00,EDT,Other Renewables,254.0
08/04/2019 03:05:00,EDT,Wind,141.0
08/04/2019 03:05:00,EDT,Hydro,2040.0
08/04/2019 03:10:00,EDT,Dual Fuel,3302.0
08/04/2019 03:10:00,EDT,Natural Gas,2455.0
08/04/2019 03:10:00,EDT,Nuclear,5230.0
08/04/2019 03:10:00,EDT,Other Fossil Fuels,51.0
08/04/2019 03:10:00,EDT,Other Renewables,252.0
08/04/2019 03:10:00,EDT,Wind,139.0
08/04/2019 03:10:00,EDT,Hydro,2043.0
08/04/2019 03:15:00,EDT,Dual Fuel,3286.0
08/04/2019 03:15:00,EDT,Natural Gas,2417.0
08/04/2019 03:15:00,EDT,Nuclear,5229.0
08/04/2019 03:15:00,EDT,Other Fossil Fuels,51.0
08/04/2019 03:15:00,EDT,Other Renewables,253.0
08/04/2019 03:15:00,EDT,Wind,135.0
08/04/2019 03:15:00,EDT,Hydro,2037.0
08/04/2019 03:20:00,EDT,Dual Fuel,3294.0
08/04/2019 03:20:00,EDT,Natural Gas,2418.0
08/04/2019 03:20:00,EDT,Nuclear,5231.0
08/04/2019 03:20:00,EDT,Other Fossil Fuels,50.0
08/04/2019 03:20:00,EDT,Other Renewables,256.0
08/04/2019 03:20:00,EDT,Wind,136.0
08/04/2019 03:20:00,EDT,Hydro,2039.0
08/04/2019 03:25:00,EDT,Dual Fuel,3315.0
08/04/2019 03:25:00,EDT,Natural Gas,2430.0
08/04/2019 03:25:00,EDT,Nuclear,5231.0
08/04/2019 03:25:00,EDT,Other Fossil Fuels,51.0
08/04/2019 03:25:00,EDT,Other Renewables,254.0
08/04/2019 03:25:00,EDT,Wind,131.0
08/04/2019 03:25:00,EDT,Hydro,2048.0
08/04/2019 03:30:00,EDT,Dual Fuel,3320.0
08/04/2019 03:30:00,EDT,Natural Gas,2431.0
08/04/2019 03:30:00,EDT,Nuclear,5232.0
08/04/2019 03:30:00,EDT,Other Fossil Fuels,50.0
08/04/2019 03:30:00,EDT,Other Renewables,248.0
08/04/2019 03:30:00,EDT,Wind,128.0
08/04/2019 03:30:00,EDT,Hydro,2035.0
08/04/2019 03:35:00,EDT,Dual Fuel,3316.0
08/04/2019 03:35:00,EDT,Natural Gas,2450.0
08/04/2019 03:35:00,EDT,Nuclear,5232.0
08/04/2019 03:35:00,EDT,Other Fossil Fuels,51.0
08/04/2019 03:35:00,EDT,Other Renewables,245.0
08/04/2019 03:35:00,EDT,Wind,125.0
08/04/2019 03:35:00,EDT,Hydro,2036.0
08/04/2019 03:40:00,EDT,Dual Fuel,3301.0
08/04/2019 03:40:00,EDT,Natural Gas,2470.0
08/04/2019 03:40:00,EDT,Nuclear,5233.0
08/04/2019 03:40:00,EDT,Other Fossil Fuels,51.0
08/04/2019 03:40:00,EDT,Other Renewables,250.0
08/04/2019 03:40:00,EDT,Wind,123.0
08/04/2019 03:40:00,EDT,Hydro,2038.0
08/04/2019 03:45:00,EDT,Dual Fuel,3261.0
08/04/2019 03:45:00,EDT,Natural Gas,2466.0
08/04/2019 03:45:00,EDT,Nuclear,5234.0
08/04/2019 03:45:00,EDT,Other Fossil Fuels,51.0
08/04/2019 03:45:00,EDT,Other Renewables,250.0
08/04/2019 03:45:00,EDT,Wind,125.0
08/04/2019 03:45:00,EDT,Hydro,2036.0
08/04/2019 03:50:00,EDT,Dual Fuel,3267.0
08/04/2019 03:50:00,EDT,Natural Gas,2473.0
08/04/2019 03:50:00,EDT,Nuclear,5233.0
08/04/2019 03:50:00,EDT,Other Fossil Fuels,51.0
08/04/2019 03:50:00,EDT,Other Renewables,251.0
08/04/2019 03:50:00,EDT,Wind,128.0
08/04/2019 03:50:00,EDT,Hydro,2039.0
08/04/2019 03:55:00,EDT,Dual Fuel,3271.0
08/04/2019 03:55:00,EDT,Natural Gas,2480.0
08/04/2019 03:55:00,EDT,Nuclear,5234.0
08/04/2019 03:55:00,EDT,Other Fossil Fuels,50.0
08/04/2019 03:55:00,EDT,Other Renewables,250.0
08/04/2019 03:55:00,EDT,Wind,133.0
08/04/2019 03:55:00,EDT,Hydro,2036.0
08/04/2019 04:00:00,EDT,Dual Fuel,3275.0
08/04/2019 04:00:00,EDT,Natural Gas,2468.0
08/04/2019 04:00:00,EDT,Nuclear,5236.0
08/04/2019 04:00:00,EDT,Other Fossil Fuels,51.0
08/04/2019 04:00:00,EDT,Other Renewables,250.0
08/04/2019 04:00:00,EDT,Wind,137.0
08/04/2019 04:00:00,EDT,Hydro,2032.0
08/04/2019 04:05:00,EDT,Dual Fuel,3296.0
08/04/2019 04:05:00,EDT,Natural Gas,2456.0
08/04/2019 04:05:00,EDT,Nuclear,5235.0
08/04/2019 04:05:00,EDT,Other Fossil Fuels,50.0
08/04/2019 04:05:00,EDT,Other Renewables,246.0
08/04/2019 04:05:00,EDT,Wind,138.0
08/04/2019 04:05:00,EDT,Hydro,2034.0
08/04/2019 04:10:00,EDT,Dual Fuel,3267.0
08/04/2019 04:10:00,EDT,Natural Gas,2453.0
08/04/2019 04:10:00,EDT,Nuclear,5234.0
08/04/2019 04:10:00,EDT,Other Fossil Fuels,50.0
08/04/2019 04:10:00,EDT,Other Renewables,245.0
08/04/2019 04:10:00,EDT,Wind,137.0
08/04/2019 04:10:00,EDT,Hydro,2026.0
08/04/2019 04:15:00,EDT,Dual Fuel,3232.0
08/04/2019 04:15:00,EDT,Natural Gas,2446.0
08/04/2019 04:15:00,EDT,Nuclear,5233.0
08/04/2019 04:15:00,EDT,Other Fossil Fuels,51.0
08/04/2019 04:15:00,EDT,Other Renewables,253.0
08/04/2019 04:15:00,EDT,Wind,138.0
08/04/2019 04:15:00,EDT,Hydro,2029.0
08/04/2019 04:20:00,EDT,Dual Fuel,3214.0
08/04/2019 04:20:00,EDT,Natural Gas,2444.0
08/04/2019 04:20:00,EDT,Nuclear,5234.0
08/04/2019 04:20:00,EDT,Other Fossil Fuels,51.0
08/04/2019 04:20:00,EDT,Other Renewables,253.0
08/04/2019 04:20:00,EDT,Wind,139.0
08/04/2019 04:20:00,EDT,Hydro,2023.0
08/04/2019 04:25:00,EDT,Dual Fuel,3204.0
08/04/2019 04:25:00,EDT,Natural Gas,2434.0
08/04/2019 04:25:00,EDT,Nuclear,5234.0
08/04/2019 04:25:00,EDT,Other Fossil Fuels,51.0
08/04/2019 04:25:00,EDT,Other Renewables,251.0
08/04/2019 04:25:00,EDT,Wind,131.0
08/04/2019 04:25:00,EDT,Hydro,2015.0
08/04/2019 04:30:00,EDT,Dual Fuel,3221.0
08/04/2019 04:30:00,EDT,Natural Gas,2417.0
08/04/2019 04:30:00,EDT,Nuclear,5234.0
08/04/2019 04:30:00,EDT,Other Fossil Fuels,50.0
08/04/2019 04:30:00,EDT,Other Renewables,249.0
08/04/2019 04:30:00,EDT,Wind,125.0
08/04/2019 04:30:00,EDT,Hydro,2025.0
08/04/2019 04:35:00,EDT,Dual Fuel,3240.0
08/04/2019 04:35:00,EDT,Natural Gas,2433.0
08/04/2019 04:35:00,EDT,Nuclear,5235.0
08/04/2019 04:35:00,EDT,Other Fossil Fuels,51.0
08/04/2019 04:35:00,EDT,Other Renewables,249.0
08/04/2019 04:35:00,EDT,Wind,124.0
08/04/2019 04:35:00,EDT,Hydro,2036.0
08/04/2019 04:40:00,EDT,Dual Fuel,3243.0
08/04/2019 04:40:00,EDT,Natural Gas,2441.0
08/04/2019 04:40:00,EDT,Nuclear,5236.0
08/04/2019 04:40:00,EDT,Other Fossil Fuels,51.0
08/04/2019 04:40:00,EDT,Other Renewables,249.0
08/04/2019 04:40:00,EDT,Wind,126.0
08/04/2019 04:40:00,EDT,Hydro,2024.0
08/04/2019 04:45:00,EDT,Dual Fuel,3245.0
08/04/2019 04:45:00,EDT,Natural Gas,2442.0
08/04/2019 04:45:00,EDT,Nuclear,5237.0
08/04/2019 04:45:00,EDT,Other Fossil Fuels,51.0
08/04/2019 04:45:00,EDT,Other Renewables,248.0
08/04/2019 04:45:00,EDT,Wind,129.0
08/04/2019 04:45:00,EDT,Hydro,2026.0
08/04/2019 04:50:00,EDT,Dual Fuel,3254.0
08/04/2019 04:50:00,EDT,Natural Gas,2457.0
08/04/2019 04:50:00,EDT,Nuclear,5236.0
08/04/2019 04:50:00,EDT,Other Fossil Fuels,50.0
08/04/2019 04:50:00,EDT,Other Renewables,254.0
08/04/2019 04:50:00,EDT,Wind,133.0
08/04/2019 04:50:00,EDT,Hydro,2026.0
08/04/2019 04:55:00,EDT,Dual Fuel,3234.0
08/04/2019 04:55:00,EDT,Natural Gas,2455.0
08/04/2019 04:55:00,EDT,Nuclear,5236.0
08/04/2019 04:55:00,EDT,Other Fossil Fuels,51.0
08/04/2019 04:55:00,EDT,Other Renewables,249.0
08/04/2019 04:55:00,EDT,Wind,137.0
08/04/2019 04:55:00,EDT,Hydro,2021.0
08/04/2019 05:00:00,EDT,Dual Fuel,3241.0
08/04/2019 05:00:00,EDT,Natural Gas,2452.0
08/04/2019 05:00:00,EDT,Nuclear,5237.0
08/04/2019 05:00:00,EDT,Other Fossil Fuels,51.0
08/04/2019 05:00:00,EDT,Other Renewables,255.0
08/04/2019 05:00:00,EDT,Wind,136.0
08/04/2019 05:00:00,EDT,Hydro,2028.0
08/04/2019 05:05:00,EDT,Dual Fuel,3308.0
08/04/2019 05:05:00,EDT,Natural Gas,2432.0
08/04/2019 05:05:00,EDT,Nuclear,5238.0
08/04/2019 05:05:00,EDT,Other Fossil Fuels,51.0
08/04/2019 05:05:00,EDT,Other Renewables,256.0
08/04/2019 05:05:00,EDT,Wind,134.0
08/04/2019 05:05:00,EDT,Hydro,2030.0
08/04/2019 05:10:00,EDT,Dual Fuel,3323.0
08/04/2019 05:10:00,EDT,Natural Gas,2416.0
08/04/2019 05:10:00,EDT,Nuclear,5237.0
08/04/2019 05:10:00,EDT,Other Fossil Fuels,50.0
08/04/2019 05:10:00,EDT,Other Renewables,256.0
08/04/2019 05:10:00,EDT,Wind,132.0
08/04/2019 05:10:00,EDT,Hydro,2027.0
08/04/2019 05:15:00,EDT,Dual Fuel,3349.0
08/04/2019 05:15:00,EDT,Natural Gas,2435.0
08/04/2019 05:15:00,EDT,Nuclear,5238.0
08/04/2019 05:15:00,EDT,Other Fossil Fuels,51.0
08/04/2019 05:15:00,EDT,Other Renewables,249.0
08/04/2019 05:15:00,EDT,Wind,126.0
08/04/2019 05:15:00,EDT,Hydro,2026.0
08/04/2019 05:20:00,EDT,Dual Fuel,3372.0
08/04/2019 05:20:00,EDT,Natural Gas,2445.0
08/04/2019 05:20:00,EDT,Nuclear,5240.0
08/04/2019 05:20:00,EDT,Other Fossil Fuels,51.0
08/04/2019 05:20:00,EDT,Other Renewables,252.0
08/04/2019 05:20:00,EDT,Wind,119.0
08/04/2019 05:20:00,EDT,Hydro,2025.0
08/04/2019 05:25:00,EDT,Dual Fuel,3388.0
08/04/2019 05:25:00,EDT,Natural Gas,2445.0
08/04/2019 05:25:00,EDT,Nuclear,5239.0
08/04/2019 05:25:00,EDT,Other Fossil Fuels,51.0
08/04/2019 05:25:00,EDT,Other Renewables,251.0
08/04/2019 05:25:00,EDT,Wind,112.0
08/04/2019 05:25:00,EDT,Hydro,2017.0
08/04/2019 05:30:00,EDT,Dual Fuel,3399.0
08/04/2019 05:30:00,EDT,Natural Gas,2453.0
08/04/2019 05:30:00,EDT,Nuclear,5240.0
08/04/2019 05:30:00,EDT,Other Fossil Fuels,51.0
08/04/2019 05:30:00,EDT,Other Renewables,248.0
08/04/2019 05:30:00,EDT,Wind,104.0
08/04/2019 05:30:00,EDT,Hydro,2019.0
08/04/2019 05:35:00,EDT,Dual Fuel,3351.0
08/04/2019 05:35:00,EDT,Natural Gas,2452.0
08/04/2019 05:35:00,EDT,Nuclear,5238.0
08/04/2019 05:35:00,EDT,Other Fossil Fuels,50.0
08/04/2019 05:35:00,EDT,Other Renewables,253.0
08/04/2019 05:35:00,EDT,Wind,99.0
08/04/2019 05:35:00,EDT,Hydro,2025.0
08/04/2019 05:40:00,EDT,Dual Fuel,3355.0
08/04/2019 05:40:00,EDT,Natural Gas,2475.0
08/04/2019 05:40:00,EDT,Nuclear,5238.0
08/04/2019 05:40:00,EDT,Other Fossil Fuels,51.0
08/04/2019 05:40:00,EDT,Other Renewables,253.0
08/04/2019 05:40:00,EDT,Wind,95.0
08/04/2019 05:40:00,EDT,Hydro,2019.0
08/04/2019 05:45:00,EDT,Dual Fuel,3362.0
08/04/2019 05:45:00,EDT,Natural Gas,2462.0
08/04/2019 05:45:00,EDT,Nuclear,5237.0
08/04/2019 05:45:00,EDT,Other Fossil Fuels,50.0
08/04/2019 05:45:00,EDT,Other Renewables,248.0
08/04/2019 05:45:00,EDT,Wind,95.0
08/04/2019 05:45:00,EDT,Hydro,2019.0
08/04/2019 05:50:00,EDT,Dual Fuel,3330.0
08/04/2019 05:50:00,EDT,Natural Gas,2405.0
08/04/2019 05:50:00,EDT,Nuclear,5240.0
08/04/2019 05:50:00,EDT,Other Fossil Fuels,51.0
08/04/2019 05:50:00,EDT,Other Renewables,247.0
08/04/2019 05:50:00,EDT,Wind,94.0
08/04/2019 05:50:00,EDT,Hydro,2015.0
08/04/2019 05:55:00,EDT,Dual Fuel,3336.0
08/04/2019 05:55:00,EDT,Natural Gas,2383.0
08/04/2019 05:55:00,EDT,Nuclear,5241.0
08/04/2019 05:55:00,EDT,Other Fossil Fuels,51.0
08/04/2019 05:55:00,EDT,Other Renewables,249.0
08/04/2019 05:55:00,EDT,Wind,90.0
08/04/2019 05:55:00,EDT,Hydro,2018.0
08/04/2019 06:00:00,EDT,Dual Fuel,3313.0
08/04/2019 06:00:00,EDT,Natural Gas,2359.0
08/04/2019 06:00:00,EDT,Nuclear,5243.0
08/04/2019 06:00:00,EDT,Other Fossil Fuels,51.0
08/04/2019 06:00:00,EDT,Other Renewables,251.0
08/04/2019 06:00:00,EDT,Wind,87.0
08/04/2019 06:00:00,EDT,Hydro,2014.0
08/04/2019 06:05:00,EDT,Dual Fuel,3282.0
08/04/2019 06:05:00,EDT,Natural Gas,2358.0
08/04/2019 06:05:00,EDT,Nuclear,5243.0
08/04/2019 06:05:00,EDT,Other Fossil Fuels,50.0
08/04/2019 06:05:00,EDT,Other Renewables,250.0
08/04/2019 06:05:00,EDT,Wind,88.0
08/04/2019 06:05:00,EDT,Hydro,2083.0
08/04/2019 06:10:00,EDT,Dual Fuel,3259.0
08/04/2019 06:10:00,EDT,Natural Gas,2342.0
08/04/2019 06:10:00,EDT,Nuclear,5244.0
08/04/2019 06:10:00,EDT,Other Fossil Fuels,50.0
08/04/2019 06:10:00,EDT,Other Renewables,250.0
08/04/2019 06:10:00,EDT,Wind,90.0
08/04/2019 06:10:00,EDT,Hydro,2072.0
08/04/2019 06:15:00,EDT,Dual Fuel,3238.0
08/04/2019 06:15:00,EDT,Natural Gas,2339.0
08/04/2019 06:15:00,EDT,Nuclear,5247.0
08/04/2019 06:15:00,EDT,Other Fossil Fuels,51.0
08/04/2019 06:15:00,EDT,Other Renewables,249.0
08/04/2019 06:15:00,EDT,Wind,100.0
08/04/2019 06:15:00,EDT,Hydro,2069.0
08/04/2019 06:20:00,EDT,Dual Fuel,3228.0
08/04/2019 06:20:00,EDT,Natural Gas,2348.0
08/04/2019 06:20:00,EDT,Nuclear,5247.0
08/04/2019 06:20:00,EDT,Other Fossil Fuels,51.0
08/04/2019 06:20:00,EDT,Other Renewables,253.0
08/04/2019 06:20:00,EDT,Wind,108.0
08/04/2019 06:20:00,EDT,Hydro,2069.0
08/04/2019 06:25:00,EDT,Dual Fuel,3206.0
08/04/2019 06:25:00,EDT,Natural Gas,2358.0
08/04/2019 06:25:00,EDT,Nuclear,5247.0
08/04/2019 06:25:00,EDT,Other Fossil Fuels,51.0
08/04/2019 06:25:00,EDT,Other Renewables,254.0
08/04/2019 06:25:00,EDT,Wind,111.0
08/04/2019 06:25:00,EDT,Hydro,2067.0
08/04/2019 06:30:00,EDT,Dual Fuel,3188.0
08/04/2019 06:30:00,EDT,Natural Gas,2404.0
08/04/2019 06:30:00,EDT,Nuclear,5249.0
08/04/2019 06:30:00,EDT,Other Fossil Fuels,50.0
08/04/2019 06:30:00,EDT,Other Renewables,256.0
08/04/2019 06:30:00,EDT,Wind,119.0
08/04/2019 06:30:00,EDT,Hydro,2064.0
08/04/2019 06:35:00,EDT,Dual Fuel,3169.0
08/04/2019 06:35:00,EDT,Natural Gas,2428.0
08/04/2019 06:35:00,EDT,Nuclear,5249.0
08/04/2019 06:35:00,EDT,Other Fossil Fuels,51.0
08/04/2019 06:35:00,EDT,Other Renewables,254.0
08/04/2019 06:35:00,EDT,Wind,122.0
08/04/2019 06:35:00,EDT,Hydro,1992.0
08/04/2019 06:40:00,EDT,Dual Fuel,3189.0
08/04/2019 06:40:00,EDT,Natural Gas,2473.0
08/04/2019 06:40:00,EDT,Nuclear,5250.0
08/04/2019 06:40:00,EDT,Other Fossil Fuels,50.0
08/04/2019 06:40:00,EDT,Other Renewables,254.0
08/04/2019 06:40:00,EDT,Wind,124.0
08/04/2019 06:40:00,EDT,Hydro,1988.0
08/04/2019 06:45:00,EDT,Dual Fuel,3188.0
08/04/2019 06:45:00,EDT,Natural Gas,2492.0
08/04/2019 06:45:00,EDT,Nuclear,5252.0
08/04/2019 06:45:00,EDT,Other Fossil Fuels,51.0
08/04/2019 06:45:00,EDT,Other Renewables,251.0
08/04/2019 06:45:00,EDT,Wind,126.0
08/04/2019 06:45:00,EDT,Hydro,1994.0
08/04/2019 06:50:00,EDT,Dual Fuel,3171.0
08/04/2019 06:50:00,EDT,Natural Gas,2611.0
08/04/2019 06:50:00,EDT,Nuclear,5253.0
08/04/2019 06:50:00,EDT,Other Fossil Fuels,51.0
08/04/2019 06:50:00,EDT,Other Renewables,253.0
08/04/2019 06:50:00,EDT,Wind,124.0
08/04/2019 06:50:00,EDT,Hydro,1959.0
08/04/2019 06:55:00,EDT,Dual Fuel,3157.0
08/04/2019 06:55:00,EDT,Natural Gas,2672.0
08/04/2019 06:55:00,EDT,Nuclear,5254.0
08/04/2019 06:55:00,EDT,Other Fossil Fuels,51.0
08/04/2019 06:55:00,EDT,Other Renewables,254.0
08/04/2019 06:55:00,EDT,Wind,116.0
08/04/2019 06:55:00,EDT,Hydro,1947.0
08/04/2019 07:00:00,EDT,Dual Fuel,3090.0
08/04/2019 07:00:00,EDT,Natural Gas,2714.0
08/04/2019 07:00:00,EDT,Nuclear,5254.0
08/04/2019 07:00:00,EDT,Other Fossil Fuels,50.0
08/04/2019 07:00:00,EDT,Other Renewables,255.0
08/04/2019 07:00:00,EDT,Wind,104.0
08/04/2019 07:00:00,EDT,Hydro,2025.0
08/04/2019 07:05:00,EDT,Dual Fuel,3073.0
08/04/2019 07:05:00,EDT,Natural Gas,2823.0
08/04/2019 07:05:00,EDT,Nuclear,5255.0
08/04/2019 07:05:00,EDT,Other Fossil Fuels,50.0
08/04/2019 07:05:00,EDT,Other Renewables,257.0
08/04/2019 07:05:00,EDT,Wind,97.0
08/04/2019 07:05:00,EDT,Hydro,2212.0
08/04/2019 07:10:00,EDT,Dual Fuel,3154.0
08/04/2019 07:10:00,EDT,Natural Gas,2895.0
08/04/2019 07:10:00,EDT,Nuclear,5254.0
08/04/2019 07:10:00,EDT,Other Fossil Fuels,51.0
08/04/2019 07:10:00,EDT,Other Renewables,252.0
08/04/2019 07:10:00,EDT,Wind,90.0
08/04/2019 07:10:00,EDT,Hydro,2298.0
08/04/2019 07:15:00,EDT,Dual Fuel,3211.0
08/04/2019 07:15:00,EDT,Natural Gas,2910.0
08/04/2019 07:15:00,EDT,Nuclear,5254.0
08/04/2019 07:15:00,EDT,Other Fossil Fuels,50.0
08/04/2019 07:15:00,EDT,Other Renewables,253.0
08/04/2019 07:15:00,EDT,Wind,82.0
08/04/2019 07:15:00,EDT,Hydro,2333.0
08/04/2019 07:20:00,EDT,Dual Fuel,3214.0
08/04/2019 07:20:00,EDT,Natural Gas,2978.0
08/04/2019 07:20:00,EDT,Nuclear,5255.0
08/04/2019 07:20:00,EDT,Other Fossil Fuels,51.0
08/04/2019 07:20:00,EDT,Other Renewables,256.0
08/04/2019 07:20:00,EDT,Wind,70.0
08/04/2019 07:20:00,EDT,Hydro,2315.0
08/04/2019 07:25:00,EDT,Dual Fuel,3249.0
08/04/2019 07:25:00,EDT,Natural Gas,3029.0
08/04/2019 07:25:00,EDT,Nuclear,5253.0
08/04/2019 07:25:00,EDT,Other Fossil Fuels,51.0
08/04/2019 07:25:00,EDT,Other Renewables,254.0
08/04/2019 07:25:00,EDT,Wind,61.0
08/04/2019 07:25:00,EDT,Hydro,2320.0
08/04/2019 07:30:00,EDT,Dual Fuel,3295.0
08/04/2019 07:30:00,EDT,Natural Gas,3074.0
08/04/2019 07:30:00,EDT,Nuclear,5253.0
08/04/2019 07:30:00,EDT,Other Fossil Fuels,51.0
08/04/2019 07:30:00,EDT,Other Renewables,255.0
08/04/2019 07:30:00,EDT,Wind,53.0
08/04/2019 07:30:00,EDT,Hydro,2313.0
08/04/2019 07:35:00,EDT,Dual Fuel,3313.0
08/04/2019 07:35:00,EDT,Natural Gas,3092.0
08/04/2019 07:35:00,EDT,Nuclear,5253.0
08/04/2019 07:35:00,EDT,Other Fossil Fuels,50.0
08/04/2019 07:35:00,EDT,Other Renewables,256.0
08/04/2019 07:35:00,EDT,Wind,49.0
08/04/2019 07:35:00,EDT,Hydro,2320.0
08/04/2019 07:40:00,EDT,Dual Fuel,3293.0
08/04/2019 07:40:00,EDT,Natural Gas,3135.0
08/04/2019 07:40:00,EDT,Nuclear,5252.0
08/04/2019 07:40:00,EDT,Other Fossil Fuels,51.0
08/04/2019 07:40:00,EDT,Other Renewables,254.0
08/04/2019 07:40:00,EDT,Wind,46.0
08/04/2019 07:40:00,EDT,Hydro,2311.0
08/04/2019 07:45:00,EDT,Dual Fuel,3272.0
08/04/2019 07:45:00,EDT,Natural Gas,3211.0
08/04/2019 07:45:00,EDT,Nuclear,5254.0
08/04/2019 07:45:00,EDT,Other Fossil Fuels,51.0
08/04/2019 07:45:00,EDT,Other Renewables,253.0
08/04/2019 07:45:00,EDT,Wind,42.0
08/04/2019 07:45:00,EDT,Hydro,2306.0
08/04/2019 07:50:00,EDT,Dual Fuel,3262.0
08/04/2019 07:50:00,EDT,Natural Gas,3262.0
08/04/2019 07:50:00,EDT,Nuclear,5254.0
08/04/2019 07:50:00,EDT,Other Fossil Fuels,50.0
08/04/2019 07:50:00,EDT,Other Renewables,259.0
08/04/2019 07:50:00,EDT,Wind,39.0
08/04/2019 07:50:00,EDT,Hydro,2302.0
08/04/2019 07:55:00,EDT,Dual Fuel,3302.0
08/04/2019 07:55:00,EDT,Natural Gas,3323.0
08/04/2019 07:55:00,EDT,Nuclear,5253.0
08/04/2019 07:55:00,EDT,Other Fossil Fuels,51.0
08/04/2019 07:55:00,EDT,Other Renewables,259.0
08/04/2019 07:55:00,EDT,Wind,35.0
08/04/2019 07:55:00,EDT,Hydro,2309.0
08/04/2019 08:00:00,EDT,Dual Fuel,3349.0
08/04/2019 08:00:00,EDT,Natural Gas,3338.0
08/04/2019 08:00:00,EDT,Nuclear,5254.0
08/04/2019 08:00:00,EDT,Other Fossil Fuels,50.0
08/04/2019 08:00:00,EDT,Other Renewables,258.0
08/04/2019 08:00:00,EDT,Wind,31.0
08/04/2019 08:00:00,EDT,Hydro,2349.0
08/04/2019 08:05:00,EDT,Dual Fuel,3298.0
08/04/2019 08:05:00,EDT,Natural Gas,3279.0
08/04/2019 08:05:00,EDT,Nuclear,5254.0
08/04/2019 08:05:00,EDT,Other Fossil Fuels,51.0
08/04/2019 08:05:00,EDT,Other Renewables,259.0
08/04/2019 08:05:00,EDT,Wind,28.0
08/04/2019 08:05:00,EDT,Hydro,2418.0
08/04/2019 08:10:00,EDT,Dual Fuel,3285.0
08/04/2019 08:10:00,EDT,Natural Gas,3288.0
08/04/2019 08:10:00,EDT,Nuclear,5252.0
08/04/2019 08:10:00,EDT,Other Fossil Fuels,51.0
08/04/2019 08:10:00,EDT,Other Renewables,260.0
08/04/2019 08:10:00,EDT,Wind,28.0
08/04/2019 08:10:00,EDT,Hydro,2465.0
08/04/2019 08:15:00,EDT,Dual Fuel,3253.0
08/04/2019 08:15:00,EDT,Natural Gas,3284.0
08/04/2019 08:15:00,EDT,Nuclear,5253.0
08/04/2019 08:15:00,EDT,Other Fossil Fuels,80.0
08/04/2019 08:15:00,EDT,Other Renewables,260.0
08/04/2019 08:15:00,EDT,Wind,26.0
08/04/2019 08:15:00,EDT,Hydro,2573.0
08/04/2019 08:20:00,EDT,Dual Fuel,3248.0
08/04/2019 08:20:00,EDT,Natural Gas,3306.0
08/04/2019 08:20:00,EDT,Nuclear,5253.0
08/04/2019 08:20:00,EDT,Other Fossil Fuels,100.0
08/04/2019 08:20:00,EDT,Other Renewables,260.0
08/04/2019 08:20:00,EDT,Wind,25.0
08/04/2019 08:20:00,EDT,Hydro,2641.0
08/04/2019 08:25:00,EDT,Dual Fuel,3261.0
08/04/2019 08:25:00,EDT,Natural Gas,3358.0
08/04/2019 08:25:00,EDT,Nuclear,5253.0
08/04/2019 08:25:00,EDT,Other Fossil Fuels,101.0
08/04/2019 08:25:00,EDT,Other Renewables,262.0
08/04/2019 08:25:00,EDT,Wind,25.0
08/04/2019 08:25:00,EDT,Hydro,2670.0
08/04/2019 08:30:00,EDT,Dual Fuel,3313.0
08/04/2019 08:30:00,EDT,Natural Gas,3399.0
08/04/2019 08:30:00,EDT,Nuclear,5254.0
08/04/2019 08:30:00,EDT,Other Fossil Fuels,101.0
08/04/2019 08:30:00,EDT,Other Renewables,265.0
08/04/2019 08:30:00,EDT,Wind,25.0
08/04/2019 08:30:00,EDT,Hydro,2679.0
08/04/2019 08:35:00,EDT,Dual Fuel,3315.0
08/04/2019 08:35:00,EDT,Natural Gas,3388.0
08/04/2019 08:35:00,EDT,Nuclear,5255.0
08/04/2019 08:35:00,EDT,Other Fossil Fuels,101.0
08/04/2019 08:35:00,EDT,Other Renewables,267.0
08/04/2019 08:35:00,EDT,Wind,25.0
08/04/2019 08:35:00,EDT,Hydro,2676.0
08/04/2019 08:40:00,EDT,Dual Fuel,3342.0
08/04/2019 08:40:00,EDT,Natural Gas,3407.0
08/04/2019 08:40:00,EDT,Nuclear,5253.0
08/04/2019 08:40:00,EDT,Other Fossil Fuels,100.0
08/04/2019 08:40:00,EDT,Other Renewables,265.0
08/04/2019 08:40:00,EDT,Wind,22.0
08/04/2019 08:40:00,EDT,Hydro,2712.0
08/04/2019 08:45:00,EDT,Dual Fuel,3340.0
08/04/2019 08:45:00,EDT,Natural Gas,3429.0
08/04/2019 08:45:00,EDT,Nuclear,5255.0
08/04/2019 08:45:00,EDT,Other Fossil Fuels,101.0
08/04/2019 08:45:00,EDT,Other Renewables,266.0
08/04/2019 08:45:00,EDT,Wind,17.0
08/04/2019 08:45:00,EDT,Hydro,2809.0
08/04/2019 08:50:00,EDT,Dual Fuel,3349.0
08/04/2019 08:50:00,EDT,Natural Gas,3458.0
08/04/2019 08:50:00,EDT,Nuclear,5253.0
08/04/2019 08:50:00,EDT,Other Fossil Fuels,100.0
08/04/2019 08:50:00,EDT,Other Renewables,266.0
08/04/2019 08:50:00,EDT,Wind,14.0
08/04/2019 08:50:00,EDT,Hydro,2848.0
08/04/2019 08:55:00,EDT,Dual Fuel,3372.0
08/04/2019 08:55:00,EDT,Natural Gas,3483.0
08/04/2019 08:55:00,EDT,Nuclear,5256.0
08/04/2019 08:55:00,EDT,Other Fossil Fuels,101.0
08/04/2019 08:55:00,EDT,Other Renewables,269.0
08/04/2019 08:55:00,EDT,Wind,12.0
08/04/2019 08:55:00,EDT,Hydro,2836.0
08/04/2019 09:00:00,EDT,Dual Fuel,3423.0
08/04/2019 09:00:00,EDT,Natural Gas,3601.0
08/04/2019 09:00:00,EDT,Nuclear,5255.0
08/04/2019 09:00:00,EDT,Other Fossil Fuels,101.0
08/04/2019 09:00:00,EDT,Other Renewables,271.0
08/04/2019 09:00:00,EDT,Wind,9.0
08/04/2019 09:00:00,EDT,Hydro,2737.0
08/04/2019 09:05:00,EDT,Dual Fuel,3460.0
08/04/2019 09:05:00,EDT,Natural Gas,3656.0
08/04/2019 09:05:00,EDT,Nuclear,5254.0
08/04/2019 09:05:00,EDT,Other Fossil Fuels,101.0
08/04/2019 09:05:00,EDT,Other Renewables,268.0
08/04/2019 09:05:00,EDT,Wind,9.0
08/04/2019 09:05:00,EDT,Hydro,2597.0
08/04/2019 09:10:00,EDT,Dual Fuel,3502.0
08/04/2019 09:10:00,EDT,Natural Gas,3659.0
08/04/2019 09:10:00,EDT,Nuclear,5254.0
08/04/2019 09:10:00,EDT,Other Fossil Fuels,101.0
08/04/2019 09:10:00,EDT,Other Renewables,265.0
08/04/2019 09:10:00,EDT,Wind,9.0
08/04/2019 09:10:00,EDT,Hydro,2574.0
08/04/2019 09:15:00,EDT,Dual Fuel,3533.0
08/04/2019 09:15:00,EDT,Natural Gas,3651.0
08/04/2019 09:15:00,EDT,Nuclear,5253.0
08/04/2019 09:15:00,EDT,Other Fossil Fuels,100.0
08/04/2019 09:15:00,EDT,Other Renewables,268.0
08/04/2019 09:15:00,EDT,Wind,8.0
08/04/2019 09:15:00,EDT,Hydro,2640.0
08/04/2019 09:20:00,EDT,Dual Fuel,3551.0
08/04/2019 09:20:00,EDT,Natural Gas,3623.0
08/04/2019 09:20:00,EDT,Nuclear,5254.0
08/04/2019 09:20:00,EDT,Other Fossil Fuels,101.0
08/04/2019 09:20:00,EDT,Other Renewables,270.0
08/04/2019 09:20:00,EDT,Wind,8.0
08/04/2019 09:20:00,EDT,Hydro,2625.0
08/04/2019 09:25:00,EDT,Dual Fuel,3558.0
08/04/2019 09:25:00,EDT,Natural Gas,3634.0
08/04/2019 09:25:00,EDT,Nuclear,5254.0
08/04/2019 09:25:00,EDT,Other Fossil Fuels,101.0
08/04/2019 09:25:00,EDT,Other Renewables,268.0
08/04/2019 09:25:00,EDT,Wind,9.0
08/04/2019 09:25:00,EDT,Hydro,2642.0
08/04/2019 09:30:00,EDT,Dual Fuel,3581.0
08/04/2019 09:30:00,EDT,Natural Gas,3649.0
08/04/2019 09:30:00,EDT,Nuclear,5254.0
08/04/2019 09:30:00,EDT,Other Fossil Fuels,101.0
08/04/2019 09:30:00,EDT,Other Renewables,271.0
08/04/2019 09:30:00,EDT,Wind,10.0
08/04/2019 09:30:00,EDT,Hydro,2681.0
08/04/2019 09:35:00,EDT,Dual Fuel,3597.0
08/04/2019 09:35:00,EDT,Natural Gas,3670.0
08/04/2019 09:35:00,EDT,Nuclear,5255.0
08/04/2019 09:35:00,EDT,Other Fossil Fuels,107.0
08/04/2019 09:35:00,EDT,Other Renewables,270.0
08/04/2019 09:35:00,EDT,Wind,11.0
08/04/2019 09:35:00,EDT,Hydro,2734.0
08/04/2019 09:40:00,EDT,Dual Fuel,3599.0
08/04/2019 09:40:00,EDT,Natural Gas,3655.0
08/04/2019 09:40:00,EDT,Nuclear,5255.0
08/04/2019 09:40:00,EDT,Other Fossil Fuels,117.0
08/04/2019 09:40:00,EDT,Other Renewables,270.0
08/04/2019 09:40:00,EDT,Wind,14.0
08/04/2019 09:40:00,EDT,Hydro,2808.0
08/04/2019 09:45:00,EDT,Dual Fuel,3624.0
08/04/2019 09:45:00,EDT,Natural Gas,3660.0
08/04/2019 09:45:00,EDT,Nuclear,5256.0
08/04/2019 09:45:00,EDT,Other Fossil Fuels,116.0
08/04/2019 09:45:00,EDT,Other Renewables,273.0
08/04/2019 09:45:00,EDT,Wind,15.0
08/04/2019 09:45:00,EDT,Hydro,2888.0
08/04/2019 09:50:00,EDT,Dual Fuel,3680.0
08/04/2019 09:50:00,EDT,Natural Gas,3673.0
08/04/2019 09:50:00,EDT,Nuclear,5258.0
08/04/2019 09:50:00,EDT,Other Fossil Fuels,117.0
08/04/2019 09:50:00,EDT,Other Renewables,269.0
08/04/2019 09:50:00,EDT,Wind,14.0
08/04/2019 09:50:00,EDT,Hydro,2922.0
08/04/2019 09:55:00,EDT,Dual Fuel,3736.0
08/04/2019 09:55:00,EDT,Natural Gas,3695.0
08/04/2019 09:55:00,EDT,Nuclear,5261.0
08/04/2019 09:55:00,EDT,Other Fossil Fuels,117.0
08/04/2019 09:55:00,EDT,Other Renewables,275.0
08/04/2019 09:55:00,EDT,Wind,14.0
08/04/2019 09:55:00,EDT,Hydro,2985.0
08/04/2019 10:00:00,EDT,Dual Fuel,3719.0
08/04/2019 10:00:00,EDT,Natural Gas,3719.0
08/04/2019 10:00:00,EDT,Nuclear,5259.0
08/04/2019 10:00:00,EDT,Other Fossil Fuels,117.0
08/04/2019 10:00:00,EDT,Other Renewables,274.0
08/04/2019 10:00:00,EDT,Wind,14.0
08/04/2019 10:00:00,EDT,Hydro,3115.0
08/04/2019 10:05:00,EDT,Dual Fuel,3665.0
08/04/2019 10:05:00,EDT,Natural Gas,3766.0
08/04/2019 10:05:00,EDT,Nuclear,5260.0
08/04/2019 10:05:00,EDT,Other Fossil Fuels,117.0
08/04/2019 10:05:00,EDT,Other Renewables,274.0
08/04/2019 10:05:00,EDT,Wind,16.0
08/04/2019 10:05:00,EDT,Hydro,3260.0
08/04/2019 10:10:00,EDT,Dual Fuel,3764.0
08/04/2019 10:10:00,EDT,Natural Gas,3787.0
08/04/2019 10:10:00,EDT,Nuclear,5258.0
08/04/2019 10:10:00,EDT,Other Fossil Fuels,116.0
08/04/2019 10:10:00,EDT,Other Renewables,275.0
08/04/2019 10:10:00,EDT,Wind,20.0
08/04/2019 10:10:00,EDT,Hydro,3263.0
08/04/2019 10:15:00,EDT,Dual Fuel,3838.0
08/04/2019 10:15:00,EDT,Natural Gas,3790.0
08/04/2019 10:15:00,EDT,Nuclear,5260.0
08/04/2019 10:15:00,EDT,Other Fossil Fuels,117.0
08/04/2019 10:15:00,EDT,Other Renewables,277.0
08/04/2019 10:15:00,EDT,Wind,26.0
08/04/2019 10:15:00,EDT,Hydro,3271.0
08/04/2019 10:20:00,EDT,Dual Fuel,3874.0
08/04/2019 10:20:00,EDT,Natural Gas,3800.0
08/04/2019 10:20:00,EDT,Nuclear,5260.0
08/04/2019 10:20:00,EDT,Other Fossil Fuels,116.0
08/04/2019 10:20:00,EDT,Other Renewables,273.0
08/04/2019 10:20:00,EDT,Wind,39.0
08/04/2019 10:20:00,EDT,Hydro,3260.0
08/04/2019 10:25:00,EDT,Dual Fuel,3895.0
08/04/2019 10:25:00,EDT,Natural Gas,3814.0
08/04/2019 10:25:00,EDT,Nuclear,5259.0
08/04/2019 10:25:00,EDT,Other Fossil Fuels,117.0
08/04/2019 10:25:00,EDT,Other Renewables,275.0
08/04/2019 10:25:00,EDT,Wind,49.0
08/04/2019 10:25:00,EDT,Hydro,3259.0
08/04/2019 10:30:00,EDT,Dual Fuel,3937.0
08/04/2019 10:30:00,EDT,Natural Gas,3841.0
08/04/2019 10:30:00,EDT,Nuclear,5260.0
08/04/2019 10:30:00,EDT,Other Fossil Fuels,117.0
08/04/2019 10:30:00,EDT,Other Renewables,278.0
08/04/2019 10:30:00,EDT,Wind,58.0
08/04/2019 10:30:00,EDT,Hydro,3260.0
08/04/2019 10:35:00,EDT,Dual Fuel,4006.0
08/04/2019 10:35:00,EDT,Natural Gas,3853.0
08/04/2019 10:35:00,EDT,Nuclear,5261.0
08/04/2019 10:35:00,EDT,Other Fossil Fuels,117.0
08/04/2019 10:35:00,EDT,Other Renewables,275.0
08/04/2019 10:35:00,EDT,Wind,64.0
08/04/2019 10:35:00,EDT,Hydro,3258.0
08/04/2019 10:40:00,EDT,Dual Fuel,4074.0
08/04/2019 10:40:00,EDT,Natural Gas,3857.0
08/04/2019 10:40:00,EDT,Nuclear,5262.0
08/04/2019 10:40:00,EDT,Other Fossil Fuels,117.0
08/04/2019 10:40:00,EDT,Other Renewables,275.0
08/04/2019 10:40:00,EDT,Wind,68.0
08/04/2019 10:40:00,EDT,Hydro,3258.0
08/04/2019 10:45:00,EDT,Dual Fuel,4147.0
08/04/2019 10:45:00,EDT,Natural Gas,3857.0
08/04/2019 10:45:00,EDT,Nuclear,5261.0
08/04/2019 10:45:00,EDT,Other Fossil Fuels,117.0
08/04/2019 10:45:00,EDT,Other Renewables,273.0
08/04/2019 10:45:00,EDT,Wind,68.0
08/04/2019 10:45:00,EDT,Hydro,3256.0
08/04/2019 10:50:00,EDT,Dual Fuel,4140.0
08/04/2019 10:50:00,EDT,Natural Gas,3852.0
08/04/2019 10:50:00,EDT,Nuclear,5262.0
08/04/2019 10:50:00,EDT,Other Fossil Fuels,117.0
08/04/2019 10:50:00,EDT,Other Renewables,279.0
08/04/2019 10:50:00,EDT,Wind,65.0
08/04/2019 10:50:00,EDT,Hydro,3258.0
08/04/2019 10:55:00,EDT,Dual Fuel,4170.0
08/04/2019 10:55:00,EDT,Natural Gas,3848.0
08/04/2019 10:55:00,EDT,Nuclear,5262.0
08/04/2019 10:55:00,EDT,Other Fossil Fuels,117.0
08/04/2019 10:55:00,EDT,Other Renewables,279.0
08/04/2019 10:55:00,EDT,Wind,61.0
08/04/2019 10:55:00,EDT,Hydro,3256.0
08/04/2019 11:00:00,EDT,Dual Fuel,4239.0
08/04/2019 11:00:00,EDT,Natural Gas,3869.0
08/04/2019 11:00:00,EDT,Nuclear,5263.0
08/04/2019 11:00:00,EDT,Other Fossil Fuels,116.0
08/04/2019 11:00:00,EDT,Other Renewables,279.0
08/04/2019 11:00:00,EDT,Wind,58.0
08/04/2019 11:00:00,EDT,Hydro,3255.0
08/04/2019 11:05:00,EDT,Dual Fuel,4260.0
08/04/2019 11:05:00,EDT,Natural Gas,3899.0
08/04/2019 11:05:00,EDT,Nuclear,5263.0
08/04/2019 11:05:00,EDT,Other Fossil Fuels,123.0
08/04/2019 11:05:00,EDT,Other Renewables,279.0
08/04/2019 11:05:00,EDT,Wind,56.0
08/04/2019 11:05:00,EDT,Hydro,3260.0
08/04/2019 11:10:00,EDT,Dual Fuel,4318.0
08/04/2019 11:10:00,EDT,Natural Gas,3930.0
08/04/2019 11:10:00,EDT,Nuclear,5262.0
08/04/2019 11:10:00,EDT,Other Fossil Fuels,124.0
08/04/2019 11:10:00,EDT,Other Renewables,279.0
08/04/2019 11:10:00,EDT,Wind,53.0
08/04/2019 11:10:00,EDT,Hydro,3260.0
08/04/2019 11:15:00,EDT,Dual Fuel,4369.0
08/04/2019 11:15:00,EDT,Natural Gas,3954.0
08/04/2019 11:15:00,EDT,Nuclear,5263.0
08/04/2019 11:15:00,EDT,Other Fossil Fuels,124.0
08/04/2019 11:15:00,EDT,Other Renewables,278.0
08/04/2019 11:15:00,EDT,Wind,53.0
08/04/2019 11:15:00,EDT,Hydro,3266.0
08/04/2019 11:20:00,EDT,Dual Fuel,4352.0
08/04/2019 11:20:00,EDT,Natural Gas,3955.0
08/04/2019 11:20:00,EDT,Nuclear,5263.0
08/04/2019 11:20:00,EDT,Other Fossil Fuels,124.0
08/04/2019 11:20:00,EDT,Other Renewables,280.0
08/04/2019 11:20:00,EDT,Wind,51.0
08/04/2019 11:20:00,EDT,Hydro,3256.0
08/04/2019 11:25:00,EDT,Dual Fuel,4402.0
08/04/2019 11:25:00,EDT,Natural Gas,3954.0
08/04/2019 11:25:00,EDT,Nuclear,5265.0
08/04/2019 11:25:00,EDT,Other Fossil Fuels,123.0
08/04/2019 11:25:00,EDT,Other Renewables,283.0
08/04/2019 11:25:00,EDT,Wind,52.0
08/04/2019 11:25:00,EDT,Hydro,3253.0
08/04/2019 11:30:00,EDT,Dual Fuel,4429.0
08/04/2019 11:30:00,EDT,Natural Gas,3969.0
08/04/2019 11:30:00,EDT,Nuclear,5264.0
08/04/2019 11:30:00,EDT,Other Fossil Fuels,123.0
08/04/2019 11:30:00,EDT,Other Renewables,286.0
08/04/2019 11:30:00,EDT,Wind,50.0
08/04/2019 11:30:00,EDT,Hydro,3272.0
08/04/2019 11:35:00,EDT,Dual Fuel,4462.0
08/04/2019 11:35:00,EDT,Natural Gas,3988.0
08/04/2019 11:35:00,EDT,Nuclear,5266.0
08/04/2019 11:35:00,EDT,Other Fossil Fuels,124.0
08/04/2019 11:35:00,EDT,Other Renewables,280.0
08/04/2019 11:35:00,EDT,Wind,50.0
08/04/2019 11:35:00,EDT,Hydro,3267.0
08/04/2019 11:40:00,EDT,Dual Fuel,4529.0
08/04/2019 11:40:00,EDT,Natural Gas,3989.0
08/04/2019 11:40:00,EDT,Nuclear,5267.0
08/04/2019 11:40:00,EDT,Other Fossil Fuels,124.0
08/04/2019 11:40:00,EDT,Other Renewables,277.0
08/04/2019 11:40:00,EDT,Wind,52.0
08/04/2019 11:40:00,EDT,Hydro,3263.0
08/04/2019 11:45:00,EDT,Dual Fuel,4586.0
08/04/2019 11:45:00,EDT,Natural Gas,3996.0
08/04/2019 11:45:00,EDT,Nuclear,5268.0
08/04/2019 11:45:00,EDT,Other Fossil Fuels,124.0
08/04/2019 11:45:00,EDT,Other Renewables,283.0
08/04/2019 11:45:00,EDT,Wind,58.0
08/04/2019 11:45:00,EDT,Hydro,3271.0
08/04/2019 11:50:00,EDT,Dual Fuel,4623.0
08/04/2019 11:50:00,EDT,Natural Gas,3999.0
08/04/2019 11:50:00,EDT,Nuclear,5267.0
08/04/2019 11:50:00,EDT,Other Fossil Fuels,123.0
08/04/2019 11:50:00,EDT,Other Renewables,280.0
08/04/2019 11:50:00,EDT,Wind,62.0
08/04/2019 11:50:00,EDT,Hydro,3269.0
08/04/2019 11:55:00,EDT,Dual Fuel,4701.0
08/04/2019 11:55:00,EDT,Natural Gas,4035.0
08/04/2019 11:55:00,EDT,Nuclear,5266.0
08/04/2019 11:55:00,EDT,Other Fossil Fuels,124.0
08/04/2019 11:55:00,EDT,Other Renewables,281.0
08/04/2019 11:55:00,EDT,Wind,59.0
08/04/2019 11:55:00,EDT,Hydro,3272.0
08/04/2019 12:00:00,EDT,Dual Fuel,4768.0
08/04/2019 12:00:00,EDT,Natural Gas,4049.0
08/04/2019 12:00:00,EDT,Nuclear,5266.0
08/04/2019 12:00:00,EDT,Other Fossil Fuels,123.0
08/04/2019 12:00:00,EDT,Other Renewables,283.0
08/04/2019 12:00:00,EDT,Wind,58.0
08/04/2019 12:00:00,EDT,Hydro,3261.0
08/04/2019 12:05:00,EDT,Dual Fuel,4804.0
08/04/2019 12:05:00,EDT,Natural Gas,4100.0
08/04/2019 12:05:00,EDT,Nuclear,5266.0
08/04/2019 12:05:00,EDT,Other Fossil Fuels,124.0
08/04/2019 12:05:00,EDT,Other Renewables,281.0
08/04/2019 12:05:00,EDT,Wind,60.0
08/04/2019 12:05:00,EDT,Hydro,3256.0
08/04/2019 12:10:00,EDT,Dual Fuel,4857.0
08/04/2019 12:10:00,EDT,Natural Gas,4121.0
08/04/2019 12:10:00,EDT,Nuclear,5267.0
08/04/2019 12:10:00,EDT,Other Fossil Fuels,123.0
08/04/2019 12:10:00,EDT,Other Renewables,280.0
08/04/2019 12:10:00,EDT,Wind,69.0
08/04/2019 12:10:00,EDT,Hydro,3261.0
08/04/2019 12:15:00,EDT,Dual Fuel,4897.0
08/04/2019 12:15:00,EDT,Natural Gas,4121.0
08/04/2019 12:15:00,EDT,Nuclear,5266.0
08/04/2019 12:15:00,EDT,Other Fossil Fuels,123.0
08/04/2019 12:15:00,EDT,Other Renewables,284.0
08/04/2019 12:15:00,EDT,Wind,68.0
08/04/2019 12:15:00,EDT,Hydro,3243.0
08/04/2019 12:20:00,EDT,Dual Fuel,4940.0
08/04/2019 12:20:00,EDT,Natural Gas,4118.0
08/04/2019 12:20:00,EDT,Nuclear,5265.0
08/04/2019 12:20:00,EDT,Other Fossil Fuels,123.0
08/04/2019 12:20:00,EDT,Other Renewables,279.0
08/04/2019 12:20:00,EDT,Wind,76.0
08/04/2019 12:20:00,EDT,Hydro,3245.0
08/04/2019 12:25:00,EDT,Dual Fuel,5007.0
08/04/2019 12:25:00,EDT,Natural Gas,4157.0
08/04/2019 12:25:00,EDT,Nuclear,5264.0
08/04/2019 12:25:00,EDT,Other Fossil Fuels,123.0
08/04/2019 12:25:00,EDT,Other Renewables,282.0
08/04/2019 12:25:00,EDT,Wind,83.0
08/04/2019 12:25:00,EDT,Hydro,3273.0
08/04/2019 12:30:00,EDT,Dual Fuel,5060.0
08/04/2019 12:30:00,EDT,Natural Gas,4156.0
08/04/2019 12:30:00,EDT,Nuclear,5265.0
08/04/2019 12:30:00,EDT,Other Fossil Fuels,125.0
08/04/2019 12:30:00,EDT,Other Renewables,282.0
08/04/2019 12:30:00,EDT,Wind,89.0
08/04/2019 12:30:00,EDT,Hydro,3271.0
08/04/2019 12:35:00,EDT,Dual Fuel,5085.0
08/04/2019 12:35:00,EDT,Natural Gas,4161.0
08/04/2019 12:35:00,EDT,Nuclear,5264.0
08/04/2019 12:35:00,EDT,Other Fossil Fuels,128.0
08/04/2019 12:35:00,EDT,Other Renewables,281.0
08/04/2019 12:35:00,EDT,Wind,94.0
08/04/2019 12:35:00,EDT,Hydro,3270.0
08/04/2019 12:40:00,EDT,Dual Fuel,5136.0
08/04/2019 12:40:00,EDT,Natural Gas,4160.0
08/04/2019 12:40:00,EDT,Nuclear,5264.0
08/04/2019 12:40:00,EDT,Other Fossil Fuels,128.0
08/04/2019 12:40:00,EDT,Other Renewables,281.0
08/04/2019 12:40:00,EDT,Wind,93.0
08/04/2019 12:40:00,EDT,Hydro,3270.0
08/04/2019 12:45:00,EDT,Dual Fuel,5193.0
08/04/2019 12:45:00,EDT,Natural Gas,4201.0
08/04/2019 12:45:00,EDT,Nuclear,5266.0
08/04/2019 12:45:00,EDT,Other Fossil Fuels,127.0
08/04/2019 12:45:00,EDT,Other Renewables,281.0
08/04/2019 12:45:00,EDT,Wind,92.0
08/04/2019 12:45:00,EDT,Hydro,3265.0
08/04/2019 12:50:00,EDT,Dual Fuel,5259.0
08/04/2019 12:50:00,EDT,Natural Gas,4239.0
08/04/2019 12:50:00,EDT,Nuclear,5267.0
08/04/2019 12:50:00,EDT,Other Fossil Fuels,127.0
08/04/2019 12:50:00,EDT,Other Renewables,283.0
08/04/2019 12:50:00,EDT,Wind,95.0
08/04/2019 12:50:00,EDT,Hydro,3262.0
08/04/2019 12:55:00,EDT,Dual Fuel,5323.0
08/04/2019 12:55:00,EDT,Natural Gas,4296.0
08/04/2019 12:55:00,EDT,Nuclear,5267.0
08/04/2019 12:55:00,EDT,Other Fossil Fuels,127.0
08/04/2019 12:55:00,EDT,Other Renewables,282.0
08/04/2019 12:55:00,EDT,Wind,90.0
08/04/2019 12:55:00,EDT,Hydro,3261.0
08/04/2019 13:00:00,EDT,Dual Fuel,5443.0
08/04/2019 13:00:00,EDT,Natural Gas,4280.0
08/04/2019 13:00:00,EDT,Nuclear,5266.0
08/04/2019 13:00:00,EDT,Other Fossil Fuels,127.0
08/04/2019 13:00:00,EDT,Other Renewables,283.0
08/04/2019 13:00:00,EDT,Wind,87.0
08/04/2019 13:00:00,EDT,Hydro,3270.0
08/04/2019 13:05:00,EDT,Dual Fuel,5552.0
08/04/2019 13:05:00,EDT,Natural Gas,4289.0
08/04/2019 13:05:00,EDT,Nuclear,5264.0
08/04/2019 13:05:00,EDT,Other Fossil Fuels,127.0
08/04/2019 13:05:00,EDT,Other Renewables,282.0
08/04/2019 13:05:00,EDT,Wind,89.0
08/04/2019 13:05:00,EDT,Hydro,3272.0
08/04/2019 13:10:00,EDT,Dual Fuel,5691.0
08/04/2019 13:10:00,EDT,Natural Gas,4296.0
08/04/2019 13:10:00,EDT,Nuclear,5261.0
08/04/2019 13:10:00,EDT,Other Fossil Fuels,127.0
08/04/2019 13:10:00,EDT,Other Renewables,282.0
08/04/2019 13:10:00,EDT,Wind,88.0
08/04/2019 13:10:00,EDT,Hydro,3301.0
08/04/2019 13:15:00,EDT,Dual Fuel,5852.0
08/04/2019 13:15:00,EDT,Natural Gas,4315.0
08/04/2019 13:15:00,EDT,Nuclear,5260.0
08/04/2019 13:15:00,EDT,Other Fossil Fuels,127.0
08/04/2019 13:15:00,EDT,Other Renewables,281.0
08/04/2019 13:15:00,EDT,Wind,87.0
08/04/2019 13:15:00,EDT,Hydro,3181.0
08/04/2019 13:20:00,EDT,Dual Fuel,5935.0
08/04/2019 13:20:00,EDT,Natural Gas,4337.0
08/04/2019 13:20:00,EDT,Nuclear,5263.0
08/04/2019 13:20:00,EDT,Other Fossil Fuels,127.0
08/04/2019 13:20:00,EDT,Other Renewables,282.0
08/04/2019 13:20:00,EDT,Wind,88.0
08/04/2019 13:20:00,EDT,Hydro,3039.0
08/04/2019 13:25:00,EDT,Dual Fuel,5955.0
08/04/2019 13:25:00,EDT,Natural Gas,4342.0
08/04/2019 13:25:00,EDT,Nuclear,5263.0
08/04/2019 13:25:00,EDT,Other Fossil Fuels,126.0
08/04/2019 13:25:00,EDT,Other Renewables,281.0
08/04/2019 13:25:00,EDT,Wind,89.0
08/04/2019 13:25:00,EDT,Hydro,3009.0
08/04/2019 13:30:00,EDT,Dual Fuel,5947.0
08/04/2019 13:30:00,EDT,Natural Gas,4332.0
08/04/2019 13:30:00,EDT,Nuclear,5263.0
08/04/2019 13:30:00,EDT,Other Fossil Fuels,127.0
08/04/2019 13:30:00,EDT,Other Renewables,283.0
08/04/2019 13:30:00,EDT,Wind,90.0
08/04/2019 13:30:00,EDT,Hydro,3065.0
08/04/2019 13:35:00,EDT,Dual Fuel,5902.0
08/04/2019 13:35:00,EDT,Natural Gas,4323.0
08/04/2019 13:35:00,EDT,Nuclear,5265.0
08/04/2019 13:35:00,EDT,Other Fossil Fuels,127.0
08/04/2019 13:35:00,EDT,Other Renewables,284.0
08/04/2019 13:35:00,EDT,Wind,92.0
08/04/2019 13:35:00,EDT,Hydro,3107.0
08/04/2019 13:40:00,EDT,Dual Fuel,5849.0
08/04/2019 13:40:00,EDT,Natural Gas,4314.0
08/04/2019 13:40:00,EDT,Nuclear,5266.0
08/04/2019 13:40:00,EDT,Other Fossil Fuels,127.0
08/04/2019 13:40:00,EDT,Other Renewables,281.0
08/04/2019 13:40:00,EDT,Wind,94.0
08/04/2019 13:40:00,EDT,Hydro,3192.0
08/04/2019 13:45:00,EDT,Dual Fuel,5814.0
08/04/2019 13:45:00,EDT,Natural Gas,4300.0
08/04/2019 13:45:00,EDT,Nuclear,5269.0
08/04/2019 13:45:00,EDT,Other Fossil Fuels,127.0
08/04/2019 13:45:00,EDT,Other Renewables,280.0
08/04/2019 13:45:00,EDT,Wind,98.0
08/04/2019 13:45:00,EDT,Hydro,3279.0
08/04/2019 13:50:00,EDT,Dual Fuel,5761.0
08/04/2019 13:50:00,EDT,Natural Gas,4294.0
08/04/2019 13:50:00,EDT,Nuclear,5270.0
08/04/2019 13:50:00,EDT,Other Fossil Fuels,126.0
08/04/2019 13:50:00,EDT,Other Renewables,281.0
08/04/2019 13:50:00,EDT,Wind,96.0
08/04/2019 13:50:00,EDT,Hydro,3293.0
08/04/2019 13:55:00,EDT,Dual Fuel,5701.0
08/04/2019 13:55:00,EDT,Natural Gas,4301.0
08/04/2019 13:55:00,EDT,Nuclear,5270.0
08/04/2019 13:55:00,EDT,Other Fossil Fuels,126.0
08/04/2019 13:55:00,EDT,Other Renewables,280.0
08/04/2019 13:55:00,EDT,Wind,95.0
08/04/2019 13:55:00,EDT,Hydro,3295.0
08/04/2019 14:00:00,EDT,Dual Fuel,5726.0
08/04/2019 14:00:00,EDT,Natural Gas,4318.0
08/04/2019 14:00:00,EDT,Nuclear,5271.0
08/04/2019 14:00:00,EDT,Other Fossil Fuels,127.0
08/04/2019 14:00:00,EDT,Other Renewables,278.0
08/04/2019 14:00:00,EDT,Wind,88.0
08/04/2019 14:00:00,EDT,Hydro,3303.0
08/04/2019 14:05:00,EDT,Dual Fuel,5869.0
08/04/2019 14:05:00,EDT,Natural Gas,4330.0
08/04/2019 14:05:00,EDT,Nuclear,5271.0
08/04/2019 14:05:00,EDT,Other Fossil Fuels,126.0
08/04/2019 14:05:00,EDT,Other Renewables,278.0
08/04/2019 14:05:00,EDT,Wind,92.0
08/04/2019 14:05:00,EDT,Hydro,3286.0
08/04/2019 14:10:00,EDT,Dual Fuel,5967.0
08/04/2019 14:10:00,EDT,Natural Gas,4349.0
08/04/2019 14:10:00,EDT,Nuclear,5272.0
08/04/2019 14:10:00,EDT,Other Fossil Fuels,126.0
08/04/2019 14:10:00,EDT,Other Renewables,280.0
08/04/2019 14:10:00,EDT,Wind,99.0
08/04/2019 14:10:00,EDT,Hydro,3193.0
08/04/2019 14:15:00,EDT,Dual Fuel,6059.0
08/04/2019 14:15:00,EDT,Natural Gas,4355.0
08/04/2019 14:15:00,EDT,Nuclear,5275.0
08/04/2019 14:15:00,EDT,Other Fossil Fuels,135.0
08/04/2019 14:15:00,EDT,Other Renewables,278.0
08/04/2019 14:15:00,EDT,Wind,114.0
08/04/2019 14:15:00,EDT,Hydro,3101.0
08/04/2019 14:20:00,EDT,Dual Fuel,6117.0
08/04/2019 14:20:00,EDT,Natural Gas,4379.0
08/04/2019 14:20:00,EDT,Nuclear,5274.0
08/04/2019 14:20:00,EDT,Other Fossil Fuels,136.0
08/04/2019 14:20:00,EDT,Other Renewables,279.0
08/04/2019 14:20:00,EDT,Wind,125.0
08/04/2019 14:20:00,EDT,Hydro,3106.0
08/04/2019 14:25:00,EDT,Dual Fuel,6143.0
08/04/2019 14:25:00,EDT,Natural Gas,4383.0
08/04/2019 14:25:00,EDT,Nuclear,5272.0
08/04/2019 14:25:00,EDT,Other Fossil Fuels,136.0
08/04/2019 14:25:00,EDT,Other Renewables,283.0
08/04/2019 14:25:00,EDT,Wind,130.0
08/04/2019 14:25:00,EDT,Hydro,3219.0
08/04/2019 14:30:00,EDT,Dual Fuel,6182.0
08/04/2019 14:30:00,EDT,Natural Gas,4391.0
08/04/2019 14:30:00,EDT,Nuclear,5271.0
08/04/2019 14:30:00,EDT,Other Fossil Fuels,136.0
08/04/2019 14:30:00,EDT,Other Renewables,281.0
08/04/2019 14:30:00,EDT,Wind,127.0
08/04/2019 14:30:00,EDT,Hydro,3253.0
08/04/2019 14:35:00,EDT,Dual Fuel,6232.0
08/04/2019 14:35:00,EDT,Natural Gas,4394.0
08/04/2019 14:35:00,EDT,Nuclear,5270.0
08/04/2019 14:35:00,EDT,Other Fossil Fuels,136.0
08/04/2019 14:35:00,EDT,Other Renewables,283.0
08/04/2019 14:35:00,EDT,Wind,125.0
08/04/2019 14:35:00,EDT,Hydro,3265.0
08/04/2019 14:40:00,EDT,Dual Fuel,6275.0
08/04/2019 14:40:00,EDT,Natural Gas,4403.0
08/04/2019 14:40:00,EDT,Nuclear,5270.0
08/04/2019 14:40:00,EDT,Other Fossil Fuels,139.0
08/04/2019 14:40:00,EDT,Other Renewables,283.0
08/04/2019 14:40:00,EDT,Wind,128.0
08/04/2019 14:40:00,EDT,Hydro,3289.0
08/04/2019 14:45:00,EDT,Dual Fuel,6306.0
08/04/2019 14:45:00,EDT,Natural Gas,4415.0
08/04/2019 14:45:00,EDT,Nuclear,5269.0
08/04/2019 14:45:00,EDT,Other Fossil Fuels,140.0
08/04/2019 14:45:00,EDT,Other Renewables,282.0
08/04/2019 14:45:00,EDT,Wind,143.0
08/04/2019 14:45:00,EDT,Hydro,3324.0
08/04/2019 14:50:00,EDT,Dual Fuel,6293.0
08/04/2019 14:50:00,EDT,Natural Gas,4436.0
08/04/2019 14:50:00,EDT,Nuclear,5269.0
08/04/2019 14:50:00,EDT,Other Fossil Fuels,136.0
08/04/2019 14:50:00,EDT,Other Renewables,280.0
08/04/2019 14:50:00,EDT,Wind,136.0
08/04/2019 14:50:00,EDT,Hydro,3255.0
08/04/2019 14:55:00,EDT,Dual Fuel,6304.0
08/04/2019 14:55:00,EDT,Natural Gas,4433.0
08/04/2019 14:55:00,EDT,Nuclear,5272.0
08/04/2019 14:55:00,EDT,Other Fossil Fuels,136.0
08/04/2019 14:55:00,EDT,Other Renewables,279.0
08/04/2019 14:55:00,EDT,Wind,143.0
08/04/2019 14:55:00,EDT,Hydro,3165.0
08/04/2019 15:00:00,EDT,Dual Fuel,6310.0
08/04/2019 15:00:00,EDT,Natural Gas,4462.0
08/04/2019 15:00:00,EDT,Nuclear,5273.0
08/04/2019 15:00:00,EDT,Other Fossil Fuels,135.0
08/04/2019 15:00:00,EDT,Other Renewables,283.0
08/04/2019 15:00:00,EDT,Wind,145.0
08/04/2019 15:00:00,EDT,Hydro,3157.0
08/04/2019 15:05:00,EDT,Dual Fuel,6313.0
08/04/2019 15:05:00,EDT,Natural Gas,4502.0
08/04/2019 15:05:00,EDT,Nuclear,5276.0
08/04/2019 15:05:00,EDT,Other Fossil Fuels,136.0
08/04/2019 15:05:00,EDT,Other Renewables,280.0
08/04/2019 15:05:00,EDT,Wind,149.0
08/04/2019 15:05:00,EDT,Hydro,3077.0
08/04/2019 15:10:00,EDT,Dual Fuel,6313.0
08/04/2019 15:10:00,EDT,Natural Gas,4513.0
08/04/2019 15:10:00,EDT,Nuclear,5276.0
08/04/2019 15:10:00,EDT,Other Fossil Fuels,135.0
08/04/2019 15:10:00,EDT,Other Renewables,279.0
08/04/2019 15:10:00,EDT,Wind,144.0
08/04/2019 15:10:00,EDT,Hydro,3072.0
08/04/2019 15:15:00,EDT,Dual Fuel,6343.0
08/04/2019 15:15:00,EDT,Natural Gas,4497.0
08/04/2019 15:15:00,EDT,Nuclear,5275.0
08/04/2019 15:15:00,EDT,Other Fossil Fuels,136.0
08/04/2019 15:15:00,EDT,Other Renewables,281.0
08/04/2019 15:15:00,EDT,Wind,145.0
08/04/2019 15:15:00,EDT,Hydro,3110.0
08/04/2019 15:20:00,EDT,Dual Fuel,6375.0
08/04/2019 15:20:00,EDT,Natural Gas,4499.0
08/04/2019 15:20:00,EDT,Nuclear,5275.0
08/04/2019 15:20:00,EDT,Other Fossil Fuels,136.0
08/04/2019 15:20:00,EDT,Other Renewables,279.0
08/04/2019 15:20:00,EDT,Wind,157.0
08/04/2019 15:20:00,EDT,Hydro,3127.0
08/04/2019 15:25:00,EDT,Dual Fuel,6393.0
08/04/2019 15:25:00,EDT,Natural Gas,4498.0
08/04/2019 15:25:00,EDT,Nuclear,5276.0
08/04/2019 15:25:00,EDT,Other Fossil Fuels,149.0
08/04/2019 15:25:00,EDT,Other Renewables,276.0
08/04/2019 15:25:00,EDT,Wind,157.0
08/04/2019 15:25:00,EDT,Hydro,3100.0
08/04/2019 15:30:00,EDT,Dual Fuel,6426.0
08/04/2019 15:30:00,EDT,Natural Gas,4494.0
08/04/2019 15:30:00,EDT,Nuclear,5277.0
08/04/2019 15:30:00,EDT,Other Fossil Fuels,177.0
08/04/2019 15:30:00,EDT,Other Renewables,279.0
08/04/2019 15:30:00,EDT,Wind,152.0
08/04/2019 15:30:00,EDT,Hydro,3087.0
08/04/2019 15:35:00,EDT,Dual Fuel,6462.0
08/04/2019 15:35:00,EDT,Natural Gas,4502.0
08/04/2019 15:35:00,EDT,Nuclear,5276.0
08/04/2019 15:35:00,EDT,Other Fossil Fuels,178.0
08/04/2019 15:35:00,EDT,Other Renewables,280.0
08/04/2019 15:35:00,EDT,Wind,148.0
08/04/2019 15:35:00,EDT,Hydro,3150.0
08/04/2019 15:40:00,EDT,Dual Fuel,6501.0
08/04/2019 15:40:00,EDT,Natural Gas,4514.0
08/04/2019 15:40:00,EDT,Nuclear,5277.0
08/04/2019 15:40:00,EDT,Other Fossil Fuels,178.0
08/04/2019 15:40:00,EDT,Other Renewables,281.0
08/04/2019 15:40:00,EDT,Wind,155.0
08/04/2019 15:40:00,EDT,Hydro,3235.0
08/04/2019 15:45:00,EDT,Dual Fuel,6531.0
08/04/2019 15:45:00,EDT,Natural Gas,4514.0
08/04/2019 15:45:00,EDT,Nuclear,5279.0
08/04/2019 15:45:00,EDT,Other Fossil Fuels,178.0
08/04/2019 15:45:00,EDT,Other Renewables,284.0
08/04/2019 15:45:00,EDT,Wind,157.0
08/04/2019 15:45:00,EDT,Hydro,3252.0
08/04/2019 15:50:00,EDT,Dual Fuel,6555.0
08/04/2019 15:50:00,EDT,Natural Gas,4509.0
08/04/2019 15:50:00,EDT,Nuclear,5277.0
08/04/2019 15:50:00,EDT,Other Fossil Fuels,178.0
08/04/2019 15:50:00,EDT,Other Renewables,281.0
08/04/2019 15:50:00,EDT,Wind,163.0
08/04/2019 15:50:00,EDT,Hydro,3196.0
08/04/2019 15:55:00,EDT,Dual Fuel,6530.0
08/04/2019 15:55:00,EDT,Natural Gas,4516.0
08/04/2019 15:55:00,EDT,Nuclear,5278.0
08/04/2019 15:55:00,EDT,Other Fossil Fuels,178.0
08/04/2019 15:55:00,EDT,Other Renewables,275.0
08/04/2019 15:55:00,EDT,Wind,168.0
08/04/2019 15:55:00,EDT,Hydro,3173.0
08/04/2019 16:00:00,EDT,Dual Fuel,6522.0
08/04/2019 16:00:00,EDT,Natural Gas,4520.0
08/04/2019 16:00:00,EDT,Nuclear,5280.0
08/04/2019 16:00:00,EDT,Other Fossil Fuels,178.0
08/04/2019 16:00:00,EDT,Other Renewables,280.0
08/04/2019 16:00:00,EDT,Wind,174.0
08/04/2019 16:00:00,EDT,Hydro,3199.0
08/04/2019 16:05:00,EDT,Dual Fuel,6513.0
08/04/2019 16:05:00,EDT,Natural Gas,4466.0
08/04/2019 16:05:00,EDT,Nuclear,5281.0
08/04/2019 16:05:00,EDT,Other Fossil Fuels,178.0
08/04/2019 16:05:00,EDT,Other Renewables,278.0
08/04/2019 16:05:00,EDT,Wind,180.0
08/04/2019 16:05:00,EDT,Hydro,3175.0
08/04/2019 16:10:00,EDT,Dual Fuel,6511.0
08/04/2019 16:10:00,EDT,Natural Gas,4444.0
08/04/2019 16:10:00,EDT,Nuclear,5281.0
08/04/2019 16:10:00,EDT,Other Fossil Fuels,178.0
08/04/2019 16:10:00,EDT,Other Renewables,277.0
08/04/2019 16:10:00,EDT,Wind,185.0
08/04/2019 16:10:00,EDT,Hydro,3123.0
08/04/2019 16:15:00,EDT,Dual Fuel,6512.0
08/04/2019 16:15:00,EDT,Natural Gas,4455.0
08/04/2019 16:15:00,EDT,Nuclear,5281.0
08/04/2019 16:15:00,EDT,Other Fossil Fuels,178.0
08/04/2019 16:15:00,EDT,Other Renewables,278.0
08/04/2019 16:15:00,EDT,Wind,186.0
08/04/2019 16:15:00,EDT,Hydro,3141.0
08/04/2019 16:20:00,EDT,Dual Fuel,6517.0
08/04/2019 16:20:00,EDT,Natural Gas,4463.0
08/04/2019 16:20:00,EDT,Nuclear,5281.0
08/04/2019 16:20:00,EDT,Other Fossil Fuels,178.0
08/04/2019 16:20:00,EDT,Other Renewables,277.0
08/04/2019 16:20:00,EDT,Wind,178.0
08/04/2019 16:20:00,EDT,Hydro,3132.0
08/04/2019 16:25:00,EDT,Dual Fuel,6543.0
08/04/2019 16:25:00,EDT,Natural Gas,4474.0
08/04/2019 16:25:00,EDT,Nuclear,5282.0
08/04/2019 16:25:00,EDT,Other Fossil Fuels,155.0
08/04/2019 16:25:00,EDT,Other Renewables,276.0
08/04/2019 16:25:00,EDT,Wind,192.0
08/04/2019 16:25:00,EDT,Hydro,3154.0
08/04/2019 16:30:00,EDT,Dual Fuel,6582.0
08/04/2019 16:30:00,EDT,Natural Gas,4479.0
08/04/2019 16:30:00,EDT,Nuclear,5281.0
08/04/2019 16:30:00,EDT,Other Fossil Fuels,136.0
08/04/2019 16:30:00,EDT,Other Renewables,276.0
08/04/2019 16:30:00,EDT,Wind,198.0
08/04/2019 16:30:00,EDT,Hydro,3159.0
08/04/2019 16:35:00,EDT,Dual Fuel,6618.0
08/04/2019 16:35:00,EDT,Natural Gas,4492.0
08/04/2019 16:35:00,EDT,Nuclear,5281.0
08/04/2019 16:35:00,EDT,Other Fossil Fuels,135.0
08/04/2019 16:35:00,EDT,Other Renewables,275.0
08/04/2019 16:35:00,EDT,Wind,192.0
08/04/2019 16:35:00,EDT,Hydro,3190.0
08/04/2019 16:40:00,EDT,Dual Fuel,6627.0
08/04/2019 16:40:00,EDT,Natural Gas,4492.0
08/04/2019 16:40:00,EDT,Nuclear,5282.0
08/04/2019 16:40:00,EDT,Other Fossil Fuels,136.0
08/04/2019 16:40:00,EDT,Other Renewables,272.0
08/04/2019 16:40:00,EDT,Wind,187.0
08/04/2019 16:40:00,EDT,Hydro,3204.0
08/04/2019 16:45:00,EDT,Dual Fuel,6628.0
08/04/2019 16:45:00,EDT,Natural Gas,4494.0
08/04/2019 16:45:00,EDT,Nuclear,5280.0
08/04/2019 16:45:00,EDT,Other Fossil Fuels,136.0
08/04/2019 16:45:00,EDT,Other Renewables,269.0
08/04/2019 16:45:00,EDT,Wind,190.0
08/04/2019 16:45:00,EDT,Hydro,3221.0
08/04/2019 16:50:00,EDT,Dual Fuel,6649.0
08/04/2019 16:50:00,EDT,Natural Gas,4523.0
08/04/2019 16:50:00,EDT,Nuclear,5280.0
08/04/2019 16:50:00,EDT,Other Fossil Fuels,136.0
08/04/2019 16:50:00,EDT,Other Renewables,268.0
08/04/2019 16:50:00,EDT,Wind,189.0
08/04/2019 16:50:00,EDT,Hydro,3346.0
08/04/2019 16:55:00,EDT,Dual Fuel,6673.0
08/04/2019 16:55:00,EDT,Natural Gas,4544.0
08/04/2019 16:55:00,EDT,Nuclear,5283.0
08/04/2019 16:55:00,EDT,Other Fossil Fuels,136.0
08/04/2019 16:55:00,EDT,Other Renewables,270.0
08/04/2019 16:55:00,EDT,Wind,194.0
08/04/2019 16:55:00,EDT,Hydro,3394.0
08/04/2019 17:00:00,EDT,Dual Fuel,6676.0
08/04/2019 17:00:00,EDT,Natural Gas,4563.0
08/04/2019 17:00:00,EDT,Nuclear,5282.0
08/04/2019 17:00:00,EDT,Other Fossil Fuels,136.0
08/04/2019 17:00:00,EDT,Other Renewables,269.0
08/04/2019 17:00:00,EDT,Wind,195.0
08/04/2019 17:00:00,EDT,Hydro,3408.0
08/04/2019 17:05:00,EDT,Dual Fuel,6688.0
08/04/2019 17:05:00,EDT,Natural Gas,4601.0
08/04/2019 17:05:00,EDT,Nuclear,5282.0
08/04/2019 17:05:00,EDT,Other Fossil Fuels,136.0
08/04/2019 17:05:00,EDT,Other Renewables,270.0
08/04/2019 17:05:00,EDT,Wind,195.0
08/04/2019 17:05:00,EDT,Hydro,3426.0
08/04/2019 17:10:00,EDT,Dual Fuel,6699.0
08/04/2019 17:10:00,EDT,Natural Gas,4609.0
08/04/2019 17:10:00,EDT,Nuclear,5283.0
08/04/2019 17:10:00,EDT,Other Fossil Fuels,136.0
08/04/2019 17:10:00,EDT,Other Renewables,265.0
08/04/2019 17:10:00,EDT,Wind,184.0
08/04/2019 17:10:00,EDT,Hydro,3425.0
08/04/2019 17:15:00,EDT,Dual Fuel,6712.0
08/04/2019 17:15:00,EDT,Natural Gas,4612.0
08/04/2019 17:15:00,EDT,Nuclear,5284.0
08/04/2019 17:15:00,EDT,Other Fossil Fuels,144.0
08/04/2019 17:15:00,EDT,Other Renewables,264.0
08/04/2019 17:15:00,EDT,Wind,182.0
08/04/2019 17:15:00,EDT,Hydro,3431.0
08/04/2019 17:20:00,EDT,Dual Fuel,6743.0
08/04/2019 17:20:00,EDT,Natural Gas,4617.0
08/04/2019 17:20:00,EDT,Nuclear,5285.0
08/04/2019 17:20:00,EDT,Other Fossil Fuels,179.0
08/04/2019 17:20:00,EDT,Other Renewables,266.0
08/04/2019 17:20:00,EDT,Wind,189.0
08/04/2019 17:20:00,EDT,Hydro,3418.0
08/04/2019 17:25:00,EDT,Dual Fuel,6792.0
08/04/2019 17:25:00,EDT,Natural Gas,4609.0
08/04/2019 17:25:00,EDT,Nuclear,5287.0
08/04/2019 17:25:00,EDT,Other Fossil Fuels,181.0
08/04/2019 17:25:00,EDT,Other Renewables,260.0
08/04/2019 17:25:00,EDT,Wind,182.0
08/04/2019 17:25:00,EDT,Hydro,3424.0
08/04/2019 17:30:00,EDT,Dual Fuel,6842.0
08/04/2019 17:30:00,EDT,Natural Gas,4599.0
08/04/2019 17:30:00,EDT,Nuclear,5286.0
08/04/2019 17:30:00,EDT,Other Fossil Fuels,181.0
08/04/2019 17:30:00,EDT,Other Renewables,264.0
08/04/2019 17:30:00,EDT,Wind,183.0
08/04/2019 17:30:00,EDT,Hydro,3418.0
08/04/2019 17:35:00,EDT,Dual Fuel,6894.0
08/04/2019 17:35:00,EDT,Natural Gas,4594.0
08/04/2019 17:35:00,EDT,Nuclear,5287.0
08/04/2019 17:35:00,EDT,Other Fossil Fuels,181.0
08/04/2019 17:35:00,EDT,Other Renewables,261.0
08/04/2019 17:35:00,EDT,Wind,186.0
08/04/2019 17:35:00,EDT,Hydro,3415.0
08/04/2019 17:40:00,EDT,Dual Fuel,6927.0
08/04/2019 17:40:00,EDT,Natural Gas,4583.0
08/04/2019 17:40:00,EDT,Nuclear,5285.0
08/04/2019 17:40:00,EDT,Other Fossil Fuels,181.0
08/04/2019 17:40:00,EDT,Other Renewables,264.0
08/04/2019 17:40:00,EDT,Wind,180.0
08/04/2019 17:40:00,EDT,Hydro,3406.0
08/04/2019 17:45:00,EDT,Dual Fuel,6951.0
08/04/2019 17:45:00,EDT,Natural Gas,4553.0
08/04/2019 17:45:00,EDT,Nuclear,5287.0
08/04/2019 17:45:00,EDT,Other Fossil Fuels,182.0
08/04/2019 17:45:00,EDT,Other Renewables,262.0
08/04/2019 17:45:00,EDT,Wind,182.0
08/04/2019 17:45:00,EDT,Hydro,3378.0
08/04/2019 17:50:00,EDT,Dual Fuel,6978.0
08/04/2019 17:50:00,EDT,Natural Gas,4541.0
08/04/2019 17:50:00,EDT,Nuclear,5226.0
08/04/2019 17:50:00,EDT,Other Fossil Fuels,182.0
08/04/2019 17:50:00,EDT,Other Renewables,259.0
08/04/2019 17:50:00,EDT,Wind,176.0
08/04/2019 17:50:00,EDT,Hydro,3357.0
08/04/2019 17:55:00,EDT,Dual Fuel,6985.0
08/04/2019 17:55:00,EDT,Natural Gas,4560.0
08/04/2019 17:55:00,EDT,Nuclear,5212.0
08/04/2019 17:55:00,EDT,Other Fossil Fuels,182.0
08/04/2019 17:55:00,EDT,Other Renewables,262.0
08/04/2019 17:55:00,EDT,Wind,163.0
08/04/2019 17:55:00,EDT,Hydro,3393.0
08/04/2019 18:00:00,EDT,Dual Fuel,6977.0
08/04/2019 18:00:00,EDT,Natural Gas,4558.0
08/04/2019 18:00:00,EDT,Nuclear,5212.0
08/04/2019 18:00:00,EDT,Other Fossil Fuels,182.0
08/04/2019 18:00:00,EDT,Other Renewables,261.0
08/04/2019 18:00:00,EDT,Wind,158.0
08/04/2019 18:00:00,EDT,Hydro,3381.0
08/04/2019 18:05:00,EDT,Dual Fuel,6986.0
08/04/2019 18:05:00,EDT,Natural Gas,4557.0
08/04/2019 18:05:00,EDT,Nuclear,5211.0
08/04/2019 18:05:00,EDT,Other Fossil Fuels,181.0
08/04/2019 18:05:00,EDT,Other Renewables,260.0
08/04/2019 18:05:00,EDT,Wind,153.0
08/04/2019 18:05:00,EDT,Hydro,3404.0
08/04/2019 18:10:00,EDT,Dual Fuel,6958.0
08/04/2019 18:10:00,EDT,Natural Gas,4545.0
08/04/2019 18:10:00,EDT,Nuclear,5227.0
08/04/2019 18:10:00,EDT,Other Fossil Fuels,181.0
08/04/2019 18:10:00,EDT,Other Renewables,260.0
08/04/2019 18:10:00,EDT,Wind,145.0
08/04/2019 18:10:00,EDT,Hydro,3426.0
08/04/2019 18:15:00,EDT,Dual Fuel,6950.0
08/04/2019 18:15:00,EDT,Natural Gas,4534.0
08/04/2019 18:15:00,EDT,Nuclear,5237.0
08/04/2019 18:15:00,EDT,Other Fossil Fuels,181.0
08/04/2019 18:15:00,EDT,Other Renewables,263.0
08/04/2019 18:15:00,EDT,Wind,143.0
08/04/2019 18:15:00,EDT,Hydro,3424.0
08/04/2019 18:20:00,EDT,Dual Fuel,6956.0
08/04/2019 18:20:00,EDT,Natural Gas,4539.0
08/04/2019 18:20:00,EDT,Nuclear,5237.0
08/04/2019 18:20:00,EDT,Other Fossil Fuels,182.0
08/04/2019 18:20:00,EDT,Other Renewables,262.0
08/04/2019 18:20:00,EDT,Wind,142.0
08/04/2019 18:20:00,EDT,Hydro,3423.0
08/04/2019 18:25:00,EDT,Dual Fuel,6979.0
08/04/2019 18:25:00,EDT,Natural Gas,4539.0
08/04/2019 18:25:00,EDT,Nuclear,5237.0
08/04/2019 18:25:00,EDT,Other Fossil Fuels,160.0
08/04/2019 18:25:00,EDT,Other Renewables,260.0
08/04/2019 18:25:00,EDT,Wind,149.0
08/04/2019 18:25:00,EDT,Hydro,3417.0
08/04/2019 18:30:00,EDT,Dual Fuel,7004.0
08/04/2019 18:30:00,EDT,Natural Gas,4534.0
08/04/2019 18:30:00,EDT,Nuclear,5237.0
08/04/2019 18:30:00,EDT,Other Fossil Fuels,146.0
08/04/2019 18:30:00,EDT,Other Renewables,261.0
08/04/2019 18:30:00,EDT,Wind,140.0
08/04/2019 18:30:00,EDT,Hydro,3369.0
08/04/2019 18:35:00,EDT,Dual Fuel,6994.0
08/04/2019 18:35:00,EDT,Natural Gas,4536.0
08/04/2019 18:35:00,EDT,Nuclear,5236.0
08/04/2019 18:35:00,EDT,Other Fossil Fuels,151.0
08/04/2019 18:35:00,EDT,Other Renewables,259.0
08/04/2019 18:35:00,EDT,Wind,135.0
08/04/2019 18:35:00,EDT,Hydro,3290.0
08/04/2019 18:40:00,EDT,Dual Fuel,6965.0
08/04/2019 18:40:00,EDT,Natural Gas,4531.0
08/04/2019 18:40:00,EDT,Nuclear,5235.0
08/04/2019 18:40:00,EDT,Other Fossil Fuels,151.0
08/04/2019 18:40:00,EDT,Other Renewables,258.0
08/04/2019 18:40:00,EDT,Wind,129.0
08/04/2019 18:40:00,EDT,Hydro,3312.0
08/04/2019 18:45:00,EDT,Dual Fuel,6966.0
08/04/2019 18:45:00,EDT,Natural Gas,4532.0
08/04/2019 18:45:00,EDT,Nuclear,5235.0
08/04/2019 18:45:00,EDT,Other Fossil Fuels,147.0
08/04/2019 18:45:00,EDT,Other Renewables,254.0
08/04/2019 18:45:00,EDT,Wind,116.0
08/04/2019 18:45:00,EDT,Hydro,3338.0
08/04/2019 18:50:00,EDT,Dual Fuel,6976.0
08/04/2019 18:50:00,EDT,Natural Gas,4522.0
08/04/2019 18:50:00,EDT,Nuclear,5235.0
08/04/2019 18:50:00,EDT,Other Fossil Fuels,151.0
08/04/2019 18:50:00,EDT,Other Renewables,253.0
08/04/2019 18:50:00,EDT,Wind,106.0
08/04/2019 18:50:00,EDT,Hydro,3307.0
08/04/2019 18:55:00,EDT,Dual Fuel,6976.0
08/04/2019 18:55:00,EDT,Natural Gas,4525.0
08/04/2019 18:55:00,EDT,Nuclear,5234.0
08/04/2019 18:55:00,EDT,Other Fossil Fuels,154.0
08/04/2019 18:55:00,EDT,Other Renewables,251.0
08/04/2019 18:55:00,EDT,Wind,108.0
08/04/2019 18:55:00,EDT,Hydro,3313.0
08/04/2019 19:00:00,EDT,Dual Fuel,6941.0
08/04/2019 19:00:00,EDT,Natural Gas,4535.0
08/04/2019 19:00:00,EDT,Nuclear,5234.0
08/04/2019 19:00:00,EDT,Other Fossil Fuels,148.0
08/04/2019 19:00:00,EDT,Other Renewables,254.0
08/04/2019 19:00:00,EDT,Wind,103.0
08/04/2019 19:00:00,EDT,Hydro,3302.0
08/04/2019 19:05:00,EDT,Dual Fuel,6882.0
08/04/2019 19:05:00,EDT,Natural Gas,4524.0
08/04/2019 19:05:00,EDT,Nuclear,5233.0
08/04/2019 19:05:00,EDT,Other Fossil Fuels,144.0
08/04/2019 19:05:00,EDT,Other Renewables,257.0
08/04/2019 19:05:00,EDT,Wind,96.0
08/04/2019 19:05:00,EDT,Hydro,3358.0
08/04/2019 19:10:00,EDT,Dual Fuel,6879.0
08/04/2019 19:10:00,EDT,Natural Gas,4507.0
08/04/2019 19:10:00,EDT,Nuclear,5234.0
08/04/2019 19:10:00,EDT,Other Fossil Fuels,135.0
08/04/2019 19:10:00,EDT,Other Renewables,257.0
08/04/2019 19:10:00,EDT,Wind,89.0
08/04/2019 19:10:00,EDT,Hydro,3387.0
08/04/2019 19:15:00,EDT,Dual Fuel,6876.0
08/04/2019 19:15:00,EDT,Natural Gas,4501.0
08/04/2019 19:15:00,EDT,Nuclear,5233.0
08/04/2019 19:15:00,EDT,Other Fossil Fuels,130.0
08/04/2019 19:15:00,EDT,Other Renewables,259.0
08/04/2019 19:15:00,EDT,Wind,90.0
08/04/2019 19:15:00,EDT,Hydro,3428.0
08/04/2019 19:20:00,EDT,Dual Fuel,6879.0
08/04/2019 19:20:00,EDT,Natural Gas,4504.0
08/04/2019 19:20:00,EDT,Nuclear,5234.0
08/04/2019 19:20:00,EDT,Other Fossil Fuels,132.0
08/04/2019 19:20:00,EDT,Other Renewables,263.0
08/04/2019 19:20:00,EDT,Wind,86.0
08/04/2019 19:20:00,EDT,Hydro,3439.0
08/04/2019 19:25:00,EDT,Dual Fuel,6879.0
08/04/2019 19:25:00,EDT,Natural Gas,4503.0
08/04/2019 19:25:00,EDT,Nuclear,5233.0
08/04/2019 19:25:00,EDT,Other Fossil Fuels,133.0
08/04/2019 19:25:00,EDT,Other Renewables,263.0
08/04/2019 19:25:00,EDT,Wind,81.0
08/04/2019 19:25:00,EDT,Hydro,3439.0
08/04/2019 19:30:00,EDT,Dual Fuel,6883.0
08/04/2019 19:30:00,EDT,Natural Gas,4501.0
08/04/2019 19:30:00,EDT,Nuclear,5232.0
08/04/2019 19:30:00,EDT,Other Fossil Fuels,135.0
08/04/2019 19:30:00,EDT,Other Renewables,264.0
08/04/2019 19:30:00,EDT,Wind,73.0
08/04/2019 19:30:00,EDT,Hydro,3420.0
08/04/2019 19:35:00,EDT,Dual Fuel,6880.0
08/04/2019 19:35:00,EDT,Natural Gas,4491.0
08/04/2019 19:35:00,EDT,Nuclear,5232.0
08/04/2019 19:35:00,EDT,Other Fossil Fuels,139.0
08/04/2019 19:35:00,EDT,Other Renewables,261.0
08/04/2019 19:35:00,EDT,Wind,65.0
08/04/2019 19:35:00,EDT,Hydro,3354.0
08/04/2019 19:40:00,EDT,Dual Fuel,6874.0
08/04/2019 19:40:00,EDT,Natural Gas,4497.0
08/04/2019 19:40:00,EDT,Nuclear,5234.0
08/04/2019 19:40:00,EDT,Other Fossil Fuels,141.0
08/04/2019 19:40:00,EDT,Other Renewables,261.0
08/04/2019 19:40:00,EDT,Wind,61.0
08/04/2019 19:40:00,EDT,Hydro,3285.0
08/04/2019 19:45:00,EDT,Dual Fuel,6865.0
08/04/2019 19:45:00,EDT,Natural Gas,4485.0
08/04/2019 19:45:00,EDT,Nuclear,5234.0
08/04/2019 19:45:00,EDT,Other Fossil Fuels,138.0
08/04/2019 19:45:00,EDT,Other Renewables,257.0
08/04/2019 19:45:00,EDT,Wind,61.0
08/04/2019 19:45:00,EDT,Hydro,3278.0
08/04/2019 19:50:00,EDT,Dual Fuel,6833.0
08/04/2019 19:50:00,EDT,Natural Gas,4466.0
08/04/2019 19:50:00,EDT,Nuclear,5235.0
08/04/2019 19:50:00,EDT,Other Fossil Fuels,137.0
08/04/2019 19:50:00,EDT,Other Renewables,260.0
08/04/2019 19:50:00,EDT,Wind,61.0
08/04/2019 19:50:00,EDT,Hydro,3204.0
08/04/2019 19:55:00,EDT,Dual Fuel,6798.0
08/04/2019 19:55:00,EDT,Natural Gas,4459.0
08/04/2019 19:55:00,EDT,Nuclear,5237.0
08/04/2019 19:55:00,EDT,Other Fossil Fuels,127.0
08/04/2019 19:55:00,EDT,Other Renewables,261.0
08/04/2019 19:55:00,EDT,Wind,59.0
08/04/2019 19:55:00,EDT,Hydro,3161.0
08/04/2019 20:00:00,EDT,Dual Fuel,6771.0
08/04/2019 20:00:00,EDT,Natural Gas,4506.0
08/04/2019 20:00:00,EDT,Nuclear,5235.0
08/04/2019 20:00:00,EDT,Other Fossil Fuels,120.0
08/04/2019 20:00:00,EDT,Other Renewables,259.0
08/04/2019 20:00:00,EDT,Wind,56.0
08/04/2019 20:00:00,EDT,Hydro,3170.0
08/04/2019 20:05:00,EDT,Dual Fuel,6795.0
08/04/2019 20:05:00,EDT,Natural Gas,4525.0
08/04/2019 20:05:00,EDT,Nuclear,5236.0
08/04/2019 20:05:00,EDT,Other Fossil Fuels,118.0
08/04/2019 20:05:00,EDT,Other Renewables,260.0
08/04/2019 20:05:00,EDT,Wind,56.0
08/04/2019 20:05:00,EDT,Hydro,3205.0
08/04/2019 20:10:00,EDT,Dual Fuel,6802.0
08/04/2019 20:10:00,EDT,Natural Gas,4530.0
08/04/2019 20:10:00,EDT,Nuclear,5236.0
08/04/2019 20:10:00,EDT,Other Fossil Fuels,118.0
08/04/2019 20:10:00,EDT,Other Renewables,262.0
08/04/2019 20:10:00,EDT,Wind,57.0
08/04/2019 20:10:00,EDT,Hydro,3204.0
08/04/2019 20:15:00,EDT,Dual Fuel,6783.0
08/04/2019 20:15:00,EDT,Natural Gas,4540.0
08/04/2019 20:15:00,EDT,Nuclear,5236.0
08/04/2019 20:15:00,EDT,Other Fossil Fuels,117.0
08/04/2019 20:15:00,EDT,Other Renewables,260.0
08/04/2019 20:15:00,EDT,Wind,59.0
08/04/2019 20:15:00,EDT,Hydro,3214.0
08/04/2019 20:20:00,EDT,Dual Fuel,6770.0
08/04/2019 20:20:00,EDT,Natural Gas,4556.0
08/04/2019 20:20:00,EDT,Nuclear,5236.0
08/04/2019 20:20:00,EDT,Other Fossil Fuels,117.0
08/04/2019 20:20:00,EDT,Other Renewables,256.0
08/04/2019 20:20:00,EDT,Wind,59.0
08/04/2019 20:20:00,EDT,Hydro,3229.0
08/04/2019 20:25:00,EDT,Dual Fuel,6774.0
08/04/2019 20:25:00,EDT,Natural Gas,4563.0
08/04/2019 20:25:00,EDT,Nuclear,5233.0
08/04/2019 20:25:00,EDT,Other Fossil Fuels,117.0
08/04/2019 20:25:00,EDT,Other Renewables,258.0
08/04/2019 20:25:00,EDT,Wind,62.0
08/04/2019 20:25:00,EDT,Hydro,3284.0
08/04/2019 20:30:00,EDT,Dual Fuel,6775.0
08/04/2019 20:30:00,EDT,Natural Gas,4555.0
08/04/2019 20:30:00,EDT,Nuclear,5234.0
08/04/2019 20:30:00,EDT,Other Fossil Fuels,117.0
08/04/2019 20:30:00,EDT,Other Renewables,259.0
08/04/2019 20:30:00,EDT,Wind,68.0
08/04/2019 20:30:00,EDT,Hydro,3261.0
08/04/2019 20:35:00,EDT,Dual Fuel,6760.0
08/04/2019 20:35:00,EDT,Natural Gas,4564.0
08/04/2019 20:35:00,EDT,Nuclear,5234.0
08/04/2019 20:35:00,EDT,Other Fossil Fuels,117.0
08/04/2019 20:35:00,EDT,Other Renewables,261.0
08/04/2019 20:35:00,EDT,Wind,72.0
08/04/2019 20:35:00,EDT,Hydro,3253.0
08/04/2019 20:40:00,EDT,Dual Fuel,6731.0
08/04/2019 20:40:00,EDT,Natural Gas,4540.0
08/04/2019 20:40:00,EDT,Nuclear,5234.0
08/04/2019 20:40:00,EDT,Other Fossil Fuels,116.0
08/04/2019 20:40:00,EDT,Other Renewables,260.0
08/04/2019 20:40:00,EDT,Wind,72.0
08/04/2019 20:40:00,EDT,Hydro,3276.0
08/04/2019 20:45:00,EDT,Dual Fuel,6715.0
08/04/2019 20:45:00,EDT,Natural Gas,4529.0
08/04/2019 20:45:00,EDT,Nuclear,5233.0
08/04/2019 20:45:00,EDT,Other Fossil Fuels,117.0
08/04/2019 20:45:00,EDT,Other Renewables,257.0
08/04/2019 20:45:00,EDT,Wind,73.0
08/04/2019 20:45:00,EDT,Hydro,3292.0
08/04/2019 20:50:00,EDT,Dual Fuel,6677.0
08/04/2019 20:50:00,EDT,Natural Gas,4519.0
08/04/2019 20:50:00,EDT,Nuclear,5232.0
08/04/2019 20:50:00,EDT,Other Fossil Fuels,117.0
08/04/2019 20:50:00,EDT,Other Renewables,258.0
08/04/2019 20:50:00,EDT,Wind,77.0
08/04/2019 20:50:00,EDT,Hydro,3304.0
08/04/2019 20:55:00,EDT,Dual Fuel,6632.0
08/04/2019 20:55:00,EDT,Natural Gas,4518.0
08/04/2019 20:55:00,EDT,Nuclear,5233.0
08/04/2019 20:55:00,EDT,Other Fossil Fuels,117.0
08/04/2019 20:55:00,EDT,Other Renewables,257.0
08/04/2019 20:55:00,EDT,Wind,80.0
08/04/2019 20:55:00,EDT,Hydro,3302.0
08/04/2019 21:00:00,EDT,Dual Fuel,6604.0
08/04/2019 21:00:00,EDT,Natural Gas,4514.0
08/04/2019 21:00:00,EDT,Nuclear,5233.0
08/04/2019 21:00:00,EDT,Other Fossil Fuels,117.0
08/04/2019 21:00:00,EDT,Other Renewables,257.0
08/04/2019 21:00:00,EDT,Wind,78.0
08/04/2019 21:00:00,EDT,Hydro,3267.0
08/04/2019 21:05:00,EDT,Dual Fuel,6590.0
08/04/2019 21:05:00,EDT,Natural Gas,4442.0
08/04/2019 21:05:00,EDT,Nuclear,5233.0
08/04/2019 21:05:00,EDT,Other Fossil Fuels,117.0
08/04/2019 21:05:00,EDT,Other Renewables,258.0
08/04/2019 21:05:00,EDT,Wind,79.0
08/04/2019 21:05:00,EDT,Hydro,3282.0
08/04/2019 21:10:00,EDT,Dual Fuel,6558.0
08/04/2019 21:10:00,EDT,Natural Gas,4410.0
08/04/2019 21:10:00,EDT,Nuclear,5234.0
08/04/2019 21:10:00,EDT,Other Fossil Fuels,117.0
08/04/2019 21:10:00,EDT,Other Renewables,256.0
08/04/2019 21:10:00,EDT,Wind,84.0
08/04/2019 21:10:00,EDT,Hydro,3277.0
08/04/2019 21:15:00,EDT,Dual Fuel,6510.0
08/04/2019 21:15:00,EDT,Natural Gas,4365.0
08/04/2019 21:15:00,EDT,Nuclear,5233.0
08/04/2019 21:15:00,EDT,Other Fossil Fuels,117.0
08/04/2019 21:15:00,EDT,Other Renewables,260.0
08/04/2019 21:15:00,EDT,Wind,91.0
08/04/2019 21:15:00,EDT,Hydro,3258.0
08/04/2019 21:20:00,EDT,Dual Fuel,6470.0
08/04/2019 21:20:00,EDT,Natural Gas,4308.0
08/04/2019 21:20:00,EDT,Nuclear,5232.0
08/04/2019 21:20:00,EDT,Other Fossil Fuels,117.0
08/04/2019 21:20:00,EDT,Other Renewables,260.0
08/04/2019 21:20:00,EDT,Wind,98.0
08/04/2019 21:20:00,EDT,Hydro,3266.0
08/04/2019 21:25:00,EDT,Dual Fuel,6416.0
08/04/2019 21:25:00,EDT,Natural Gas,4290.0
08/04/2019 21:25:00,EDT,Nuclear,5233.0
08/04/2019 21:25:00,EDT,Other Fossil Fuels,117.0
08/04/2019 21:25:00,EDT,Other Renewables,258.0
08/04/2019 21:25:00,EDT,Wind,108.0
08/04/2019 21:25:00,EDT,Hydro,3261.0
08/04/2019 21:30:00,EDT,Dual Fuel,6389.0
08/04/2019 21:30:00,EDT,Natural Gas,4291.0
08/04/2019 21:30:00,EDT,Nuclear,5250.0
08/04/2019 21:30:00,EDT,Other Fossil Fuels,117.0
08/04/2019 21:30:00,EDT,Other Renewables,261.0
08/04/2019 21:30:00,EDT,Wind,110.0
08/04/2019 21:30:00,EDT,Hydro,3234.0
08/04/2019 21:35:00,EDT,Dual Fuel,6337.0
08/04/2019 21:35:00,EDT,Natural Gas,4290.0
08/04/2019 21:35:00,EDT,Nuclear,5257.0
08/04/2019 21:35:00,EDT,Other Fossil Fuels,117.0
08/04/2019 21:35:00,EDT,Other Renewables,260.0
08/04/2019 21:35:00,EDT,Wind,108.0
08/04/2019 21:35:00,EDT,Hydro,3187.0
08/04/2019 21:40:00,EDT,Dual Fuel,6299.0
08/04/2019 21:40:00,EDT,Natural Gas,4298.0
08/04/2019 21:40:00,EDT,Nuclear,5263.0
08/04/2019 21:40:00,EDT,Other Fossil Fuels,115.0
08/04/2019 21:40:00,EDT,Other Renewables,257.0
08/04/2019 21:40:00,EDT,Wind,107.0
08/04/2019 21:40:00,EDT,Hydro,3140.0
08/04/2019 21:45:00,EDT,Dual Fuel,6232.0
08/04/2019 21:45:00,EDT,Natural Gas,4300.0
08/04/2019 21:45:00,EDT,Nuclear,5264.0
08/04/2019 21:45:00,EDT,Other Fossil Fuels,102.0
08/04/2019 21:45:00,EDT,Other Renewables,257.0
08/04/2019 21:45:00,EDT,Wind,104.0
08/04/2019 21:45:00,EDT,Hydro,3101.0
08/04/2019 21:50:00,EDT,Dual Fuel,6178.0
08/04/2019 21:50:00,EDT,Natural Gas,4294.0
08/04/2019 21:50:00,EDT,Nuclear,5263.0
08/04/2019 21:50:00,EDT,Other Fossil Fuels,100.0
08/04/2019 21:50:00,EDT,Other Renewables,262.0
08/04/2019 21:50:00,EDT,Wind,102.0
08/04/2019 21:50:00,EDT,Hydro,3120.0
08/04/2019 21:55:00,EDT,Dual Fuel,6150.0
08/04/2019 21:55:00,EDT,Natural Gas,4274.0
08/04/2019 21:55:00,EDT,Nuclear,5263.0
08/04/2019 21:55:00,EDT,Other Fossil Fuels,101.0
08/04/2019 21:55:00,EDT,Other Renewables,263.0
08/04/2019 21:55:00,EDT,Wind,100.0
08/04/2019 21:55:00,EDT,Hydro,3092.0
08/04/2019 22:00:00,EDT,Dual Fuel,6167.0
08/04/2019 22:00:00,EDT,Natural Gas,4212.0
08/04/2019 22:00:00,EDT,Nuclear,5263.0
08/04/2019 22:00:00,EDT,Other Fossil Fuels,100.0
08/04/2019 22:00:00,EDT,Other Renewables,263.0
08/04/2019 22:00:00,EDT,Wind,97.0
08/04/2019 22:00:00,EDT,Hydro,3065.0
08/04/2019 22:05:00,EDT,Dual Fuel,6071.0
08/04/2019 22:05:00,EDT,Natural Gas,4180.0
08/04/2019 22:05:00,EDT,Nuclear,5266.0
08/04/2019 22:05:00,EDT,Other Fossil Fuels,101.0
08/04/2019 22:05:00,EDT,Other Renewables,262.0
08/04/2019 22:05:00,EDT,Wind,94.0
08/04/2019 22:05:00,EDT,Hydro,3097.0
08/04/2019 22:10:00,EDT,Dual Fuel,5935.0
08/04/2019 22:10:00,EDT,Natural Gas,4184.0
08/04/2019 22:10:00,EDT,Nuclear,5267.0
08/04/2019 22:10:00,EDT,Other Fossil Fuels,100.0
08/04/2019 22:10:00,EDT,Other Renewables,261.0
08/04/2019 22:10:00,EDT,Wind,90.0
08/04/2019 22:10:00,EDT,Hydro,3094.0
08/04/2019 22:15:00,EDT,Dual Fuel,5817.0
08/04/2019 22:15:00,EDT,Natural Gas,4167.0
08/04/2019 22:15:00,EDT,Nuclear,5266.0
08/04/2019 22:15:00,EDT,Other Fossil Fuels,101.0
08/04/2019 22:15:00,EDT,Other Renewables,259.0
08/04/2019 22:15:00,EDT,Wind,90.0
08/04/2019 22:15:00,EDT,Hydro,3089.0
08/04/2019 22:20:00,EDT,Dual Fuel,5745.0
08/04/2019 22:20:00,EDT,Natural Gas,4151.0
08/04/2019 22:20:00,EDT,Nuclear,5267.0
08/04/2019 22:20:00,EDT,Other Fossil Fuels,101.0
08/04/2019 22:20:00,EDT,Other Renewables,259.0
08/04/2019 22:20:00,EDT,Wind,85.0
08/04/2019 22:20:00,EDT,Hydro,3104.0
08/04/2019 22:25:00,EDT,Dual Fuel,5747.0
08/04/2019 22:25:00,EDT,Natural Gas,4121.0
08/04/2019 22:25:00,EDT,Nuclear,5268.0
08/04/2019 22:25:00,EDT,Other Fossil Fuels,100.0
08/04/2019 22:25:00,EDT,Other Renewables,257.0
08/04/2019 22:25:00,EDT,Wind,75.0
08/04/2019 22:25:00,EDT,Hydro,3094.0
08/04/2019 22:30:00,EDT,Dual Fuel,5680.0
08/04/2019 22:30:00,EDT,Natural Gas,4078.0
08/04/2019 22:30:00,EDT,Nuclear,5273.0
08/04/2019 22:30:00,EDT,Other Fossil Fuels,101.0
08/04/2019 22:30:00,EDT,Other Renewables,257.0
08/04/2019 22:30:00,EDT,Wind,73.0
08/04/2019 22:30:00,EDT,Hydro,3088.0
08/04/2019 22:35:00,EDT,Dual Fuel,5578.0
08/04/2019 22:35:00,EDT,Natural Gas,4074.0
08/04/2019 22:35:00,EDT,Nuclear,5274.0
08/04/2019 22:35:00,EDT,Other Fossil Fuels,101.0
08/04/2019 22:35:00,EDT,Other Renewables,259.0
08/04/2019 22:35:00,EDT,Wind,71.0
08/04/2019 22:35:00,EDT,Hydro,3081.0
08/04/2019 22:40:00,EDT,Dual Fuel,5546.0
08/04/2019 22:40:00,EDT,Natural Gas,4070.0
08/04/2019 22:40:00,EDT,Nuclear,5274.0
08/04/2019 22:40:00,EDT,Other Fossil Fuels,101.0
08/04/2019 22:40:00,EDT,Other Renewables,260.0
08/04/2019 22:40:00,EDT,Wind,64.0
08/04/2019 22:40:00,EDT,Hydro,3093.0
08/04/2019 22:45:00,EDT,Dual Fuel,5488.0
08/04/2019 22:45:00,EDT,Natural Gas,4054.0
08/04/2019 22:45:00,EDT,Nuclear,5276.0
08/04/2019 22:45:00,EDT,Other Fossil Fuels,101.0
08/04/2019 22:45:00,EDT,Other Renewables,260.0
08/04/2019 22:45:00,EDT,Wind,58.0
08/04/2019 22:45:00,EDT,Hydro,3090.0
08/04/2019 22:50:00,EDT,Dual Fuel,5440.0
08/04/2019 22:50:00,EDT,Natural Gas,4037.0
08/04/2019 22:50:00,EDT,Nuclear,5275.0
08/04/2019 22:50:00,EDT,Other Fossil Fuels,102.0
08/04/2019 22:50:00,EDT,Other Renewables,259.0
08/04/2019 22:50:00,EDT,Wind,52.0
08/04/2019 22:50:00,EDT,Hydro,3058.0
08/04/2019 22:55:00,EDT,Dual Fuel,5443.0
08/04/2019 22:55:00,EDT,Natural Gas,4039.0
08/04/2019 22:55:00,EDT,Nuclear,5276.0
08/04/2019 22:55:00,EDT,Other Fossil Fuels,101.0
08/04/2019 22:55:00,EDT,Other Renewables,255.0
08/04/2019 22:55:00,EDT,Wind,51.0
08/04/2019 22:55:00,EDT,Hydro,2975.0
08/04/2019 23:00:00,EDT,Dual Fuel,5420.0
08/04/2019 23:00:00,EDT,Natural Gas,4013.0
08/04/2019 23:00:00,EDT,Nuclear,5277.0
08/04/2019 23:00:00,EDT,Other Fossil Fuels,102.0
08/04/2019 23:00:00,EDT,Other Renewables,258.0
08/04/2019 23:00:00,EDT,Wind,49.0
08/04/2019 23:00:00,EDT,Hydro,2869.0
08/04/2019 23:05:00,EDT,Dual Fuel,5386.0
08/04/2019 23:05:00,EDT,Natural Gas,3989.0
08/04/2019 23:05:00,EDT,Nuclear,5277.0
08/04/2019 23:05:00,EDT,Other Fossil Fuels,102.0
08/04/2019 23:05:00,EDT,Other Renewables,261.0
08/04/2019 23:05:00,EDT,Wind,47.0
08/04/2019 23:05:00,EDT,Hydro,2752.0
08/04/2019 23:10:00,EDT,Dual Fuel,5276.0
08/04/2019 23:10:00,EDT,Natural Gas,3958.0
08/04/2019 23:10:00,EDT,Nuclear,5276.0
08/04/2019 23:10:00,EDT,Other Fossil Fuels,101.0
08/04/2019 23:10:00,EDT,Other Renewables,260.0
08/04/2019 23:10:00,EDT,Wind,43.0
08/04/2019 23:10:00,EDT,Hydro,2690.0
08/04/2019 23:15:00,EDT,Dual Fuel,5172.0
08/04/2019 23:15:00,EDT,Natural Gas,3948.0
08/04/2019 23:15:00,EDT,Nuclear,5276.0
08/04/2019 23:15:00,EDT,Other Fossil Fuels,101.0
08/04/2019 23:15:00,EDT,Other Renewables,256.0
08/04/2019 23:15:00,EDT,Wind,37.0
08/04/2019 23:15:00,EDT,Hydro,2693.0
08/04/2019 23:20:00,EDT,Dual Fuel,5107.0
08/04/2019 23:20:00,EDT,Natural Gas,3938.0
08/04/2019 23:20:00,EDT,Nuclear,5277.0
08/04/2019 23:20:00,EDT,Other Fossil Fuels,102.0
08/04/2019 23:20:00,EDT,Other Renewables,259.0
08/04/2019 23:20:00,EDT,Wind,36.0
08/04/2019 23:20:00,EDT,Hydro,2688.0
08/04/2019 23:25:00,EDT,Dual Fuel,5063.0
08/04/2019 23:25:00,EDT,Natural Gas,3924.0
08/04/2019 23:25:00,EDT,Nuclear,5277.0
08/04/2019 23:25:00,EDT,Other Fossil Fuels,101.0
08/04/2019 23:25:00,EDT,Other Renewables,263.0
08/04/2019 23:25:00,EDT,Wind,34.0
08/04/2019 23:25:00,EDT,Hydro,2674.0
08/04/2019 23:30:00,EDT,Dual Fuel,4983.0
08/04/2019 23:30:00,EDT,Natural Gas,3903.0
08/04/2019 23:30:00,EDT,Nuclear,5279.0
08/04/2019 23:30:00,EDT,Other Fossil Fuels,101.0
08/04/2019 23:30:00,EDT,Other Renewables,258.0
08/04/2019 23:30:00,EDT,Wind,34.0
08/04/2019 23:30:00,EDT,Hydro,2673.0
08/04/2019 23:35:00,EDT,Dual Fuel,4843.0
08/04/2019 23:35:00,EDT,Natural Gas,3897.0
08/04/2019 23:35:00,EDT,Nuclear,5279.0
08/04/2019 23:35:00,EDT,Other Fossil Fuels,101.0
08/04/2019 23:35:00,EDT,Other Renewables,259.0
08/04/2019 23:35:00,EDT,Wind,31.0
08/04/2019 23:35:00,EDT,Hydro,2692.0
08/04/2019 23:40:00,EDT,Dual Fuel,4814.0
08/04/2019 23:40:00,EDT,Natural Gas,3844.0
08/04/2019 23:40:00,EDT,Nuclear,5280.0
08/04/2019 23:40:00,EDT,Other Fossil Fuels,101.0
08/04/2019 23:40:00,EDT,Other Renewables,259.0
08/04/2019 23:40:00,EDT,Wind,29.0
08/04/2019 23:40:00,EDT,Hydro,2679.0
08/04/2019 23:45:00,EDT,Dual Fuel,4783.0
08/04/2019 23:45:00,EDT,Natural Gas,3724.0
08/04/2019 23:45:00,EDT,Nuclear,5280.0
08/04/2019 23:45:00,EDT,Other Fossil Fuels,93.0
08/04/2019 23:45:00,EDT,Other Renewables,259.0
08/04/2019 23:45:00,EDT,Wind,27.0
08/04/2019 23:45:00,EDT,Hydro,2677.0
08/04/2019 23:50:00,EDT,Dual Fuel,4767.0
08/04/2019 23:50:00,EDT,Natural Gas,3649.0
08/04/2019 23:50:00,EDT,Nuclear,5280.0
08/04/2019 23:50:00,EDT,Other Fossil Fuels,56.0
08/04/2019 23:50:00,EDT,Other Renewables,261.0
08/04/2019 23:50:00,EDT,Wind,23.0
08/04/2019 23:50:00,EDT,Hydro,2649.0
08/04/2019 23:55:00,EDT,Dual Fuel,4657.0
08/04/2019 23:55:00,EDT,Natural Gas,3642.0
08/04/2019 23:55:00,EDT,Nuclear,5276.0
08/04/2019 23:55:00,EDT,Other Fossil Fuels,51.0
08/04/2019 23:55:00,EDT,Other Renewables,259.0
08/04/2019 23:55:00,EDT,Wind,20.0
08/04/2019 23:55:00,EDT,Hydro,2553.0