Time Stamp,Time Zone,Fuel Category,Gen MW
08/24/2019 00:05:00,EDT,Dual Fuel,2420.0
08/24/2019 00:05:00,EDT,Natural Gas,2560.0
08/24/2019 00:05:00,EDT,Nuclear,5268.0
08/24/2019 00:05:00,EDT,Other Fossil Fuels,50.0
08/24/2019 00:05:00,EDT,Other Renewables,267.0
08/24/2019 00:05:00,EDT,Wind,112.0
08/24/2019 00:05:00,EDT,Hydro,2581.0
08/24/2019 00:10:00,EDT,Dual Fuel,2309.0
08/24/2019 00:10:00,EDT,Natural Gas,2312.0
08/24/2019 00:10:00,EDT,Nuclear,5269.0
08/24/2019 00:10:00,EDT,Other Fossil Fuels,51.0
08/24/2019 00:10:00,EDT,Other Renewables,270.0
08/24/2019 00:10:00,EDT,Wind,116.0
08/24/2019 00:10:00,EDT,Hydro,2566.0
08/24/2019 00:14:43,EDT,Dual Fuel,2323.0
08/24/2019 00:14:43,EDT,Natural Gas,2125.0
08/24/2019 00:14:43,EDT,Nuclear,5269.0
08/24/2019 00:14:43,EDT,Other Fossil Fuels,51.0
08/24/2019 00:14:43,EDT,Other Renewables,270.0
08/24/2019 00:14:43,EDT,Wind,115.0
08/24/2019 00:14:43,EDT,Hydro,2521.0
08/24/2019 00:15:00,EDT,Dual Fuel,2382.0
08/24/2019 00:15:00,EDT,Natural Gas,2078.0
08/24/2019 00:15:00,EDT,Nuclear,5269.0
08/24/2019 00:15:00,EDT,Other Fossil Fuels,53.0
08/24/2019 00:15:00,EDT,Other Renewables,267.0
08/24/2019 00:15:00,EDT,Wind,113.0
08/24/2019 00:15:00,EDT,Hydro,2506.0
08/24/2019 00:17:01,EDT,Dual Fuel,2427.0
08/24/2019 00:17:01,EDT,Natural Gas,2071.0
08/24/2019 00:17:01,EDT,Nuclear,5270.0
08/24/2019 00:17:01,EDT,Other Fossil Fuels,51.0
08/24/2019 00:17:01,EDT,Other Renewables,270.0
08/24/2019 00:17:01,EDT,Wind,112.0
08/24/2019 00:17:01,EDT,Hydro,2498.0
08/24/2019 00:20:00,EDT,Dual Fuel,2479.0
08/24/2019 00:20:00,EDT,Natural Gas,2059.0
08/24/2019 00:20:00,EDT,Nuclear,5270.0
08/24/2019 00:20:00,EDT,Other Fossil Fuels,51.0
08/24/2019 00:20:00,EDT,Other Renewables,270.0
08/24/2019 00:20:00,EDT,Wind,113.0
08/24/2019 00:20:00,EDT,Hydro,2486.0
08/24/2019 00:25:00,EDT,Dual Fuel,2468.0
08/24/2019 00:25:00,EDT,Natural Gas,2052.0
08/24/2019 00:25:00,EDT,Nuclear,5270.0
08/24/2019 00:25:00,EDT,Other Fossil Fuels,51.0
08/24/2019 00:25:00,EDT,Other Renewables,272.0
08/24/2019 00:25:00,EDT,Wind,112.0
08/24/2019 00:25:00,EDT,Hydro,2479.0
08/24/2019 00:30:00,EDT,Dual Fuel,2440.0
08/24/2019 00:30:00,EDT,Natural Gas,2040.0
08/24/2019 00:30:00,EDT,Nuclear,5271.0
08/24/2019 00:30:00,EDT,Other Fossil Fuels,51.0
08/24/2019 00:30:00,EDT,Other Renewables,267.0
08/24/2019 00:30:00,EDT,Wind,111.0
08/24/2019 00:30:00,EDT,Hydro,2450.0
08/24/2019 00:35:00,EDT,Dual Fuel,2446.0
08/24/2019 00:35:00,EDT,Natural Gas,2017.0
08/24/2019 00:35:00,EDT,Nuclear,5271.0
08/24/2019 00:35:00,EDT,Other Fossil Fuels,51.0
08/24/2019 00:35:00,EDT,Other Renewables,263.0
08/24/2019 00:35:00,EDT,Wind,109.0
08/24/2019 00:35:00,EDT,Hydro,2454.0
08/24/2019 00:40:00,EDT,Dual Fuel,2412.0
08/24/2019 00:40:00,EDT,Natural Gas,1992.0
08/24/2019 00:40:00,EDT,Nuclear,5270.0
08/24/2019 00:40:00,EDT,Other Fossil Fuels,51.0
08/24/2019 00:40:00,EDT,Other Renewables,263.0
08/24/2019 00:40:00,EDT,Wind,108.0
08/24/2019 00:40:00,EDT,Hydro,2440.0
08/24/2019 00:45:00,EDT,Dual Fuel,2357.0
08/24/2019 00:45:00,EDT,Natural Gas,1969.0
08/24/2019 00:45:00,EDT,Nuclear,5271.0
08/24/2019 00:45:00,EDT,Other Fossil Fuels,51.0
08/24/2019 00:45:00,EDT,Other Renewables,270.0
08/24/2019 00:45:00,EDT,Wind,107.0
08/24/2019 00:45:00,EDT,Hydro,2443.0
08/24/2019 00:50:00,EDT,Dual Fuel,2312.0
08/24/2019 00:50:00,EDT,Natural Gas,1961.0
08/24/2019 00:50:00,EDT,Nuclear,5274.0
08/24/2019 00:50:00,EDT,Other Fossil Fuels,50.0
08/24/2019 00:50:00,EDT,Other Renewables,264.0
08/24/2019 00:50:00,EDT,Wind,105.0
08/24/2019 00:50:00,EDT,Hydro,2460.0
08/24/2019 00:55:00,EDT,Dual Fuel,2230.0
08/24/2019 00:55:00,EDT,Natural Gas,1942.0
08/24/2019 00:55:00,EDT,Nuclear,5272.0
08/24/2019 00:55:00,EDT,Other Fossil Fuels,51.0
08/24/2019 00:55:00,EDT,Other Renewables,263.0
08/24/2019 00:55:00,EDT,Wind,103.0
08/24/2019 00:55:00,EDT,Hydro,2449.0
08/24/2019 01:00:00,EDT,Dual Fuel,2235.0
08/24/2019 01:00:00,EDT,Natural Gas,1920.0
08/24/2019 01:00:00,EDT,Nuclear,5272.0
08/24/2019 01:00:00,EDT,Other Fossil Fuels,51.0
08/24/2019 01:00:00,EDT,Other Renewables,261.0
08/24/2019 01:00:00,EDT,Wind,99.0
08/24/2019 01:00:00,EDT,Hydro,2426.0
08/24/2019 01:05:00,EDT,Dual Fuel,2334.0
08/24/2019 01:05:00,EDT,Natural Gas,1925.0
08/24/2019 01:05:00,EDT,Nuclear,5272.0
08/24/2019 01:05:00,EDT,Other Fossil Fuels,51.0
08/24/2019 01:05:00,EDT,Other Renewables,266.0
08/24/2019 01:05:00,EDT,Wind,94.0
08/24/2019 01:05:00,EDT,Hydro,2442.0
08/24/2019 01:10:00,EDT,Dual Fuel,2403.0
08/24/2019 01:10:00,EDT,Natural Gas,1938.0
08/24/2019 01:10:00,EDT,Nuclear,5272.0
08/24/2019 01:10:00,EDT,Other Fossil Fuels,51.0
08/24/2019 01:10:00,EDT,Other Renewables,269.0
08/24/2019 01:10:00,EDT,Wind,91.0
08/24/2019 01:10:00,EDT,Hydro,2457.0
08/24/2019 01:15:00,EDT,Dual Fuel,2386.0
08/24/2019 01:15:00,EDT,Natural Gas,1952.0
08/24/2019 01:15:00,EDT,Nuclear,5266.0
08/24/2019 01:15:00,EDT,Other Fossil Fuels,56.0
08/24/2019 01:15:00,EDT,Other Renewables,268.0
08/24/2019 01:15:00,EDT,Wind,89.0
08/24/2019 01:15:00,EDT,Hydro,2421.0
08/24/2019 01:20:00,EDT,Dual Fuel,2349.0
08/24/2019 01:20:00,EDT,Natural Gas,1956.0
08/24/2019 01:20:00,EDT,Nuclear,5273.0
08/24/2019 01:20:00,EDT,Other Fossil Fuels,51.0
08/24/2019 01:20:00,EDT,Other Renewables,268.0
08/24/2019 01:20:00,EDT,Wind,88.0
08/24/2019 01:20:00,EDT,Hydro,2337.0
08/24/2019 01:25:00,EDT,Dual Fuel,2334.0
08/24/2019 01:25:00,EDT,Natural Gas,1957.0
08/24/2019 01:25:00,EDT,Nuclear,5272.0
08/24/2019 01:25:00,EDT,Other Fossil Fuels,51.0
08/24/2019 01:25:00,EDT,Other Renewables,265.0
08/24/2019 01:25:00,EDT,Wind,87.0
08/24/2019 01:25:00,EDT,Hydro,2330.0
08/24/2019 01:30:00,EDT,Dual Fuel,2309.0
08/24/2019 01:30:00,EDT,Natural Gas,1935.0
08/24/2019 01:30:00,EDT,Nuclear,5275.0
08/24/2019 01:30:00,EDT,Other Fossil Fuels,51.0
08/24/2019 01:30:00,EDT,Other Renewables,267.0
08/24/2019 01:30:00,EDT,Wind,87.0
08/24/2019 01:30:00,EDT,Hydro,2345.0
08/24/2019 01:35:00,EDT,Dual Fuel,2297.0
08/24/2019 01:35:00,EDT,Natural Gas,1899.0
08/24/2019 01:35:00,EDT,Nuclear,5273.0
08/24/2019 01:35:00,EDT,Other Fossil Fuels,51.0
08/24/2019 01:35:00,EDT,Other Renewables,266.0
08/24/2019 01:35:00,EDT,Wind,86.0
08/24/2019 01:35:00,EDT,Hydro,2360.0
08/24/2019 01:40:00,EDT,Dual Fuel,2281.0
08/24/2019 01:40:00,EDT,Natural Gas,1896.0
08/24/2019 01:40:00,EDT,Nuclear,5273.0
08/24/2019 01:40:00,EDT,Other Fossil Fuels,51.0
08/24/2019 01:40:00,EDT,Other Renewables,269.0
08/24/2019 01:40:00,EDT,Wind,83.0
08/24/2019 01:40:00,EDT,Hydro,2346.0
08/24/2019 01:45:00,EDT,Dual Fuel,2218.0
08/24/2019 01:45:00,EDT,Natural Gas,1880.0
08/24/2019 01:45:00,EDT,Nuclear,5274.0
08/24/2019 01:45:00,EDT,Other Fossil Fuels,51.0
08/24/2019 01:45:00,EDT,Other Renewables,268.0
08/24/2019 01:45:00,EDT,Wind,83.0
08/24/2019 01:45:00,EDT,Hydro,2351.0
08/24/2019 01:50:00,EDT,Dual Fuel,2135.0
08/24/2019 01:50:00,EDT,Natural Gas,1881.0
08/24/2019 01:50:00,EDT,Nuclear,5273.0
08/24/2019 01:50:00,EDT,Other Fossil Fuels,50.0
08/24/2019 01:50:00,EDT,Other Renewables,268.0
08/24/2019 01:50:00,EDT,Wind,79.0
08/24/2019 01:50:00,EDT,Hydro,2383.0
08/24/2019 01:55:00,EDT,Dual Fuel,2133.0
08/24/2019 01:55:00,EDT,Natural Gas,1880.0
08/24/2019 01:55:00,EDT,Nuclear,5272.0
08/24/2019 01:55:00,EDT,Other Fossil Fuels,52.0
08/24/2019 01:55:00,EDT,Other Renewables,266.0
08/24/2019 01:55:00,EDT,Wind,76.0
08/24/2019 01:55:00,EDT,Hydro,2340.0
08/24/2019 02:00:00,EDT,Dual Fuel,2167.0
08/24/2019 02:00:00,EDT,Natural Gas,1829.0
08/24/2019 02:00:00,EDT,Nuclear,5272.0
08/24/2019 02:00:00,EDT,Other Fossil Fuels,51.0
08/24/2019 02:00:00,EDT,Other Renewables,268.0
08/24/2019 02:00:00,EDT,Wind,73.0
08/24/2019 02:00:00,EDT,Hydro,2298.0
08/24/2019 02:05:00,EDT,Dual Fuel,2216.0
08/24/2019 02:05:00,EDT,Natural Gas,1711.0
08/24/2019 02:05:00,EDT,Nuclear,5271.0
08/24/2019 02:05:00,EDT,Other Fossil Fuels,51.0
08/24/2019 02:05:00,EDT,Other Renewables,266.0
08/24/2019 02:05:00,EDT,Wind,73.0
08/24/2019 02:05:00,EDT,Hydro,2365.0
08/24/2019 02:10:00,EDT,Dual Fuel,2240.0
08/24/2019 02:10:00,EDT,Natural Gas,1705.0
08/24/2019 02:10:00,EDT,Nuclear,5271.0
08/24/2019 02:10:00,EDT,Other Fossil Fuels,51.0
08/24/2019 02:10:00,EDT,Other Renewables,267.0
08/24/2019 02:10:00,EDT,Wind,67.0
08/24/2019 02:10:00,EDT,Hydro,2401.0
08/24/2019 02:15:00,EDT,Dual Fuel,2253.0
08/24/2019 02:15:00,EDT,Natural Gas,1716.0
08/24/2019 02:15:00,EDT,Nuclear,5271.0
08/24/2019 02:15:00,EDT,Other Fossil Fuels,51.0
08/24/2019 02:15:00,EDT,Other Renewables,270.0
08/24/2019 02:15:00,EDT,Wind,65.0
08/24/2019 02:15:00,EDT,Hydro,2396.0
08/24/2019 02:20:00,EDT,Dual Fuel,2248.0
08/24/2019 02:20:00,EDT,Natural Gas,1726.0
08/24/2019 02:20:00,EDT,Nuclear,5271.0
08/24/2019 02:20:00,EDT,Other Fossil Fuels,51.0
08/24/2019 02:20:00,EDT,Other Renewables,268.0
08/24/2019 02:20:00,EDT,Wind,68.0
08/24/2019 02:20:00,EDT,Hydro,2405.0
08/24/2019 02:25:00,EDT,Dual Fuel,2209.0
08/24/2019 02:25:00,EDT,Natural Gas,1713.0
08/24/2019 02:25:00,EDT,Nuclear,5271.0
08/24/2019 02:25:00,EDT,Other Fossil Fuels,51.0
08/24/2019 02:25:00,EDT,Other Renewables,269.0
08/24/2019 02:25:00,EDT,Wind,71.0
08/24/2019 02:25:00,EDT,Hydro,2393.0
08/24/2019 02:30:00,EDT,Dual Fuel,2172.0
08/24/2019 02:30:00,EDT,Natural Gas,1678.0
08/24/2019 02:30:00,EDT,Nuclear,5272.0
08/24/2019 02:30:00,EDT,Other Fossil Fuels,51.0
08/24/2019 02:30:00,EDT,Other Renewables,268.0
08/24/2019 02:30:00,EDT,Wind,71.0
08/24/2019 02:30:00,EDT,Hydro,2374.0
08/24/2019 02:35:00,EDT,Dual Fuel,2092.0
08/24/2019 02:35:00,EDT,Natural Gas,1665.0
08/24/2019 02:35:00,EDT,Nuclear,5271.0
08/24/2019 02:35:00,EDT,Other Fossil Fuels,50.0
08/24/2019 02:35:00,EDT,Other Renewables,267.0
08/24/2019 02:35:00,EDT,Wind,71.0
08/24/2019 02:35:00,EDT,Hydro,2384.0
08/24/2019 02:40:00,EDT,Dual Fuel,2042.0
08/24/2019 02:40:00,EDT,Natural Gas,1639.0
08/24/2019 02:40:00,EDT,Nuclear,5271.0
08/24/2019 02:40:00,EDT,Other Fossil Fuels,51.0
08/24/2019 02:40:00,EDT,Other Renewables,264.0
08/24/2019 02:40:00,EDT,Wind,72.0
08/24/2019 02:40:00,EDT,Hydro,2408.0
08/24/2019 02:45:00,EDT,Dual Fuel,2043.0
08/24/2019 02:45:00,EDT,Natural Gas,1640.0
08/24/2019 02:45:00,EDT,Nuclear,5270.0
08/24/2019 02:45:00,EDT,Other Fossil Fuels,51.0
08/24/2019 02:45:00,EDT,Other Renewables,266.0
08/24/2019 02:45:00,EDT,Wind,73.0
08/24/2019 02:45:00,EDT,Hydro,2422.0
08/24/2019 02:50:00,EDT,Dual Fuel,2067.0
08/24/2019 02:50:00,EDT,Natural Gas,1641.0
08/24/2019 02:50:00,EDT,Nuclear,5271.0
08/24/2019 02:50:00,EDT,Other Fossil Fuels,51.0
08/24/2019 02:50:00,EDT,Other Renewables,269.0
08/24/2019 02:50:00,EDT,Wind,78.0
08/24/2019 02:50:00,EDT,Hydro,2411.0
08/24/2019 02:55:00,EDT,Dual Fuel,2067.0
08/24/2019 02:55:00,EDT,Natural Gas,1641.0
08/24/2019 02:55:00,EDT,Nuclear,5271.0
08/24/2019 02:55:00,EDT,Other Fossil Fuels,51.0
08/24/2019 02:55:00,EDT,Other Renewables,271.0
08/24/2019 02:55:00,EDT,Wind,84.0
08/24/2019 02:55:00,EDT,Hydro,2385.0
08/24/2019 03:00:00,EDT,Dual Fuel,2053.0
08/24/2019 03:00:00,EDT,Natural Gas,1641.0
08/24/2019 03:00:00,EDT,Nuclear,5273.0
08/24/2019 03:00:00,EDT,Other Fossil Fuels,51.0
08/24/2019 03:00:00,EDT,Other Renewables,267.0
08/24/2019 03:00:00,EDT,Wind,85.0
08/24/2019 03:00:00,EDT,Hydro,2374.0
08/24/2019 03:05:00,EDT,Dual Fuel,2104.0
08/24/2019 03:05:00,EDT,Natural Gas,1642.0
08/24/2019 03:05:00,EDT,Nuclear,5270.0
08/24/2019 03:05:00,EDT,Other Fossil Fuels,50.0
08/24/2019 03:05:00,EDT,Other Renewables,267.0
08/24/2019 03:05:00,EDT,Wind,84.0
08/24/2019 03:05:00,EDT,Hydro,2381.0
08/24/2019 03:10:00,EDT,Dual Fuel,2133.0
08/24/2019 03:10:00,EDT,Natural Gas,1643.0
08/24/2019 03:10:00,EDT,Nuclear,5272.0
08/24/2019 03:10:00,EDT,Other Fossil Fuels,51.0
08/24/2019 03:10:00,EDT,Other Renewables,266.0
08/24/2019 03:10:00,EDT,Wind,88.0
08/24/2019 03:10:00,EDT,Hydro,2387.0
08/24/2019 03:15:00,EDT,Dual Fuel,2077.0
08/24/2019 03:15:00,EDT,Natural Gas,1642.0
08/24/2019 03:15:00,EDT,Nuclear,5273.0
08/24/2019 03:15:00,EDT,Other Fossil Fuels,51.0
08/24/2019 03:15:00,EDT,Other Renewables,268.0
08/24/2019 03:15:00,EDT,Wind,91.0
08/24/2019 03:15:00,EDT,Hydro,2394.0
08/24/2019 03:20:00,EDT,Dual Fuel,2026.0
08/24/2019 03:20:00,EDT,Natural Gas,1642.0
08/24/2019 03:20:00,EDT,Nuclear,5273.0
08/24/2019 03:20:00,EDT,Other Fossil Fuels,51.0
08/24/2019 03:20:00,EDT,Other Renewables,265.0
08/24/2019 03:20:00,EDT,Wind,92.0
08/24/2019 03:20:00,EDT,Hydro,2425.0
08/24/2019 03:25:00,EDT,Dual Fuel,2017.0
08/24/2019 03:25:00,EDT,Natural Gas,1642.0
08/24/2019 03:25:00,EDT,Nuclear,5274.0
08/24/2019 03:25:00,EDT,Other Fossil Fuels,51.0
08/24/2019 03:25:00,EDT,Other Renewables,261.0
08/24/2019 03:25:00,EDT,Wind,90.0
08/24/2019 03:25:00,EDT,Hydro,2428.0
08/24/2019 03:30:00,EDT,Dual Fuel,2018.0
08/24/2019 03:30:00,EDT,Natural Gas,1643.0
08/24/2019 03:30:00,EDT,Nuclear,5275.0
08/24/2019 03:30:00,EDT,Other Fossil Fuels,51.0
08/24/2019 03:30:00,EDT,Other Renewables,266.0
08/24/2019 03:30:00,EDT,Wind,85.0
08/24/2019 03:30:00,EDT,Hydro,2396.0
08/24/2019 03:35:00,EDT,Dual Fuel,2017.0
08/24/2019 03:35:00,EDT,Natural Gas,1642.0
08/24/2019 03:35:00,EDT,Nuclear,5273.0
08/24/2019 03:35:00,EDT,Other Fossil Fuels,51.0
08/24/2019 03:35:00,EDT,Other Renewables,266.0
08/24/2019 03:35:00,EDT,Wind,76.0
08/24/2019 03:35:00,EDT,Hydro,2390.0
08/24/2019 03:40:00,EDT,Dual Fuel,2017.0
08/24/2019 03:40:00,EDT,Natural Gas,1643.0
08/24/2019 03:40:00,EDT,Nuclear,5271.0
08/24/2019 03:40:00,EDT,Other Fossil Fuels,51.0
08/24/2019 03:40:00,EDT,Other Renewables,267.0
08/24/2019 03:40:00,EDT,Wind,69.0
08/24/2019 03:40:00,EDT,Hydro,2408.0
08/24/2019 03:45:00,EDT,Dual Fuel,2019.0
08/24/2019 03:45:00,EDT,Natural Gas,1642.0
08/24/2019 03:45:00,EDT,Nuclear,5271.0
08/24/2019 03:45:00,EDT,Other Fossil Fuels,51.0
08/24/2019 03:45:00,EDT,Other Renewables,268.0
08/24/2019 03:45:00,EDT,Wind,67.0
08/24/2019 03:45:00,EDT,Hydro,2417.0
08/24/2019 03:50:00,EDT,Dual Fuel,2018.0
08/24/2019 03:50:00,EDT,Natural Gas,1643.0
08/24/2019 03:50:00,EDT,Nuclear,5270.0
08/24/2019 03:50:00,EDT,Other Fossil Fuels,51.0
08/24/2019 03:50:00,EDT,Other Renewables,270.0
08/24/2019 03:50:00,EDT,Wind,64.0
08/24/2019 03:50:00,EDT,Hydro,2389.0
08/24/2019 03:55:00,EDT,Dual Fuel,2017.0
08/24/2019 03:55:00,EDT,Natural Gas,1643.0
08/24/2019 03:55:00,EDT,Nuclear,5269.0
08/24/2019 03:55:00,EDT,Other Fossil Fuels,50.0
08/24/2019 03:55:00,EDT,Other Renewables,271.0
08/24/2019 03:55:00,EDT,Wind,63.0
08/24/2019 03:55:00,EDT,Hydro,2370.0
08/24/2019 04:00:00,EDT,Dual Fuel,2023.0
08/24/2019 04:00:00,EDT,Natural Gas,1646.0
08/24/2019 04:00:00,EDT,Nuclear,5268.0
08/24/2019 04:00:00,EDT,Other Fossil Fuels,51.0
08/24/2019 04:00:00,EDT,Other Renewables,271.0
08/24/2019 04:00:00,EDT,Wind,62.0
08/24/2019 04:00:00,EDT,Hydro,2358.0
08/24/2019 04:05:00,EDT,Dual Fuel,2042.0
08/24/2019 04:05:00,EDT,Natural Gas,1670.0
08/24/2019 04:05:00,EDT,Nuclear,5268.0
08/24/2019 04:05:00,EDT,Other Fossil Fuels,50.0
08/24/2019 04:05:00,EDT,Other Renewables,274.0
08/24/2019 04:05:00,EDT,Wind,64.0
08/24/2019 04:05:00,EDT,Hydro,2379.0
08/24/2019 04:10:00,EDT,Dual Fuel,2058.0
08/24/2019 04:10:00,EDT,Natural Gas,1686.0
08/24/2019 04:10:00,EDT,Nuclear,5266.0
08/24/2019 04:10:00,EDT,Other Fossil Fuels,51.0
08/24/2019 04:10:00,EDT,Other Renewables,271.0
08/24/2019 04:10:00,EDT,Wind,66.0
08/24/2019 04:10:00,EDT,Hydro,2420.0
08/24/2019 04:15:00,EDT,Dual Fuel,2066.0
08/24/2019 04:15:00,EDT,Natural Gas,1690.0
08/24/2019 04:15:00,EDT,Nuclear,5264.0
08/24/2019 04:15:00,EDT,Other Fossil Fuels,51.0
08/24/2019 04:15:00,EDT,Other Renewables,275.0
08/24/2019 04:15:00,EDT,Wind,68.0
08/24/2019 04:15:00,EDT,Hydro,2414.0
08/24/2019 04:20:00,EDT,Dual Fuel,2052.0
08/24/2019 04:20:00,EDT,Natural Gas,1690.0
08/24/2019 04:20:00,EDT,Nuclear,5262.0
08/24/2019 04:20:00,EDT,Other Fossil Fuels,51.0
08/24/2019 04:20:00,EDT,Other Renewables,275.0
08/24/2019 04:20:00,EDT,Wind,69.0
08/24/2019 04:20:00,EDT,Hydro,2417.0
08/24/2019 04:25:00,EDT,Dual Fuel,2042.0
08/24/2019 04:25:00,EDT,Natural Gas,1689.0
08/24/2019 04:25:00,EDT,Nuclear,5261.0
08/24/2019 04:25:00,EDT,Other Fossil Fuels,51.0
08/24/2019 04:25:00,EDT,Other Renewables,274.0
08/24/2019 04:25:00,EDT,Wind,72.0
08/24/2019 04:25:00,EDT,Hydro,2407.0
08/24/2019 04:30:00,EDT,Dual Fuel,2039.0
08/24/2019 04:30:00,EDT,Natural Gas,1697.0
08/24/2019 04:30:00,EDT,Nuclear,5261.0
08/24/2019 04:30:00,EDT,Other Fossil Fuels,51.0
08/24/2019 04:30:00,EDT,Other Renewables,271.0
08/24/2019 04:30:00,EDT,Wind,74.0
08/24/2019 04:30:00,EDT,Hydro,2411.0
08/24/2019 04:35:00,EDT,Dual Fuel,2029.0
08/24/2019 04:35:00,EDT,Natural Gas,1700.0
08/24/2019 04:35:00,EDT,Nuclear,5263.0
08/24/2019 04:35:00,EDT,Other Fossil Fuels,51.0
08/24/2019 04:35:00,EDT,Other Renewables,272.0
08/24/2019 04:35:00,EDT,Wind,76.0
08/24/2019 04:35:00,EDT,Hydro,2404.0
08/24/2019 04:40:00,EDT,Dual Fuel,2027.0
08/24/2019 04:40:00,EDT,Natural Gas,1695.0
08/24/2019 04:40:00,EDT,Nuclear,5266.0
08/24/2019 04:40:00,EDT,Other Fossil Fuels,51.0
08/24/2019 04:40:00,EDT,Other Renewables,273.0
08/24/2019 04:40:00,EDT,Wind,80.0
08/24/2019 04:40:00,EDT,Hydro,2393.0
08/24/2019 04:45:00,EDT,Dual Fuel,2034.0
08/24/2019 04:45:00,EDT,Natural Gas,1681.0
08/24/2019 04:45:00,EDT,Nuclear,5266.0
08/24/2019 04:45:00,EDT,Other Fossil Fuels,50.0
08/24/2019 04:45:00,EDT,Other Renewables,275.0
08/24/2019 04:45:00,EDT,Wind,84.0
08/24/2019 04:45:00,EDT,Hydro,2364.0
08/24/2019 04:50:00,EDT,Dual Fuel,2029.0
08/24/2019 04:50:00,EDT,Natural Gas,1683.0
08/24/2019 04:50:00,EDT,Nuclear,5269.0
08/24/2019 04:50:00,EDT,Other Fossil Fuels,51.0
08/24/2019 04:50:00,EDT,Other Renewables,273.0
08/24/2019 04:50:00,EDT,Wind,84.0
08/24/2019 04:50:00,EDT,Hydro,2351.0
08/24/2019 04:55:00,EDT,Dual Fuel,2028.0
08/24/2019 04:55:00,EDT,Natural Gas,1680.0
08/24/2019 04:55:00,EDT,Nuclear,5269.0
08/24/2019 04:55:00,EDT,Other Fossil Fuels,51.0
08/24/2019 04:55:00,EDT,Other Renewables,272.0
08/24/2019 04:55:00,EDT,Wind,82.0
08/24/2019 04:55:00,EDT,Hydro,2356.0
08/24/2019 05:00:00,EDT,Dual Fuel,2032.0
08/24/2019 05:00:00,EDT,Natural Gas,1688.0
08/24/2019 05:00:00,EDT,Nuclear,5267.0
08/24/2019 05:00:00,EDT,Other Fossil Fuels,51.0
08/24/2019 05:00:00,EDT,Other Renewables,273.0
08/24/2019 05:00:00,EDT,Wind,82.0
08/24/2019 05:00:00,EDT,Hydro,2361.0
08/24/2019 05:05:00,EDT,Dual Fuel,2049.0
08/24/2019 05:05:00,EDT,Natural Gas,1688.0
08/24/2019 05:05:00,EDT,Nuclear,5268.0
08/24/2019 05:05:00,EDT,Other Fossil Fuels,51.0
08/24/2019 05:05:00,EDT,Other Renewables,271.0
08/24/2019 05:05:00,EDT,Wind,81.0
08/24/2019 05:05:00,EDT,Hydro,2385.0
08/24/2019 05:10:00,EDT,Dual Fuel,2049.0
08/24/2019 05:10:00,EDT,Natural Gas,1686.0
08/24/2019 05:10:00,EDT,Nuclear,5266.0
08/24/2019 05:10:00,EDT,Other Fossil Fuels,51.0
08/24/2019 05:10:00,EDT,Other Renewables,266.0
08/24/2019 05:10:00,EDT,Wind,84.0
08/24/2019 05:10:00,EDT,Hydro,2380.0
08/24/2019 05:15:00,EDT,Dual Fuel,2067.0
08/24/2019 05:15:00,EDT,Natural Gas,1691.0
08/24/2019 05:15:00,EDT,Nuclear,5267.0
08/24/2019 05:15:00,EDT,Other Fossil Fuels,51.0
08/24/2019 05:15:00,EDT,Other Renewables,265.0
08/24/2019 05:15:00,EDT,Wind,84.0
08/24/2019 05:15:00,EDT,Hydro,2400.0
08/24/2019 05:20:00,EDT,Dual Fuel,2091.0
08/24/2019 05:20:00,EDT,Natural Gas,1691.0
08/24/2019 05:20:00,EDT,Nuclear,5266.0
08/24/2019 05:20:00,EDT,Other Fossil Fuels,51.0
08/24/2019 05:20:00,EDT,Other Renewables,267.0
08/24/2019 05:20:00,EDT,Wind,84.0
08/24/2019 05:20:00,EDT,Hydro,2401.0
08/24/2019 05:25:00,EDT,Dual Fuel,2113.0
08/24/2019 05:25:00,EDT,Natural Gas,1698.0
08/24/2019 05:25:00,EDT,Nuclear,5267.0
08/24/2019 05:25:00,EDT,Other Fossil Fuels,51.0
08/24/2019 05:25:00,EDT,Other Renewables,267.0
08/24/2019 05:25:00,EDT,Wind,81.0
08/24/2019 05:25:00,EDT,Hydro,2406.0
08/24/2019 05:30:00,EDT,Dual Fuel,2126.0
08/24/2019 05:30:00,EDT,Natural Gas,1699.0
08/24/2019 05:30:00,EDT,Nuclear,5266.0
08/24/2019 05:30:00,EDT,Other Fossil Fuels,51.0
08/24/2019 05:30:00,EDT,Other Renewables,267.0
08/24/2019 05:30:00,EDT,Wind,79.0
08/24/2019 05:30:00,EDT,Hydro,2395.0
08/24/2019 05:35:00,EDT,Dual Fuel,2139.0
08/24/2019 05:35:00,EDT,Natural Gas,1698.0
08/24/2019 05:35:00,EDT,Nuclear,5265.0
08/24/2019 05:35:00,EDT,Other Fossil Fuels,51.0
08/24/2019 05:35:00,EDT,Other Renewables,269.0
08/24/2019 05:35:00,EDT,Wind,80.0
08/24/2019 05:35:00,EDT,Hydro,2392.0
08/24/2019 05:40:00,EDT,Dual Fuel,2160.0
08/24/2019 05:40:00,EDT,Natural Gas,1696.0
08/24/2019 05:40:00,EDT,Nuclear,5266.0
08/24/2019 05:40:00,EDT,Other Fossil Fuels,50.0
08/24/2019 05:40:00,EDT,Other Renewables,266.0
08/24/2019 05:40:00,EDT,Wind,81.0
08/24/2019 05:40:00,EDT,Hydro,2402.0
08/24/2019 05:45:00,EDT,Dual Fuel,2150.0
08/24/2019 05:45:00,EDT,Natural Gas,1693.0
08/24/2019 05:45:00,EDT,Nuclear,5267.0
08/24/2019 05:45:00,EDT,Other Fossil Fuels,51.0
08/24/2019 05:45:00,EDT,Other Renewables,269.0
08/24/2019 05:45:00,EDT,Wind,81.0
08/24/2019 05:45:00,EDT,Hydro,2412.0
08/24/2019 05:50:00,EDT,Dual Fuel,2109.0
08/24/2019 05:50:00,EDT,Natural Gas,1698.0
08/24/2019 05:50:00,EDT,Nuclear,5268.0
08/24/2019 05:50:00,EDT,Other Fossil Fuels,51.0
08/24/2019 05:50:00,EDT,Other Renewables,266.0
08/24/2019 05:50:00,EDT,Wind,80.0
08/24/2019 05:50:00,EDT,Hydro,2435.0
08/24/2019 05:55:00,EDT,Dual Fuel,2061.0
08/24/2019 05:55:00,EDT,Natural Gas,1698.0
08/24/2019 05:55:00,EDT,Nuclear,5267.0
08/24/2019 05:55:00,EDT,Other Fossil Fuels,50.0
08/24/2019 05:55:00,EDT,Other Renewables,264.0
08/24/2019 05:55:00,EDT,Wind,76.0
08/24/2019 05:55:00,EDT,Hydro,2446.0
08/24/2019 06:00:00,EDT,Dual Fuel,2070.0
08/24/2019 06:00:00,EDT,Natural Gas,1675.0
08/24/2019 06:00:00,EDT,Nuclear,5269.0
08/24/2019 06:00:00,EDT,Other Fossil Fuels,51.0
08/24/2019 06:00:00,EDT,Other Renewables,264.0
08/24/2019 06:00:00,EDT,Wind,73.0
08/24/2019 06:00:00,EDT,Hydro,2462.0
08/24/2019 06:05:00,EDT,Dual Fuel,2187.0
08/24/2019 06:05:00,EDT,Natural Gas,1649.0
08/24/2019 06:05:00,EDT,Nuclear,5270.0
08/24/2019 06:05:00,EDT,Other Fossil Fuels,51.0
08/24/2019 06:05:00,EDT,Other Renewables,265.0
08/24/2019 06:05:00,EDT,Wind,69.0
08/24/2019 06:05:00,EDT,Hydro,2571.0
08/24/2019 06:10:00,EDT,Dual Fuel,2292.0
08/24/2019 06:10:00,EDT,Natural Gas,1658.0
08/24/2019 06:10:00,EDT,Nuclear,5270.0
08/24/2019 06:10:00,EDT,Other Fossil Fuels,51.0
08/24/2019 06:10:00,EDT,Other Renewables,267.0
08/24/2019 06:10:00,EDT,Wind,66.0
08/24/2019 06:10:00,EDT,Hydro,2734.0
08/24/2019 06:15:00,EDT,Dual Fuel,2284.0
08/24/2019 06:15:00,EDT,Natural Gas,1689.0
08/24/2019 06:15:00,EDT,Nuclear,5270.0
08/24/2019 06:15:00,EDT,Other Fossil Fuels,51.0
08/24/2019 06:15:00,EDT,Other Renewables,269.0
08/24/2019 06:15:00,EDT,Wind,62.0
08/24/2019 06:15:00,EDT,Hydro,2726.0
08/24/2019 06:20:00,EDT,Dual Fuel,2345.0
08/24/2019 06:20:00,EDT,Natural Gas,1722.0
08/24/2019 06:20:00,EDT,Nuclear,5271.0
08/24/2019 06:20:00,EDT,Other Fossil Fuels,51.0
08/24/2019 06:20:00,EDT,Other Renewables,270.0
08/24/2019 06:20:00,EDT,Wind,61.0
08/24/2019 06:20:00,EDT,Hydro,2698.0
08/24/2019 06:25:00,EDT,Dual Fuel,2406.0
08/24/2019 06:25:00,EDT,Natural Gas,1736.0
08/24/2019 06:25:00,EDT,Nuclear,5271.0
08/24/2019 06:25:00,EDT,Other Fossil Fuels,50.0
08/24/2019 06:25:00,EDT,Other Renewables,267.0
08/24/2019 06:25:00,EDT,Wind,61.0
08/24/2019 06:25:00,EDT,Hydro,2670.0
08/24/2019 06:30:00,EDT,Dual Fuel,2416.0
08/24/2019 06:30:00,EDT,Natural Gas,1806.0
08/24/2019 06:30:00,EDT,Nuclear,5271.0
08/24/2019 06:30:00,EDT,Other Fossil Fuels,51.0
08/24/2019 06:30:00,EDT,Other Renewables,265.0
08/24/2019 06:30:00,EDT,Wind,63.0
08/24/2019 06:30:00,EDT,Hydro,2662.0
08/24/2019 06:35:00,EDT,Dual Fuel,2405.0
08/24/2019 06:35:00,EDT,Natural Gas,1859.0
08/24/2019 06:35:00,EDT,Nuclear,5271.0
08/24/2019 06:35:00,EDT,Other Fossil Fuels,51.0
08/24/2019 06:35:00,EDT,Other Renewables,265.0
08/24/2019 06:35:00,EDT,Wind,69.0
08/24/2019 06:35:00,EDT,Hydro,2629.0
08/24/2019 06:40:00,EDT,Dual Fuel,2388.0
08/24/2019 06:40:00,EDT,Natural Gas,1881.0
08/24/2019 06:40:00,EDT,Nuclear,5273.0
08/24/2019 06:40:00,EDT,Other Fossil Fuels,50.0
08/24/2019 06:40:00,EDT,Other Renewables,265.0
08/24/2019 06:40:00,EDT,Wind,84.0
08/24/2019 06:40:00,EDT,Hydro,2591.0
08/24/2019 06:45:00,EDT,Dual Fuel,2356.0
08/24/2019 06:45:00,EDT,Natural Gas,1900.0
08/24/2019 06:45:00,EDT,Nuclear,5273.0
08/24/2019 06:45:00,EDT,Other Fossil Fuels,51.0
08/24/2019 06:45:00,EDT,Other Renewables,267.0
08/24/2019 06:45:00,EDT,Wind,79.0
08/24/2019 06:45:00,EDT,Hydro,2559.0
08/24/2019 06:50:00,EDT,Dual Fuel,2368.0
08/24/2019 06:50:00,EDT,Natural Gas,1883.0
08/24/2019 06:50:00,EDT,Nuclear,5273.0
08/24/2019 06:50:00,EDT,Other Fossil Fuels,50.0
08/24/2019 06:50:00,EDT,Other Renewables,268.0
08/24/2019 06:50:00,EDT,Wind,79.0
08/24/2019 06:50:00,EDT,Hydro,2593.0
08/24/2019 06:55:00,EDT,Dual Fuel,2407.0
08/24/2019 06:55:00,EDT,Natural Gas,1997.0
08/24/2019 06:55:00,EDT,Nuclear,5272.0
08/24/2019 06:55:00,EDT,Other Fossil Fuels,51.0
08/24/2019 06:55:00,EDT,Other Renewables,266.0
08/24/2019 06:55:00,EDT,Wind,83.0
08/24/2019 06:55:00,EDT,Hydro,2604.0
08/24/2019 07:00:00,EDT,Dual Fuel,2278.0
08/24/2019 07:00:00,EDT,Natural Gas,2113.0
08/24/2019 07:00:00,EDT,Nuclear,5271.0
08/24/2019 07:00:00,EDT,Other Fossil Fuels,51.0
08/24/2019 07:00:00,EDT,Other Renewables,265.0
08/24/2019 07:00:00,EDT,Wind,81.0
08/24/2019 07:00:00,EDT,Hydro,2594.0
08/24/2019 07:05:00,EDT,Dual Fuel,2222.0
08/24/2019 07:05:00,EDT,Natural Gas,2116.0
08/24/2019 07:05:00,EDT,Nuclear,5270.0
08/24/2019 07:05:00,EDT,Other Fossil Fuels,51.0
08/24/2019 07:05:00,EDT,Other Renewables,266.0
08/24/2019 07:05:00,EDT,Wind,84.0
08/24/2019 07:05:00,EDT,Hydro,2741.0
08/24/2019 07:10:00,EDT,Dual Fuel,2230.0
08/24/2019 07:10:00,EDT,Natural Gas,2155.0
08/24/2019 07:10:00,EDT,Nuclear,5271.0
08/24/2019 07:10:00,EDT,Other Fossil Fuels,51.0
08/24/2019 07:10:00,EDT,Other Renewables,265.0
08/24/2019 07:10:00,EDT,Wind,84.0
08/24/2019 07:10:00,EDT,Hydro,2784.0
08/24/2019 07:15:00,EDT,Dual Fuel,2234.0
08/24/2019 07:15:00,EDT,Natural Gas,2172.0
08/24/2019 07:15:00,EDT,Nuclear,5272.0
08/24/2019 07:15:00,EDT,Other Fossil Fuels,50.0
08/24/2019 07:15:00,EDT,Other Renewables,262.0
08/24/2019 07:15:00,EDT,Wind,81.0
08/24/2019 07:15:00,EDT,Hydro,2795.0
08/24/2019 07:20:00,EDT,Dual Fuel,2258.0
08/24/2019 07:20:00,EDT,Natural Gas,2192.0
08/24/2019 07:20:00,EDT,Nuclear,5273.0
08/24/2019 07:20:00,EDT,Other Fossil Fuels,51.0
08/24/2019 07:20:00,EDT,Other Renewables,269.0
08/24/2019 07:20:00,EDT,Wind,78.0
08/24/2019 07:20:00,EDT,Hydro,2766.0
08/24/2019 07:25:00,EDT,Dual Fuel,2282.0
08/24/2019 07:25:00,EDT,Natural Gas,2315.0
08/24/2019 07:25:00,EDT,Nuclear,5272.0
08/24/2019 07:25:00,EDT,Other Fossil Fuels,51.0
08/24/2019 07:25:00,EDT,Other Renewables,271.0
08/24/2019 07:25:00,EDT,Wind,77.0
08/24/2019 07:25:00,EDT,Hydro,2751.0
08/24/2019 07:30:00,EDT,Dual Fuel,2223.0
08/24/2019 07:30:00,EDT,Natural Gas,2452.0
08/24/2019 07:30:00,EDT,Nuclear,5271.0
08/24/2019 07:30:00,EDT,Other Fossil Fuels,51.0
08/24/2019 07:30:00,EDT,Other Renewables,272.0
08/24/2019 07:30:00,EDT,Wind,77.0
08/24/2019 07:30:00,EDT,Hydro,2744.0
08/24/2019 07:35:00,EDT,Dual Fuel,2212.0
08/24/2019 07:35:00,EDT,Natural Gas,2520.0
08/24/2019 07:35:00,EDT,Nuclear,5272.0
08/24/2019 07:35:00,EDT,Other Fossil Fuels,51.0
08/24/2019 07:35:00,EDT,Other Renewables,272.0
08/24/2019 07:35:00,EDT,Wind,77.0
08/24/2019 07:35:00,EDT,Hydro,2706.0
08/24/2019 07:40:00,EDT,Dual Fuel,2212.0
08/24/2019 07:40:00,EDT,Natural Gas,2571.0
08/24/2019 07:40:00,EDT,Nuclear,5272.0
08/24/2019 07:40:00,EDT,Other Fossil Fuels,50.0
08/24/2019 07:40:00,EDT,Other Renewables,267.0
08/24/2019 07:40:00,EDT,Wind,73.0
08/24/2019 07:40:00,EDT,Hydro,2710.0
08/24/2019 07:45:00,EDT,Dual Fuel,2214.0
08/24/2019 07:45:00,EDT,Natural Gas,2608.0
08/24/2019 07:45:00,EDT,Nuclear,5275.0
08/24/2019 07:45:00,EDT,Other Fossil Fuels,50.0
08/24/2019 07:45:00,EDT,Other Renewables,268.0
08/24/2019 07:45:00,EDT,Wind,69.0
08/24/2019 07:45:00,EDT,Hydro,2727.0
08/24/2019 07:50:00,EDT,Dual Fuel,2216.0
08/24/2019 07:50:00,EDT,Natural Gas,2665.0
08/24/2019 07:50:00,EDT,Nuclear,5274.0
08/24/2019 07:50:00,EDT,Other Fossil Fuels,51.0
08/24/2019 07:50:00,EDT,Other Renewables,272.0
08/24/2019 07:50:00,EDT,Wind,66.0
08/24/2019 07:50:00,EDT,Hydro,2715.0
08/24/2019 07:55:00,EDT,Dual Fuel,2250.0
08/24/2019 07:55:00,EDT,Natural Gas,2685.0
08/24/2019 07:55:00,EDT,Nuclear,5273.0
08/24/2019 07:55:00,EDT,Other Fossil Fuels,51.0
08/24/2019 07:55:00,EDT,Other Renewables,268.0
08/24/2019 07:55:00,EDT,Wind,62.0
08/24/2019 07:55:00,EDT,Hydro,2754.0
08/24/2019 08:00:00,EDT,Dual Fuel,2289.0
08/24/2019 08:00:00,EDT,Natural Gas,2628.0
08/24/2019 08:00:00,EDT,Nuclear,5274.0
08/24/2019 08:00:00,EDT,Other Fossil Fuels,51.0
08/24/2019 08:00:00,EDT,Other Renewables,269.0
08/24/2019 08:00:00,EDT,Wind,58.0
08/24/2019 08:00:00,EDT,Hydro,2759.0
08/24/2019 08:05:00,EDT,Dual Fuel,2296.0
08/24/2019 08:05:00,EDT,Natural Gas,2568.0
08/24/2019 08:05:00,EDT,Nuclear,5273.0
08/24/2019 08:05:00,EDT,Other Fossil Fuels,51.0
08/24/2019 08:05:00,EDT,Other Renewables,275.0
08/24/2019 08:05:00,EDT,Wind,54.0
08/24/2019 08:05:00,EDT,Hydro,2797.0
08/24/2019 08:10:00,EDT,Dual Fuel,2311.0
08/24/2019 08:10:00,EDT,Natural Gas,2596.0
08/24/2019 08:10:00,EDT,Nuclear,5273.0
08/24/2019 08:10:00,EDT,Other Fossil Fuels,51.0
08/24/2019 08:10:00,EDT,Other Renewables,278.0
08/24/2019 08:10:00,EDT,Wind,49.0
08/24/2019 08:10:00,EDT,Hydro,2823.0
08/24/2019 08:15:00,EDT,Dual Fuel,2307.0
08/24/2019 08:15:00,EDT,Natural Gas,2696.0
08/24/2019 08:15:00,EDT,Nuclear,5274.0
08/24/2019 08:15:00,EDT,Other Fossil Fuels,51.0
08/24/2019 08:15:00,EDT,Other Renewables,279.0
08/24/2019 08:15:00,EDT,Wind,44.0
08/24/2019 08:15:00,EDT,Hydro,2867.0
08/24/2019 08:20:00,EDT,Dual Fuel,2301.0
08/24/2019 08:20:00,EDT,Natural Gas,2730.0
08/24/2019 08:20:00,EDT,Nuclear,5275.0
08/24/2019 08:20:00,EDT,Other Fossil Fuels,51.0
08/24/2019 08:20:00,EDT,Other Renewables,282.0
08/24/2019 08:20:00,EDT,Wind,37.0
08/24/2019 08:20:00,EDT,Hydro,2881.0
08/24/2019 08:25:00,EDT,Dual Fuel,2313.0
08/24/2019 08:25:00,EDT,Natural Gas,2748.0
08/24/2019 08:25:00,EDT,Nuclear,5275.0
08/24/2019 08:25:00,EDT,Other Fossil Fuels,51.0
08/24/2019 08:25:00,EDT,Other Renewables,281.0
08/24/2019 08:25:00,EDT,Wind,30.0
08/24/2019 08:25:00,EDT,Hydro,2857.0
08/24/2019 08:30:00,EDT,Dual Fuel,2360.0
08/24/2019 08:30:00,EDT,Natural Gas,2756.0
08/24/2019 08:30:00,EDT,Nuclear,5275.0
08/24/2019 08:30:00,EDT,Other Fossil Fuels,51.0
08/24/2019 08:30:00,EDT,Other Renewables,284.0
08/24/2019 08:30:00,EDT,Wind,29.0
08/24/2019 08:30:00,EDT,Hydro,2875.0
08/24/2019 08:35:00,EDT,Dual Fuel,2385.0
08/24/2019 08:35:00,EDT,Natural Gas,2750.0
08/24/2019 08:35:00,EDT,Nuclear,5276.0
08/24/2019 08:35:00,EDT,Other Fossil Fuels,50.0
08/24/2019 08:35:00,EDT,Other Renewables,284.0
08/24/2019 08:35:00,EDT,Wind,27.0
08/24/2019 08:35:00,EDT,Hydro,2878.0
08/24/2019 08:40:00,EDT,Dual Fuel,2443.0
08/24/2019 08:40:00,EDT,Natural Gas,2759.0
08/24/2019 08:40:00,EDT,Nuclear,5277.0
08/24/2019 08:40:00,EDT,Other Fossil Fuels,51.0
08/24/2019 08:40:00,EDT,Other Renewables,282.0
08/24/2019 08:40:00,EDT,Wind,27.0
08/24/2019 08:40:00,EDT,Hydro,2862.0
08/24/2019 08:45:00,EDT,Dual Fuel,2463.0
08/24/2019 08:45:00,EDT,Natural Gas,2786.0
08/24/2019 08:45:00,EDT,Nuclear,5278.0
08/24/2019 08:45:00,EDT,Other Fossil Fuels,50.0
08/24/2019 08:45:00,EDT,Other Renewables,281.0
08/24/2019 08:45:00,EDT,Wind,26.0
08/24/2019 08:45:00,EDT,Hydro,2833.0
08/24/2019 08:50:00,EDT,Dual Fuel,2492.0
08/24/2019 08:50:00,EDT,Natural Gas,2822.0
08/24/2019 08:50:00,EDT,Nuclear,5280.0
08/24/2019 08:50:00,EDT,Other Fossil Fuels,51.0
08/24/2019 08:50:00,EDT,Other Renewables,280.0
08/24/2019 08:50:00,EDT,Wind,25.0
08/24/2019 08:50:00,EDT,Hydro,2852.0
08/24/2019 08:55:00,EDT,Dual Fuel,2522.0
08/24/2019 08:55:00,EDT,Natural Gas,2811.0
08/24/2019 08:55:00,EDT,Nuclear,5277.0
08/24/2019 08:55:00,EDT,Other Fossil Fuels,51.0
08/24/2019 08:55:00,EDT,Other Renewables,284.0
08/24/2019 08:55:00,EDT,Wind,25.0
08/24/2019 08:55:00,EDT,Hydro,2822.0
08/24/2019 09:00:00,EDT,Dual Fuel,2553.0
08/24/2019 09:00:00,EDT,Natural Gas,2875.0
08/24/2019 09:00:00,EDT,Nuclear,5278.0
08/24/2019 09:00:00,EDT,Other Fossil Fuels,51.0
08/24/2019 09:00:00,EDT,Other Renewables,286.0
08/24/2019 09:00:00,EDT,Wind,27.0
08/24/2019 09:00:00,EDT,Hydro,2830.0
08/24/2019 09:05:00,EDT,Dual Fuel,2558.0
08/24/2019 09:05:00,EDT,Natural Gas,2929.0
08/24/2019 09:05:00,EDT,Nuclear,5279.0
08/24/2019 09:05:00,EDT,Other Fossil Fuels,51.0
08/24/2019 09:05:00,EDT,Other Renewables,289.0
08/24/2019 09:05:00,EDT,Wind,29.0
08/24/2019 09:05:00,EDT,Hydro,2901.0
08/24/2019 09:10:00,EDT,Dual Fuel,2611.0
08/24/2019 09:10:00,EDT,Natural Gas,2924.0
08/24/2019 09:10:00,EDT,Nuclear,5279.0
08/24/2019 09:10:00,EDT,Other Fossil Fuels,51.0
08/24/2019 09:10:00,EDT,Other Renewables,288.0
08/24/2019 09:10:00,EDT,Wind,28.0
08/24/2019 09:10:00,EDT,Hydro,2973.0
08/24/2019 09:15:00,EDT,Dual Fuel,2622.0
08/24/2019 09:15:00,EDT,Natural Gas,2931.0
08/24/2019 09:15:00,EDT,Nuclear,5278.0
08/24/2019 09:15:00,EDT,Other Fossil Fuels,51.0
08/24/2019 09:15:00,EDT,Other Renewables,289.0
08/24/2019 09:15:00,EDT,Wind,30.0
08/24/2019 09:15:00,EDT,Hydro,3011.0
08/24/2019 09:20:00,EDT,Dual Fuel,2591.0
08/24/2019 09:20:00,EDT,Natural Gas,2939.0
08/24/2019 09:20:00,EDT,Nuclear,5278.0
08/24/2019 09:20:00,EDT,Other Fossil Fuels,51.0
08/24/2019 09:20:00,EDT,Other Renewables,291.0
08/24/2019 09:20:00,EDT,Wind,32.0
08/24/2019 09:20:00,EDT,Hydro,3023.0
08/24/2019 09:25:00,EDT,Dual Fuel,2610.0
08/24/2019 09:25:00,EDT,Natural Gas,2939.0
08/24/2019 09:25:00,EDT,Nuclear,5277.0
08/24/2019 09:25:00,EDT,Other Fossil Fuels,51.0
08/24/2019 09:25:00,EDT,Other Renewables,296.0
08/24/2019 09:25:00,EDT,Wind,32.0
08/24/2019 09:25:00,EDT,Hydro,3023.0
08/24/2019 09:30:00,EDT,Dual Fuel,2658.0
08/24/2019 09:30:00,EDT,Natural Gas,2938.0
08/24/2019 09:30:00,EDT,Nuclear,5279.0
08/24/2019 09:30:00,EDT,Other Fossil Fuels,51.0
08/24/2019 09:30:00,EDT,Other Renewables,298.0
08/24/2019 09:30:00,EDT,Wind,36.0
08/24/2019 09:30:00,EDT,Hydro,3020.0
08/24/2019 09:35:00,EDT,Dual Fuel,2667.0
08/24/2019 09:35:00,EDT,Natural Gas,2960.0
08/24/2019 09:35:00,EDT,Nuclear,5279.0
08/24/2019 09:35:00,EDT,Other Fossil Fuels,51.0
08/24/2019 09:35:00,EDT,Other Renewables,296.0
08/24/2019 09:35:00,EDT,Wind,41.0
08/24/2019 09:35:00,EDT,Hydro,3023.0
08/24/2019 09:40:00,EDT,Dual Fuel,2672.0
08/24/2019 09:40:00,EDT,Natural Gas,2964.0
08/24/2019 09:40:00,EDT,Nuclear,5279.0
08/24/2019 09:40:00,EDT,Other Fossil Fuels,50.0
08/24/2019 09:40:00,EDT,Other Renewables,297.0
08/24/2019 09:40:00,EDT,Wind,44.0
08/24/2019 09:40:00,EDT,Hydro,3043.0
08/24/2019 09:45:00,EDT,Dual Fuel,2665.0
08/24/2019 09:45:00,EDT,Natural Gas,2938.0
08/24/2019 09:45:00,EDT,Nuclear,5280.0
08/24/2019 09:45:00,EDT,Other Fossil Fuels,51.0
08/24/2019 09:45:00,EDT,Other Renewables,298.0
08/24/2019 09:45:00,EDT,Wind,43.0
08/24/2019 09:45:00,EDT,Hydro,3046.0
08/24/2019 09:50:00,EDT,Dual Fuel,2683.0
08/24/2019 09:50:00,EDT,Natural Gas,2960.0
08/24/2019 09:50:00,EDT,Nuclear,5278.0
08/24/2019 09:50:00,EDT,Other Fossil Fuels,51.0
08/24/2019 09:50:00,EDT,Other Renewables,296.0
08/24/2019 09:50:00,EDT,Wind,42.0
08/24/2019 09:50:00,EDT,Hydro,3034.0
08/24/2019 09:55:00,EDT,Dual Fuel,2697.0
08/24/2019 09:55:00,EDT,Natural Gas,2983.0
08/24/2019 09:55:00,EDT,Nuclear,5275.0
08/24/2019 09:55:00,EDT,Other Fossil Fuels,50.0
08/24/2019 09:55:00,EDT,Other Renewables,296.0
08/24/2019 09:55:00,EDT,Wind,39.0
08/24/2019 09:55:00,EDT,Hydro,3009.0
08/24/2019 10:00:00,EDT,Dual Fuel,2749.0
08/24/2019 10:00:00,EDT,Natural Gas,3006.0
08/24/2019 10:00:00,EDT,Nuclear,5278.0
08/24/2019 10:00:00,EDT,Other Fossil Fuels,51.0
08/24/2019 10:00:00,EDT,Other Renewables,294.0
08/24/2019 10:00:00,EDT,Wind,36.0
08/24/2019 10:00:00,EDT,Hydro,3015.0
08/24/2019 10:05:00,EDT,Dual Fuel,2747.0
08/24/2019 10:05:00,EDT,Natural Gas,3031.0
08/24/2019 10:05:00,EDT,Nuclear,5276.0
08/24/2019 10:05:00,EDT,Other Fossil Fuels,51.0
08/24/2019 10:05:00,EDT,Other Renewables,297.0
08/24/2019 10:05:00,EDT,Wind,33.0
08/24/2019 10:05:00,EDT,Hydro,3007.0
08/24/2019 10:10:00,EDT,Dual Fuel,2756.0
08/24/2019 10:10:00,EDT,Natural Gas,3043.0
08/24/2019 10:10:00,EDT,Nuclear,5277.0
08/24/2019 10:10:00,EDT,Other Fossil Fuels,51.0
08/24/2019 10:10:00,EDT,Other Renewables,302.0
08/24/2019 10:10:00,EDT,Wind,32.0
08/24/2019 10:10:00,EDT,Hydro,3016.0
08/24/2019 10:15:00,EDT,Dual Fuel,2772.0
08/24/2019 10:15:00,EDT,Natural Gas,3041.0
08/24/2019 10:15:00,EDT,Nuclear,5277.0
08/24/2019 10:15:00,EDT,Other Fossil Fuels,50.0
08/24/2019 10:15:00,EDT,Other Renewables,303.0
08/24/2019 10:15:00,EDT,Wind,29.0
08/24/2019 10:15:00,EDT,Hydro,3023.0
08/24/2019 10:20:00,EDT,Dual Fuel,2805.0
08/24/2019 10:20:00,EDT,Natural Gas,3037.0
08/24/2019 10:20:00,EDT,Nuclear,5278.0
08/24/2019 10:20:00,EDT,Other Fossil Fuels,51.0
08/24/2019 10:20:00,EDT,Other Renewables,301.0
08/24/2019 10:20:00,EDT,Wind,26.0
08/24/2019 10:20:00,EDT,Hydro,3062.0
08/24/2019 10:25:00,EDT,Dual Fuel,2833.0
08/24/2019 10:25:00,EDT,Natural Gas,3019.0
08/24/2019 10:25:00,EDT,Nuclear,5278.0
08/24/2019 10:25:00,EDT,Other Fossil Fuels,51.0
08/24/2019 10:25:00,EDT,Other Renewables,302.0
08/24/2019 10:25:00,EDT,Wind,27.0
08/24/2019 10:25:00,EDT,Hydro,3061.0
08/24/2019 10:30:00,EDT,Dual Fuel,2839.0
08/24/2019 10:30:00,EDT,Natural Gas,3020.0
08/24/2019 10:30:00,EDT,Nuclear,5280.0
08/24/2019 10:30:00,EDT,Other Fossil Fuels,51.0
08/24/2019 10:30:00,EDT,Other Renewables,299.0
08/24/2019 10:30:00,EDT,Wind,27.0
08/24/2019 10:30:00,EDT,Hydro,3049.0
08/24/2019 10:35:00,EDT,Dual Fuel,2848.0
08/24/2019 10:35:00,EDT,Natural Gas,3038.0
08/24/2019 10:35:00,EDT,Nuclear,5280.0
08/24/2019 10:35:00,EDT,Other Fossil Fuels,51.0
08/24/2019 10:35:00,EDT,Other Renewables,298.0
08/24/2019 10:35:00,EDT,Wind,25.0
08/24/2019 10:35:00,EDT,Hydro,3068.0
08/24/2019 10:40:00,EDT,Dual Fuel,2857.0
08/24/2019 10:40:00,EDT,Natural Gas,3051.0
08/24/2019 10:40:00,EDT,Nuclear,5281.0
08/24/2019 10:40:00,EDT,Other Fossil Fuels,51.0
08/24/2019 10:40:00,EDT,Other Renewables,297.0
08/24/2019 10:40:00,EDT,Wind,29.0
08/24/2019 10:40:00,EDT,Hydro,3085.0
08/24/2019 10:45:00,EDT,Dual Fuel,2884.0
08/24/2019 10:45:00,EDT,Natural Gas,3046.0
08/24/2019 10:45:00,EDT,Nuclear,5281.0
08/24/2019 10:45:00,EDT,Other Fossil Fuels,51.0
08/24/2019 10:45:00,EDT,Other Renewables,300.0
08/24/2019 10:45:00,EDT,Wind,27.0
08/24/2019 10:45:00,EDT,Hydro,3087.0
08/24/2019 10:50:00,EDT,Dual Fuel,2918.0
08/24/2019 10:50:00,EDT,Natural Gas,3036.0
08/24/2019 10:50:00,EDT,Nuclear,5280.0
08/24/2019 10:50:00,EDT,Other Fossil Fuels,51.0
08/24/2019 10:50:00,EDT,Other Renewables,296.0
08/24/2019 10:50:00,EDT,Wind,24.0
08/24/2019 10:50:00,EDT,Hydro,3068.0
08/24/2019 10:55:00,EDT,Dual Fuel,2942.0
08/24/2019 10:55:00,EDT,Natural Gas,3044.0
08/24/2019 10:55:00,EDT,Nuclear,5280.0
08/24/2019 10:55:00,EDT,Other Fossil Fuels,50.0
08/24/2019 10:55:00,EDT,Other Renewables,298.0
08/24/2019 10:55:00,EDT,Wind,25.0
08/24/2019 10:55:00,EDT,Hydro,3074.0
08/24/2019 11:00:00,EDT,Dual Fuel,2985.0
08/24/2019 11:00:00,EDT,Natural Gas,3031.0
08/24/2019 11:00:00,EDT,Nuclear,5281.0
08/24/2019 11:00:00,EDT,Other Fossil Fuels,51.0
08/24/2019 11:00:00,EDT,Other Renewables,302.0
08/24/2019 11:00:00,EDT,Wind,27.0
08/24/2019 11:00:00,EDT,Hydro,3074.0
08/24/2019 11:05:00,EDT,Dual Fuel,3054.0
08/24/2019 11:05:00,EDT,Natural Gas,3015.0
08/24/2019 11:05:00,EDT,Nuclear,5280.0
08/24/2019 11:05:00,EDT,Other Fossil Fuels,51.0
08/24/2019 11:05:00,EDT,Other Renewables,297.0
08/24/2019 11:05:00,EDT,Wind,27.0
08/24/2019 11:05:00,EDT,Hydro,3085.0
08/24/2019 11:10:00,EDT,Dual Fuel,3065.0
08/24/2019 11:10:00,EDT,Natural Gas,3020.0
08/24/2019 11:10:00,EDT,Nuclear,5280.0
08/24/2019 11:10:00,EDT,Other Fossil Fuels,51.0
08/24/2019 11:10:00,EDT,Other Renewables,297.0
08/24/2019 11:10:00,EDT,Wind,29.0
08/24/2019 11:10:00,EDT,Hydro,3078.0
08/24/2019 11:15:00,EDT,Dual Fuel,3062.0
08/24/2019 11:15:00,EDT,Natural Gas,3029.0
08/24/2019 11:15:00,EDT,Nuclear,5279.0
08/24/2019 11:15:00,EDT,Other Fossil Fuels,51.0
08/24/2019 11:15:00,EDT,Other Renewables,300.0
08/24/2019 11:15:00,EDT,Wind,27.0
08/24/2019 11:15:00,EDT,Hydro,3050.0
08/24/2019 11:20:00,EDT,Dual Fuel,3066.0
08/24/2019 11:20:00,EDT,Natural Gas,3032.0
08/24/2019 11:20:00,EDT,Nuclear,5280.0
08/24/2019 11:20:00,EDT,Other Fossil Fuels,51.0
08/24/2019 11:20:00,EDT,Other Renewables,301.0
08/24/2019 11:20:00,EDT,Wind,29.0
08/24/2019 11:20:00,EDT,Hydro,3043.0
08/24/2019 11:25:00,EDT,Dual Fuel,3070.0
08/24/2019 11:25:00,EDT,Natural Gas,3063.0
08/24/2019 11:25:00,EDT,Nuclear,5281.0
08/24/2019 11:25:00,EDT,Other Fossil Fuels,51.0
08/24/2019 11:25:00,EDT,Other Renewables,299.0
08/24/2019 11:25:00,EDT,Wind,27.0
08/24/2019 11:25:00,EDT,Hydro,3058.0
08/24/2019 11:30:00,EDT,Dual Fuel,3081.0
08/24/2019 11:30:00,EDT,Natural Gas,3084.0
08/24/2019 11:30:00,EDT,Nuclear,5277.0
08/24/2019 11:30:00,EDT,Other Fossil Fuels,50.0
08/24/2019 11:30:00,EDT,Other Renewables,298.0
08/24/2019 11:30:00,EDT,Wind,30.0
08/24/2019 11:30:00,EDT,Hydro,3048.0
08/24/2019 11:35:00,EDT,Dual Fuel,3085.0
08/24/2019 11:35:00,EDT,Natural Gas,3102.0
08/24/2019 11:35:00,EDT,Nuclear,5279.0
08/24/2019 11:35:00,EDT,Other Fossil Fuels,51.0
08/24/2019 11:35:00,EDT,Other Renewables,297.0
08/24/2019 11:35:00,EDT,Wind,35.0
08/24/2019 11:35:00,EDT,Hydro,3011.0
08/24/2019 11:40:00,EDT,Dual Fuel,3084.0
08/24/2019 11:40:00,EDT,Natural Gas,3111.0
08/24/2019 11:40:00,EDT,Nuclear,5279.0
08/24/2019 11:40:00,EDT,Other Fossil Fuels,51.0
08/24/2019 11:40:00,EDT,Other Renewables,296.0
08/24/2019 11:40:00,EDT,Wind,34.0
08/24/2019 11:40:00,EDT,Hydro,3004.0
08/24/2019 11:45:00,EDT,Dual Fuel,3093.0
08/24/2019 11:45:00,EDT,Natural Gas,3115.0
08/24/2019 11:45:00,EDT,Nuclear,5279.0
08/24/2019 11:45:00,EDT,Other Fossil Fuels,51.0
08/24/2019 11:45:00,EDT,Other Renewables,291.0
08/24/2019 11:45:00,EDT,Wind,33.0
08/24/2019 11:45:00,EDT,Hydro,3005.0
08/24/2019 11:50:00,EDT,Dual Fuel,3106.0
08/24/2019 11:50:00,EDT,Natural Gas,3106.0
08/24/2019 11:50:00,EDT,Nuclear,5280.0
08/24/2019 11:50:00,EDT,Other Fossil Fuels,51.0
08/24/2019 11:50:00,EDT,Other Renewables,289.0
08/24/2019 11:50:00,EDT,Wind,37.0
08/24/2019 11:50:00,EDT,Hydro,3035.0
08/24/2019 11:55:00,EDT,Dual Fuel,3117.0
08/24/2019 11:55:00,EDT,Natural Gas,3106.0
08/24/2019 11:55:00,EDT,Nuclear,5280.0
08/24/2019 11:55:00,EDT,Other Fossil Fuels,50.0
08/24/2019 11:55:00,EDT,Other Renewables,278.0
08/24/2019 11:55:00,EDT,Wind,40.0
08/24/2019 11:55:00,EDT,Hydro,3051.0
08/24/2019 12:00:00,EDT,Dual Fuel,3119.0
08/24/2019 12:00:00,EDT,Natural Gas,3108.0
08/24/2019 12:00:00,EDT,Nuclear,5279.0
08/24/2019 12:00:00,EDT,Other Fossil Fuels,51.0
08/24/2019 12:00:00,EDT,Other Renewables,280.0
08/24/2019 12:00:00,EDT,Wind,47.0
08/24/2019 12:00:00,EDT,Hydro,3054.0
08/24/2019 12:05:00,EDT,Dual Fuel,3107.0
08/24/2019 12:05:00,EDT,Natural Gas,3131.0
08/24/2019 12:05:00,EDT,Nuclear,5279.0
08/24/2019 12:05:00,EDT,Other Fossil Fuels,51.0
08/24/2019 12:05:00,EDT,Other Renewables,282.0
08/24/2019 12:05:00,EDT,Wind,48.0
08/24/2019 12:05:00,EDT,Hydro,3067.0
08/24/2019 12:10:00,EDT,Dual Fuel,3113.0
08/24/2019 12:10:00,EDT,Natural Gas,3133.0
08/24/2019 12:10:00,EDT,Nuclear,5278.0
08/24/2019 12:10:00,EDT,Other Fossil Fuels,51.0
08/24/2019 12:10:00,EDT,Other Renewables,281.0
08/24/2019 12:10:00,EDT,Wind,50.0
08/24/2019 12:10:00,EDT,Hydro,3104.0
08/24/2019 12:15:00,EDT,Dual Fuel,3130.0
08/24/2019 12:15:00,EDT,Natural Gas,3159.0
08/24/2019 12:15:00,EDT,Nuclear,5280.0
08/24/2019 12:15:00,EDT,Other Fossil Fuels,51.0
08/24/2019 12:15:00,EDT,Other Renewables,279.0
08/24/2019 12:15:00,EDT,Wind,59.0
08/24/2019 12:15:00,EDT,Hydro,3149.0
08/24/2019 12:20:00,EDT,Dual Fuel,3158.0
08/24/2019 12:20:00,EDT,Natural Gas,3162.0
08/24/2019 12:20:00,EDT,Nuclear,5279.0
08/24/2019 12:20:00,EDT,Other Fossil Fuels,50.0
08/24/2019 12:20:00,EDT,Other Renewables,282.0
08/24/2019 12:20:00,EDT,Wind,62.0
08/24/2019 12:20:00,EDT,Hydro,3150.0
08/24/2019 12:25:00,EDT,Dual Fuel,3171.0
08/24/2019 12:25:00,EDT,Natural Gas,3133.0
08/24/2019 12:25:00,EDT,Nuclear,5279.0
08/24/2019 12:25:00,EDT,Other Fossil Fuels,51.0
08/24/2019 12:25:00,EDT,Other Renewables,283.0
08/24/2019 12:25:00,EDT,Wind,53.0
08/24/2019 12:25:00,EDT,Hydro,3101.0
08/24/2019 12:30:00,EDT,Dual Fuel,3177.0
08/24/2019 12:30:00,EDT,Natural Gas,3157.0
08/24/2019 12:30:00,EDT,Nuclear,5280.0
08/24/2019 12:30:00,EDT,Other Fossil Fuels,51.0
08/24/2019 12:30:00,EDT,Other Renewables,284.0
08/24/2019 12:30:00,EDT,Wind,42.0
08/24/2019 12:30:00,EDT,Hydro,3072.0
08/24/2019 12:35:00,EDT,Dual Fuel,3195.0
08/24/2019 12:35:00,EDT,Natural Gas,3173.0
08/24/2019 12:35:00,EDT,Nuclear,5279.0
08/24/2019 12:35:00,EDT,Other Fossil Fuels,51.0
08/24/2019 12:35:00,EDT,Other Renewables,287.0
08/24/2019 12:35:00,EDT,Wind,41.0
08/24/2019 12:35:00,EDT,Hydro,3088.0
08/24/2019 12:40:00,EDT,Dual Fuel,3191.0
08/24/2019 12:40:00,EDT,Natural Gas,3153.0
08/24/2019 12:40:00,EDT,Nuclear,5279.0
08/24/2019 12:40:00,EDT,Other Fossil Fuels,51.0
08/24/2019 12:40:00,EDT,Other Renewables,285.0
08/24/2019 12:40:00,EDT,Wind,41.0
08/24/2019 12:40:00,EDT,Hydro,3139.0
08/24/2019 12:45:00,EDT,Dual Fuel,3186.0
08/24/2019 12:45:00,EDT,Natural Gas,3113.0
08/24/2019 12:45:00,EDT,Nuclear,5280.0
08/24/2019 12:45:00,EDT,Other Fossil Fuels,51.0
08/24/2019 12:45:00,EDT,Other Renewables,286.0
08/24/2019 12:45:00,EDT,Wind,45.0
08/24/2019 12:45:00,EDT,Hydro,3164.0
08/24/2019 12:50:00,EDT,Dual Fuel,3191.0
08/24/2019 12:50:00,EDT,Natural Gas,3073.0
08/24/2019 12:50:00,EDT,Nuclear,5278.0
08/24/2019 12:50:00,EDT,Other Fossil Fuels,51.0
08/24/2019 12:50:00,EDT,Other Renewables,286.0
08/24/2019 12:50:00,EDT,Wind,48.0
08/24/2019 12:50:00,EDT,Hydro,3157.0
08/24/2019 12:55:00,EDT,Dual Fuel,3186.0
08/24/2019 12:55:00,EDT,Natural Gas,3031.0
08/24/2019 12:55:00,EDT,Nuclear,5280.0
08/24/2019 12:55:00,EDT,Other Fossil Fuels,51.0
08/24/2019 12:55:00,EDT,Other Renewables,284.0
08/24/2019 12:55:00,EDT,Wind,44.0
08/24/2019 12:55:00,EDT,Hydro,3146.0
08/24/2019 13:00:00,EDT,Dual Fuel,3147.0
08/24/2019 13:00:00,EDT,Natural Gas,3033.0
08/24/2019 13:00:00,EDT,Nuclear,5277.0
08/24/2019 13:00:00,EDT,Other Fossil Fuels,51.0
08/24/2019 13:00:00,EDT,Other Renewables,283.0
08/24/2019 13:00:00,EDT,Wind,44.0
08/24/2019 13:00:00,EDT,Hydro,3163.0
08/24/2019 13:05:00,EDT,Dual Fuel,3047.0
08/24/2019 13:05:00,EDT,Natural Gas,3002.0
08/24/2019 13:05:00,EDT,Nuclear,5278.0
08/24/2019 13:05:00,EDT,Other Fossil Fuels,51.0
08/24/2019 13:05:00,EDT,Other Renewables,286.0
08/24/2019 13:05:00,EDT,Wind,45.0
08/24/2019 13:05:00,EDT,Hydro,3070.0
08/24/2019 13:10:00,EDT,Dual Fuel,3010.0
08/24/2019 13:10:00,EDT,Natural Gas,2951.0
08/24/2019 13:10:00,EDT,Nuclear,5278.0
08/24/2019 13:10:00,EDT,Other Fossil Fuels,51.0
08/24/2019 13:10:00,EDT,Other Renewables,285.0
08/24/2019 13:10:00,EDT,Wind,41.0
08/24/2019 13:10:00,EDT,Hydro,3046.0
08/24/2019 13:15:00,EDT,Dual Fuel,3030.0
08/24/2019 13:15:00,EDT,Natural Gas,2947.0
08/24/2019 13:15:00,EDT,Nuclear,5279.0
08/24/2019 13:15:00,EDT,Other Fossil Fuels,51.0
08/24/2019 13:15:00,EDT,Other Renewables,285.0
08/24/2019 13:15:00,EDT,Wind,39.0
08/24/2019 13:15:00,EDT,Hydro,3043.0
08/24/2019 13:20:00,EDT,Dual Fuel,3035.0
08/24/2019 13:20:00,EDT,Natural Gas,2923.0
08/24/2019 13:20:00,EDT,Nuclear,5279.0
08/24/2019 13:20:00,EDT,Other Fossil Fuels,51.0
08/24/2019 13:20:00,EDT,Other Renewables,285.0
08/24/2019 13:20:00,EDT,Wind,35.0
08/24/2019 13:20:00,EDT,Hydro,3038.0
08/24/2019 13:25:00,EDT,Dual Fuel,3042.0
08/24/2019 13:25:00,EDT,Natural Gas,2897.0
08/24/2019 13:25:00,EDT,Nuclear,5278.0
08/24/2019 13:25:00,EDT,Other Fossil Fuels,51.0
08/24/2019 13:25:00,EDT,Other Renewables,282.0
08/24/2019 13:25:00,EDT,Wind,36.0
08/24/2019 13:25:00,EDT,Hydro,3042.0
08/24/2019 13:30:00,EDT,Dual Fuel,3066.0
08/24/2019 13:30:00,EDT,Natural Gas,2899.0
08/24/2019 13:30:00,EDT,Nuclear,5279.0
08/24/2019 13:30:00,EDT,Other Fossil Fuels,51.0
08/24/2019 13:30:00,EDT,Other Renewables,284.0
08/24/2019 13:30:00,EDT,Wind,37.0
08/24/2019 13:30:00,EDT,Hydro,3090.0
08/24/2019 13:35:00,EDT,Dual Fuel,3083.0
08/24/2019 13:35:00,EDT,Natural Gas,2935.0
08/24/2019 13:35:00,EDT,Nuclear,5279.0
08/24/2019 13:35:00,EDT,Other Fossil Fuels,51.0
08/24/2019 13:35:00,EDT,Other Renewables,283.0
08/24/2019 13:35:00,EDT,Wind,35.0
08/24/2019 13:35:00,EDT,Hydro,3100.0
08/24/2019 13:40:00,EDT,Dual Fuel,3080.0
08/24/2019 13:40:00,EDT,Natural Gas,2962.0
08/24/2019 13:40:00,EDT,Nuclear,5279.0
08/24/2019 13:40:00,EDT,Other Fossil Fuels,51.0
08/24/2019 13:40:00,EDT,Other Renewables,285.0
08/24/2019 13:40:00,EDT,Wind,36.0
08/24/2019 13:40:00,EDT,Hydro,3100.0
08/24/2019 13:45:00,EDT,Dual Fuel,3070.0
08/24/2019 13:45:00,EDT,Natural Gas,2983.0
08/24/2019 13:45:00,EDT,Nuclear,5279.0
08/24/2019 13:45:00,EDT,Other Fossil Fuels,51.0
08/24/2019 13:45:00,EDT,Other Renewables,282.0
08/24/2019 13:45:00,EDT,Wind,38.0
08/24/2019 13:45:00,EDT,Hydro,3067.0
08/24/2019 13:50:00,EDT,Dual Fuel,3064.0
08/24/2019 13:50:00,EDT,Natural Gas,2991.0
08/24/2019 13:50:00,EDT,Nuclear,5278.0
08/24/2019 13:50:00,EDT,Other Fossil Fuels,51.0
08/24/2019 13:50:00,EDT,Other Renewables,280.0
08/24/2019 13:50:00,EDT,Wind,36.0
08/24/2019 13:50:00,EDT,Hydro,3047.0
08/24/2019 13:55:00,EDT,Dual Fuel,3094.0
08/24/2019 13:55:00,EDT,Natural Gas,2965.0
08/24/2019 13:55:00,EDT,Nuclear,5279.0
08/24/2019 13:55:00,EDT,Other Fossil Fuels,50.0
08/24/2019 13:55:00,EDT,Other Renewables,276.0
08/24/2019 13:55:00,EDT,Wind,35.0
08/24/2019 13:55:00,EDT,Hydro,3059.0
08/24/2019 14:00:00,EDT,Dual Fuel,3132.0
08/24/2019 14:00:00,EDT,Natural Gas,2889.0
08/24/2019 14:00:00,EDT,Nuclear,5280.0
08/24/2019 14:00:00,EDT,Other Fossil Fuels,51.0
08/24/2019 14:00:00,EDT,Other Renewables,284.0
08/24/2019 14:00:00,EDT,Wind,39.0
08/24/2019 14:00:00,EDT,Hydro,3077.0
08/24/2019 14:05:00,EDT,Dual Fuel,3136.0
08/24/2019 14:05:00,EDT,Natural Gas,2802.0
08/24/2019 14:05:00,EDT,Nuclear,5278.0
08/24/2019 14:05:00,EDT,Other Fossil Fuels,51.0
08/24/2019 14:05:00,EDT,Other Renewables,282.0
08/24/2019 14:05:00,EDT,Wind,38.0
08/24/2019 14:05:00,EDT,Hydro,3087.0
08/24/2019 14:10:00,EDT,Dual Fuel,3185.0
08/24/2019 14:10:00,EDT,Natural Gas,2780.0
08/24/2019 14:10:00,EDT,Nuclear,5279.0
08/24/2019 14:10:00,EDT,Other Fossil Fuels,51.0
08/24/2019 14:10:00,EDT,Other Renewables,282.0
08/24/2019 14:10:00,EDT,Wind,33.0
08/24/2019 14:10:00,EDT,Hydro,3127.0
08/24/2019 14:15:00,EDT,Dual Fuel,3185.0
08/24/2019 14:15:00,EDT,Natural Gas,2790.0
08/24/2019 14:15:00,EDT,Nuclear,5278.0
08/24/2019 14:15:00,EDT,Other Fossil Fuels,51.0
08/24/2019 14:15:00,EDT,Other Renewables,281.0
08/24/2019 14:15:00,EDT,Wind,30.0
08/24/2019 14:15:00,EDT,Hydro,3135.0
08/24/2019 14:20:00,EDT,Dual Fuel,3194.0
08/24/2019 14:20:00,EDT,Natural Gas,2798.0
08/24/2019 14:20:00,EDT,Nuclear,5279.0
08/24/2019 14:20:00,EDT,Other Fossil Fuels,51.0
08/24/2019 14:20:00,EDT,Other Renewables,283.0
08/24/2019 14:20:00,EDT,Wind,29.0
08/24/2019 14:20:00,EDT,Hydro,3126.0
08/24/2019 14:25:00,EDT,Dual Fuel,3208.0
08/24/2019 14:25:00,EDT,Natural Gas,2763.0
08/24/2019 14:25:00,EDT,Nuclear,5279.0
08/24/2019 14:25:00,EDT,Other Fossil Fuels,51.0
08/24/2019 14:25:00,EDT,Other Renewables,284.0
08/24/2019 14:25:00,EDT,Wind,30.0
08/24/2019 14:25:00,EDT,Hydro,3148.0
08/24/2019 14:30:00,EDT,Dual Fuel,3215.0
08/24/2019 14:30:00,EDT,Natural Gas,2768.0
08/24/2019 14:30:00,EDT,Nuclear,5277.0
08/24/2019 14:30:00,EDT,Other Fossil Fuels,51.0
08/24/2019 14:30:00,EDT,Other Renewables,284.0
08/24/2019 14:30:00,EDT,Wind,28.0
08/24/2019 14:30:00,EDT,Hydro,3170.0
08/24/2019 14:35:00,EDT,Dual Fuel,3223.0
08/24/2019 14:35:00,EDT,Natural Gas,2774.0
08/24/2019 14:35:00,EDT,Nuclear,5276.0
08/24/2019 14:35:00,EDT,Other Fossil Fuels,51.0
08/24/2019 14:35:00,EDT,Other Renewables,287.0
08/24/2019 14:35:00,EDT,Wind,26.0
08/24/2019 14:35:00,EDT,Hydro,3206.0
08/24/2019 14:40:00,EDT,Dual Fuel,3227.0
08/24/2019 14:40:00,EDT,Natural Gas,2781.0
08/24/2019 14:40:00,EDT,Nuclear,5275.0
08/24/2019 14:40:00,EDT,Other Fossil Fuels,50.0
08/24/2019 14:40:00,EDT,Other Renewables,288.0
08/24/2019 14:40:00,EDT,Wind,28.0
08/24/2019 14:40:00,EDT,Hydro,3220.0
08/24/2019 14:45:00,EDT,Dual Fuel,3226.0
08/24/2019 14:45:00,EDT,Natural Gas,2794.0
08/24/2019 14:45:00,EDT,Nuclear,5275.0
08/24/2019 14:45:00,EDT,Other Fossil Fuels,51.0
08/24/2019 14:45:00,EDT,Other Renewables,281.0
08/24/2019 14:45:00,EDT,Wind,27.0
08/24/2019 14:45:00,EDT,Hydro,3226.0
08/24/2019 14:50:00,EDT,Dual Fuel,3219.0
08/24/2019 14:50:00,EDT,Natural Gas,2827.0
08/24/2019 14:50:00,EDT,Nuclear,5273.0
08/24/2019 14:50:00,EDT,Other Fossil Fuels,50.0
08/24/2019 14:50:00,EDT,Other Renewables,286.0
08/24/2019 14:50:00,EDT,Wind,27.0
08/24/2019 14:50:00,EDT,Hydro,3214.0
08/24/2019 14:55:00,EDT,Dual Fuel,3215.0
08/24/2019 14:55:00,EDT,Natural Gas,2824.0
08/24/2019 14:55:00,EDT,Nuclear,5274.0
08/24/2019 14:55:00,EDT,Other Fossil Fuels,51.0
08/24/2019 14:55:00,EDT,Other Renewables,281.0
08/24/2019 14:55:00,EDT,Wind,26.0
08/24/2019 14:55:00,EDT,Hydro,3192.0
08/24/2019 15:00:00,EDT,Dual Fuel,3247.0
08/24/2019 15:00:00,EDT,Natural Gas,2827.0
08/24/2019 15:00:00,EDT,Nuclear,5272.0
08/24/2019 15:00:00,EDT,Other Fossil Fuels,51.0
08/24/2019 15:00:00,EDT,Other Renewables,281.0
08/24/2019 15:00:00,EDT,Wind,26.0
08/24/2019 15:00:00,EDT,Hydro,3232.0
08/24/2019 15:05:00,EDT,Dual Fuel,3300.0
08/24/2019 15:05:00,EDT,Natural Gas,2865.0
08/24/2019 15:05:00,EDT,Nuclear,5269.0
08/24/2019 15:05:00,EDT,Other Fossil Fuels,51.0
08/24/2019 15:05:00,EDT,Other Renewables,286.0
08/24/2019 15:05:00,EDT,Wind,27.0
08/24/2019 15:05:00,EDT,Hydro,3202.0
08/24/2019 15:10:00,EDT,Dual Fuel,3344.0
08/24/2019 15:10:00,EDT,Natural Gas,2919.0
08/24/2019 15:10:00,EDT,Nuclear,5269.0
08/24/2019 15:10:00,EDT,Other Fossil Fuels,51.0
08/24/2019 15:10:00,EDT,Other Renewables,283.0
08/24/2019 15:10:00,EDT,Wind,29.0
08/24/2019 15:10:00,EDT,Hydro,3159.0
08/24/2019 15:15:00,EDT,Dual Fuel,3341.0
08/24/2019 15:15:00,EDT,Natural Gas,2967.0
08/24/2019 15:15:00,EDT,Nuclear,5264.0
08/24/2019 15:15:00,EDT,Other Fossil Fuels,51.0
08/24/2019 15:15:00,EDT,Other Renewables,283.0
08/24/2019 15:15:00,EDT,Wind,31.0
08/24/2019 15:15:00,EDT,Hydro,3112.0
08/24/2019 15:20:00,EDT,Dual Fuel,3366.0
08/24/2019 15:20:00,EDT,Natural Gas,3030.0
08/24/2019 15:20:00,EDT,Nuclear,5267.0
08/24/2019 15:20:00,EDT,Other Fossil Fuels,51.0
08/24/2019 15:20:00,EDT,Other Renewables,283.0
08/24/2019 15:20:00,EDT,Wind,37.0
08/24/2019 15:20:00,EDT,Hydro,3075.0
08/24/2019 15:25:00,EDT,Dual Fuel,3390.0
08/24/2019 15:25:00,EDT,Natural Gas,3066.0
08/24/2019 15:25:00,EDT,Nuclear,5267.0
08/24/2019 15:25:00,EDT,Other Fossil Fuels,51.0
08/24/2019 15:25:00,EDT,Other Renewables,284.0
08/24/2019 15:25:00,EDT,Wind,38.0
08/24/2019 15:25:00,EDT,Hydro,3088.0
08/24/2019 15:30:00,EDT,Dual Fuel,3390.0
08/24/2019 15:30:00,EDT,Natural Gas,3075.0
08/24/2019 15:30:00,EDT,Nuclear,5269.0
08/24/2019 15:30:00,EDT,Other Fossil Fuels,51.0
08/24/2019 15:30:00,EDT,Other Renewables,279.0
08/24/2019 15:30:00,EDT,Wind,40.0
08/24/2019 15:30:00,EDT,Hydro,3103.0
08/24/2019 15:35:00,EDT,Dual Fuel,3392.0
08/24/2019 15:35:00,EDT,Natural Gas,3072.0
08/24/2019 15:35:00,EDT,Nuclear,5265.0
08/24/2019 15:35:00,EDT,Other Fossil Fuels,51.0
08/24/2019 15:35:00,EDT,Other Renewables,283.0
08/24/2019 15:35:00,EDT,Wind,45.0
08/24/2019 15:35:00,EDT,Hydro,3094.0
08/24/2019 15:40:00,EDT,Dual Fuel,3411.0
08/24/2019 15:40:00,EDT,Natural Gas,3071.0
08/24/2019 15:40:00,EDT,Nuclear,5267.0
08/24/2019 15:40:00,EDT,Other Fossil Fuels,52.0
08/24/2019 15:40:00,EDT,Other Renewables,285.0
08/24/2019 15:40:00,EDT,Wind,45.0
08/24/2019 15:40:00,EDT,Hydro,3083.0
08/24/2019 15:45:00,EDT,Dual Fuel,3436.0
08/24/2019 15:45:00,EDT,Natural Gas,3072.0
08/24/2019 15:45:00,EDT,Nuclear,5265.0
08/24/2019 15:45:00,EDT,Other Fossil Fuels,57.0
08/24/2019 15:45:00,EDT,Other Renewables,283.0
08/24/2019 15:45:00,EDT,Wind,42.0
08/24/2019 15:45:00,EDT,Hydro,3097.0
08/24/2019 15:50:00,EDT,Dual Fuel,3449.0
08/24/2019 15:50:00,EDT,Natural Gas,3072.0
08/24/2019 15:50:00,EDT,Nuclear,5265.0
08/24/2019 15:50:00,EDT,Other Fossil Fuels,57.0
08/24/2019 15:50:00,EDT,Other Renewables,283.0
08/24/2019 15:50:00,EDT,Wind,36.0
08/24/2019 15:50:00,EDT,Hydro,3113.0
08/24/2019 15:55:00,EDT,Dual Fuel,3440.0
08/24/2019 15:55:00,EDT,Natural Gas,3097.0
08/24/2019 15:55:00,EDT,Nuclear,5266.0
08/24/2019 15:55:00,EDT,Other Fossil Fuels,57.0
08/24/2019 15:55:00,EDT,Other Renewables,278.0
08/24/2019 15:55:00,EDT,Wind,25.0
08/24/2019 15:55:00,EDT,Hydro,3125.0
08/24/2019 16:00:00,EDT,Dual Fuel,3401.0
08/24/2019 16:00:00,EDT,Natural Gas,3107.0
08/24/2019 16:00:00,EDT,Nuclear,5264.0
08/24/2019 16:00:00,EDT,Other Fossil Fuels,57.0
08/24/2019 16:00:00,EDT,Other Renewables,275.0
08/24/2019 16:00:00,EDT,Wind,25.0
08/24/2019 16:00:00,EDT,Hydro,3155.0
08/24/2019 16:05:00,EDT,Dual Fuel,3457.0
08/24/2019 16:05:00,EDT,Natural Gas,3098.0
08/24/2019 16:05:00,EDT,Nuclear,5263.0
08/24/2019 16:05:00,EDT,Other Fossil Fuels,58.0
08/24/2019 16:05:00,EDT,Other Renewables,282.0
08/24/2019 16:05:00,EDT,Wind,29.0
08/24/2019 16:05:00,EDT,Hydro,3260.0
08/24/2019 16:10:00,EDT,Dual Fuel,3549.0
08/24/2019 16:10:00,EDT,Natural Gas,3116.0
08/24/2019 16:10:00,EDT,Nuclear,5264.0
08/24/2019 16:10:00,EDT,Other Fossil Fuels,58.0
08/24/2019 16:10:00,EDT,Other Renewables,278.0
08/24/2019 16:10:00,EDT,Wind,34.0
08/24/2019 16:10:00,EDT,Hydro,3310.0
08/24/2019 16:15:00,EDT,Dual Fuel,3570.0
08/24/2019 16:15:00,EDT,Natural Gas,3128.0
08/24/2019 16:15:00,EDT,Nuclear,5265.0
08/24/2019 16:15:00,EDT,Other Fossil Fuels,57.0
08/24/2019 16:15:00,EDT,Other Renewables,280.0
08/24/2019 16:15:00,EDT,Wind,37.0
08/24/2019 16:15:00,EDT,Hydro,3337.0
08/24/2019 16:20:00,EDT,Dual Fuel,3599.0
08/24/2019 16:20:00,EDT,Natural Gas,3121.0
08/24/2019 16:20:00,EDT,Nuclear,5264.0
08/24/2019 16:20:00,EDT,Other Fossil Fuels,58.0
08/24/2019 16:20:00,EDT,Other Renewables,280.0
08/24/2019 16:20:00,EDT,Wind,36.0
08/24/2019 16:20:00,EDT,Hydro,3325.0
08/24/2019 16:25:00,EDT,Dual Fuel,3626.0
08/24/2019 16:25:00,EDT,Natural Gas,3118.0
08/24/2019 16:25:00,EDT,Nuclear,5266.0
08/24/2019 16:25:00,EDT,Other Fossil Fuels,57.0
08/24/2019 16:25:00,EDT,Other Renewables,279.0
08/24/2019 16:25:00,EDT,Wind,36.0
08/24/2019 16:25:00,EDT,Hydro,3326.0
08/24/2019 16:30:00,EDT,Dual Fuel,3656.0
08/24/2019 16:30:00,EDT,Natural Gas,3126.0
08/24/2019 16:30:00,EDT,Nuclear,5265.0
08/24/2019 16:30:00,EDT,Other Fossil Fuels,58.0
08/24/2019 16:30:00,EDT,Other Renewables,280.0
08/24/2019 16:30:00,EDT,Wind,35.0
08/24/2019 16:30:00,EDT,Hydro,3357.0
08/24/2019 16:35:00,EDT,Dual Fuel,3646.0
08/24/2019 16:35:00,EDT,Natural Gas,3123.0
08/24/2019 16:35:00,EDT,Nuclear,5264.0
08/24/2019 16:35:00,EDT,Other Fossil Fuels,58.0
08/24/2019 16:35:00,EDT,Other Renewables,278.0
08/24/2019 16:35:00,EDT,Wind,32.0
08/24/2019 16:35:00,EDT,Hydro,3361.0
08/24/2019 16:40:00,EDT,Dual Fuel,3645.0
08/24/2019 16:40:00,EDT,Natural Gas,3119.0
08/24/2019 16:40:00,EDT,Nuclear,5261.0
08/24/2019 16:40:00,EDT,Other Fossil Fuels,57.0
08/24/2019 16:40:00,EDT,Other Renewables,276.0
08/24/2019 16:40:00,EDT,Wind,33.0
08/24/2019 16:40:00,EDT,Hydro,3384.0
08/24/2019 16:45:00,EDT,Dual Fuel,3663.0
08/24/2019 16:45:00,EDT,Natural Gas,3107.0
08/24/2019 16:45:00,EDT,Nuclear,5262.0
08/24/2019 16:45:00,EDT,Other Fossil Fuels,57.0
08/24/2019 16:45:00,EDT,Other Renewables,269.0
08/24/2019 16:45:00,EDT,Wind,37.0
08/24/2019 16:45:00,EDT,Hydro,3336.0
08/24/2019 16:50:00,EDT,Dual Fuel,3692.0
08/24/2019 16:50:00,EDT,Natural Gas,3107.0
08/24/2019 16:50:00,EDT,Nuclear,5262.0
08/24/2019 16:50:00,EDT,Other Fossil Fuels,58.0
08/24/2019 16:50:00,EDT,Other Renewables,276.0
08/24/2019 16:50:00,EDT,Wind,44.0
08/24/2019 16:50:00,EDT,Hydro,3301.0
08/24/2019 16:55:00,EDT,Dual Fuel,3695.0
08/24/2019 16:55:00,EDT,Natural Gas,3115.0
08/24/2019 16:55:00,EDT,Nuclear,5260.0
08/24/2019 16:55:00,EDT,Other Fossil Fuels,57.0
08/24/2019 16:55:00,EDT,Other Renewables,277.0
08/24/2019 16:55:00,EDT,Wind,49.0
08/24/2019 16:55:00,EDT,Hydro,3291.0
08/24/2019 17:00:00,EDT,Dual Fuel,3701.0
08/24/2019 17:00:00,EDT,Natural Gas,3120.0
08/24/2019 17:00:00,EDT,Nuclear,5261.0
08/24/2019 17:00:00,EDT,Other Fossil Fuels,57.0
08/24/2019 17:00:00,EDT,Other Renewables,275.0
08/24/2019 17:00:00,EDT,Wind,48.0
08/24/2019 17:00:00,EDT,Hydro,3313.0
08/24/2019 17:05:00,EDT,Dual Fuel,3694.0
08/24/2019 17:05:00,EDT,Natural Gas,3110.0
08/24/2019 17:05:00,EDT,Nuclear,5263.0
08/24/2019 17:05:00,EDT,Other Fossil Fuels,57.0
08/24/2019 17:05:00,EDT,Other Renewables,273.0
08/24/2019 17:05:00,EDT,Wind,45.0
08/24/2019 17:05:00,EDT,Hydro,3373.0
08/24/2019 17:10:00,EDT,Dual Fuel,3669.0
08/24/2019 17:10:00,EDT,Natural Gas,3119.0
08/24/2019 17:10:00,EDT,Nuclear,5262.0
08/24/2019 17:10:00,EDT,Other Fossil Fuels,57.0
08/24/2019 17:10:00,EDT,Other Renewables,271.0
08/24/2019 17:10:00,EDT,Wind,45.0
08/24/2019 17:10:00,EDT,Hydro,3404.0
08/24/2019 17:15:00,EDT,Dual Fuel,3704.0
08/24/2019 17:15:00,EDT,Natural Gas,3122.0
08/24/2019 17:15:00,EDT,Nuclear,5260.0
08/24/2019 17:15:00,EDT,Other Fossil Fuels,57.0
08/24/2019 17:15:00,EDT,Other Renewables,270.0
08/24/2019 17:15:00,EDT,Wind,47.0
08/24/2019 17:15:00,EDT,Hydro,3430.0
08/24/2019 17:20:00,EDT,Dual Fuel,3725.0
08/24/2019 17:20:00,EDT,Natural Gas,3135.0
08/24/2019 17:20:00,EDT,Nuclear,5263.0
08/24/2019 17:20:00,EDT,Other Fossil Fuels,57.0
08/24/2019 17:20:00,EDT,Other Renewables,267.0
08/24/2019 17:20:00,EDT,Wind,47.0
08/24/2019 17:20:00,EDT,Hydro,3417.0
08/24/2019 17:25:00,EDT,Dual Fuel,3738.0
08/24/2019 17:25:00,EDT,Natural Gas,3144.0
08/24/2019 17:25:00,EDT,Nuclear,5263.0
08/24/2019 17:25:00,EDT,Other Fossil Fuels,57.0
08/24/2019 17:25:00,EDT,Other Renewables,266.0
08/24/2019 17:25:00,EDT,Wind,49.0
08/24/2019 17:25:00,EDT,Hydro,3355.0
08/24/2019 17:30:00,EDT,Dual Fuel,3753.0
08/24/2019 17:30:00,EDT,Natural Gas,3166.0
08/24/2019 17:30:00,EDT,Nuclear,5263.0
08/24/2019 17:30:00,EDT,Other Fossil Fuels,58.0
08/24/2019 17:30:00,EDT,Other Renewables,268.0
08/24/2019 17:30:00,EDT,Wind,49.0
08/24/2019 17:30:00,EDT,Hydro,3339.0
08/24/2019 17:35:00,EDT,Dual Fuel,3755.0
08/24/2019 17:35:00,EDT,Natural Gas,3188.0
08/24/2019 17:35:00,EDT,Nuclear,5265.0
08/24/2019 17:35:00,EDT,Other Fossil Fuels,57.0
08/24/2019 17:35:00,EDT,Other Renewables,267.0
08/24/2019 17:35:00,EDT,Wind,49.0
08/24/2019 17:35:00,EDT,Hydro,3343.0
08/24/2019 17:40:00,EDT,Dual Fuel,3757.0
08/24/2019 17:40:00,EDT,Natural Gas,3201.0
08/24/2019 17:40:00,EDT,Nuclear,5265.0
08/24/2019 17:40:00,EDT,Other Fossil Fuels,57.0
08/24/2019 17:40:00,EDT,Other Renewables,262.0
08/24/2019 17:40:00,EDT,Wind,53.0
08/24/2019 17:40:00,EDT,Hydro,3359.0
08/24/2019 17:45:00,EDT,Dual Fuel,3752.0
08/24/2019 17:45:00,EDT,Natural Gas,3189.0
08/24/2019 17:45:00,EDT,Nuclear,5264.0
08/24/2019 17:45:00,EDT,Other Fossil Fuels,57.0
08/24/2019 17:45:00,EDT,Other Renewables,267.0
08/24/2019 17:45:00,EDT,Wind,56.0
08/24/2019 17:45:00,EDT,Hydro,3367.0
08/24/2019 17:50:00,EDT,Dual Fuel,3760.0
08/24/2019 17:50:00,EDT,Natural Gas,3168.0
08/24/2019 17:50:00,EDT,Nuclear,5264.0
08/24/2019 17:50:00,EDT,Other Fossil Fuels,57.0
08/24/2019 17:50:00,EDT,Other Renewables,265.0
08/24/2019 17:50:00,EDT,Wind,62.0
08/24/2019 17:50:00,EDT,Hydro,3316.0
08/24/2019 17:55:00,EDT,Dual Fuel,3759.0
08/24/2019 17:55:00,EDT,Natural Gas,3159.0
08/24/2019 17:55:00,EDT,Nuclear,5264.0
08/24/2019 17:55:00,EDT,Other Fossil Fuels,57.0
08/24/2019 17:55:00,EDT,Other Renewables,270.0
08/24/2019 17:55:00,EDT,Wind,68.0
08/24/2019 17:55:00,EDT,Hydro,3286.0
08/24/2019 18:00:00,EDT,Dual Fuel,3717.0
08/24/2019 18:00:00,EDT,Natural Gas,3146.0
08/24/2019 18:00:00,EDT,Nuclear,5265.0
08/24/2019 18:00:00,EDT,Other Fossil Fuels,58.0
08/24/2019 18:00:00,EDT,Other Renewables,267.0
08/24/2019 18:00:00,EDT,Wind,62.0
08/24/2019 18:00:00,EDT,Hydro,3248.0
08/24/2019 18:05:00,EDT,Dual Fuel,3639.0
08/24/2019 18:05:00,EDT,Natural Gas,3191.0
08/24/2019 18:05:00,EDT,Nuclear,5267.0
08/24/2019 18:05:00,EDT,Other Fossil Fuels,57.0
08/24/2019 18:05:00,EDT,Other Renewables,266.0
08/24/2019 18:05:00,EDT,Wind,54.0
08/24/2019 18:05:00,EDT,Hydro,3307.0
08/24/2019 18:10:00,EDT,Dual Fuel,3623.0
08/24/2019 18:10:00,EDT,Natural Gas,3207.0
08/24/2019 18:10:00,EDT,Nuclear,5267.0
08/24/2019 18:10:00,EDT,Other Fossil Fuels,57.0
08/24/2019 18:10:00,EDT,Other Renewables,264.0
08/24/2019 18:10:00,EDT,Wind,51.0
08/24/2019 18:10:00,EDT,Hydro,3340.0
08/24/2019 18:15:00,EDT,Dual Fuel,3603.0
08/24/2019 18:15:00,EDT,Natural Gas,3220.0
08/24/2019 18:15:00,EDT,Nuclear,5267.0
08/24/2019 18:15:00,EDT,Other Fossil Fuels,57.0
08/24/2019 18:15:00,EDT,Other Renewables,262.0
08/24/2019 18:15:00,EDT,Wind,51.0
08/24/2019 18:15:00,EDT,Hydro,3353.0
08/24/2019 18:20:00,EDT,Dual Fuel,3607.0
08/24/2019 18:20:00,EDT,Natural Gas,3210.0
08/24/2019 18:20:00,EDT,Nuclear,5265.0
08/24/2019 18:20:00,EDT,Other Fossil Fuels,58.0
08/24/2019 18:20:00,EDT,Other Renewables,264.0
08/24/2019 18:20:00,EDT,Wind,54.0
08/24/2019 18:20:00,EDT,Hydro,3326.0
08/24/2019 18:25:00,EDT,Dual Fuel,3607.0
08/24/2019 18:25:00,EDT,Natural Gas,3210.0
08/24/2019 18:25:00,EDT,Nuclear,5267.0
08/24/2019 18:25:00,EDT,Other Fossil Fuels,57.0
08/24/2019 18:25:00,EDT,Other Renewables,261.0
08/24/2019 18:25:00,EDT,Wind,58.0
08/24/2019 18:25:00,EDT,Hydro,3301.0
08/24/2019 18:30:00,EDT,Dual Fuel,3596.0
08/24/2019 18:30:00,EDT,Natural Gas,3221.0
08/24/2019 18:30:00,EDT,Nuclear,5267.0
08/24/2019 18:30:00,EDT,Other Fossil Fuels,57.0
08/24/2019 18:30:00,EDT,Other Renewables,261.0
08/24/2019 18:30:00,EDT,Wind,60.0
08/24/2019 18:30:00,EDT,Hydro,3312.0
08/24/2019 18:35:00,EDT,Dual Fuel,3594.0
08/24/2019 18:35:00,EDT,Natural Gas,3221.0
08/24/2019 18:35:00,EDT,Nuclear,5265.0
08/24/2019 18:35:00,EDT,Other Fossil Fuels,57.0
08/24/2019 18:35:00,EDT,Other Renewables,259.0
08/24/2019 18:35:00,EDT,Wind,58.0
08/24/2019 18:35:00,EDT,Hydro,3313.0
08/24/2019 18:40:00,EDT,Dual Fuel,3593.0
08/24/2019 18:40:00,EDT,Natural Gas,3219.0
08/24/2019 18:40:00,EDT,Nuclear,5266.0
08/24/2019 18:40:00,EDT,Other Fossil Fuels,57.0
08/24/2019 18:40:00,EDT,Other Renewables,260.0
08/24/2019 18:40:00,EDT,Wind,59.0
08/24/2019 18:40:00,EDT,Hydro,3307.0
08/24/2019 18:45:00,EDT,Dual Fuel,3594.0
08/24/2019 18:45:00,EDT,Natural Gas,3194.0
08/24/2019 18:45:00,EDT,Nuclear,5266.0
08/24/2019 18:45:00,EDT,Other Fossil Fuels,57.0
08/24/2019 18:45:00,EDT,Other Renewables,262.0
08/24/2019 18:45:00,EDT,Wind,57.0
08/24/2019 18:45:00,EDT,Hydro,3295.0
08/24/2019 18:50:00,EDT,Dual Fuel,3594.0
08/24/2019 18:50:00,EDT,Natural Gas,3170.0
08/24/2019 18:50:00,EDT,Nuclear,5265.0
08/24/2019 18:50:00,EDT,Other Fossil Fuels,57.0
08/24/2019 18:50:00,EDT,Other Renewables,262.0
08/24/2019 18:50:00,EDT,Wind,56.0
08/24/2019 18:50:00,EDT,Hydro,3281.0
08/24/2019 18:55:00,EDT,Dual Fuel,3575.0
08/24/2019 18:55:00,EDT,Natural Gas,3159.0
08/24/2019 18:55:00,EDT,Nuclear,5268.0
08/24/2019 18:55:00,EDT,Other Fossil Fuels,57.0
08/24/2019 18:55:00,EDT,Other Renewables,259.0
08/24/2019 18:55:00,EDT,Wind,60.0
08/24/2019 18:55:00,EDT,Hydro,3240.0
08/24/2019 19:00:00,EDT,Dual Fuel,3568.0
08/24/2019 19:00:00,EDT,Natural Gas,3165.0
08/24/2019 19:00:00,EDT,Nuclear,5267.0
08/24/2019 19:00:00,EDT,Other Fossil Fuels,58.0
08/24/2019 19:00:00,EDT,Other Renewables,261.0
08/24/2019 19:00:00,EDT,Wind,61.0
08/24/2019 19:00:00,EDT,Hydro,3243.0
08/24/2019 19:05:00,EDT,Dual Fuel,3550.0
08/24/2019 19:05:00,EDT,Natural Gas,3172.0
08/24/2019 19:05:00,EDT,Nuclear,5267.0
08/24/2019 19:05:00,EDT,Other Fossil Fuels,58.0
08/24/2019 19:05:00,EDT,Other Renewables,257.0
08/24/2019 19:05:00,EDT,Wind,70.0
08/24/2019 19:05:00,EDT,Hydro,3190.0
08/24/2019 19:10:00,EDT,Dual Fuel,3539.0
08/24/2019 19:10:00,EDT,Natural Gas,3145.0
08/24/2019 19:10:00,EDT,Nuclear,5267.0
08/24/2019 19:10:00,EDT,Other Fossil Fuels,57.0
08/24/2019 19:10:00,EDT,Other Renewables,258.0
08/24/2019 19:10:00,EDT,Wind,73.0
08/24/2019 19:10:00,EDT,Hydro,3197.0
08/24/2019 19:15:00,EDT,Dual Fuel,3526.0
08/24/2019 19:15:00,EDT,Natural Gas,3129.0
08/24/2019 19:15:00,EDT,Nuclear,5269.0
08/24/2019 19:15:00,EDT,Other Fossil Fuels,57.0
08/24/2019 19:15:00,EDT,Other Renewables,257.0
08/24/2019 19:15:00,EDT,Wind,71.0
08/24/2019 19:15:00,EDT,Hydro,3209.0
08/24/2019 19:20:00,EDT,Dual Fuel,3518.0
08/24/2019 19:20:00,EDT,Natural Gas,3140.0
08/24/2019 19:20:00,EDT,Nuclear,5269.0
08/24/2019 19:20:00,EDT,Other Fossil Fuels,58.0
08/24/2019 19:20:00,EDT,Other Renewables,259.0
08/24/2019 19:20:00,EDT,Wind,67.0
08/24/2019 19:20:00,EDT,Hydro,3200.0
08/24/2019 19:25:00,EDT,Dual Fuel,3514.0
08/24/2019 19:25:00,EDT,Natural Gas,3141.0
08/24/2019 19:25:00,EDT,Nuclear,5269.0
08/24/2019 19:25:00,EDT,Other Fossil Fuels,57.0
08/24/2019 19:25:00,EDT,Other Renewables,263.0
08/24/2019 19:25:00,EDT,Wind,53.0
08/24/2019 19:25:00,EDT,Hydro,3182.0
08/24/2019 19:30:00,EDT,Dual Fuel,3497.0
08/24/2019 19:30:00,EDT,Natural Gas,3153.0
08/24/2019 19:30:00,EDT,Nuclear,5269.0
08/24/2019 19:30:00,EDT,Other Fossil Fuels,57.0
08/24/2019 19:30:00,EDT,Other Renewables,262.0
08/24/2019 19:30:00,EDT,Wind,39.0
08/24/2019 19:30:00,EDT,Hydro,3199.0
08/24/2019 19:35:00,EDT,Dual Fuel,3504.0
08/24/2019 19:35:00,EDT,Natural Gas,3195.0
08/24/2019 19:35:00,EDT,Nuclear,5270.0
08/24/2019 19:35:00,EDT,Other Fossil Fuels,58.0
08/24/2019 19:35:00,EDT,Other Renewables,260.0
08/24/2019 19:35:00,EDT,Wind,37.0
08/24/2019 19:35:00,EDT,Hydro,3198.0
08/24/2019 19:40:00,EDT,Dual Fuel,3519.0
08/24/2019 19:40:00,EDT,Natural Gas,3197.0
08/24/2019 19:40:00,EDT,Nuclear,5270.0
08/24/2019 19:40:00,EDT,Other Fossil Fuels,57.0
08/24/2019 19:40:00,EDT,Other Renewables,257.0
08/24/2019 19:40:00,EDT,Wind,37.0
08/24/2019 19:40:00,EDT,Hydro,3176.0
08/24/2019 19:45:00,EDT,Dual Fuel,3505.0
08/24/2019 19:45:00,EDT,Natural Gas,3195.0
08/24/2019 19:45:00,EDT,Nuclear,5270.0
08/24/2019 19:45:00,EDT,Other Fossil Fuels,57.0
08/24/2019 19:45:00,EDT,Other Renewables,256.0
08/24/2019 19:45:00,EDT,Wind,34.0
08/24/2019 19:45:00,EDT,Hydro,3160.0
08/24/2019 19:50:00,EDT,Dual Fuel,3516.0
08/24/2019 19:50:00,EDT,Natural Gas,3208.0
08/24/2019 19:50:00,EDT,Nuclear,5270.0
08/24/2019 19:50:00,EDT,Other Fossil Fuels,57.0
08/24/2019 19:50:00,EDT,Other Renewables,258.0
08/24/2019 19:50:00,EDT,Wind,31.0
08/24/2019 19:50:00,EDT,Hydro,3173.0
08/24/2019 19:55:00,EDT,Dual Fuel,3529.0
08/24/2019 19:55:00,EDT,Natural Gas,3234.0
08/24/2019 19:55:00,EDT,Nuclear,5271.0
08/24/2019 19:55:00,EDT,Other Fossil Fuels,57.0
08/24/2019 19:55:00,EDT,Other Renewables,253.0
08/24/2019 19:55:00,EDT,Wind,31.0
08/24/2019 19:55:00,EDT,Hydro,3207.0
08/24/2019 20:00:00,EDT,Dual Fuel,3528.0
08/24/2019 20:00:00,EDT,Natural Gas,3257.0
08/24/2019 20:00:00,EDT,Nuclear,5269.0
08/24/2019 20:00:00,EDT,Other Fossil Fuels,57.0
08/24/2019 20:00:00,EDT,Other Renewables,255.0
08/24/2019 20:00:00,EDT,Wind,34.0
08/24/2019 20:00:00,EDT,Hydro,3212.0
08/24/2019 20:05:00,EDT,Dual Fuel,3464.0
08/24/2019 20:05:00,EDT,Natural Gas,3142.0
08/24/2019 20:05:00,EDT,Nuclear,5269.0
08/24/2019 20:05:00,EDT,Other Fossil Fuels,58.0
08/24/2019 20:05:00,EDT,Other Renewables,253.0
08/24/2019 20:05:00,EDT,Wind,36.0
08/24/2019 20:05:00,EDT,Hydro,3234.0
08/24/2019 20:10:00,EDT,Dual Fuel,3433.0
08/24/2019 20:10:00,EDT,Natural Gas,3085.0
08/24/2019 20:10:00,EDT,Nuclear,5269.0
08/24/2019 20:10:00,EDT,Other Fossil Fuels,57.0
08/24/2019 20:10:00,EDT,Other Renewables,252.0
08/24/2019 20:10:00,EDT,Wind,37.0
08/24/2019 20:10:00,EDT,Hydro,3282.0
08/24/2019 20:15:00,EDT,Dual Fuel,3451.0
08/24/2019 20:15:00,EDT,Natural Gas,3129.0
08/24/2019 20:15:00,EDT,Nuclear,5268.0
08/24/2019 20:15:00,EDT,Other Fossil Fuels,57.0
08/24/2019 20:15:00,EDT,Other Renewables,256.0
08/24/2019 20:15:00,EDT,Wind,37.0
08/24/2019 20:15:00,EDT,Hydro,3221.0
08/24/2019 20:20:00,EDT,Dual Fuel,3456.0
08/24/2019 20:20:00,EDT,Natural Gas,3164.0
08/24/2019 20:20:00,EDT,Nuclear,5268.0
08/24/2019 20:20:00,EDT,Other Fossil Fuels,58.0
08/24/2019 20:20:00,EDT,Other Renewables,259.0
08/24/2019 20:20:00,EDT,Wind,39.0
08/24/2019 20:20:00,EDT,Hydro,3171.0
08/24/2019 20:25:00,EDT,Dual Fuel,3469.0
08/24/2019 20:25:00,EDT,Natural Gas,3165.0
08/24/2019 20:25:00,EDT,Nuclear,5271.0
08/24/2019 20:25:00,EDT,Other Fossil Fuels,57.0
08/24/2019 20:25:00,EDT,Other Renewables,259.0
08/24/2019 20:25:00,EDT,Wind,45.0
08/24/2019 20:25:00,EDT,Hydro,3110.0
08/24/2019 20:30:00,EDT,Dual Fuel,3479.0
08/24/2019 20:30:00,EDT,Natural Gas,3152.0
08/24/2019 20:30:00,EDT,Nuclear,5271.0
08/24/2019 20:30:00,EDT,Other Fossil Fuels,57.0
08/24/2019 20:30:00,EDT,Other Renewables,256.0
08/24/2019 20:30:00,EDT,Wind,49.0
08/24/2019 20:30:00,EDT,Hydro,3086.0
08/24/2019 20:35:00,EDT,Dual Fuel,3480.0
08/24/2019 20:35:00,EDT,Natural Gas,3133.0
08/24/2019 20:35:00,EDT,Nuclear,5270.0
08/24/2019 20:35:00,EDT,Other Fossil Fuels,58.0
08/24/2019 20:35:00,EDT,Other Renewables,255.0
08/24/2019 20:35:00,EDT,Wind,49.0
08/24/2019 20:35:00,EDT,Hydro,3082.0
08/24/2019 20:40:00,EDT,Dual Fuel,3460.0
08/24/2019 20:40:00,EDT,Natural Gas,3120.0
08/24/2019 20:40:00,EDT,Nuclear,5271.0
08/24/2019 20:40:00,EDT,Other Fossil Fuels,57.0
08/24/2019 20:40:00,EDT,Other Renewables,255.0
08/24/2019 20:40:00,EDT,Wind,48.0
08/24/2019 20:40:00,EDT,Hydro,3081.0
08/24/2019 20:45:00,EDT,Dual Fuel,3434.0
08/24/2019 20:45:00,EDT,Natural Gas,3092.0
08/24/2019 20:45:00,EDT,Nuclear,5271.0
08/24/2019 20:45:00,EDT,Other Fossil Fuels,58.0
08/24/2019 20:45:00,EDT,Other Renewables,257.0
08/24/2019 20:45:00,EDT,Wind,46.0
08/24/2019 20:45:00,EDT,Hydro,3056.0
08/24/2019 20:50:00,EDT,Dual Fuel,3411.0
08/24/2019 20:50:00,EDT,Natural Gas,3094.0
08/24/2019 20:50:00,EDT,Nuclear,5271.0
08/24/2019 20:50:00,EDT,Other Fossil Fuels,57.0
08/24/2019 20:50:00,EDT,Other Renewables,259.0
08/24/2019 20:50:00,EDT,Wind,49.0
08/24/2019 20:50:00,EDT,Hydro,3063.0
08/24/2019 20:55:00,EDT,Dual Fuel,3388.0
08/24/2019 20:55:00,EDT,Natural Gas,3076.0
08/24/2019 20:55:00,EDT,Nuclear,5271.0
08/24/2019 20:55:00,EDT,Other Fossil Fuels,57.0
08/24/2019 20:55:00,EDT,Other Renewables,259.0
08/24/2019 20:55:00,EDT,Wind,50.0
08/24/2019 20:55:00,EDT,Hydro,3088.0
08/24/2019 21:00:00,EDT,Dual Fuel,3389.0
08/24/2019 21:00:00,EDT,Natural Gas,3080.0
08/24/2019 21:00:00,EDT,Nuclear,5272.0
08/24/2019 21:00:00,EDT,Other Fossil Fuels,51.0
08/24/2019 21:00:00,EDT,Other Renewables,259.0
08/24/2019 21:00:00,EDT,Wind,55.0
08/24/2019 21:00:00,EDT,Hydro,3085.0
08/24/2019 21:05:00,EDT,Dual Fuel,3376.0
08/24/2019 21:05:00,EDT,Natural Gas,3148.0
08/24/2019 21:05:00,EDT,Nuclear,5271.0
08/24/2019 21:05:00,EDT,Other Fossil Fuels,51.0
08/24/2019 21:05:00,EDT,Other Renewables,253.0
08/24/2019 21:05:00,EDT,Wind,57.0
08/24/2019 21:05:00,EDT,Hydro,3084.0
08/24/2019 21:10:00,EDT,Dual Fuel,3321.0
08/24/2019 21:10:00,EDT,Natural Gas,3231.0
08/24/2019 21:10:00,EDT,Nuclear,5271.0
08/24/2019 21:10:00,EDT,Other Fossil Fuels,50.0
08/24/2019 21:10:00,EDT,Other Renewables,254.0
08/24/2019 21:10:00,EDT,Wind,53.0
08/24/2019 21:10:00,EDT,Hydro,3134.0
08/24/2019 21:15:00,EDT,Dual Fuel,3290.0
08/24/2019 21:15:00,EDT,Natural Gas,3237.0
08/24/2019 21:15:00,EDT,Nuclear,5272.0
08/24/2019 21:15:00,EDT,Other Fossil Fuels,51.0
08/24/2019 21:15:00,EDT,Other Renewables,259.0
08/24/2019 21:15:00,EDT,Wind,51.0
08/24/2019 21:15:00,EDT,Hydro,3156.0
08/24/2019 21:20:00,EDT,Dual Fuel,3269.0
08/24/2019 21:20:00,EDT,Natural Gas,3226.0
08/24/2019 21:20:00,EDT,Nuclear,5269.0
08/24/2019 21:20:00,EDT,Other Fossil Fuels,51.0
08/24/2019 21:20:00,EDT,Other Renewables,259.0
08/24/2019 21:20:00,EDT,Wind,53.0
08/24/2019 21:20:00,EDT,Hydro,3109.0
08/24/2019 21:25:00,EDT,Dual Fuel,3249.0
08/24/2019 21:25:00,EDT,Natural Gas,3192.0
08/24/2019 21:25:00,EDT,Nuclear,5273.0
08/24/2019 21:25:00,EDT,Other Fossil Fuels,51.0
08/24/2019 21:25:00,EDT,Other Renewables,258.0
08/24/2019 21:25:00,EDT,Wind,54.0
08/24/2019 21:25:00,EDT,Hydro,3101.0
08/24/2019 21:30:00,EDT,Dual Fuel,3238.0
08/24/2019 21:30:00,EDT,Natural Gas,3169.0
08/24/2019 21:30:00,EDT,Nuclear,5272.0
08/24/2019 21:30:00,EDT,Other Fossil Fuels,51.0
08/24/2019 21:30:00,EDT,Other Renewables,255.0
08/24/2019 21:30:00,EDT,Wind,57.0
08/24/2019 21:30:00,EDT,Hydro,3108.0
08/24/2019 21:35:00,EDT,Dual Fuel,3222.0
08/24/2019 21:35:00,EDT,Natural Gas,3148.0
08/24/2019 21:35:00,EDT,Nuclear,5273.0
08/24/2019 21:35:00,EDT,Other Fossil Fuels,50.0
08/24/2019 21:35:00,EDT,Other Renewables,256.0
08/24/2019 21:35:00,EDT,Wind,62.0
08/24/2019 21:35:00,EDT,Hydro,3093.0
08/24/2019 21:40:00,EDT,Dual Fuel,3211.0
08/24/2019 21:40:00,EDT,Natural Gas,3116.0
08/24/2019 21:40:00,EDT,Nuclear,5272.0
08/24/2019 21:40:00,EDT,Other Fossil Fuels,51.0
08/24/2019 21:40:00,EDT,Other Renewables,258.0
08/24/2019 21:40:00,EDT,Wind,67.0
08/24/2019 21:40:00,EDT,Hydro,3075.0
08/24/2019 21:45:00,EDT,Dual Fuel,3203.0
08/24/2019 21:45:00,EDT,Natural Gas,3064.0
08/24/2019 21:45:00,EDT,Nuclear,5272.0
08/24/2019 21:45:00,EDT,Other Fossil Fuels,51.0
08/24/2019 21:45:00,EDT,Other Renewables,258.0
08/24/2019 21:45:00,EDT,Wind,67.0
08/24/2019 21:45:00,EDT,Hydro,3060.0
08/24/2019 21:50:00,EDT,Dual Fuel,3204.0
08/24/2019 21:50:00,EDT,Natural Gas,3072.0
08/24/2019 21:50:00,EDT,Nuclear,5272.0
08/24/2019 21:50:00,EDT,Other Fossil Fuels,51.0
08/24/2019 21:50:00,EDT,Other Renewables,256.0
08/24/2019 21:50:00,EDT,Wind,64.0
08/24/2019 21:50:00,EDT,Hydro,3031.0
08/24/2019 21:55:00,EDT,Dual Fuel,3176.0
08/24/2019 21:55:00,EDT,Natural Gas,3067.0
08/24/2019 21:55:00,EDT,Nuclear,5272.0
08/24/2019 21:55:00,EDT,Other Fossil Fuels,50.0
08/24/2019 21:55:00,EDT,Other Renewables,256.0
08/24/2019 21:55:00,EDT,Wind,60.0
08/24/2019 21:55:00,EDT,Hydro,3088.0
08/24/2019 22:00:00,EDT,Dual Fuel,3131.0
08/24/2019 22:00:00,EDT,Natural Gas,3028.0
08/24/2019 22:00:00,EDT,Nuclear,5273.0
08/24/2019 22:00:00,EDT,Other Fossil Fuels,50.0
08/24/2019 22:00:00,EDT,Other Renewables,258.0
08/24/2019 22:00:00,EDT,Wind,61.0
08/24/2019 22:00:00,EDT,Hydro,3114.0
08/24/2019 22:05:00,EDT,Dual Fuel,3098.0
08/24/2019 22:05:00,EDT,Natural Gas,3019.0
08/24/2019 22:05:00,EDT,Nuclear,5272.0
08/24/2019 22:05:00,EDT,Other Fossil Fuels,51.0
08/24/2019 22:05:00,EDT,Other Renewables,259.0
08/24/2019 22:05:00,EDT,Wind,65.0
08/24/2019 22:05:00,EDT,Hydro,3072.0
08/24/2019 22:10:00,EDT,Dual Fuel,3064.0
08/24/2019 22:10:00,EDT,Natural Gas,3000.0
08/24/2019 22:10:00,EDT,Nuclear,5273.0
08/24/2019 22:10:00,EDT,Other Fossil Fuels,51.0
08/24/2019 22:10:00,EDT,Other Renewables,253.0
08/24/2019 22:10:00,EDT,Wind,69.0
08/24/2019 22:10:00,EDT,Hydro,2993.0
08/24/2019 22:15:00,EDT,Dual Fuel,2996.0
08/24/2019 22:15:00,EDT,Natural Gas,2996.0
08/24/2019 22:15:00,EDT,Nuclear,5271.0
08/24/2019 22:15:00,EDT,Other Fossil Fuels,50.0
08/24/2019 22:15:00,EDT,Other Renewables,257.0
08/24/2019 22:15:00,EDT,Wind,74.0
08/24/2019 22:15:00,EDT,Hydro,2998.0
08/24/2019 22:20:00,EDT,Dual Fuel,2929.0
08/24/2019 22:20:00,EDT,Natural Gas,2981.0
08/24/2019 22:20:00,EDT,Nuclear,5273.0
08/24/2019 22:20:00,EDT,Other Fossil Fuels,51.0
08/24/2019 22:20:00,EDT,Other Renewables,260.0
08/24/2019 22:20:00,EDT,Wind,77.0
08/24/2019 22:20:00,EDT,Hydro,3003.0
08/24/2019 22:25:00,EDT,Dual Fuel,2874.0
08/24/2019 22:25:00,EDT,Natural Gas,2973.0
08/24/2019 22:25:00,EDT,Nuclear,5274.0
08/24/2019 22:25:00,EDT,Other Fossil Fuels,51.0
08/24/2019 22:25:00,EDT,Other Renewables,255.0
08/24/2019 22:25:00,EDT,Wind,79.0
08/24/2019 22:25:00,EDT,Hydro,2980.0
08/24/2019 22:30:00,EDT,Dual Fuel,2882.0
08/24/2019 22:30:00,EDT,Natural Gas,2967.0
08/24/2019 22:30:00,EDT,Nuclear,5273.0
08/24/2019 22:30:00,EDT,Other Fossil Fuels,50.0
08/24/2019 22:30:00,EDT,Other Renewables,257.0
08/24/2019 22:30:00,EDT,Wind,83.0
08/24/2019 22:30:00,EDT,Hydro,2995.0
08/24/2019 22:35:00,EDT,Dual Fuel,2880.0
08/24/2019 22:35:00,EDT,Natural Gas,2945.0
08/24/2019 22:35:00,EDT,Nuclear,5274.0
08/24/2019 22:35:00,EDT,Other Fossil Fuels,51.0
08/24/2019 22:35:00,EDT,Other Renewables,258.0
08/24/2019 22:35:00,EDT,Wind,90.0
08/24/2019 22:35:00,EDT,Hydro,2983.0
08/24/2019 22:40:00,EDT,Dual Fuel,2842.0
08/24/2019 22:40:00,EDT,Natural Gas,2925.0
08/24/2019 22:40:00,EDT,Nuclear,5272.0
08/24/2019 22:40:00,EDT,Other Fossil Fuels,51.0
08/24/2019 22:40:00,EDT,Other Renewables,255.0
08/24/2019 22:40:00,EDT,Wind,96.0
08/24/2019 22:40:00,EDT,Hydro,2975.0
08/24/2019 22:45:00,EDT,Dual Fuel,2770.0
08/24/2019 22:45:00,EDT,Natural Gas,2924.0
08/24/2019 22:45:00,EDT,Nuclear,5274.0
08/24/2019 22:45:00,EDT,Other Fossil Fuels,51.0
08/24/2019 22:45:00,EDT,Other Renewables,258.0
08/24/2019 22:45:00,EDT,Wind,92.0
08/24/2019 22:45:00,EDT,Hydro,2966.0
08/24/2019 22:50:00,EDT,Dual Fuel,2705.0
08/24/2019 22:50:00,EDT,Natural Gas,2927.0
08/24/2019 22:50:00,EDT,Nuclear,5275.0
08/24/2019 22:50:00,EDT,Other Fossil Fuels,51.0
08/24/2019 22:50:00,EDT,Other Renewables,260.0
08/24/2019 22:50:00,EDT,Wind,86.0
08/24/2019 22:50:00,EDT,Hydro,2965.0
08/24/2019 22:55:00,EDT,Dual Fuel,2678.0
08/24/2019 22:55:00,EDT,Natural Gas,2947.0
08/24/2019 22:55:00,EDT,Nuclear,5276.0
08/24/2019 22:55:00,EDT,Other Fossil Fuels,51.0
08/24/2019 22:55:00,EDT,Other Renewables,258.0
08/24/2019 22:55:00,EDT,Wind,78.0
08/24/2019 22:55:00,EDT,Hydro,2983.0
08/24/2019 23:00:00,EDT,Dual Fuel,2704.0
08/24/2019 23:00:00,EDT,Natural Gas,2940.0
08/24/2019 23:00:00,EDT,Nuclear,5276.0
08/24/2019 23:00:00,EDT,Other Fossil Fuels,50.0
08/24/2019 23:00:00,EDT,Other Renewables,254.0
08/24/2019 23:00:00,EDT,Wind,81.0
08/24/2019 23:00:00,EDT,Hydro,2919.0
08/24/2019 23:05:00,EDT,Dual Fuel,2736.0
08/24/2019 23:05:00,EDT,Natural Gas,2887.0
08/24/2019 23:05:00,EDT,Nuclear,5276.0
08/24/2019 23:05:00,EDT,Other Fossil Fuels,51.0
08/24/2019 23:05:00,EDT,Other Renewables,256.0
08/24/2019 23:05:00,EDT,Wind,85.0
08/24/2019 23:05:00,EDT,Hydro,2808.0
08/24/2019 23:10:00,EDT,Dual Fuel,2736.0
08/24/2019 23:10:00,EDT,Natural Gas,2840.0
08/24/2019 23:10:00,EDT,Nuclear,5275.0
08/24/2019 23:10:00,EDT,Other Fossil Fuels,51.0
08/24/2019 23:10:00,EDT,Other Renewables,257.0
08/24/2019 23:10:00,EDT,Wind,89.0
08/24/2019 23:10:00,EDT,Hydro,2732.0
08/24/2019 23:15:00,EDT,Dual Fuel,2735.0
08/24/2019 23:15:00,EDT,Natural Gas,2801.0
08/24/2019 23:15:00,EDT,Nuclear,5275.0
08/24/2019 23:15:00,EDT,Other Fossil Fuels,50.0
08/24/2019 23:15:00,EDT,Other Renewables,261.0
08/24/2019 23:15:00,EDT,Wind,86.0
08/24/2019 23:15:00,EDT,Hydro,2695.0
08/24/2019 23:20:00,EDT,Dual Fuel,2761.0
08/24/2019 23:20:00,EDT,Natural Gas,2772.0
08/24/2019 23:20:00,EDT,Nuclear,5276.0
08/24/2019 23:20:00,EDT,Other Fossil Fuels,51.0
08/24/2019 23:20:00,EDT,Other Renewables,262.0
08/24/2019 23:20:00,EDT,Wind,88.0
08/24/2019 23:20:00,EDT,Hydro,2717.0
08/24/2019 23:25:00,EDT,Dual Fuel,2763.0
08/24/2019 23:25:00,EDT,Natural Gas,2764.0
08/24/2019 23:25:00,EDT,Nuclear,5276.0
08/24/2019 23:25:00,EDT,Other Fossil Fuels,50.0
08/24/2019 23:25:00,EDT,Other Renewables,259.0
08/24/2019 23:25:00,EDT,Wind,96.0
08/24/2019 23:25:00,EDT,Hydro,2719.0
08/24/2019 23:30:00,EDT,Dual Fuel,2730.0
08/24/2019 23:30:00,EDT,Natural Gas,2756.0
08/24/2019 23:30:00,EDT,Nuclear,5276.0
08/24/2019 23:30:00,EDT,Other Fossil Fuels,51.0
08/24/2019 23:30:00,EDT,Other Renewables,260.0
08/24/2019 23:30:00,EDT,Wind,103.0
08/24/2019 23:30:00,EDT,Hydro,2727.0
08/24/2019 23:35:00,EDT,Dual Fuel,2674.0
08/24/2019 23:35:00,EDT,Natural Gas,2740.0
08/24/2019 23:35:00,EDT,Nuclear,5278.0
08/24/2019 23:35:00,EDT,Other Fossil Fuels,51.0
08/24/2019 23:35:00,EDT,Other Renewables,262.0
08/24/2019 23:35:00,EDT,Wind,107.0
08/24/2019 23:35:00,EDT,Hydro,2672.0
08/24/2019 23:40:00,EDT,Dual Fuel,2630.0
08/24/2019 23:40:00,EDT,Natural Gas,2740.0
08/24/2019 23:40:00,EDT,Nuclear,5281.0
08/24/2019 23:40:00,EDT,Other Fossil Fuels,51.0
08/24/2019 23:40:00,EDT,Other Renewables,259.0
08/24/2019 23:40:00,EDT,Wind,112.0
08/24/2019 23:40:00,EDT,Hydro,2694.0
08/24/2019 23:45:00,EDT,Dual Fuel,2555.0
08/24/2019 23:45:00,EDT,Natural Gas,2738.0
08/24/2019 23:45:00,EDT,Nuclear,5281.0
08/24/2019 23:45:00,EDT,Other Fossil Fuels,51.0
08/24/2019 23:45:00,EDT,Other Renewables,262.0
08/24/2019 23:45:00,EDT,Wind,118.0
08/24/2019 23:45:00,EDT,Hydro,2681.0
08/24/2019 23:50:00,EDT,Dual Fuel,2502.0
08/24/2019 23:50:00,EDT,Natural Gas,2740.0
08/24/2019 23:50:00,EDT,Nuclear,5281.0
08/24/2019 23:50:00,EDT,Other Fossil Fuels,50.0
08/24/2019 23:50:00,EDT,Other Renewables,258.0
08/24/2019 23:50:00,EDT,Wind,129.0
08/24/2019 23:50:00,EDT,Hydro,2609.0
08/24/2019 23:55:00,EDT,Dual Fuel,2462.0
08/24/2019 23:55:00,EDT,Natural Gas,2715.0
08/24/2019 23:55:00,EDT,Nuclear,5282.0
08/24/2019 23:55:00,EDT,Other Fossil Fuels,51.0
08/24/2019 23:55:00,EDT,Other Renewables,258.0
08/24/2019 23:55:00,EDT,Wind,135.0
08/24/2019 23:55:00,EDT,Hydro,2572.0