Time Stamp,Time Zone,Fuel Category,Gen MW
08/28/2019 00:05:00,EDT,Dual Fuel,2465.0
08/28/2019 00:05:00,EDT,Natural Gas,2072.0
08/28/2019 00:05:00,EDT,Nuclear,5303.0
08/28/2019 00:05:00,EDT,Other Fossil Fuels,51.0
08/28/2019 00:05:00,EDT,Other Renewables,262.0
08/28/2019 00:05:00,EDT,Wind,477.0
08/28/2019 00:05:00,EDT,Hydro,2813.0
08/28/2019 00:10:00,EDT,Dual Fuel,2456.0
08/28/2019 00:10:00,EDT,Natural Gas,1969.0
08/28/2019 00:10:00,EDT,Nuclear,5304.0
08/28/2019 00:10:00,EDT,Other Fossil Fuels,51.0
08/28/2019 00:10:00,EDT,Other Renewables,258.0
08/28/2019 00:10:00,EDT,Wind,470.0
08/28/2019 00:10:00,EDT,Hydro,2863.0
08/28/2019 00:15:00,EDT,Dual Fuel,2516.0
08/28/2019 00:15:00,EDT,Natural Gas,1929.0
08/28/2019 00:15:00,EDT,Nuclear,5304.0
08/28/2019 00:15:00,EDT,Other Fossil Fuels,51.0
08/28/2019 00:15:00,EDT,Other Renewables,260.0
08/28/2019 00:15:00,EDT,Wind,473.0
08/28/2019 00:15:00,EDT,Hydro,2813.0
08/28/2019 00:20:00,EDT,Dual Fuel,2509.0
08/28/2019 00:20:00,EDT,Natural Gas,1921.0
08/28/2019 00:20:00,EDT,Nuclear,5304.0
08/28/2019 00:20:00,EDT,Other Fossil Fuels,51.0
08/28/2019 00:20:00,EDT,Other Renewables,257.0
08/28/2019 00:20:00,EDT,Wind,466.0
08/28/2019 00:20:00,EDT,Hydro,2801.0
08/28/2019 00:25:00,EDT,Dual Fuel,2491.0
08/28/2019 00:25:00,EDT,Natural Gas,1920.0
08/28/2019 00:25:00,EDT,Nuclear,5304.0
08/28/2019 00:25:00,EDT,Other Fossil Fuels,50.0
08/28/2019 00:25:00,EDT,Other Renewables,259.0
08/28/2019 00:25:00,EDT,Wind,452.0
08/28/2019 00:25:00,EDT,Hydro,2800.0
08/28/2019 00:30:00,EDT,Dual Fuel,2434.0
08/28/2019 00:30:00,EDT,Natural Gas,1920.0
08/28/2019 00:30:00,EDT,Nuclear,5303.0
08/28/2019 00:30:00,EDT,Other Fossil Fuels,51.0
08/28/2019 00:30:00,EDT,Other Renewables,259.0
08/28/2019 00:30:00,EDT,Wind,436.0
08/28/2019 00:30:00,EDT,Hydro,2797.0
08/28/2019 00:35:00,EDT,Dual Fuel,2381.0
08/28/2019 00:35:00,EDT,Natural Gas,1920.0
08/28/2019 00:35:00,EDT,Nuclear,5303.0
08/28/2019 00:35:00,EDT,Other Fossil Fuels,51.0
08/28/2019 00:35:00,EDT,Other Renewables,258.0
08/28/2019 00:35:00,EDT,Wind,436.0
08/28/2019 00:35:00,EDT,Hydro,2798.0
08/28/2019 00:40:00,EDT,Dual Fuel,2337.0
08/28/2019 00:40:00,EDT,Natural Gas,1921.0
08/28/2019 00:40:00,EDT,Nuclear,5304.0
08/28/2019 00:40:00,EDT,Other Fossil Fuels,51.0
08/28/2019 00:40:00,EDT,Other Renewables,255.0
08/28/2019 00:40:00,EDT,Wind,440.0
08/28/2019 00:40:00,EDT,Hydro,2767.0
08/28/2019 00:45:00,EDT,Dual Fuel,2285.0
08/28/2019 00:45:00,EDT,Natural Gas,1918.0
08/28/2019 00:45:00,EDT,Nuclear,5303.0
08/28/2019 00:45:00,EDT,Other Fossil Fuels,51.0
08/28/2019 00:45:00,EDT,Other Renewables,256.0
08/28/2019 00:45:00,EDT,Wind,447.0
08/28/2019 00:45:00,EDT,Hydro,2765.0
08/28/2019 00:50:00,EDT,Dual Fuel,2258.0
08/28/2019 00:50:00,EDT,Natural Gas,1920.0
08/28/2019 00:50:00,EDT,Nuclear,5302.0
08/28/2019 00:50:00,EDT,Other Fossil Fuels,51.0
08/28/2019 00:50:00,EDT,Other Renewables,260.0
08/28/2019 00:50:00,EDT,Wind,463.0
08/28/2019 00:50:00,EDT,Hydro,2756.0
08/28/2019 00:55:00,EDT,Dual Fuel,2218.0
08/28/2019 00:55:00,EDT,Natural Gas,1919.0
08/28/2019 00:55:00,EDT,Nuclear,5303.0
08/28/2019 00:55:00,EDT,Other Fossil Fuels,51.0
08/28/2019 00:55:00,EDT,Other Renewables,256.0
08/28/2019 00:55:00,EDT,Wind,469.0
08/28/2019 00:55:00,EDT,Hydro,2691.0
08/28/2019 01:00:00,EDT,Dual Fuel,2190.0
08/28/2019 01:00:00,EDT,Natural Gas,1876.0
08/28/2019 01:00:00,EDT,Nuclear,5305.0
08/28/2019 01:00:00,EDT,Other Fossil Fuels,51.0
08/28/2019 01:00:00,EDT,Other Renewables,255.0
08/28/2019 01:00:00,EDT,Wind,461.0
08/28/2019 01:00:00,EDT,Hydro,2672.0
08/28/2019 01:05:00,EDT,Dual Fuel,2221.0
08/28/2019 01:05:00,EDT,Natural Gas,1835.0
08/28/2019 01:05:00,EDT,Nuclear,5304.0
08/28/2019 01:05:00,EDT,Other Fossil Fuels,51.0
08/28/2019 01:05:00,EDT,Other Renewables,257.0
08/28/2019 01:05:00,EDT,Wind,456.0
08/28/2019 01:05:00,EDT,Hydro,2714.0
08/28/2019 01:10:00,EDT,Dual Fuel,2237.0
08/28/2019 01:10:00,EDT,Natural Gas,1844.0
08/28/2019 01:10:00,EDT,Nuclear,5303.0
08/28/2019 01:10:00,EDT,Other Fossil Fuels,51.0
08/28/2019 01:10:00,EDT,Other Renewables,254.0
08/28/2019 01:10:00,EDT,Wind,447.0
08/28/2019 01:10:00,EDT,Hydro,2727.0
08/28/2019 01:15:00,EDT,Dual Fuel,2215.0
08/28/2019 01:15:00,EDT,Natural Gas,1850.0
08/28/2019 01:15:00,EDT,Nuclear,5302.0
08/28/2019 01:15:00,EDT,Other Fossil Fuels,50.0
08/28/2019 01:15:00,EDT,Other Renewables,250.0
08/28/2019 01:15:00,EDT,Wind,442.0
08/28/2019 01:15:00,EDT,Hydro,2708.0
08/28/2019 01:20:00,EDT,Dual Fuel,2187.0
08/28/2019 01:20:00,EDT,Natural Gas,1853.0
08/28/2019 01:20:00,EDT,Nuclear,5302.0
08/28/2019 01:20:00,EDT,Other Fossil Fuels,51.0
08/28/2019 01:20:00,EDT,Other Renewables,256.0
08/28/2019 01:20:00,EDT,Wind,445.0
08/28/2019 01:20:00,EDT,Hydro,2726.0
08/28/2019 01:25:00,EDT,Dual Fuel,2178.0
08/28/2019 01:25:00,EDT,Natural Gas,1856.0
08/28/2019 01:25:00,EDT,Nuclear,5304.0
08/28/2019 01:25:00,EDT,Other Fossil Fuels,51.0
08/28/2019 01:25:00,EDT,Other Renewables,258.0
08/28/2019 01:25:00,EDT,Wind,454.0
08/28/2019 01:25:00,EDT,Hydro,2712.0
08/28/2019 01:30:00,EDT,Dual Fuel,2145.0
08/28/2019 01:30:00,EDT,Natural Gas,1857.0
08/28/2019 01:30:00,EDT,Nuclear,5302.0
08/28/2019 01:30:00,EDT,Other Fossil Fuels,51.0
08/28/2019 01:30:00,EDT,Other Renewables,259.0
08/28/2019 01:30:00,EDT,Wind,450.0
08/28/2019 01:30:00,EDT,Hydro,2689.0
08/28/2019 01:35:00,EDT,Dual Fuel,2114.0
08/28/2019 01:35:00,EDT,Natural Gas,1858.0
08/28/2019 01:35:00,EDT,Nuclear,5304.0
08/28/2019 01:35:00,EDT,Other Fossil Fuels,51.0
08/28/2019 01:35:00,EDT,Other Renewables,258.0
08/28/2019 01:35:00,EDT,Wind,436.0
08/28/2019 01:35:00,EDT,Hydro,2701.0
08/28/2019 01:40:00,EDT,Dual Fuel,2088.0
08/28/2019 01:40:00,EDT,Natural Gas,1858.0
08/28/2019 01:40:00,EDT,Nuclear,5302.0
08/28/2019 01:40:00,EDT,Other Fossil Fuels,51.0
08/28/2019 01:40:00,EDT,Other Renewables,260.0
08/28/2019 01:40:00,EDT,Wind,432.0
08/28/2019 01:40:00,EDT,Hydro,2714.0
08/28/2019 01:45:00,EDT,Dual Fuel,2062.0
08/28/2019 01:45:00,EDT,Natural Gas,1858.0
08/28/2019 01:45:00,EDT,Nuclear,5304.0
08/28/2019 01:45:00,EDT,Other Fossil Fuels,51.0
08/28/2019 01:45:00,EDT,Other Renewables,251.0
08/28/2019 01:45:00,EDT,Wind,423.0
08/28/2019 01:45:00,EDT,Hydro,2724.0
08/28/2019 01:50:00,EDT,Dual Fuel,2061.0
08/28/2019 01:50:00,EDT,Natural Gas,1858.0
08/28/2019 01:50:00,EDT,Nuclear,5303.0
08/28/2019 01:50:00,EDT,Other Fossil Fuels,51.0
08/28/2019 01:50:00,EDT,Other Renewables,259.0
08/28/2019 01:50:00,EDT,Wind,408.0
08/28/2019 01:50:00,EDT,Hydro,2711.0
08/28/2019 01:55:00,EDT,Dual Fuel,2069.0
08/28/2019 01:55:00,EDT,Natural Gas,1837.0
08/28/2019 01:55:00,EDT,Nuclear,5304.0
08/28/2019 01:55:00,EDT,Other Fossil Fuels,51.0
08/28/2019 01:55:00,EDT,Other Renewables,260.0
08/28/2019 01:55:00,EDT,Wind,388.0
08/28/2019 01:55:00,EDT,Hydro,2666.0
08/28/2019 02:00:00,EDT,Dual Fuel,2115.0
08/28/2019 02:00:00,EDT,Natural Gas,1783.0
08/28/2019 02:00:00,EDT,Nuclear,5302.0
08/28/2019 02:00:00,EDT,Other Fossil Fuels,51.0
08/28/2019 02:00:00,EDT,Other Renewables,255.0
08/28/2019 02:00:00,EDT,Wind,373.0
08/28/2019 02:00:00,EDT,Hydro,2699.0
08/28/2019 02:05:00,EDT,Dual Fuel,2162.0
08/28/2019 02:05:00,EDT,Natural Gas,1742.0
08/28/2019 02:05:00,EDT,Nuclear,5302.0
08/28/2019 02:05:00,EDT,Other Fossil Fuels,51.0
08/28/2019 02:05:00,EDT,Other Renewables,258.0
08/28/2019 02:05:00,EDT,Wind,367.0
08/28/2019 02:05:00,EDT,Hydro,2666.0
08/28/2019 02:10:00,EDT,Dual Fuel,2132.0
08/28/2019 02:10:00,EDT,Natural Gas,1693.0
08/28/2019 02:10:00,EDT,Nuclear,5302.0
08/28/2019 02:10:00,EDT,Other Fossil Fuels,51.0
08/28/2019 02:10:00,EDT,Other Renewables,259.0
08/28/2019 02:10:00,EDT,Wind,364.0
08/28/2019 02:10:00,EDT,Hydro,2715.0
08/28/2019 02:15:00,EDT,Dual Fuel,2110.0
08/28/2019 02:15:00,EDT,Natural Gas,1695.0
08/28/2019 02:15:00,EDT,Nuclear,5303.0
08/28/2019 02:15:00,EDT,Other Fossil Fuels,51.0
08/28/2019 02:15:00,EDT,Other Renewables,251.0
08/28/2019 02:15:00,EDT,Wind,362.0
08/28/2019 02:15:00,EDT,Hydro,2742.0
08/28/2019 02:20:00,EDT,Dual Fuel,2090.0
08/28/2019 02:20:00,EDT,Natural Gas,1700.0
08/28/2019 02:20:00,EDT,Nuclear,5301.0
08/28/2019 02:20:00,EDT,Other Fossil Fuels,51.0
08/28/2019 02:20:00,EDT,Other Renewables,248.0
08/28/2019 02:20:00,EDT,Wind,363.0
08/28/2019 02:20:00,EDT,Hydro,2745.0
08/28/2019 02:25:00,EDT,Dual Fuel,2076.0
08/28/2019 02:25:00,EDT,Natural Gas,1696.0
08/28/2019 02:25:00,EDT,Nuclear,5301.0
08/28/2019 02:25:00,EDT,Other Fossil Fuels,51.0
08/28/2019 02:25:00,EDT,Other Renewables,256.0
08/28/2019 02:25:00,EDT,Wind,365.0
08/28/2019 02:25:00,EDT,Hydro,2724.0
08/28/2019 02:30:00,EDT,Dual Fuel,2075.0
08/28/2019 02:30:00,EDT,Natural Gas,1694.0
08/28/2019 02:30:00,EDT,Nuclear,5302.0
08/28/2019 02:30:00,EDT,Other Fossil Fuels,50.0
08/28/2019 02:30:00,EDT,Other Renewables,259.0
08/28/2019 02:30:00,EDT,Wind,360.0
08/28/2019 02:30:00,EDT,Hydro,2727.0
08/28/2019 02:35:00,EDT,Dual Fuel,2080.0
08/28/2019 02:35:00,EDT,Natural Gas,1695.0
08/28/2019 02:35:00,EDT,Nuclear,5303.0
08/28/2019 02:35:00,EDT,Other Fossil Fuels,51.0
08/28/2019 02:35:00,EDT,Other Renewables,258.0
08/28/2019 02:35:00,EDT,Wind,354.0
08/28/2019 02:35:00,EDT,Hydro,2707.0
08/28/2019 02:40:00,EDT,Dual Fuel,2082.0
08/28/2019 02:40:00,EDT,Natural Gas,1694.0
08/28/2019 02:40:00,EDT,Nuclear,5302.0
08/28/2019 02:40:00,EDT,Other Fossil Fuels,51.0
08/28/2019 02:40:00,EDT,Other Renewables,260.0
08/28/2019 02:40:00,EDT,Wind,359.0
08/28/2019 02:40:00,EDT,Hydro,2705.0
08/28/2019 02:45:00,EDT,Dual Fuel,2084.0
08/28/2019 02:45:00,EDT,Natural Gas,1690.0
08/28/2019 02:45:00,EDT,Nuclear,5301.0
08/28/2019 02:45:00,EDT,Other Fossil Fuels,50.0
08/28/2019 02:45:00,EDT,Other Renewables,257.0
08/28/2019 02:45:00,EDT,Wind,363.0
08/28/2019 02:45:00,EDT,Hydro,2626.0
08/28/2019 02:50:00,EDT,Dual Fuel,2090.0
08/28/2019 02:50:00,EDT,Natural Gas,1692.0
08/28/2019 02:50:00,EDT,Nuclear,5302.0
08/28/2019 02:50:00,EDT,Other Fossil Fuels,51.0
08/28/2019 02:50:00,EDT,Other Renewables,259.0
08/28/2019 02:50:00,EDT,Wind,362.0
08/28/2019 02:50:00,EDT,Hydro,2627.0
08/28/2019 02:55:00,EDT,Dual Fuel,2092.0
08/28/2019 02:55:00,EDT,Natural Gas,1698.0
08/28/2019 02:55:00,EDT,Nuclear,5300.0
08/28/2019 02:55:00,EDT,Other Fossil Fuels,51.0
08/28/2019 02:55:00,EDT,Other Renewables,262.0
08/28/2019 02:55:00,EDT,Wind,354.0
08/28/2019 02:55:00,EDT,Hydro,2627.0
08/28/2019 03:00:00,EDT,Dual Fuel,2104.0
08/28/2019 03:00:00,EDT,Natural Gas,1697.0
08/28/2019 03:00:00,EDT,Nuclear,5301.0
08/28/2019 03:00:00,EDT,Other Fossil Fuels,51.0
08/28/2019 03:00:00,EDT,Other Renewables,257.0
08/28/2019 03:00:00,EDT,Wind,359.0
08/28/2019 03:00:00,EDT,Hydro,2620.0
08/28/2019 03:05:00,EDT,Dual Fuel,2171.0
08/28/2019 03:05:00,EDT,Natural Gas,1699.0
08/28/2019 03:05:00,EDT,Nuclear,5300.0
08/28/2019 03:05:00,EDT,Other Fossil Fuels,50.0
08/28/2019 03:05:00,EDT,Other Renewables,259.0
08/28/2019 03:05:00,EDT,Wind,363.0
08/28/2019 03:05:00,EDT,Hydro,2698.0
08/28/2019 03:10:00,EDT,Dual Fuel,2225.0
08/28/2019 03:10:00,EDT,Natural Gas,1692.0
08/28/2019 03:10:00,EDT,Nuclear,5301.0
08/28/2019 03:10:00,EDT,Other Fossil Fuels,51.0
08/28/2019 03:10:00,EDT,Other Renewables,256.0
08/28/2019 03:10:00,EDT,Wind,367.0
08/28/2019 03:10:00,EDT,Hydro,2685.0
08/28/2019 03:15:00,EDT,Dual Fuel,2179.0
08/28/2019 03:15:00,EDT,Natural Gas,1696.0
08/28/2019 03:15:00,EDT,Nuclear,5302.0
08/28/2019 03:15:00,EDT,Other Fossil Fuels,50.0
08/28/2019 03:15:00,EDT,Other Renewables,255.0
08/28/2019 03:15:00,EDT,Wind,366.0
08/28/2019 03:15:00,EDT,Hydro,2692.0
08/28/2019 03:20:00,EDT,Dual Fuel,2102.0
08/28/2019 03:20:00,EDT,Natural Gas,1699.0
08/28/2019 03:20:00,EDT,Nuclear,5302.0
08/28/2019 03:20:00,EDT,Other Fossil Fuels,50.0
08/28/2019 03:20:00,EDT,Other Renewables,260.0
08/28/2019 03:20:00,EDT,Wind,366.0
08/28/2019 03:20:00,EDT,Hydro,2729.0
08/28/2019 03:25:00,EDT,Dual Fuel,2091.0
08/28/2019 03:25:00,EDT,Natural Gas,1695.0
08/28/2019 03:25:00,EDT,Nuclear,5303.0
08/28/2019 03:25:00,EDT,Other Fossil Fuels,51.0
08/28/2019 03:25:00,EDT,Other Renewables,259.0
08/28/2019 03:25:00,EDT,Wind,363.0
08/28/2019 03:25:00,EDT,Hydro,2677.0
08/28/2019 03:30:00,EDT,Dual Fuel,2089.0
08/28/2019 03:30:00,EDT,Natural Gas,1695.0
08/28/2019 03:30:00,EDT,Nuclear,5304.0
08/28/2019 03:30:00,EDT,Other Fossil Fuels,51.0
08/28/2019 03:30:00,EDT,Other Renewables,260.0
08/28/2019 03:30:00,EDT,Wind,362.0
08/28/2019 03:30:00,EDT,Hydro,2652.0
08/28/2019 03:35:00,EDT,Dual Fuel,2092.0
08/28/2019 03:35:00,EDT,Natural Gas,1705.0
08/28/2019 03:35:00,EDT,Nuclear,5302.0
08/28/2019 03:35:00,EDT,Other Fossil Fuels,50.0
08/28/2019 03:35:00,EDT,Other Renewables,259.0
08/28/2019 03:35:00,EDT,Wind,362.0
08/28/2019 03:35:00,EDT,Hydro,2654.0
08/28/2019 03:40:00,EDT,Dual Fuel,2099.0
08/28/2019 03:40:00,EDT,Natural Gas,1731.0
08/28/2019 03:40:00,EDT,Nuclear,5303.0
08/28/2019 03:40:00,EDT,Other Fossil Fuels,51.0
08/28/2019 03:40:00,EDT,Other Renewables,257.0
08/28/2019 03:40:00,EDT,Wind,359.0
08/28/2019 03:40:00,EDT,Hydro,2658.0
08/28/2019 03:45:00,EDT,Dual Fuel,2099.0
08/28/2019 03:45:00,EDT,Natural Gas,1737.0
08/28/2019 03:45:00,EDT,Nuclear,5302.0
08/28/2019 03:45:00,EDT,Other Fossil Fuels,50.0
08/28/2019 03:45:00,EDT,Other Renewables,256.0
08/28/2019 03:45:00,EDT,Wind,357.0
08/28/2019 03:45:00,EDT,Hydro,2646.0
08/28/2019 03:50:00,EDT,Dual Fuel,2088.0
08/28/2019 03:50:00,EDT,Natural Gas,1743.0
08/28/2019 03:50:00,EDT,Nuclear,5302.0
08/28/2019 03:50:00,EDT,Other Fossil Fuels,51.0
08/28/2019 03:50:00,EDT,Other Renewables,255.0
08/28/2019 03:50:00,EDT,Wind,344.0
08/28/2019 03:50:00,EDT,Hydro,2647.0
08/28/2019 03:55:00,EDT,Dual Fuel,2088.0
08/28/2019 03:55:00,EDT,Natural Gas,1751.0
08/28/2019 03:55:00,EDT,Nuclear,5304.0
08/28/2019 03:55:00,EDT,Other Fossil Fuels,51.0
08/28/2019 03:55:00,EDT,Other Renewables,256.0
08/28/2019 03:55:00,EDT,Wind,338.0
08/28/2019 03:55:00,EDT,Hydro,2662.0
08/28/2019 04:00:00,EDT,Dual Fuel,2076.0
08/28/2019 04:00:00,EDT,Natural Gas,1760.0
08/28/2019 04:00:00,EDT,Nuclear,5303.0
08/28/2019 04:00:00,EDT,Other Fossil Fuels,51.0
08/28/2019 04:00:00,EDT,Other Renewables,255.0
08/28/2019 04:00:00,EDT,Wind,347.0
08/28/2019 04:00:00,EDT,Hydro,2651.0
08/28/2019 04:05:00,EDT,Dual Fuel,2052.0
08/28/2019 04:05:00,EDT,Natural Gas,1767.0
08/28/2019 04:05:00,EDT,Nuclear,5302.0
08/28/2019 04:05:00,EDT,Other Fossil Fuels,50.0
08/28/2019 04:05:00,EDT,Other Renewables,262.0
08/28/2019 04:05:00,EDT,Wind,351.0
08/28/2019 04:05:00,EDT,Hydro,2641.0
08/28/2019 04:10:00,EDT,Dual Fuel,2052.0
08/28/2019 04:10:00,EDT,Natural Gas,1779.0
08/28/2019 04:10:00,EDT,Nuclear,5301.0
08/28/2019 04:10:00,EDT,Other Fossil Fuels,50.0
08/28/2019 04:10:00,EDT,Other Renewables,259.0
08/28/2019 04:10:00,EDT,Wind,362.0
08/28/2019 04:10:00,EDT,Hydro,2610.0
08/28/2019 04:15:00,EDT,Dual Fuel,2064.0
08/28/2019 04:15:00,EDT,Natural Gas,1807.0
08/28/2019 04:15:00,EDT,Nuclear,5303.0
08/28/2019 04:15:00,EDT,Other Fossil Fuels,51.0
08/28/2019 04:15:00,EDT,Other Renewables,258.0
08/28/2019 04:15:00,EDT,Wind,371.0
08/28/2019 04:15:00,EDT,Hydro,2605.0
08/28/2019 04:20:00,EDT,Dual Fuel,2102.0
08/28/2019 04:20:00,EDT,Natural Gas,1827.0
08/28/2019 04:20:00,EDT,Nuclear,5302.0
08/28/2019 04:20:00,EDT,Other Fossil Fuels,56.0
08/28/2019 04:20:00,EDT,Other Renewables,259.0
08/28/2019 04:20:00,EDT,Wind,369.0
08/28/2019 04:20:00,EDT,Hydro,2664.0
08/28/2019 04:25:00,EDT,Dual Fuel,2104.0
08/28/2019 04:25:00,EDT,Natural Gas,1891.0
08/28/2019 04:25:00,EDT,Nuclear,5302.0
08/28/2019 04:25:00,EDT,Other Fossil Fuels,70.0
08/28/2019 04:25:00,EDT,Other Renewables,257.0
08/28/2019 04:25:00,EDT,Wind,370.0
08/28/2019 04:25:00,EDT,Hydro,2694.0
08/28/2019 04:30:00,EDT,Dual Fuel,2099.0
08/28/2019 04:30:00,EDT,Natural Gas,1938.0
08/28/2019 04:30:00,EDT,Nuclear,5302.0
08/28/2019 04:30:00,EDT,Other Fossil Fuels,74.0
08/28/2019 04:30:00,EDT,Other Renewables,258.0
08/28/2019 04:30:00,EDT,Wind,368.0
08/28/2019 04:30:00,EDT,Hydro,2718.0
08/28/2019 04:35:00,EDT,Dual Fuel,2092.0
08/28/2019 04:35:00,EDT,Natural Gas,1973.0
08/28/2019 04:35:00,EDT,Nuclear,5304.0
08/28/2019 04:35:00,EDT,Other Fossil Fuels,80.0
08/28/2019 04:35:00,EDT,Other Renewables,259.0
08/28/2019 04:35:00,EDT,Wind,359.0
08/28/2019 04:35:00,EDT,Hydro,2658.0
08/28/2019 04:40:00,EDT,Dual Fuel,2091.0
08/28/2019 04:40:00,EDT,Natural Gas,1997.0
08/28/2019 04:40:00,EDT,Nuclear,5303.0
08/28/2019 04:40:00,EDT,Other Fossil Fuels,85.0
08/28/2019 04:40:00,EDT,Other Renewables,261.0
08/28/2019 04:40:00,EDT,Wind,355.0
08/28/2019 04:40:00,EDT,Hydro,2652.0
08/28/2019 04:45:00,EDT,Dual Fuel,2091.0
08/28/2019 04:45:00,EDT,Natural Gas,2048.0
08/28/2019 04:45:00,EDT,Nuclear,5302.0
08/28/2019 04:45:00,EDT,Other Fossil Fuels,95.0
08/28/2019 04:45:00,EDT,Other Renewables,262.0
08/28/2019 04:45:00,EDT,Wind,353.0
08/28/2019 04:45:00,EDT,Hydro,2657.0
08/28/2019 04:50:00,EDT,Dual Fuel,2101.0
08/28/2019 04:50:00,EDT,Natural Gas,2088.0
08/28/2019 04:50:00,EDT,Nuclear,5302.0
08/28/2019 04:50:00,EDT,Other Fossil Fuels,98.0
08/28/2019 04:50:00,EDT,Other Renewables,257.0
08/28/2019 04:50:00,EDT,Wind,360.0
08/28/2019 04:50:00,EDT,Hydro,2656.0
08/28/2019 04:55:00,EDT,Dual Fuel,2106.0
08/28/2019 04:55:00,EDT,Natural Gas,2121.0
08/28/2019 04:55:00,EDT,Nuclear,5304.0
08/28/2019 04:55:00,EDT,Other Fossil Fuels,92.0
08/28/2019 04:55:00,EDT,Other Renewables,258.0
08/28/2019 04:55:00,EDT,Wind,361.0
08/28/2019 04:55:00,EDT,Hydro,2657.0
08/28/2019 05:00:00,EDT,Dual Fuel,2090.0
08/28/2019 05:00:00,EDT,Natural Gas,2127.0
08/28/2019 05:00:00,EDT,Nuclear,5302.0
08/28/2019 05:00:00,EDT,Other Fossil Fuels,98.0
08/28/2019 05:00:00,EDT,Other Renewables,258.0
08/28/2019 05:00:00,EDT,Wind,362.0
08/28/2019 05:00:00,EDT,Hydro,2652.0
08/28/2019 05:05:00,EDT,Dual Fuel,2091.0
08/28/2019 05:05:00,EDT,Natural Gas,2146.0
08/28/2019 05:05:00,EDT,Nuclear,5304.0
08/28/2019 05:05:00,EDT,Other Fossil Fuels,108.0
08/28/2019 05:05:00,EDT,Other Renewables,260.0
08/28/2019 05:05:00,EDT,Wind,362.0
08/28/2019 05:05:00,EDT,Hydro,2599.0
08/28/2019 05:10:00,EDT,Dual Fuel,2128.0
08/28/2019 05:10:00,EDT,Natural Gas,2183.0
08/28/2019 05:10:00,EDT,Nuclear,5303.0
08/28/2019 05:10:00,EDT,Other Fossil Fuels,115.0
08/28/2019 05:10:00,EDT,Other Renewables,262.0
08/28/2019 05:10:00,EDT,Wind,359.0
08/28/2019 05:10:00,EDT,Hydro,2610.0
08/28/2019 05:15:00,EDT,Dual Fuel,2167.0
08/28/2019 05:15:00,EDT,Natural Gas,2216.0
08/28/2019 05:15:00,EDT,Nuclear,5302.0
08/28/2019 05:15:00,EDT,Other Fossil Fuels,122.0
08/28/2019 05:15:00,EDT,Other Renewables,263.0
08/28/2019 05:15:00,EDT,Wind,357.0
08/28/2019 05:15:00,EDT,Hydro,2666.0
08/28/2019 05:20:00,EDT,Dual Fuel,2163.0
08/28/2019 05:20:00,EDT,Natural Gas,2268.0
08/28/2019 05:20:00,EDT,Nuclear,5303.0
08/28/2019 05:20:00,EDT,Other Fossil Fuels,127.0
08/28/2019 05:20:00,EDT,Other Renewables,261.0
08/28/2019 05:20:00,EDT,Wind,352.0
08/28/2019 05:20:00,EDT,Hydro,2673.0
08/28/2019 05:25:00,EDT,Dual Fuel,2152.0
08/28/2019 05:25:00,EDT,Natural Gas,2329.0
08/28/2019 05:25:00,EDT,Nuclear,5303.0
08/28/2019 05:25:00,EDT,Other Fossil Fuels,127.0
08/28/2019 05:25:00,EDT,Other Renewables,258.0
08/28/2019 05:25:00,EDT,Wind,352.0
08/28/2019 05:25:00,EDT,Hydro,2677.0
08/28/2019 05:30:00,EDT,Dual Fuel,2152.0
08/28/2019 05:30:00,EDT,Natural Gas,2426.0
08/28/2019 05:30:00,EDT,Nuclear,5303.0
08/28/2019 05:30:00,EDT,Other Fossil Fuels,125.0
08/28/2019 05:30:00,EDT,Other Renewables,261.0
08/28/2019 05:30:00,EDT,Wind,349.0
08/28/2019 05:30:00,EDT,Hydro,2655.0
08/28/2019 05:35:00,EDT,Dual Fuel,2163.0
08/28/2019 05:35:00,EDT,Natural Gas,2511.0
08/28/2019 05:35:00,EDT,Nuclear,5302.0
08/28/2019 05:35:00,EDT,Other Fossil Fuels,127.0
08/28/2019 05:35:00,EDT,Other Renewables,260.0
08/28/2019 05:35:00,EDT,Wind,356.0
08/28/2019 05:35:00,EDT,Hydro,2687.0
08/28/2019 05:40:00,EDT,Dual Fuel,2167.0
08/28/2019 05:40:00,EDT,Natural Gas,2693.0
08/28/2019 05:40:00,EDT,Nuclear,5302.0
08/28/2019 05:40:00,EDT,Other Fossil Fuels,131.0
08/28/2019 05:40:00,EDT,Other Renewables,259.0
08/28/2019 05:40:00,EDT,Wind,365.0
08/28/2019 05:40:00,EDT,Hydro,2669.0
08/28/2019 05:45:00,EDT,Dual Fuel,2139.0
08/28/2019 05:45:00,EDT,Natural Gas,2705.0
08/28/2019 05:45:00,EDT,Nuclear,5301.0
08/28/2019 05:45:00,EDT,Other Fossil Fuels,134.0
08/28/2019 05:45:00,EDT,Other Renewables,261.0
08/28/2019 05:45:00,EDT,Wind,375.0
08/28/2019 05:45:00,EDT,Hydro,2619.0
08/28/2019 05:50:00,EDT,Dual Fuel,2120.0
08/28/2019 05:50:00,EDT,Natural Gas,2729.0
08/28/2019 05:50:00,EDT,Nuclear,5302.0
08/28/2019 05:50:00,EDT,Other Fossil Fuels,135.0
08/28/2019 05:50:00,EDT,Other Renewables,261.0
08/28/2019 05:50:00,EDT,Wind,381.0
08/28/2019 05:50:00,EDT,Hydro,2622.0
08/28/2019 05:55:00,EDT,Dual Fuel,2120.0
08/28/2019 05:55:00,EDT,Natural Gas,2772.0
08/28/2019 05:55:00,EDT,Nuclear,5302.0
08/28/2019 05:55:00,EDT,Other Fossil Fuels,136.0
08/28/2019 05:55:00,EDT,Other Renewables,255.0
08/28/2019 05:55:00,EDT,Wind,378.0
08/28/2019 05:55:00,EDT,Hydro,2597.0
08/28/2019 06:00:00,EDT,Dual Fuel,2130.0
08/28/2019 06:00:00,EDT,Natural Gas,2849.0
08/28/2019 06:00:00,EDT,Nuclear,5303.0
08/28/2019 06:00:00,EDT,Other Fossil Fuels,135.0
08/28/2019 06:00:00,EDT,Other Renewables,253.0
08/28/2019 06:00:00,EDT,Wind,369.0
08/28/2019 06:00:00,EDT,Hydro,2613.0
08/28/2019 06:05:00,EDT,Dual Fuel,2247.0
08/28/2019 06:05:00,EDT,Natural Gas,2895.0
08/28/2019 06:05:00,EDT,Nuclear,5305.0
08/28/2019 06:05:00,EDT,Other Fossil Fuels,134.0
08/28/2019 06:05:00,EDT,Other Renewables,252.0
08/28/2019 06:05:00,EDT,Wind,352.0
08/28/2019 06:05:00,EDT,Hydro,2741.0
08/28/2019 06:10:00,EDT,Dual Fuel,2516.0
08/28/2019 06:10:00,EDT,Natural Gas,2989.0
08/28/2019 06:10:00,EDT,Nuclear,5303.0
08/28/2019 06:10:00,EDT,Other Fossil Fuels,142.0
08/28/2019 06:10:00,EDT,Other Renewables,255.0
08/28/2019 06:10:00,EDT,Wind,336.0
08/28/2019 06:10:00,EDT,Hydro,2897.0
08/28/2019 06:15:00,EDT,Dual Fuel,2615.0
08/28/2019 06:15:00,EDT,Natural Gas,3027.0
08/28/2019 06:15:00,EDT,Nuclear,5302.0
08/28/2019 06:15:00,EDT,Other Fossil Fuels,150.0
08/28/2019 06:15:00,EDT,Other Renewables,249.0
08/28/2019 06:15:00,EDT,Wind,328.0
08/28/2019 06:15:00,EDT,Hydro,2935.0
08/28/2019 06:20:00,EDT,Dual Fuel,2612.0
08/28/2019 06:20:00,EDT,Natural Gas,3063.0
08/28/2019 06:20:00,EDT,Nuclear,5304.0
08/28/2019 06:20:00,EDT,Other Fossil Fuels,151.0
08/28/2019 06:20:00,EDT,Other Renewables,252.0
08/28/2019 06:20:00,EDT,Wind,313.0
08/28/2019 06:20:00,EDT,Hydro,2914.0
08/28/2019 06:25:00,EDT,Dual Fuel,2596.0
08/28/2019 06:25:00,EDT,Natural Gas,3086.0
08/28/2019 06:25:00,EDT,Nuclear,5301.0
08/28/2019 06:25:00,EDT,Other Fossil Fuels,150.0
08/28/2019 06:25:00,EDT,Other Renewables,249.0
08/28/2019 06:25:00,EDT,Wind,305.0
08/28/2019 06:25:00,EDT,Hydro,2979.0
08/28/2019 06:30:00,EDT,Dual Fuel,2606.0
08/28/2019 06:30:00,EDT,Natural Gas,3158.0
08/28/2019 06:30:00,EDT,Nuclear,5303.0
08/28/2019 06:30:00,EDT,Other Fossil Fuels,152.0
08/28/2019 06:30:00,EDT,Other Renewables,245.0
08/28/2019 06:30:00,EDT,Wind,303.0
08/28/2019 06:30:00,EDT,Hydro,3001.0
08/28/2019 06:35:00,EDT,Dual Fuel,2638.0
08/28/2019 06:35:00,EDT,Natural Gas,3225.0
08/28/2019 06:35:00,EDT,Nuclear,5302.0
08/28/2019 06:35:00,EDT,Other Fossil Fuels,156.0
08/28/2019 06:35:00,EDT,Other Renewables,247.0
08/28/2019 06:35:00,EDT,Wind,312.0
08/28/2019 06:35:00,EDT,Hydro,2982.0
08/28/2019 06:40:00,EDT,Dual Fuel,2717.0
08/28/2019 06:40:00,EDT,Natural Gas,3278.0
08/28/2019 06:40:00,EDT,Nuclear,5302.0
08/28/2019 06:40:00,EDT,Other Fossil Fuels,156.0
08/28/2019 06:40:00,EDT,Other Renewables,250.0
08/28/2019 06:40:00,EDT,Wind,324.0
08/28/2019 06:40:00,EDT,Hydro,2969.0
08/28/2019 06:45:00,EDT,Dual Fuel,2745.0
08/28/2019 06:45:00,EDT,Natural Gas,3252.0
08/28/2019 06:45:00,EDT,Nuclear,5303.0
08/28/2019 06:45:00,EDT,Other Fossil Fuels,160.0
08/28/2019 06:45:00,EDT,Other Renewables,251.0
08/28/2019 06:45:00,EDT,Wind,341.0
08/28/2019 06:45:00,EDT,Hydro,2991.0
08/28/2019 06:50:00,EDT,Dual Fuel,2708.0
08/28/2019 06:50:00,EDT,Natural Gas,3245.0
08/28/2019 06:50:00,EDT,Nuclear,5301.0
08/28/2019 06:50:00,EDT,Other Fossil Fuels,162.0
08/28/2019 06:50:00,EDT,Other Renewables,249.0
08/28/2019 06:50:00,EDT,Wind,346.0
08/28/2019 06:50:00,EDT,Hydro,2995.0
08/28/2019 06:55:00,EDT,Dual Fuel,2756.0
08/28/2019 06:55:00,EDT,Natural Gas,3292.0
08/28/2019 06:55:00,EDT,Nuclear,5302.0
08/28/2019 06:55:00,EDT,Other Fossil Fuels,160.0
08/28/2019 06:55:00,EDT,Other Renewables,253.0
08/28/2019 06:55:00,EDT,Wind,342.0
08/28/2019 06:55:00,EDT,Hydro,2943.0
08/28/2019 07:00:00,EDT,Dual Fuel,2807.0
08/28/2019 07:00:00,EDT,Natural Gas,3311.0
08/28/2019 07:00:00,EDT,Nuclear,5303.0
08/28/2019 07:00:00,EDT,Other Fossil Fuels,160.0
08/28/2019 07:00:00,EDT,Other Renewables,250.0
08/28/2019 07:00:00,EDT,Wind,356.0
08/28/2019 07:00:00,EDT,Hydro,2947.0
08/28/2019 07:05:00,EDT,Dual Fuel,2852.0
08/28/2019 07:05:00,EDT,Natural Gas,3383.0
08/28/2019 07:05:00,EDT,Nuclear,5305.0
08/28/2019 07:05:00,EDT,Other Fossil Fuels,161.0
08/28/2019 07:05:00,EDT,Other Renewables,253.0
08/28/2019 07:05:00,EDT,Wind,355.0
08/28/2019 07:05:00,EDT,Hydro,3079.0
08/28/2019 07:10:00,EDT,Dual Fuel,2872.0
08/28/2019 07:10:00,EDT,Natural Gas,3459.0
08/28/2019 07:10:00,EDT,Nuclear,5302.0
08/28/2019 07:10:00,EDT,Other Fossil Fuels,184.0
08/28/2019 07:10:00,EDT,Other Renewables,256.0
08/28/2019 07:10:00,EDT,Wind,364.0
08/28/2019 07:10:00,EDT,Hydro,3145.0
08/28/2019 07:15:00,EDT,Dual Fuel,2820.0
08/28/2019 07:15:00,EDT,Natural Gas,3529.0
08/28/2019 07:15:00,EDT,Nuclear,5301.0
08/28/2019 07:15:00,EDT,Other Fossil Fuels,211.0
08/28/2019 07:15:00,EDT,Other Renewables,254.0
08/28/2019 07:15:00,EDT,Wind,357.0
08/28/2019 07:15:00,EDT,Hydro,3348.0
08/28/2019 07:20:00,EDT,Dual Fuel,2806.0
08/28/2019 07:20:00,EDT,Natural Gas,3576.0
08/28/2019 07:20:00,EDT,Nuclear,5300.0
08/28/2019 07:20:00,EDT,Other Fossil Fuels,214.0
08/28/2019 07:20:00,EDT,Other Renewables,257.0
08/28/2019 07:20:00,EDT,Wind,349.0
08/28/2019 07:20:00,EDT,Hydro,3386.0
08/28/2019 07:25:00,EDT,Dual Fuel,2834.0
08/28/2019 07:25:00,EDT,Natural Gas,3636.0
08/28/2019 07:25:00,EDT,Nuclear,5299.0
08/28/2019 07:25:00,EDT,Other Fossil Fuels,195.0
08/28/2019 07:25:00,EDT,Other Renewables,261.0
08/28/2019 07:25:00,EDT,Wind,347.0
08/28/2019 07:25:00,EDT,Hydro,3388.0
08/28/2019 07:30:00,EDT,Dual Fuel,2868.0
08/28/2019 07:30:00,EDT,Natural Gas,3657.0
08/28/2019 07:30:00,EDT,Nuclear,5297.0
08/28/2019 07:30:00,EDT,Other Fossil Fuels,198.0
08/28/2019 07:30:00,EDT,Other Renewables,257.0
08/28/2019 07:30:00,EDT,Wind,353.0
08/28/2019 07:30:00,EDT,Hydro,3372.0
08/28/2019 07:35:00,EDT,Dual Fuel,2878.0
08/28/2019 07:35:00,EDT,Natural Gas,3647.0
08/28/2019 07:35:00,EDT,Nuclear,5297.0
08/28/2019 07:35:00,EDT,Other Fossil Fuels,201.0
08/28/2019 07:35:00,EDT,Other Renewables,253.0
08/28/2019 07:35:00,EDT,Wind,360.0
08/28/2019 07:35:00,EDT,Hydro,3365.0
08/28/2019 07:40:00,EDT,Dual Fuel,2894.0
08/28/2019 07:40:00,EDT,Natural Gas,3641.0
08/28/2019 07:40:00,EDT,Nuclear,5295.0
08/28/2019 07:40:00,EDT,Other Fossil Fuels,203.0
08/28/2019 07:40:00,EDT,Other Renewables,254.0
08/28/2019 07:40:00,EDT,Wind,369.0
08/28/2019 07:40:00,EDT,Hydro,3399.0
08/28/2019 07:45:00,EDT,Dual Fuel,2946.0
08/28/2019 07:45:00,EDT,Natural Gas,3622.0
08/28/2019 07:45:00,EDT,Nuclear,5291.0
08/28/2019 07:45:00,EDT,Other Fossil Fuels,208.0
08/28/2019 07:45:00,EDT,Other Renewables,258.0
08/28/2019 07:45:00,EDT,Wind,368.0
08/28/2019 07:45:00,EDT,Hydro,3400.0
08/28/2019 07:50:00,EDT,Dual Fuel,2982.0
08/28/2019 07:50:00,EDT,Natural Gas,3646.0
08/28/2019 07:50:00,EDT,Nuclear,5290.0
08/28/2019 07:50:00,EDT,Other Fossil Fuels,209.0
08/28/2019 07:50:00,EDT,Other Renewables,261.0
08/28/2019 07:50:00,EDT,Wind,376.0
08/28/2019 07:50:00,EDT,Hydro,3403.0
08/28/2019 07:55:00,EDT,Dual Fuel,3001.0
08/28/2019 07:55:00,EDT,Natural Gas,3675.0
08/28/2019 07:55:00,EDT,Nuclear,5289.0
08/28/2019 07:55:00,EDT,Other Fossil Fuels,209.0
08/28/2019 07:55:00,EDT,Other Renewables,261.0
08/28/2019 07:55:00,EDT,Wind,384.0
08/28/2019 07:55:00,EDT,Hydro,3375.0
08/28/2019 08:00:00,EDT,Dual Fuel,3057.0
08/28/2019 08:00:00,EDT,Natural Gas,3722.0
08/28/2019 08:00:00,EDT,Nuclear,5290.0
08/28/2019 08:00:00,EDT,Other Fossil Fuels,211.0
08/28/2019 08:00:00,EDT,Other Renewables,262.0
08/28/2019 08:00:00,EDT,Wind,383.0
08/28/2019 08:00:00,EDT,Hydro,3379.0
08/28/2019 08:05:00,EDT,Dual Fuel,3088.0
08/28/2019 08:05:00,EDT,Natural Gas,3755.0
08/28/2019 08:05:00,EDT,Nuclear,5289.0
08/28/2019 08:05:00,EDT,Other Fossil Fuels,213.0
08/28/2019 08:05:00,EDT,Other Renewables,263.0
08/28/2019 08:05:00,EDT,Wind,381.0
08/28/2019 08:05:00,EDT,Hydro,3396.0
08/28/2019 08:10:00,EDT,Dual Fuel,3076.0
08/28/2019 08:10:00,EDT,Natural Gas,3755.0
08/28/2019 08:10:00,EDT,Nuclear,5291.0
08/28/2019 08:10:00,EDT,Other Fossil Fuels,214.0
08/28/2019 08:10:00,EDT,Other Renewables,261.0
08/28/2019 08:10:00,EDT,Wind,388.0
08/28/2019 08:10:00,EDT,Hydro,3417.0
08/28/2019 08:15:00,EDT,Dual Fuel,3102.0
08/28/2019 08:15:00,EDT,Natural Gas,3757.0
08/28/2019 08:15:00,EDT,Nuclear,5291.0
08/28/2019 08:15:00,EDT,Other Fossil Fuels,213.0
08/28/2019 08:15:00,EDT,Other Renewables,260.0
08/28/2019 08:15:00,EDT,Wind,389.0
08/28/2019 08:15:00,EDT,Hydro,3405.0
08/28/2019 08:20:00,EDT,Dual Fuel,3133.0
08/28/2019 08:20:00,EDT,Natural Gas,3774.0
08/28/2019 08:20:00,EDT,Nuclear,5293.0
08/28/2019 08:20:00,EDT,Other Fossil Fuels,216.0
08/28/2019 08:20:00,EDT,Other Renewables,263.0
08/28/2019 08:20:00,EDT,Wind,382.0
08/28/2019 08:20:00,EDT,Hydro,3407.0
08/28/2019 08:25:00,EDT,Dual Fuel,3159.0
08/28/2019 08:25:00,EDT,Natural Gas,3813.0
08/28/2019 08:25:00,EDT,Nuclear,5293.0
08/28/2019 08:25:00,EDT,Other Fossil Fuels,217.0
08/28/2019 08:25:00,EDT,Other Renewables,258.0
08/28/2019 08:25:00,EDT,Wind,358.0
08/28/2019 08:25:00,EDT,Hydro,3376.0
08/28/2019 08:30:00,EDT,Dual Fuel,3223.0
08/28/2019 08:30:00,EDT,Natural Gas,3878.0
08/28/2019 08:30:00,EDT,Nuclear,5293.0
08/28/2019 08:30:00,EDT,Other Fossil Fuels,218.0
08/28/2019 08:30:00,EDT,Other Renewables,259.0
08/28/2019 08:30:00,EDT,Wind,346.0
08/28/2019 08:30:00,EDT,Hydro,3278.0
08/28/2019 08:35:00,EDT,Dual Fuel,3298.0
08/28/2019 08:35:00,EDT,Natural Gas,3902.0
08/28/2019 08:35:00,EDT,Nuclear,5300.0
08/28/2019 08:35:00,EDT,Other Fossil Fuels,219.0
08/28/2019 08:35:00,EDT,Other Renewables,260.0
08/28/2019 08:35:00,EDT,Wind,335.0
08/28/2019 08:35:00,EDT,Hydro,3313.0
08/28/2019 08:40:00,EDT,Dual Fuel,3349.0
08/28/2019 08:40:00,EDT,Natural Gas,3915.0
08/28/2019 08:40:00,EDT,Nuclear,5299.0
08/28/2019 08:40:00,EDT,Other Fossil Fuels,220.0
08/28/2019 08:40:00,EDT,Other Renewables,255.0
08/28/2019 08:40:00,EDT,Wind,325.0
08/28/2019 08:40:00,EDT,Hydro,3339.0
08/28/2019 08:45:00,EDT,Dual Fuel,3308.0
08/28/2019 08:45:00,EDT,Natural Gas,3874.0
08/28/2019 08:45:00,EDT,Nuclear,5297.0
08/28/2019 08:45:00,EDT,Other Fossil Fuels,222.0
08/28/2019 08:45:00,EDT,Other Renewables,256.0
08/28/2019 08:45:00,EDT,Wind,319.0
08/28/2019 08:45:00,EDT,Hydro,3439.0
08/28/2019 08:50:00,EDT,Dual Fuel,3239.0
08/28/2019 08:50:00,EDT,Natural Gas,3838.0
08/28/2019 08:50:00,EDT,Nuclear,5295.0
08/28/2019 08:50:00,EDT,Other Fossil Fuels,221.0
08/28/2019 08:50:00,EDT,Other Renewables,258.0
08/28/2019 08:50:00,EDT,Wind,310.0
08/28/2019 08:50:00,EDT,Hydro,3467.0
08/28/2019 08:55:00,EDT,Dual Fuel,3227.0
08/28/2019 08:55:00,EDT,Natural Gas,3805.0
08/28/2019 08:55:00,EDT,Nuclear,5295.0
08/28/2019 08:55:00,EDT,Other Fossil Fuels,222.0
08/28/2019 08:55:00,EDT,Other Renewables,256.0
08/28/2019 08:55:00,EDT,Wind,299.0
08/28/2019 08:55:00,EDT,Hydro,3455.0
08/28/2019 09:00:00,EDT,Dual Fuel,3266.0
08/28/2019 09:00:00,EDT,Natural Gas,3861.0
08/28/2019 09:00:00,EDT,Nuclear,5293.0
08/28/2019 09:00:00,EDT,Other Fossil Fuels,227.0
08/28/2019 09:00:00,EDT,Other Renewables,256.0
08/28/2019 09:00:00,EDT,Wind,291.0
08/28/2019 09:00:00,EDT,Hydro,3384.0
08/28/2019 09:05:00,EDT,Dual Fuel,3350.0
08/28/2019 09:05:00,EDT,Natural Gas,3993.0
08/28/2019 09:05:00,EDT,Nuclear,5293.0
08/28/2019 09:05:00,EDT,Other Fossil Fuels,250.0
08/28/2019 09:05:00,EDT,Other Renewables,257.0
08/28/2019 09:05:00,EDT,Wind,286.0
08/28/2019 09:05:00,EDT,Hydro,3286.0
08/28/2019 09:10:00,EDT,Dual Fuel,3377.0
08/28/2019 09:10:00,EDT,Natural Gas,4035.0
08/28/2019 09:10:00,EDT,Nuclear,5291.0
08/28/2019 09:10:00,EDT,Other Fossil Fuels,272.0
08/28/2019 09:10:00,EDT,Other Renewables,259.0
08/28/2019 09:10:00,EDT,Wind,288.0
08/28/2019 09:10:00,EDT,Hydro,3259.0
08/28/2019 09:15:00,EDT,Dual Fuel,3459.0
08/28/2019 09:15:00,EDT,Natural Gas,4060.0
08/28/2019 09:15:00,EDT,Nuclear,5292.0
08/28/2019 09:15:00,EDT,Other Fossil Fuels,299.0
08/28/2019 09:15:00,EDT,Other Renewables,260.0
08/28/2019 09:15:00,EDT,Wind,290.0
08/28/2019 09:15:00,EDT,Hydro,3192.0
08/28/2019 09:20:00,EDT,Dual Fuel,3534.0
08/28/2019 09:20:00,EDT,Natural Gas,4099.0
08/28/2019 09:20:00,EDT,Nuclear,5290.0
08/28/2019 09:20:00,EDT,Other Fossil Fuels,323.0
08/28/2019 09:20:00,EDT,Other Renewables,257.0
08/28/2019 09:20:00,EDT,Wind,293.0
08/28/2019 09:20:00,EDT,Hydro,3167.0
08/28/2019 09:25:00,EDT,Dual Fuel,3558.0
08/28/2019 09:25:00,EDT,Natural Gas,4146.0
08/28/2019 09:25:00,EDT,Nuclear,5289.0
08/28/2019 09:25:00,EDT,Other Fossil Fuels,352.0
08/28/2019 09:25:00,EDT,Other Renewables,257.0
08/28/2019 09:25:00,EDT,Wind,289.0
08/28/2019 09:25:00,EDT,Hydro,3187.0
08/28/2019 09:30:00,EDT,Dual Fuel,3550.0
08/28/2019 09:30:00,EDT,Natural Gas,4056.0
08/28/2019 09:30:00,EDT,Nuclear,5289.0
08/28/2019 09:30:00,EDT,Other Fossil Fuels,382.0
08/28/2019 09:30:00,EDT,Other Renewables,262.0
08/28/2019 09:30:00,EDT,Wind,274.0
08/28/2019 09:30:00,EDT,Hydro,3254.0
08/28/2019 09:35:00,EDT,Dual Fuel,3485.0
08/28/2019 09:35:00,EDT,Natural Gas,4013.0
08/28/2019 09:35:00,EDT,Nuclear,5290.0
08/28/2019 09:35:00,EDT,Other Fossil Fuels,386.0
08/28/2019 09:35:00,EDT,Other Renewables,258.0
08/28/2019 09:35:00,EDT,Wind,256.0
08/28/2019 09:35:00,EDT,Hydro,3299.0
08/28/2019 09:40:00,EDT,Dual Fuel,3392.0
08/28/2019 09:40:00,EDT,Natural Gas,3993.0
08/28/2019 09:40:00,EDT,Nuclear,5290.0
08/28/2019 09:40:00,EDT,Other Fossil Fuels,387.0
08/28/2019 09:40:00,EDT,Other Renewables,261.0
08/28/2019 09:40:00,EDT,Wind,241.0
08/28/2019 09:40:00,EDT,Hydro,3347.0
08/28/2019 09:45:00,EDT,Dual Fuel,3398.0
08/28/2019 09:45:00,EDT,Natural Gas,4061.0
08/28/2019 09:45:00,EDT,Nuclear,5289.0
08/28/2019 09:45:00,EDT,Other Fossil Fuels,390.0
08/28/2019 09:45:00,EDT,Other Renewables,263.0
08/28/2019 09:45:00,EDT,Wind,224.0
08/28/2019 09:45:00,EDT,Hydro,3329.0
08/28/2019 09:50:00,EDT,Dual Fuel,3487.0
08/28/2019 09:50:00,EDT,Natural Gas,4086.0
08/28/2019 09:50:00,EDT,Nuclear,5290.0
08/28/2019 09:50:00,EDT,Other Fossil Fuels,391.0
08/28/2019 09:50:00,EDT,Other Renewables,263.0
08/28/2019 09:50:00,EDT,Wind,209.0
08/28/2019 09:50:00,EDT,Hydro,3267.0
08/28/2019 09:55:00,EDT,Dual Fuel,3596.0
08/28/2019 09:55:00,EDT,Natural Gas,4107.0
08/28/2019 09:55:00,EDT,Nuclear,5290.0
08/28/2019 09:55:00,EDT,Other Fossil Fuels,399.0
08/28/2019 09:55:00,EDT,Other Renewables,263.0
08/28/2019 09:55:00,EDT,Wind,195.0
08/28/2019 09:55:00,EDT,Hydro,3188.0
08/28/2019 10:00:00,EDT,Dual Fuel,3646.0
08/28/2019 10:00:00,EDT,Natural Gas,4151.0
08/28/2019 10:00:00,EDT,Nuclear,5291.0
08/28/2019 10:00:00,EDT,Other Fossil Fuels,409.0
08/28/2019 10:00:00,EDT,Other Renewables,260.0
08/28/2019 10:00:00,EDT,Wind,184.0
08/28/2019 10:00:00,EDT,Hydro,3158.0
08/28/2019 10:05:00,EDT,Dual Fuel,3658.0
08/28/2019 10:05:00,EDT,Natural Gas,4245.0
08/28/2019 10:05:00,EDT,Nuclear,5292.0
08/28/2019 10:05:00,EDT,Other Fossil Fuels,396.0
08/28/2019 10:05:00,EDT,Other Renewables,260.0
08/28/2019 10:05:00,EDT,Wind,177.0
08/28/2019 10:05:00,EDT,Hydro,3082.0
08/28/2019 10:05:16,EDT,Dual Fuel,3699.0
08/28/2019 10:05:16,EDT,Natural Gas,4261.0
08/28/2019 10:05:16,EDT,Nuclear,5296.0
08/28/2019 10:05:16,EDT,Other Fossil Fuels,392.0
08/28/2019 10:05:16,EDT,Other Renewables,260.0
08/28/2019 10:05:16,EDT,Wind,181.0
08/28/2019 10:05:16,EDT,Hydro,3120.0
08/28/2019 10:07:28,EDT,Dual Fuel,3825.0
08/28/2019 10:07:28,EDT,Natural Gas,4265.0
08/28/2019 10:07:28,EDT,Nuclear,5296.0
08/28/2019 10:07:28,EDT,Other Fossil Fuels,396.0
08/28/2019 10:07:28,EDT,Other Renewables,258.0
08/28/2019 10:07:28,EDT,Wind,174.0
08/28/2019 10:07:28,EDT,Hydro,3112.0
08/28/2019 10:10:00,EDT,Dual Fuel,3886.0
08/28/2019 10:10:00,EDT,Natural Gas,4262.0
08/28/2019 10:10:00,EDT,Nuclear,5296.0
08/28/2019 10:10:00,EDT,Other Fossil Fuels,398.0
08/28/2019 10:10:00,EDT,Other Renewables,258.0
08/28/2019 10:10:00,EDT,Wind,172.0
08/28/2019 10:10:00,EDT,Hydro,3106.0
08/28/2019 10:15:00,EDT,Dual Fuel,3972.0
08/28/2019 10:15:00,EDT,Natural Gas,4211.0
08/28/2019 10:15:00,EDT,Nuclear,5296.0
08/28/2019 10:15:00,EDT,Other Fossil Fuels,405.0
08/28/2019 10:15:00,EDT,Other Renewables,259.0
08/28/2019 10:15:00,EDT,Wind,160.0
08/28/2019 10:15:00,EDT,Hydro,3120.0
08/28/2019 10:20:00,EDT,Dual Fuel,3955.0
08/28/2019 10:20:00,EDT,Natural Gas,4157.0
08/28/2019 10:20:00,EDT,Nuclear,5296.0
08/28/2019 10:20:00,EDT,Other Fossil Fuels,401.0
08/28/2019 10:20:00,EDT,Other Renewables,263.0
08/28/2019 10:20:00,EDT,Wind,155.0
08/28/2019 10:20:00,EDT,Hydro,3129.0
08/28/2019 10:25:00,EDT,Dual Fuel,4011.0
08/28/2019 10:25:00,EDT,Natural Gas,4105.0
08/28/2019 10:25:00,EDT,Nuclear,5297.0
08/28/2019 10:25:00,EDT,Other Fossil Fuels,400.0
08/28/2019 10:25:00,EDT,Other Renewables,257.0
08/28/2019 10:25:00,EDT,Wind,164.0
08/28/2019 10:25:00,EDT,Hydro,3131.0
08/28/2019 10:30:00,EDT,Dual Fuel,3993.0
08/28/2019 10:30:00,EDT,Natural Gas,4075.0
08/28/2019 10:30:00,EDT,Nuclear,5298.0
08/28/2019 10:30:00,EDT,Other Fossil Fuels,398.0
08/28/2019 10:30:00,EDT,Other Renewables,252.0
08/28/2019 10:30:00,EDT,Wind,166.0
08/28/2019 10:30:00,EDT,Hydro,3127.0
08/28/2019 10:35:00,EDT,Dual Fuel,3938.0
08/28/2019 10:35:00,EDT,Natural Gas,4034.0
08/28/2019 10:35:00,EDT,Nuclear,5299.0
08/28/2019 10:35:00,EDT,Other Fossil Fuels,397.0
08/28/2019 10:35:00,EDT,Other Renewables,256.0
08/28/2019 10:35:00,EDT,Wind,162.0
08/28/2019 10:35:00,EDT,Hydro,3138.0
08/28/2019 10:40:00,EDT,Dual Fuel,3923.0
08/28/2019 10:40:00,EDT,Natural Gas,4025.0
08/28/2019 10:40:00,EDT,Nuclear,5299.0
08/28/2019 10:40:00,EDT,Other Fossil Fuels,396.0
08/28/2019 10:40:00,EDT,Other Renewables,258.0
08/28/2019 10:40:00,EDT,Wind,157.0
08/28/2019 10:40:00,EDT,Hydro,3142.0
08/28/2019 10:45:00,EDT,Dual Fuel,3944.0
08/28/2019 10:45:00,EDT,Natural Gas,4065.0
08/28/2019 10:45:00,EDT,Nuclear,5298.0
08/28/2019 10:45:00,EDT,Other Fossil Fuels,406.0
08/28/2019 10:45:00,EDT,Other Renewables,259.0
08/28/2019 10:45:00,EDT,Wind,158.0
08/28/2019 10:45:00,EDT,Hydro,3087.0
08/28/2019 10:50:00,EDT,Dual Fuel,4067.0
08/28/2019 10:50:00,EDT,Natural Gas,4183.0
08/28/2019 10:50:00,EDT,Nuclear,5297.0
08/28/2019 10:50:00,EDT,Other Fossil Fuels,393.0
08/28/2019 10:50:00,EDT,Other Renewables,256.0
08/28/2019 10:50:00,EDT,Wind,166.0
08/28/2019 10:50:00,EDT,Hydro,2992.0
08/28/2019 10:55:00,EDT,Dual Fuel,4152.0
08/28/2019 10:55:00,EDT,Natural Gas,4244.0
08/28/2019 10:55:00,EDT,Nuclear,5296.0
08/28/2019 10:55:00,EDT,Other Fossil Fuels,386.0
08/28/2019 10:55:00,EDT,Other Renewables,253.0
08/28/2019 10:55:00,EDT,Wind,170.0
08/28/2019 10:55:00,EDT,Hydro,2946.0
08/28/2019 11:00:00,EDT,Dual Fuel,4181.0
08/28/2019 11:00:00,EDT,Natural Gas,4262.0
08/28/2019 11:00:00,EDT,Nuclear,5297.0
08/28/2019 11:00:00,EDT,Other Fossil Fuels,393.0
08/28/2019 11:00:00,EDT,Other Renewables,258.0
08/28/2019 11:00:00,EDT,Wind,181.0
08/28/2019 11:00:00,EDT,Hydro,2942.0
08/28/2019 11:05:00,EDT,Dual Fuel,4124.0
08/28/2019 11:05:00,EDT,Natural Gas,4163.0
08/28/2019 11:05:00,EDT,Nuclear,5296.0
08/28/2019 11:05:00,EDT,Other Fossil Fuels,397.0
08/28/2019 11:05:00,EDT,Other Renewables,260.0
08/28/2019 11:05:00,EDT,Wind,187.0
08/28/2019 11:05:00,EDT,Hydro,3032.0
08/28/2019 11:10:00,EDT,Dual Fuel,4049.0
08/28/2019 11:10:00,EDT,Natural Gas,4127.0
08/28/2019 11:10:00,EDT,Nuclear,5295.0
08/28/2019 11:10:00,EDT,Other Fossil Fuels,395.0
08/28/2019 11:10:00,EDT,Other Renewables,264.0
08/28/2019 11:10:00,EDT,Wind,180.0
08/28/2019 11:10:00,EDT,Hydro,3104.0
08/28/2019 11:15:00,EDT,Dual Fuel,4078.0
08/28/2019 11:15:00,EDT,Natural Gas,4146.0
08/28/2019 11:15:00,EDT,Nuclear,5297.0
08/28/2019 11:15:00,EDT,Other Fossil Fuels,393.0
08/28/2019 11:15:00,EDT,Other Renewables,260.0
08/28/2019 11:15:00,EDT,Wind,173.0
08/28/2019 11:15:00,EDT,Hydro,3049.0
08/28/2019 11:20:00,EDT,Dual Fuel,4119.0
08/28/2019 11:20:00,EDT,Natural Gas,4182.0
08/28/2019 11:20:00,EDT,Nuclear,5298.0
08/28/2019 11:20:00,EDT,Other Fossil Fuels,393.0
08/28/2019 11:20:00,EDT,Other Renewables,262.0
08/28/2019 11:20:00,EDT,Wind,159.0
08/28/2019 11:20:00,EDT,Hydro,2945.0
08/28/2019 11:25:00,EDT,Dual Fuel,4169.0
08/28/2019 11:25:00,EDT,Natural Gas,4204.0
08/28/2019 11:25:00,EDT,Nuclear,5297.0
08/28/2019 11:25:00,EDT,Other Fossil Fuels,394.0
08/28/2019 11:25:00,EDT,Other Renewables,262.0
08/28/2019 11:25:00,EDT,Wind,161.0
08/28/2019 11:25:00,EDT,Hydro,2847.0
08/28/2019 11:30:00,EDT,Dual Fuel,4234.0
08/28/2019 11:30:00,EDT,Natural Gas,4258.0
08/28/2019 11:30:00,EDT,Nuclear,5298.0
08/28/2019 11:30:00,EDT,Other Fossil Fuels,394.0
08/28/2019 11:30:00,EDT,Other Renewables,258.0
08/28/2019 11:30:00,EDT,Wind,165.0
08/28/2019 11:30:00,EDT,Hydro,2808.0
08/28/2019 11:35:00,EDT,Dual Fuel,4237.0
08/28/2019 11:35:00,EDT,Natural Gas,4255.0
08/28/2019 11:35:00,EDT,Nuclear,5299.0
08/28/2019 11:35:00,EDT,Other Fossil Fuels,395.0
08/28/2019 11:35:00,EDT,Other Renewables,260.0
08/28/2019 11:35:00,EDT,Wind,165.0
08/28/2019 11:35:00,EDT,Hydro,2907.0
08/28/2019 11:40:00,EDT,Dual Fuel,4246.0
08/28/2019 11:40:00,EDT,Natural Gas,4256.0
08/28/2019 11:40:00,EDT,Nuclear,5297.0
08/28/2019 11:40:00,EDT,Other Fossil Fuels,395.0
08/28/2019 11:40:00,EDT,Other Renewables,259.0
08/28/2019 11:40:00,EDT,Wind,177.0
08/28/2019 11:40:00,EDT,Hydro,3006.0
08/28/2019 11:45:00,EDT,Dual Fuel,4256.0
08/28/2019 11:45:00,EDT,Natural Gas,4233.0
08/28/2019 11:45:00,EDT,Nuclear,5298.0
08/28/2019 11:45:00,EDT,Other Fossil Fuels,396.0
08/28/2019 11:45:00,EDT,Other Renewables,258.0
08/28/2019 11:45:00,EDT,Wind,177.0
08/28/2019 11:45:00,EDT,Hydro,3022.0
08/28/2019 11:50:00,EDT,Dual Fuel,4191.0
08/28/2019 11:50:00,EDT,Natural Gas,4179.0
08/28/2019 11:50:00,EDT,Nuclear,5298.0
08/28/2019 11:50:00,EDT,Other Fossil Fuels,395.0
08/28/2019 11:50:00,EDT,Other Renewables,256.0
08/28/2019 11:50:00,EDT,Wind,183.0
08/28/2019 11:50:00,EDT,Hydro,3093.0
08/28/2019 11:55:00,EDT,Dual Fuel,4131.0
08/28/2019 11:55:00,EDT,Natural Gas,4134.0
08/28/2019 11:55:00,EDT,Nuclear,5298.0
08/28/2019 11:55:00,EDT,Other Fossil Fuels,396.0
08/28/2019 11:55:00,EDT,Other Renewables,259.0
08/28/2019 11:55:00,EDT,Wind,186.0
08/28/2019 11:55:00,EDT,Hydro,3129.0
08/28/2019 12:00:00,EDT,Dual Fuel,4129.0
08/28/2019 12:00:00,EDT,Natural Gas,4137.0
08/28/2019 12:00:00,EDT,Nuclear,5299.0
08/28/2019 12:00:00,EDT,Other Fossil Fuels,396.0
08/28/2019 12:00:00,EDT,Other Renewables,257.0
08/28/2019 12:00:00,EDT,Wind,188.0
08/28/2019 12:00:00,EDT,Hydro,3077.0
08/28/2019 12:05:00,EDT,Dual Fuel,4145.0
08/28/2019 12:05:00,EDT,Natural Gas,4134.0
08/28/2019 12:05:00,EDT,Nuclear,5300.0
08/28/2019 12:05:00,EDT,Other Fossil Fuels,396.0
08/28/2019 12:05:00,EDT,Other Renewables,260.0
08/28/2019 12:05:00,EDT,Wind,197.0
08/28/2019 12:05:00,EDT,Hydro,2949.0
08/28/2019 12:10:00,EDT,Dual Fuel,4140.0
08/28/2019 12:10:00,EDT,Natural Gas,4160.0
08/28/2019 12:10:00,EDT,Nuclear,5299.0
08/28/2019 12:10:00,EDT,Other Fossil Fuels,396.0
08/28/2019 12:10:00,EDT,Other Renewables,256.0
08/28/2019 12:10:00,EDT,Wind,204.0
08/28/2019 12:10:00,EDT,Hydro,2899.0
08/28/2019 12:15:00,EDT,Dual Fuel,4155.0
08/28/2019 12:15:00,EDT,Natural Gas,4148.0
08/28/2019 12:15:00,EDT,Nuclear,5299.0
08/28/2019 12:15:00,EDT,Other Fossil Fuels,411.0
08/28/2019 12:15:00,EDT,Other Renewables,252.0
08/28/2019 12:15:00,EDT,Wind,218.0
08/28/2019 12:15:00,EDT,Hydro,2952.0
08/28/2019 12:20:00,EDT,Dual Fuel,4163.0
08/28/2019 12:20:00,EDT,Natural Gas,4131.0
08/28/2019 12:20:00,EDT,Nuclear,5299.0
08/28/2019 12:20:00,EDT,Other Fossil Fuels,410.0
08/28/2019 12:20:00,EDT,Other Renewables,250.0
08/28/2019 12:20:00,EDT,Wind,238.0
08/28/2019 12:20:00,EDT,Hydro,2959.0
08/28/2019 12:25:00,EDT,Dual Fuel,4145.0
08/28/2019 12:25:00,EDT,Natural Gas,4122.0
08/28/2019 12:25:00,EDT,Nuclear,5299.0
08/28/2019 12:25:00,EDT,Other Fossil Fuels,410.0
08/28/2019 12:25:00,EDT,Other Renewables,251.0
08/28/2019 12:25:00,EDT,Wind,244.0
08/28/2019 12:25:00,EDT,Hydro,2988.0
08/28/2019 12:30:00,EDT,Dual Fuel,4147.0
08/28/2019 12:30:00,EDT,Natural Gas,4139.0
08/28/2019 12:30:00,EDT,Nuclear,5298.0
08/28/2019 12:30:00,EDT,Other Fossil Fuels,412.0
08/28/2019 12:30:00,EDT,Other Renewables,248.0
08/28/2019 12:30:00,EDT,Wind,242.0
08/28/2019 12:30:00,EDT,Hydro,3000.0
08/28/2019 12:35:00,EDT,Dual Fuel,4161.0
08/28/2019 12:35:00,EDT,Natural Gas,4149.0
08/28/2019 12:35:00,EDT,Nuclear,5300.0
08/28/2019 12:35:00,EDT,Other Fossil Fuels,412.0
08/28/2019 12:35:00,EDT,Other Renewables,247.0
08/28/2019 12:35:00,EDT,Wind,233.0
08/28/2019 12:35:00,EDT,Hydro,2997.0
08/28/2019 12:40:00,EDT,Dual Fuel,4178.0
08/28/2019 12:40:00,EDT,Natural Gas,4173.0
08/28/2019 12:40:00,EDT,Nuclear,5301.0
08/28/2019 12:40:00,EDT,Other Fossil Fuels,411.0
08/28/2019 12:40:00,EDT,Other Renewables,254.0
08/28/2019 12:40:00,EDT,Wind,221.0
08/28/2019 12:40:00,EDT,Hydro,3027.0
08/28/2019 12:45:00,EDT,Dual Fuel,4208.0
08/28/2019 12:45:00,EDT,Natural Gas,4193.0
08/28/2019 12:45:00,EDT,Nuclear,5300.0
08/28/2019 12:45:00,EDT,Other Fossil Fuels,412.0
08/28/2019 12:45:00,EDT,Other Renewables,257.0
08/28/2019 12:45:00,EDT,Wind,210.0
08/28/2019 12:45:00,EDT,Hydro,3045.0
08/28/2019 12:50:00,EDT,Dual Fuel,4286.0
08/28/2019 12:50:00,EDT,Natural Gas,4230.0
08/28/2019 12:50:00,EDT,Nuclear,5300.0
08/28/2019 12:50:00,EDT,Other Fossil Fuels,412.0
08/28/2019 12:50:00,EDT,Other Renewables,254.0
08/28/2019 12:50:00,EDT,Wind,201.0
08/28/2019 12:50:00,EDT,Hydro,3074.0
08/28/2019 12:55:00,EDT,Dual Fuel,4349.0
08/28/2019 12:55:00,EDT,Natural Gas,4266.0
08/28/2019 12:55:00,EDT,Nuclear,5300.0
08/28/2019 12:55:00,EDT,Other Fossil Fuels,413.0
08/28/2019 12:55:00,EDT,Other Renewables,253.0
08/28/2019 12:55:00,EDT,Wind,198.0
08/28/2019 12:55:00,EDT,Hydro,3087.0
08/28/2019 13:00:00,EDT,Dual Fuel,4378.0
08/28/2019 13:00:00,EDT,Natural Gas,4251.0
08/28/2019 13:00:00,EDT,Nuclear,5298.0
08/28/2019 13:00:00,EDT,Other Fossil Fuels,413.0
08/28/2019 13:00:00,EDT,Other Renewables,253.0
08/28/2019 13:00:00,EDT,Wind,187.0
08/28/2019 13:00:00,EDT,Hydro,3083.0
08/28/2019 13:05:00,EDT,Dual Fuel,4380.0
08/28/2019 13:05:00,EDT,Natural Gas,4203.0
08/28/2019 13:05:00,EDT,Nuclear,5299.0
08/28/2019 13:05:00,EDT,Other Fossil Fuels,434.0
08/28/2019 13:05:00,EDT,Other Renewables,253.0
08/28/2019 13:05:00,EDT,Wind,182.0
08/28/2019 13:05:00,EDT,Hydro,3082.0
08/28/2019 13:10:00,EDT,Dual Fuel,4380.0
08/28/2019 13:10:00,EDT,Natural Gas,4171.0
08/28/2019 13:10:00,EDT,Nuclear,5297.0
08/28/2019 13:10:00,EDT,Other Fossil Fuels,468.0
08/28/2019 13:10:00,EDT,Other Renewables,257.0
08/28/2019 13:10:00,EDT,Wind,194.0
08/28/2019 13:10:00,EDT,Hydro,3090.0
08/28/2019 13:15:00,EDT,Dual Fuel,4363.0
08/28/2019 13:15:00,EDT,Natural Gas,4161.0
08/28/2019 13:15:00,EDT,Nuclear,5295.0
08/28/2019 13:15:00,EDT,Other Fossil Fuels,494.0
08/28/2019 13:15:00,EDT,Other Renewables,258.0
08/28/2019 13:15:00,EDT,Wind,201.0
08/28/2019 13:15:00,EDT,Hydro,3087.0
08/28/2019 13:20:00,EDT,Dual Fuel,4349.0
08/28/2019 13:20:00,EDT,Natural Gas,4148.0
08/28/2019 13:20:00,EDT,Nuclear,5296.0
08/28/2019 13:20:00,EDT,Other Fossil Fuels,537.0
08/28/2019 13:20:00,EDT,Other Renewables,257.0
08/28/2019 13:20:00,EDT,Wind,207.0
08/28/2019 13:20:00,EDT,Hydro,3080.0
08/28/2019 13:25:00,EDT,Dual Fuel,4337.0
08/28/2019 13:25:00,EDT,Natural Gas,4145.0
08/28/2019 13:25:00,EDT,Nuclear,5295.0
08/28/2019 13:25:00,EDT,Other Fossil Fuels,603.0
08/28/2019 13:25:00,EDT,Other Renewables,257.0
08/28/2019 13:25:00,EDT,Wind,208.0
08/28/2019 13:25:00,EDT,Hydro,3078.0
08/28/2019 13:30:00,EDT,Dual Fuel,4340.0
08/28/2019 13:30:00,EDT,Natural Gas,4151.0
08/28/2019 13:30:00,EDT,Nuclear,5295.0
08/28/2019 13:30:00,EDT,Other Fossil Fuels,589.0
08/28/2019 13:30:00,EDT,Other Renewables,258.0
08/28/2019 13:30:00,EDT,Wind,202.0
08/28/2019 13:30:00,EDT,Hydro,3071.0
08/28/2019 13:35:00,EDT,Dual Fuel,4334.0
08/28/2019 13:35:00,EDT,Natural Gas,4154.0
08/28/2019 13:35:00,EDT,Nuclear,5296.0
08/28/2019 13:35:00,EDT,Other Fossil Fuels,600.0
08/28/2019 13:35:00,EDT,Other Renewables,258.0
08/28/2019 13:35:00,EDT,Wind,192.0
08/28/2019 13:35:00,EDT,Hydro,3069.0
08/28/2019 13:40:00,EDT,Dual Fuel,4343.0
08/28/2019 13:40:00,EDT,Natural Gas,4158.0
08/28/2019 13:40:00,EDT,Nuclear,5296.0
08/28/2019 13:40:00,EDT,Other Fossil Fuels,628.0
08/28/2019 13:40:00,EDT,Other Renewables,256.0
08/28/2019 13:40:00,EDT,Wind,214.0
08/28/2019 13:40:00,EDT,Hydro,3071.0
08/28/2019 13:45:00,EDT,Dual Fuel,4357.0
08/28/2019 13:45:00,EDT,Natural Gas,4154.0
08/28/2019 13:45:00,EDT,Nuclear,5294.0
08/28/2019 13:45:00,EDT,Other Fossil Fuels,650.0
08/28/2019 13:45:00,EDT,Other Renewables,260.0
08/28/2019 13:45:00,EDT,Wind,234.0
08/28/2019 13:45:00,EDT,Hydro,3065.0
08/28/2019 13:50:00,EDT,Dual Fuel,4344.0
08/28/2019 13:50:00,EDT,Natural Gas,4153.0
08/28/2019 13:50:00,EDT,Nuclear,5293.0
08/28/2019 13:50:00,EDT,Other Fossil Fuels,674.0
08/28/2019 13:50:00,EDT,Other Renewables,261.0
08/28/2019 13:50:00,EDT,Wind,249.0
08/28/2019 13:50:00,EDT,Hydro,3054.0
08/28/2019 13:55:00,EDT,Dual Fuel,4333.0
08/28/2019 13:55:00,EDT,Natural Gas,4183.0
08/28/2019 13:55:00,EDT,Nuclear,5295.0
08/28/2019 13:55:00,EDT,Other Fossil Fuels,705.0
08/28/2019 13:55:00,EDT,Other Renewables,258.0
08/28/2019 13:55:00,EDT,Wind,249.0
08/28/2019 13:55:00,EDT,Hydro,3056.0
08/28/2019 14:00:00,EDT,Dual Fuel,4300.0
08/28/2019 14:00:00,EDT,Natural Gas,4153.0
08/28/2019 14:00:00,EDT,Nuclear,5295.0
08/28/2019 14:00:00,EDT,Other Fossil Fuels,723.0
08/28/2019 14:00:00,EDT,Other Renewables,260.0
08/28/2019 14:00:00,EDT,Wind,236.0
08/28/2019 14:00:00,EDT,Hydro,3035.0
08/28/2019 14:05:00,EDT,Dual Fuel,4300.0
08/28/2019 14:05:00,EDT,Natural Gas,4134.0
08/28/2019 14:05:00,EDT,Nuclear,5295.0
08/28/2019 14:05:00,EDT,Other Fossil Fuels,755.0
08/28/2019 14:05:00,EDT,Other Renewables,258.0
08/28/2019 14:05:00,EDT,Wind,225.0
08/28/2019 14:05:00,EDT,Hydro,2982.0
08/28/2019 14:10:00,EDT,Dual Fuel,4289.0
08/28/2019 14:10:00,EDT,Natural Gas,4130.0
08/28/2019 14:10:00,EDT,Nuclear,5297.0
08/28/2019 14:10:00,EDT,Other Fossil Fuels,766.0
08/28/2019 14:10:00,EDT,Other Renewables,255.0
08/28/2019 14:10:00,EDT,Wind,226.0
08/28/2019 14:10:00,EDT,Hydro,2972.0
08/28/2019 14:14:08,EDT,Dual Fuel,4115.0
08/28/2019 14:14:08,EDT,Natural Gas,4159.0
08/28/2019 14:14:08,EDT,Nuclear,5296.0
08/28/2019 14:14:08,EDT,Other Fossil Fuels,778.0
08/28/2019 14:14:08,EDT,Other Renewables,257.0
08/28/2019 14:14:08,EDT,Wind,218.0
08/28/2019 14:14:08,EDT,Hydro,2984.0
08/28/2019 14:15:00,EDT,Dual Fuel,4036.0
08/28/2019 14:15:00,EDT,Natural Gas,4220.0
08/28/2019 14:15:00,EDT,Nuclear,5296.0
08/28/2019 14:15:00,EDT,Other Fossil Fuels,789.0
08/28/2019 14:15:00,EDT,Other Renewables,256.0
08/28/2019 14:15:00,EDT,Wind,201.0
08/28/2019 14:15:00,EDT,Hydro,2985.0
08/28/2019 14:16:14,EDT,Dual Fuel,4049.0
08/28/2019 14:16:14,EDT,Natural Gas,4229.0
08/28/2019 14:16:14,EDT,Nuclear,5295.0
08/28/2019 14:16:14,EDT,Other Fossil Fuels,791.0
08/28/2019 14:16:14,EDT,Other Renewables,258.0
08/28/2019 14:16:14,EDT,Wind,194.0
08/28/2019 14:16:14,EDT,Hydro,3004.0
08/28/2019 14:20:00,EDT,Dual Fuel,4105.0
08/28/2019 14:20:00,EDT,Natural Gas,4253.0
08/28/2019 14:20:00,EDT,Nuclear,5294.0
08/28/2019 14:20:00,EDT,Other Fossil Fuels,795.0
08/28/2019 14:20:00,EDT,Other Renewables,259.0
08/28/2019 14:20:00,EDT,Wind,197.0
08/28/2019 14:20:00,EDT,Hydro,3044.0
08/28/2019 14:25:00,EDT,Dual Fuel,4211.0
08/28/2019 14:25:00,EDT,Natural Gas,4267.0
08/28/2019 14:25:00,EDT,Nuclear,5295.0
08/28/2019 14:25:00,EDT,Other Fossil Fuels,804.0
08/28/2019 14:25:00,EDT,Other Renewables,256.0
08/28/2019 14:25:00,EDT,Wind,212.0
08/28/2019 14:25:00,EDT,Hydro,3100.0
08/28/2019 14:30:00,EDT,Dual Fuel,4274.0
08/28/2019 14:30:00,EDT,Natural Gas,4216.0
08/28/2019 14:30:00,EDT,Nuclear,5295.0
08/28/2019 14:30:00,EDT,Other Fossil Fuels,811.0
08/28/2019 14:30:00,EDT,Other Renewables,257.0
08/28/2019 14:30:00,EDT,Wind,222.0
08/28/2019 14:30:00,EDT,Hydro,3144.0
08/28/2019 14:35:00,EDT,Dual Fuel,4238.0
08/28/2019 14:35:00,EDT,Natural Gas,4198.0
08/28/2019 14:35:00,EDT,Nuclear,5293.0
08/28/2019 14:35:00,EDT,Other Fossil Fuels,838.0
08/28/2019 14:35:00,EDT,Other Renewables,258.0
08/28/2019 14:35:00,EDT,Wind,227.0
08/28/2019 14:35:00,EDT,Hydro,3115.0
08/28/2019 14:40:00,EDT,Dual Fuel,4239.0
08/28/2019 14:40:00,EDT,Natural Gas,4189.0
08/28/2019 14:40:00,EDT,Nuclear,5293.0
08/28/2019 14:40:00,EDT,Other Fossil Fuels,922.0
08/28/2019 14:40:00,EDT,Other Renewables,256.0
08/28/2019 14:40:00,EDT,Wind,234.0
08/28/2019 14:40:00,EDT,Hydro,3101.0
08/28/2019 14:45:00,EDT,Dual Fuel,4205.0
08/28/2019 14:45:00,EDT,Natural Gas,4170.0
08/28/2019 14:45:00,EDT,Nuclear,5294.0
08/28/2019 14:45:00,EDT,Other Fossil Fuels,934.0
08/28/2019 14:45:00,EDT,Other Renewables,257.0
08/28/2019 14:45:00,EDT,Wind,242.0
08/28/2019 14:45:00,EDT,Hydro,3094.0
08/28/2019 14:50:00,EDT,Dual Fuel,4176.0
08/28/2019 14:50:00,EDT,Natural Gas,4157.0
08/28/2019 14:50:00,EDT,Nuclear,5294.0
08/28/2019 14:50:00,EDT,Other Fossil Fuels,940.0
08/28/2019 14:50:00,EDT,Other Renewables,257.0
08/28/2019 14:50:00,EDT,Wind,246.0
08/28/2019 14:50:00,EDT,Hydro,3087.0
08/28/2019 14:55:00,EDT,Dual Fuel,4173.0
08/28/2019 14:55:00,EDT,Natural Gas,4148.0
08/28/2019 14:55:00,EDT,Nuclear,5296.0
08/28/2019 14:55:00,EDT,Other Fossil Fuels,939.0
08/28/2019 14:55:00,EDT,Other Renewables,255.0
08/28/2019 14:55:00,EDT,Wind,240.0
08/28/2019 14:55:00,EDT,Hydro,3088.0
08/28/2019 15:00:00,EDT,Dual Fuel,4197.0
08/28/2019 15:00:00,EDT,Natural Gas,4154.0
08/28/2019 15:00:00,EDT,Nuclear,5294.0
08/28/2019 15:00:00,EDT,Other Fossil Fuels,949.0
08/28/2019 15:00:00,EDT,Other Renewables,254.0
08/28/2019 15:00:00,EDT,Wind,230.0
08/28/2019 15:00:00,EDT,Hydro,3096.0
08/28/2019 15:05:00,EDT,Dual Fuel,4242.0
08/28/2019 15:05:00,EDT,Natural Gas,4170.0
08/28/2019 15:05:00,EDT,Nuclear,5295.0
08/28/2019 15:05:00,EDT,Other Fossil Fuels,956.0
08/28/2019 15:05:00,EDT,Other Renewables,256.0
08/28/2019 15:05:00,EDT,Wind,229.0
08/28/2019 15:05:00,EDT,Hydro,3138.0
08/28/2019 15:10:00,EDT,Dual Fuel,4262.0
08/28/2019 15:10:00,EDT,Natural Gas,4186.0
08/28/2019 15:10:00,EDT,Nuclear,5295.0
08/28/2019 15:10:00,EDT,Other Fossil Fuels,952.0
08/28/2019 15:10:00,EDT,Other Renewables,253.0
08/28/2019 15:10:00,EDT,Wind,242.0
08/28/2019 15:10:00,EDT,Hydro,3210.0
08/28/2019 15:15:00,EDT,Dual Fuel,4258.0
08/28/2019 15:15:00,EDT,Natural Gas,4143.0
08/28/2019 15:15:00,EDT,Nuclear,5297.0
08/28/2019 15:15:00,EDT,Other Fossil Fuels,955.0
08/28/2019 15:15:00,EDT,Other Renewables,256.0
08/28/2019 15:15:00,EDT,Wind,246.0
08/28/2019 15:15:00,EDT,Hydro,3236.0
08/28/2019 15:20:00,EDT,Dual Fuel,4259.0
08/28/2019 15:20:00,EDT,Natural Gas,4153.0
08/28/2019 15:20:00,EDT,Nuclear,5295.0
08/28/2019 15:20:00,EDT,Other Fossil Fuels,960.0
08/28/2019 15:20:00,EDT,Other Renewables,257.0
08/28/2019 15:20:00,EDT,Wind,257.0
08/28/2019 15:20:00,EDT,Hydro,3277.0
08/28/2019 15:25:00,EDT,Dual Fuel,4246.0
08/28/2019 15:25:00,EDT,Natural Gas,4157.0
08/28/2019 15:25:00,EDT,Nuclear,5296.0
08/28/2019 15:25:00,EDT,Other Fossil Fuels,963.0
08/28/2019 15:25:00,EDT,Other Renewables,248.0
08/28/2019 15:25:00,EDT,Wind,281.0
08/28/2019 15:25:00,EDT,Hydro,3330.0
08/28/2019 15:30:00,EDT,Dual Fuel,4177.0
08/28/2019 15:30:00,EDT,Natural Gas,4167.0
08/28/2019 15:30:00,EDT,Nuclear,5294.0
08/28/2019 15:30:00,EDT,Other Fossil Fuels,962.0
08/28/2019 15:30:00,EDT,Other Renewables,249.0
08/28/2019 15:30:00,EDT,Wind,311.0
08/28/2019 15:30:00,EDT,Hydro,3313.0
08/28/2019 15:35:00,EDT,Dual Fuel,4118.0
08/28/2019 15:35:00,EDT,Natural Gas,4192.0
08/28/2019 15:35:00,EDT,Nuclear,5294.0
08/28/2019 15:35:00,EDT,Other Fossil Fuels,961.0
08/28/2019 15:35:00,EDT,Other Renewables,249.0
08/28/2019 15:35:00,EDT,Wind,320.0
08/28/2019 15:35:00,EDT,Hydro,3264.0
08/28/2019 15:40:00,EDT,Dual Fuel,4119.0
08/28/2019 15:40:00,EDT,Natural Gas,4219.0
08/28/2019 15:40:00,EDT,Nuclear,5295.0
08/28/2019 15:40:00,EDT,Other Fossil Fuels,961.0
08/28/2019 15:40:00,EDT,Other Renewables,246.0
08/28/2019 15:40:00,EDT,Wind,332.0
08/28/2019 15:40:00,EDT,Hydro,3160.0
08/28/2019 15:45:00,EDT,Dual Fuel,4145.0
08/28/2019 15:45:00,EDT,Natural Gas,4243.0
08/28/2019 15:45:00,EDT,Nuclear,5295.0
08/28/2019 15:45:00,EDT,Other Fossil Fuels,962.0
08/28/2019 15:45:00,EDT,Other Renewables,250.0
08/28/2019 15:45:00,EDT,Wind,344.0
08/28/2019 15:45:00,EDT,Hydro,3127.0
08/28/2019 15:50:00,EDT,Dual Fuel,4130.0
08/28/2019 15:50:00,EDT,Natural Gas,4221.0
08/28/2019 15:50:00,EDT,Nuclear,5296.0
08/28/2019 15:50:00,EDT,Other Fossil Fuels,962.0
08/28/2019 15:50:00,EDT,Other Renewables,253.0
08/28/2019 15:50:00,EDT,Wind,365.0
08/28/2019 15:50:00,EDT,Hydro,3131.0
08/28/2019 15:55:00,EDT,Dual Fuel,4101.0
08/28/2019 15:55:00,EDT,Natural Gas,4202.0
08/28/2019 15:55:00,EDT,Nuclear,5296.0
08/28/2019 15:55:00,EDT,Other Fossil Fuels,964.0
08/28/2019 15:55:00,EDT,Other Renewables,254.0
08/28/2019 15:55:00,EDT,Wind,383.0
08/28/2019 15:55:00,EDT,Hydro,3149.0
08/28/2019 16:00:00,EDT,Dual Fuel,4106.0
08/28/2019 16:00:00,EDT,Natural Gas,4189.0
08/28/2019 16:00:00,EDT,Nuclear,5295.0
08/28/2019 16:00:00,EDT,Other Fossil Fuels,962.0
08/28/2019 16:00:00,EDT,Other Renewables,256.0
08/28/2019 16:00:00,EDT,Wind,399.0
08/28/2019 16:00:00,EDT,Hydro,3155.0
08/28/2019 16:05:00,EDT,Dual Fuel,4254.0
08/28/2019 16:05:00,EDT,Natural Gas,4236.0
08/28/2019 16:05:00,EDT,Nuclear,5294.0
08/28/2019 16:05:00,EDT,Other Fossil Fuels,962.0
08/28/2019 16:05:00,EDT,Other Renewables,253.0
08/28/2019 16:05:00,EDT,Wind,391.0
08/28/2019 16:05:00,EDT,Hydro,3138.0
08/28/2019 16:10:00,EDT,Dual Fuel,4372.0
08/28/2019 16:10:00,EDT,Natural Gas,4288.0
08/28/2019 16:10:00,EDT,Nuclear,5295.0
08/28/2019 16:10:00,EDT,Other Fossil Fuels,938.0
08/28/2019 16:10:00,EDT,Other Renewables,256.0
08/28/2019 16:10:00,EDT,Wind,408.0
08/28/2019 16:10:00,EDT,Hydro,3198.0
08/28/2019 16:15:00,EDT,Dual Fuel,4381.0
08/28/2019 16:15:00,EDT,Natural Gas,4301.0
08/28/2019 16:15:00,EDT,Nuclear,5293.0
08/28/2019 16:15:00,EDT,Other Fossil Fuels,919.0
08/28/2019 16:15:00,EDT,Other Renewables,260.0
08/28/2019 16:15:00,EDT,Wind,415.0
08/28/2019 16:15:00,EDT,Hydro,3202.0
08/28/2019 16:20:00,EDT,Dual Fuel,4381.0
08/28/2019 16:20:00,EDT,Natural Gas,4300.0
08/28/2019 16:20:00,EDT,Nuclear,5293.0
08/28/2019 16:20:00,EDT,Other Fossil Fuels,919.0
08/28/2019 16:20:00,EDT,Other Renewables,261.0
08/28/2019 16:20:00,EDT,Wind,417.0
08/28/2019 16:20:00,EDT,Hydro,3212.0
08/28/2019 16:25:00,EDT,Dual Fuel,4385.0
08/28/2019 16:25:00,EDT,Natural Gas,4304.0
08/28/2019 16:25:00,EDT,Nuclear,5293.0
08/28/2019 16:25:00,EDT,Other Fossil Fuels,919.0
08/28/2019 16:25:00,EDT,Other Renewables,259.0
08/28/2019 16:25:00,EDT,Wind,422.0
08/28/2019 16:25:00,EDT,Hydro,3209.0
08/28/2019 16:30:00,EDT,Dual Fuel,4401.0
08/28/2019 16:30:00,EDT,Natural Gas,4308.0
08/28/2019 16:30:00,EDT,Nuclear,5293.0
08/28/2019 16:30:00,EDT,Other Fossil Fuels,919.0
08/28/2019 16:30:00,EDT,Other Renewables,254.0
08/28/2019 16:30:00,EDT,Wind,413.0
08/28/2019 16:30:00,EDT,Hydro,3220.0
08/28/2019 16:35:00,EDT,Dual Fuel,4416.0
08/28/2019 16:35:00,EDT,Natural Gas,4304.0
08/28/2019 16:35:00,EDT,Nuclear,5293.0
08/28/2019 16:35:00,EDT,Other Fossil Fuels,919.0
08/28/2019 16:35:00,EDT,Other Renewables,256.0
08/28/2019 16:35:00,EDT,Wind,418.0
08/28/2019 16:35:00,EDT,Hydro,3284.0
08/28/2019 16:40:00,EDT,Dual Fuel,4424.0
08/28/2019 16:40:00,EDT,Natural Gas,4312.0
08/28/2019 16:40:00,EDT,Nuclear,5294.0
08/28/2019 16:40:00,EDT,Other Fossil Fuels,893.0
08/28/2019 16:40:00,EDT,Other Renewables,256.0
08/28/2019 16:40:00,EDT,Wind,434.0
08/28/2019 16:40:00,EDT,Hydro,3324.0
08/28/2019 16:45:00,EDT,Dual Fuel,4434.0
08/28/2019 16:45:00,EDT,Natural Gas,4329.0
08/28/2019 16:45:00,EDT,Nuclear,5292.0
08/28/2019 16:45:00,EDT,Other Fossil Fuels,871.0
08/28/2019 16:45:00,EDT,Other Renewables,256.0
08/28/2019 16:45:00,EDT,Wind,433.0
08/28/2019 16:45:00,EDT,Hydro,3297.0
08/28/2019 16:50:00,EDT,Dual Fuel,4400.0
08/28/2019 16:50:00,EDT,Natural Gas,4321.0
08/28/2019 16:50:00,EDT,Nuclear,5293.0
08/28/2019 16:50:00,EDT,Other Fossil Fuels,872.0
08/28/2019 16:50:00,EDT,Other Renewables,255.0
08/28/2019 16:50:00,EDT,Wind,419.0
08/28/2019 16:50:00,EDT,Hydro,3208.0
08/28/2019 16:55:00,EDT,Dual Fuel,4353.0
08/28/2019 16:55:00,EDT,Natural Gas,4295.0
08/28/2019 16:55:00,EDT,Nuclear,5292.0
08/28/2019 16:55:00,EDT,Other Fossil Fuels,873.0
08/28/2019 16:55:00,EDT,Other Renewables,254.0
08/28/2019 16:55:00,EDT,Wind,400.0
08/28/2019 16:55:00,EDT,Hydro,3179.0
08/28/2019 17:00:00,EDT,Dual Fuel,4458.0
08/28/2019 17:00:00,EDT,Natural Gas,4232.0
08/28/2019 17:00:00,EDT,Nuclear,5293.0
08/28/2019 17:00:00,EDT,Other Fossil Fuels,872.0
08/28/2019 17:00:00,EDT,Other Renewables,254.0
08/28/2019 17:00:00,EDT,Wind,403.0
08/28/2019 17:00:00,EDT,Hydro,3175.0
08/28/2019 17:05:00,EDT,Dual Fuel,4451.0
08/28/2019 17:05:00,EDT,Natural Gas,4242.0
08/28/2019 17:05:00,EDT,Nuclear,5292.0
08/28/2019 17:05:00,EDT,Other Fossil Fuels,873.0
08/28/2019 17:05:00,EDT,Other Renewables,255.0
08/28/2019 17:05:00,EDT,Wind,405.0
08/28/2019 17:05:00,EDT,Hydro,3183.0
08/28/2019 17:10:00,EDT,Dual Fuel,4477.0
08/28/2019 17:10:00,EDT,Natural Gas,4277.0
08/28/2019 17:10:00,EDT,Nuclear,5294.0
08/28/2019 17:10:00,EDT,Other Fossil Fuels,872.0
08/28/2019 17:10:00,EDT,Other Renewables,257.0
08/28/2019 17:10:00,EDT,Wind,394.0
08/28/2019 17:10:00,EDT,Hydro,3207.0
08/28/2019 17:15:00,EDT,Dual Fuel,4499.0
08/28/2019 17:15:00,EDT,Natural Gas,4314.0
08/28/2019 17:15:00,EDT,Nuclear,5293.0
08/28/2019 17:15:00,EDT,Other Fossil Fuels,872.0
08/28/2019 17:15:00,EDT,Other Renewables,254.0
08/28/2019 17:15:00,EDT,Wind,376.0
08/28/2019 17:15:00,EDT,Hydro,3213.0
08/28/2019 17:20:00,EDT,Dual Fuel,4497.0
08/28/2019 17:20:00,EDT,Natural Gas,4292.0
08/28/2019 17:20:00,EDT,Nuclear,5292.0
08/28/2019 17:20:00,EDT,Other Fossil Fuels,871.0
08/28/2019 17:20:00,EDT,Other Renewables,258.0
08/28/2019 17:20:00,EDT,Wind,379.0
08/28/2019 17:20:00,EDT,Hydro,3236.0
08/28/2019 17:25:00,EDT,Dual Fuel,4514.0
08/28/2019 17:25:00,EDT,Natural Gas,4281.0
08/28/2019 17:25:00,EDT,Nuclear,5291.0
08/28/2019 17:25:00,EDT,Other Fossil Fuels,872.0
08/28/2019 17:25:00,EDT,Other Renewables,257.0
08/28/2019 17:25:00,EDT,Wind,387.0
08/28/2019 17:25:00,EDT,Hydro,3239.0
08/28/2019 17:30:00,EDT,Dual Fuel,4521.0
08/28/2019 17:30:00,EDT,Natural Gas,4287.0
08/28/2019 17:30:00,EDT,Nuclear,5291.0
08/28/2019 17:30:00,EDT,Other Fossil Fuels,872.0
08/28/2019 17:30:00,EDT,Other Renewables,257.0
08/28/2019 17:30:00,EDT,Wind,378.0
08/28/2019 17:30:00,EDT,Hydro,3242.0
08/28/2019 17:35:00,EDT,Dual Fuel,4506.0
08/28/2019 17:35:00,EDT,Natural Gas,4296.0
08/28/2019 17:35:00,EDT,Nuclear,5293.0
08/28/2019 17:35:00,EDT,Other Fossil Fuels,872.0
08/28/2019 17:35:00,EDT,Other Renewables,258.0
08/28/2019 17:35:00,EDT,Wind,380.0
08/28/2019 17:35:00,EDT,Hydro,3246.0
08/28/2019 17:40:00,EDT,Dual Fuel,4497.0
08/28/2019 17:40:00,EDT,Natural Gas,4293.0
08/28/2019 17:40:00,EDT,Nuclear,5293.0
08/28/2019 17:40:00,EDT,Other Fossil Fuels,873.0
08/28/2019 17:40:00,EDT,Other Renewables,257.0
08/28/2019 17:40:00,EDT,Wind,383.0
08/28/2019 17:40:00,EDT,Hydro,3235.0
08/28/2019 17:45:00,EDT,Dual Fuel,4507.0
08/28/2019 17:45:00,EDT,Natural Gas,4289.0
08/28/2019 17:45:00,EDT,Nuclear,5294.0
08/28/2019 17:45:00,EDT,Other Fossil Fuels,872.0
08/28/2019 17:45:00,EDT,Other Renewables,257.0
08/28/2019 17:45:00,EDT,Wind,382.0
08/28/2019 17:45:00,EDT,Hydro,3229.0
08/28/2019 17:50:00,EDT,Dual Fuel,4518.0
08/28/2019 17:50:00,EDT,Natural Gas,4288.0
08/28/2019 17:50:00,EDT,Nuclear,5294.0
08/28/2019 17:50:00,EDT,Other Fossil Fuels,872.0
08/28/2019 17:50:00,EDT,Other Renewables,259.0
08/28/2019 17:50:00,EDT,Wind,390.0
08/28/2019 17:50:00,EDT,Hydro,3228.0
08/28/2019 17:55:00,EDT,Dual Fuel,4488.0
08/28/2019 17:55:00,EDT,Natural Gas,4290.0
08/28/2019 17:55:00,EDT,Nuclear,5294.0
08/28/2019 17:55:00,EDT,Other Fossil Fuels,873.0
08/28/2019 17:55:00,EDT,Other Renewables,258.0
08/28/2019 17:55:00,EDT,Wind,378.0
08/28/2019 17:55:00,EDT,Hydro,3219.0
08/28/2019 18:00:00,EDT,Dual Fuel,4461.0
08/28/2019 18:00:00,EDT,Natural Gas,4309.0
08/28/2019 18:00:00,EDT,Nuclear,5293.0
08/28/2019 18:00:00,EDT,Other Fossil Fuels,873.0
08/28/2019 18:00:00,EDT,Other Renewables,258.0
08/28/2019 18:00:00,EDT,Wind,388.0
08/28/2019 18:00:00,EDT,Hydro,3193.0
08/28/2019 18:05:00,EDT,Dual Fuel,4435.0
08/28/2019 18:05:00,EDT,Natural Gas,4308.0
08/28/2019 18:05:00,EDT,Nuclear,5294.0
08/28/2019 18:05:00,EDT,Other Fossil Fuels,873.0
08/28/2019 18:05:00,EDT,Other Renewables,259.0
08/28/2019 18:05:00,EDT,Wind,424.0
08/28/2019 18:05:00,EDT,Hydro,3186.0
08/28/2019 18:10:00,EDT,Dual Fuel,4400.0
08/28/2019 18:10:00,EDT,Natural Gas,4290.0
08/28/2019 18:10:00,EDT,Nuclear,5295.0
08/28/2019 18:10:00,EDT,Other Fossil Fuels,873.0
08/28/2019 18:10:00,EDT,Other Renewables,259.0
08/28/2019 18:10:00,EDT,Wind,432.0
08/28/2019 18:10:00,EDT,Hydro,3189.0
08/28/2019 18:15:00,EDT,Dual Fuel,4386.0
08/28/2019 18:15:00,EDT,Natural Gas,4287.0
08/28/2019 18:15:00,EDT,Nuclear,5295.0
08/28/2019 18:15:00,EDT,Other Fossil Fuels,873.0
08/28/2019 18:15:00,EDT,Other Renewables,260.0
08/28/2019 18:15:00,EDT,Wind,451.0
08/28/2019 18:15:00,EDT,Hydro,3197.0
08/28/2019 18:20:00,EDT,Dual Fuel,4417.0
08/28/2019 18:20:00,EDT,Natural Gas,4296.0
08/28/2019 18:20:00,EDT,Nuclear,5295.0
08/28/2019 18:20:00,EDT,Other Fossil Fuels,873.0
08/28/2019 18:20:00,EDT,Other Renewables,261.0
08/28/2019 18:20:00,EDT,Wind,456.0
08/28/2019 18:20:00,EDT,Hydro,3188.0
08/28/2019 18:25:00,EDT,Dual Fuel,4427.0
08/28/2019 18:25:00,EDT,Natural Gas,4311.0
08/28/2019 18:25:00,EDT,Nuclear,5293.0
08/28/2019 18:25:00,EDT,Other Fossil Fuels,873.0
08/28/2019 18:25:00,EDT,Other Renewables,262.0
08/28/2019 18:25:00,EDT,Wind,467.0
08/28/2019 18:25:00,EDT,Hydro,3182.0
08/28/2019 18:30:00,EDT,Dual Fuel,4430.0
08/28/2019 18:30:00,EDT,Natural Gas,4317.0
08/28/2019 18:30:00,EDT,Nuclear,5295.0
08/28/2019 18:30:00,EDT,Other Fossil Fuels,874.0
08/28/2019 18:30:00,EDT,Other Renewables,256.0
08/28/2019 18:30:00,EDT,Wind,470.0
08/28/2019 18:30:00,EDT,Hydro,3130.0
08/28/2019 18:35:00,EDT,Dual Fuel,4431.0
08/28/2019 18:35:00,EDT,Natural Gas,4323.0
08/28/2019 18:35:00,EDT,Nuclear,5293.0
08/28/2019 18:35:00,EDT,Other Fossil Fuels,874.0
08/28/2019 18:35:00,EDT,Other Renewables,257.0
08/28/2019 18:35:00,EDT,Wind,473.0
08/28/2019 18:35:00,EDT,Hydro,3094.0
08/28/2019 18:40:00,EDT,Dual Fuel,4415.0
08/28/2019 18:40:00,EDT,Natural Gas,4302.0
08/28/2019 18:40:00,EDT,Nuclear,5292.0
08/28/2019 18:40:00,EDT,Other Fossil Fuels,874.0
08/28/2019 18:40:00,EDT,Other Renewables,254.0
08/28/2019 18:40:00,EDT,Wind,471.0
08/28/2019 18:40:00,EDT,Hydro,3081.0
08/28/2019 18:45:00,EDT,Dual Fuel,4385.0
08/28/2019 18:45:00,EDT,Natural Gas,4254.0
08/28/2019 18:45:00,EDT,Nuclear,5291.0
08/28/2019 18:45:00,EDT,Other Fossil Fuels,873.0
08/28/2019 18:45:00,EDT,Other Renewables,251.0
08/28/2019 18:45:00,EDT,Wind,474.0
08/28/2019 18:45:00,EDT,Hydro,3078.0
08/28/2019 18:50:00,EDT,Dual Fuel,4394.0
08/28/2019 18:50:00,EDT,Natural Gas,4257.0
08/28/2019 18:50:00,EDT,Nuclear,5291.0
08/28/2019 18:50:00,EDT,Other Fossil Fuels,873.0
08/28/2019 18:50:00,EDT,Other Renewables,251.0
08/28/2019 18:50:00,EDT,Wind,472.0
08/28/2019 18:50:00,EDT,Hydro,3122.0
08/28/2019 18:55:00,EDT,Dual Fuel,4399.0
08/28/2019 18:55:00,EDT,Natural Gas,4261.0
08/28/2019 18:55:00,EDT,Nuclear,5290.0
08/28/2019 18:55:00,EDT,Other Fossil Fuels,873.0
08/28/2019 18:55:00,EDT,Other Renewables,254.0
08/28/2019 18:55:00,EDT,Wind,471.0
08/28/2019 18:55:00,EDT,Hydro,3170.0
08/28/2019 19:00:00,EDT,Dual Fuel,4377.0
08/28/2019 19:00:00,EDT,Natural Gas,4249.0
08/28/2019 19:00:00,EDT,Nuclear,5289.0
08/28/2019 19:00:00,EDT,Other Fossil Fuels,873.0
08/28/2019 19:00:00,EDT,Other Renewables,253.0
08/28/2019 19:00:00,EDT,Wind,471.0
08/28/2019 19:00:00,EDT,Hydro,3140.0
08/28/2019 19:05:00,EDT,Dual Fuel,4347.0
08/28/2019 19:05:00,EDT,Natural Gas,4223.0
08/28/2019 19:05:00,EDT,Nuclear,5286.0
08/28/2019 19:05:00,EDT,Other Fossil Fuels,874.0
08/28/2019 19:05:00,EDT,Other Renewables,254.0
08/28/2019 19:05:00,EDT,Wind,483.0
08/28/2019 19:05:00,EDT,Hydro,3085.0
08/28/2019 19:10:00,EDT,Dual Fuel,4318.0
08/28/2019 19:10:00,EDT,Natural Gas,4238.0
08/28/2019 19:10:00,EDT,Nuclear,5285.0
08/28/2019 19:10:00,EDT,Other Fossil Fuels,872.0
08/28/2019 19:10:00,EDT,Other Renewables,254.0
08/28/2019 19:10:00,EDT,Wind,463.0
08/28/2019 19:10:00,EDT,Hydro,3068.0
08/28/2019 19:15:00,EDT,Dual Fuel,4316.0
08/28/2019 19:15:00,EDT,Natural Gas,4239.0
08/28/2019 19:15:00,EDT,Nuclear,5284.0
08/28/2019 19:15:00,EDT,Other Fossil Fuels,869.0
08/28/2019 19:15:00,EDT,Other Renewables,255.0
08/28/2019 19:15:00,EDT,Wind,451.0
08/28/2019 19:15:00,EDT,Hydro,3073.0
08/28/2019 19:20:00,EDT,Dual Fuel,4305.0
08/28/2019 19:20:00,EDT,Natural Gas,4253.0
08/28/2019 19:20:00,EDT,Nuclear,5283.0
08/28/2019 19:20:00,EDT,Other Fossil Fuels,893.0
08/28/2019 19:20:00,EDT,Other Renewables,254.0
08/28/2019 19:20:00,EDT,Wind,420.0
08/28/2019 19:20:00,EDT,Hydro,3073.0
08/28/2019 19:25:00,EDT,Dual Fuel,4315.0
08/28/2019 19:25:00,EDT,Natural Gas,4255.0
08/28/2019 19:25:00,EDT,Nuclear,5284.0
08/28/2019 19:25:00,EDT,Other Fossil Fuels,906.0
08/28/2019 19:25:00,EDT,Other Renewables,254.0
08/28/2019 19:25:00,EDT,Wind,409.0
08/28/2019 19:25:00,EDT,Hydro,3081.0
08/28/2019 19:30:00,EDT,Dual Fuel,4353.0
08/28/2019 19:30:00,EDT,Natural Gas,4255.0
08/28/2019 19:30:00,EDT,Nuclear,5284.0
08/28/2019 19:30:00,EDT,Other Fossil Fuels,898.0
08/28/2019 19:30:00,EDT,Other Renewables,253.0
08/28/2019 19:30:00,EDT,Wind,412.0
08/28/2019 19:30:00,EDT,Hydro,3074.0
08/28/2019 19:35:00,EDT,Dual Fuel,4389.0
08/28/2019 19:35:00,EDT,Natural Gas,4255.0
08/28/2019 19:35:00,EDT,Nuclear,5283.0
08/28/2019 19:35:00,EDT,Other Fossil Fuels,898.0
08/28/2019 19:35:00,EDT,Other Renewables,251.0
08/28/2019 19:35:00,EDT,Wind,426.0
08/28/2019 19:35:00,EDT,Hydro,3045.0
08/28/2019 19:40:00,EDT,Dual Fuel,4438.0
08/28/2019 19:40:00,EDT,Natural Gas,4281.0
08/28/2019 19:40:00,EDT,Nuclear,5284.0
08/28/2019 19:40:00,EDT,Other Fossil Fuels,889.0
08/28/2019 19:40:00,EDT,Other Renewables,256.0
08/28/2019 19:40:00,EDT,Wind,433.0
08/28/2019 19:40:00,EDT,Hydro,3048.0
08/28/2019 19:45:00,EDT,Dual Fuel,4453.0
08/28/2019 19:45:00,EDT,Natural Gas,4267.0
08/28/2019 19:45:00,EDT,Nuclear,5284.0
08/28/2019 19:45:00,EDT,Other Fossil Fuels,870.0
08/28/2019 19:45:00,EDT,Other Renewables,252.0
08/28/2019 19:45:00,EDT,Wind,438.0
08/28/2019 19:45:00,EDT,Hydro,3047.0
08/28/2019 19:50:00,EDT,Dual Fuel,4440.0
08/28/2019 19:50:00,EDT,Natural Gas,4251.0
08/28/2019 19:50:00,EDT,Nuclear,5284.0
08/28/2019 19:50:00,EDT,Other Fossil Fuels,879.0
08/28/2019 19:50:00,EDT,Other Renewables,254.0
08/28/2019 19:50:00,EDT,Wind,434.0
08/28/2019 19:50:00,EDT,Hydro,3072.0
08/28/2019 19:55:00,EDT,Dual Fuel,4364.0
08/28/2019 19:55:00,EDT,Natural Gas,4245.0
08/28/2019 19:55:00,EDT,Nuclear,5286.0
08/28/2019 19:55:00,EDT,Other Fossil Fuels,869.0
08/28/2019 19:55:00,EDT,Other Renewables,254.0
08/28/2019 19:55:00,EDT,Wind,396.0
08/28/2019 19:55:00,EDT,Hydro,3090.0
08/28/2019 20:00:00,EDT,Dual Fuel,4349.0
08/28/2019 20:00:00,EDT,Natural Gas,4285.0
08/28/2019 20:00:00,EDT,Nuclear,5291.0
08/28/2019 20:00:00,EDT,Other Fossil Fuels,878.0
08/28/2019 20:00:00,EDT,Other Renewables,255.0
08/28/2019 20:00:00,EDT,Wind,376.0
08/28/2019 20:00:00,EDT,Hydro,3105.0
08/28/2019 20:05:00,EDT,Dual Fuel,4423.0
08/28/2019 20:05:00,EDT,Natural Gas,4245.0
08/28/2019 20:05:00,EDT,Nuclear,5298.0
08/28/2019 20:05:00,EDT,Other Fossil Fuels,870.0
08/28/2019 20:05:00,EDT,Other Renewables,253.0
08/28/2019 20:05:00,EDT,Wind,371.0
08/28/2019 20:05:00,EDT,Hydro,3110.0
08/28/2019 20:10:00,EDT,Dual Fuel,4343.0
08/28/2019 20:10:00,EDT,Natural Gas,4211.0
08/28/2019 20:10:00,EDT,Nuclear,5298.0
08/28/2019 20:10:00,EDT,Other Fossil Fuels,879.0
08/28/2019 20:10:00,EDT,Other Renewables,253.0
08/28/2019 20:10:00,EDT,Wind,373.0
08/28/2019 20:10:00,EDT,Hydro,3072.0
08/28/2019 20:15:00,EDT,Dual Fuel,4317.0
08/28/2019 20:15:00,EDT,Natural Gas,4181.0
08/28/2019 20:15:00,EDT,Nuclear,5294.0
08/28/2019 20:15:00,EDT,Other Fossil Fuels,871.0
08/28/2019 20:15:00,EDT,Other Renewables,255.0
08/28/2019 20:15:00,EDT,Wind,380.0
08/28/2019 20:15:00,EDT,Hydro,3067.0
08/28/2019 20:20:00,EDT,Dual Fuel,4287.0
08/28/2019 20:20:00,EDT,Natural Gas,4140.0
08/28/2019 20:20:00,EDT,Nuclear,5293.0
08/28/2019 20:20:00,EDT,Other Fossil Fuels,877.0
08/28/2019 20:20:00,EDT,Other Renewables,255.0
08/28/2019 20:20:00,EDT,Wind,388.0
08/28/2019 20:20:00,EDT,Hydro,3068.0
08/28/2019 20:25:00,EDT,Dual Fuel,4245.0
08/28/2019 20:25:00,EDT,Natural Gas,4102.0
08/28/2019 20:25:00,EDT,Nuclear,5293.0
08/28/2019 20:25:00,EDT,Other Fossil Fuels,867.0
08/28/2019 20:25:00,EDT,Other Renewables,256.0
08/28/2019 20:25:00,EDT,Wind,407.0
08/28/2019 20:25:00,EDT,Hydro,3069.0
08/28/2019 20:30:00,EDT,Dual Fuel,4209.0
08/28/2019 20:30:00,EDT,Natural Gas,4093.0
08/28/2019 20:30:00,EDT,Nuclear,5294.0
08/28/2019 20:30:00,EDT,Other Fossil Fuels,849.0
08/28/2019 20:30:00,EDT,Other Renewables,252.0
08/28/2019 20:30:00,EDT,Wind,446.0
08/28/2019 20:30:00,EDT,Hydro,3065.0
08/28/2019 20:35:00,EDT,Dual Fuel,4165.0
08/28/2019 20:35:00,EDT,Natural Gas,4073.0
08/28/2019 20:35:00,EDT,Nuclear,5295.0
08/28/2019 20:35:00,EDT,Other Fossil Fuels,817.0
08/28/2019 20:35:00,EDT,Other Renewables,255.0
08/28/2019 20:35:00,EDT,Wind,469.0
08/28/2019 20:35:00,EDT,Hydro,3059.0
08/28/2019 20:40:00,EDT,Dual Fuel,4132.0
08/28/2019 20:40:00,EDT,Natural Gas,4072.0
08/28/2019 20:40:00,EDT,Nuclear,5291.0
08/28/2019 20:40:00,EDT,Other Fossil Fuels,817.0
08/28/2019 20:40:00,EDT,Other Renewables,253.0
08/28/2019 20:40:00,EDT,Wind,469.0
08/28/2019 20:40:00,EDT,Hydro,3027.0
08/28/2019 20:45:00,EDT,Dual Fuel,4063.0
08/28/2019 20:45:00,EDT,Natural Gas,4079.0
08/28/2019 20:45:00,EDT,Nuclear,5291.0
08/28/2019 20:45:00,EDT,Other Fossil Fuels,818.0
08/28/2019 20:45:00,EDT,Other Renewables,256.0
08/28/2019 20:45:00,EDT,Wind,481.0
08/28/2019 20:45:00,EDT,Hydro,2971.0
08/28/2019 20:50:00,EDT,Dual Fuel,3994.0
08/28/2019 20:50:00,EDT,Natural Gas,4071.0
08/28/2019 20:50:00,EDT,Nuclear,5292.0
08/28/2019 20:50:00,EDT,Other Fossil Fuels,815.0
08/28/2019 20:50:00,EDT,Other Renewables,255.0
08/28/2019 20:50:00,EDT,Wind,514.0
08/28/2019 20:50:00,EDT,Hydro,2971.0
08/28/2019 20:55:00,EDT,Dual Fuel,3919.0
08/28/2019 20:55:00,EDT,Natural Gas,4062.0
08/28/2019 20:55:00,EDT,Nuclear,5291.0
08/28/2019 20:55:00,EDT,Other Fossil Fuels,819.0
08/28/2019 20:55:00,EDT,Other Renewables,256.0
08/28/2019 20:55:00,EDT,Wind,528.0
08/28/2019 20:55:00,EDT,Hydro,2985.0
08/28/2019 21:00:00,EDT,Dual Fuel,3883.0
08/28/2019 21:00:00,EDT,Natural Gas,4071.0
08/28/2019 21:00:00,EDT,Nuclear,5291.0
08/28/2019 21:00:00,EDT,Other Fossil Fuels,814.0
08/28/2019 21:00:00,EDT,Other Renewables,256.0
08/28/2019 21:00:00,EDT,Wind,546.0
08/28/2019 21:00:00,EDT,Hydro,3008.0
08/28/2019 21:05:00,EDT,Dual Fuel,3830.0
08/28/2019 21:05:00,EDT,Natural Gas,4088.0
08/28/2019 21:05:00,EDT,Nuclear,5291.0
08/28/2019 21:05:00,EDT,Other Fossil Fuels,819.0
08/28/2019 21:05:00,EDT,Other Renewables,256.0
08/28/2019 21:05:00,EDT,Wind,546.0
08/28/2019 21:05:00,EDT,Hydro,3044.0
08/28/2019 21:10:00,EDT,Dual Fuel,3787.0
08/28/2019 21:10:00,EDT,Natural Gas,4051.0
08/28/2019 21:10:00,EDT,Nuclear,5291.0
08/28/2019 21:10:00,EDT,Other Fossil Fuels,809.0
08/28/2019 21:10:00,EDT,Other Renewables,255.0
08/28/2019 21:10:00,EDT,Wind,552.0
08/28/2019 21:10:00,EDT,Hydro,3037.0
08/28/2019 21:15:00,EDT,Dual Fuel,3741.0
08/28/2019 21:15:00,EDT,Natural Gas,4031.0
08/28/2019 21:15:00,EDT,Nuclear,5291.0
08/28/2019 21:15:00,EDT,Other Fossil Fuels,793.0
08/28/2019 21:15:00,EDT,Other Renewables,256.0
08/28/2019 21:15:00,EDT,Wind,558.0
08/28/2019 21:15:00,EDT,Hydro,3091.0
08/28/2019 21:20:00,EDT,Dual Fuel,3732.0
08/28/2019 21:20:00,EDT,Natural Gas,4038.0
08/28/2019 21:20:00,EDT,Nuclear,5289.0
08/28/2019 21:20:00,EDT,Other Fossil Fuels,767.0
08/28/2019 21:20:00,EDT,Other Renewables,255.0
08/28/2019 21:20:00,EDT,Wind,543.0
08/28/2019 21:20:00,EDT,Hydro,3100.0
08/28/2019 21:25:00,EDT,Dual Fuel,3705.0
08/28/2019 21:25:00,EDT,Natural Gas,4050.0
08/28/2019 21:25:00,EDT,Nuclear,5289.0
08/28/2019 21:25:00,EDT,Other Fossil Fuels,754.0
08/28/2019 21:25:00,EDT,Other Renewables,257.0
08/28/2019 21:25:00,EDT,Wind,539.0
08/28/2019 21:25:00,EDT,Hydro,3115.0
08/28/2019 21:30:00,EDT,Dual Fuel,3678.0
08/28/2019 21:30:00,EDT,Natural Gas,4054.0
08/28/2019 21:30:00,EDT,Nuclear,5288.0
08/28/2019 21:30:00,EDT,Other Fossil Fuels,733.0
08/28/2019 21:30:00,EDT,Other Renewables,259.0
08/28/2019 21:30:00,EDT,Wind,537.0
08/28/2019 21:30:00,EDT,Hydro,3123.0
08/28/2019 21:35:00,EDT,Dual Fuel,3683.0
08/28/2019 21:35:00,EDT,Natural Gas,4046.0
08/28/2019 21:35:00,EDT,Nuclear,5289.0
08/28/2019 21:35:00,EDT,Other Fossil Fuels,713.0
08/28/2019 21:35:00,EDT,Other Renewables,255.0
08/28/2019 21:35:00,EDT,Wind,540.0
08/28/2019 21:35:00,EDT,Hydro,3105.0
08/28/2019 21:40:00,EDT,Dual Fuel,3673.0
08/28/2019 21:40:00,EDT,Natural Gas,4042.0
08/28/2019 21:40:00,EDT,Nuclear,5287.0
08/28/2019 21:40:00,EDT,Other Fossil Fuels,687.0
08/28/2019 21:40:00,EDT,Other Renewables,255.0
08/28/2019 21:40:00,EDT,Wind,520.0
08/28/2019 21:40:00,EDT,Hydro,3097.0
08/28/2019 21:45:00,EDT,Dual Fuel,3632.0
08/28/2019 21:45:00,EDT,Natural Gas,4048.0
08/28/2019 21:45:00,EDT,Nuclear,5284.0
08/28/2019 21:45:00,EDT,Other Fossil Fuels,662.0
08/28/2019 21:45:00,EDT,Other Renewables,254.0
08/28/2019 21:45:00,EDT,Wind,521.0
08/28/2019 21:45:00,EDT,Hydro,3108.0
08/28/2019 21:50:00,EDT,Dual Fuel,3597.0
08/28/2019 21:50:00,EDT,Natural Gas,4048.0
08/28/2019 21:50:00,EDT,Nuclear,5284.0
08/28/2019 21:50:00,EDT,Other Fossil Fuels,658.0
08/28/2019 21:50:00,EDT,Other Renewables,255.0
08/28/2019 21:50:00,EDT,Wind,505.0
08/28/2019 21:50:00,EDT,Hydro,3113.0
08/28/2019 21:55:00,EDT,Dual Fuel,3525.0
08/28/2019 21:55:00,EDT,Natural Gas,4041.0
08/28/2019 21:55:00,EDT,Nuclear,5283.0
08/28/2019 21:55:00,EDT,Other Fossil Fuels,655.0
08/28/2019 21:55:00,EDT,Other Renewables,255.0
08/28/2019 21:55:00,EDT,Wind,479.0
08/28/2019 21:55:00,EDT,Hydro,3136.0
08/28/2019 22:00:00,EDT,Dual Fuel,3508.0
08/28/2019 22:00:00,EDT,Natural Gas,4030.0
08/28/2019 22:00:00,EDT,Nuclear,5284.0
08/28/2019 22:00:00,EDT,Other Fossil Fuels,647.0
08/28/2019 22:00:00,EDT,Other Renewables,255.0
08/28/2019 22:00:00,EDT,Wind,460.0
08/28/2019 22:00:00,EDT,Hydro,3139.0
08/28/2019 22:05:00,EDT,Dual Fuel,3515.0
08/28/2019 22:05:00,EDT,Natural Gas,3930.0
08/28/2019 22:05:00,EDT,Nuclear,5287.0
08/28/2019 22:05:00,EDT,Other Fossil Fuels,623.0
08/28/2019 22:05:00,EDT,Other Renewables,251.0
08/28/2019 22:05:00,EDT,Wind,462.0
08/28/2019 22:05:00,EDT,Hydro,3061.0
08/28/2019 22:10:00,EDT,Dual Fuel,3442.0
08/28/2019 22:10:00,EDT,Natural Gas,3897.0
08/28/2019 22:10:00,EDT,Nuclear,5289.0
08/28/2019 22:10:00,EDT,Other Fossil Fuels,595.0
08/28/2019 22:10:00,EDT,Other Renewables,253.0
08/28/2019 22:10:00,EDT,Wind,487.0
08/28/2019 22:10:00,EDT,Hydro,3038.0
08/28/2019 22:15:00,EDT,Dual Fuel,3406.0
08/28/2019 22:15:00,EDT,Natural Gas,3876.0
08/28/2019 22:15:00,EDT,Nuclear,5288.0
08/28/2019 22:15:00,EDT,Other Fossil Fuels,562.0
08/28/2019 22:15:00,EDT,Other Renewables,252.0
08/28/2019 22:15:00,EDT,Wind,482.0
08/28/2019 22:15:00,EDT,Hydro,3024.0
08/28/2019 22:20:00,EDT,Dual Fuel,3375.0
08/28/2019 22:20:00,EDT,Natural Gas,3868.0
08/28/2019 22:20:00,EDT,Nuclear,5288.0
08/28/2019 22:20:00,EDT,Other Fossil Fuels,543.0
08/28/2019 22:20:00,EDT,Other Renewables,253.0
08/28/2019 22:20:00,EDT,Wind,476.0
08/28/2019 22:20:00,EDT,Hydro,3003.0
08/28/2019 22:25:00,EDT,Dual Fuel,3375.0
08/28/2019 22:25:00,EDT,Natural Gas,3869.0
08/28/2019 22:25:00,EDT,Nuclear,5289.0
08/28/2019 22:25:00,EDT,Other Fossil Fuels,510.0
08/28/2019 22:25:00,EDT,Other Renewables,252.0
08/28/2019 22:25:00,EDT,Wind,455.0
08/28/2019 22:25:00,EDT,Hydro,2964.0
08/28/2019 22:30:00,EDT,Dual Fuel,3372.0
08/28/2019 22:30:00,EDT,Natural Gas,3797.0
08/28/2019 22:30:00,EDT,Nuclear,5290.0
08/28/2019 22:30:00,EDT,Other Fossil Fuels,489.0
08/28/2019 22:30:00,EDT,Other Renewables,255.0
08/28/2019 22:30:00,EDT,Wind,471.0
08/28/2019 22:30:00,EDT,Hydro,2921.0
08/28/2019 22:35:00,EDT,Dual Fuel,3357.0
08/28/2019 22:35:00,EDT,Natural Gas,3740.0
08/28/2019 22:35:00,EDT,Nuclear,5288.0
08/28/2019 22:35:00,EDT,Other Fossil Fuels,486.0
08/28/2019 22:35:00,EDT,Other Renewables,253.0
08/28/2019 22:35:00,EDT,Wind,483.0
08/28/2019 22:35:00,EDT,Hydro,2895.0
08/28/2019 22:40:00,EDT,Dual Fuel,3325.0
08/28/2019 22:40:00,EDT,Natural Gas,3720.0
08/28/2019 22:40:00,EDT,Nuclear,5284.0
08/28/2019 22:40:00,EDT,Other Fossil Fuels,483.0
08/28/2019 22:40:00,EDT,Other Renewables,253.0
08/28/2019 22:40:00,EDT,Wind,485.0
08/28/2019 22:40:00,EDT,Hydro,2878.0
08/28/2019 22:45:00,EDT,Dual Fuel,3244.0
08/28/2019 22:45:00,EDT,Natural Gas,3702.0
08/28/2019 22:45:00,EDT,Nuclear,5283.0
08/28/2019 22:45:00,EDT,Other Fossil Fuels,484.0
08/28/2019 22:45:00,EDT,Other Renewables,256.0
08/28/2019 22:45:00,EDT,Wind,505.0
08/28/2019 22:45:00,EDT,Hydro,2882.0
08/28/2019 22:50:00,EDT,Dual Fuel,3191.0
08/28/2019 22:50:00,EDT,Natural Gas,3668.0
08/28/2019 22:50:00,EDT,Nuclear,5285.0
08/28/2019 22:50:00,EDT,Other Fossil Fuels,482.0
08/28/2019 22:50:00,EDT,Other Renewables,258.0
08/28/2019 22:50:00,EDT,Wind,521.0
08/28/2019 22:50:00,EDT,Hydro,2887.0
08/28/2019 22:55:00,EDT,Dual Fuel,3178.0
08/28/2019 22:55:00,EDT,Natural Gas,3618.0
08/28/2019 22:55:00,EDT,Nuclear,5285.0
08/28/2019 22:55:00,EDT,Other Fossil Fuels,483.0
08/28/2019 22:55:00,EDT,Other Renewables,252.0
08/28/2019 22:55:00,EDT,Wind,523.0
08/28/2019 22:55:00,EDT,Hydro,2835.0
08/28/2019 23:00:00,EDT,Dual Fuel,3157.0
08/28/2019 23:00:00,EDT,Natural Gas,3577.0
08/28/2019 23:00:00,EDT,Nuclear,5285.0
08/28/2019 23:00:00,EDT,Other Fossil Fuels,482.0
08/28/2019 23:00:00,EDT,Other Renewables,252.0
08/28/2019 23:00:00,EDT,Wind,523.0
08/28/2019 23:00:00,EDT,Hydro,2748.0
08/28/2019 23:05:00,EDT,Dual Fuel,3088.0
08/28/2019 23:05:00,EDT,Natural Gas,3531.0
08/28/2019 23:05:00,EDT,Nuclear,5289.0
08/28/2019 23:05:00,EDT,Other Fossil Fuels,479.0
08/28/2019 23:05:00,EDT,Other Renewables,253.0
08/28/2019 23:05:00,EDT,Wind,532.0
08/28/2019 23:05:00,EDT,Hydro,2658.0
08/28/2019 23:10:00,EDT,Dual Fuel,3057.0
08/28/2019 23:10:00,EDT,Natural Gas,3393.0
08/28/2019 23:10:00,EDT,Nuclear,5289.0
08/28/2019 23:10:00,EDT,Other Fossil Fuels,458.0
08/28/2019 23:10:00,EDT,Other Renewables,259.0
08/28/2019 23:10:00,EDT,Wind,540.0
08/28/2019 23:10:00,EDT,Hydro,2592.0
08/28/2019 23:15:00,EDT,Dual Fuel,3114.0
08/28/2019 23:15:00,EDT,Natural Gas,3203.0
08/28/2019 23:15:00,EDT,Nuclear,5289.0
08/28/2019 23:15:00,EDT,Other Fossil Fuels,426.0
08/28/2019 23:15:00,EDT,Other Renewables,260.0
08/28/2019 23:15:00,EDT,Wind,548.0
08/28/2019 23:15:00,EDT,Hydro,2574.0
08/28/2019 23:20:00,EDT,Dual Fuel,3161.0
08/28/2019 23:20:00,EDT,Natural Gas,3189.0
08/28/2019 23:20:00,EDT,Nuclear,5293.0
08/28/2019 23:20:00,EDT,Other Fossil Fuels,389.0
08/28/2019 23:20:00,EDT,Other Renewables,261.0
08/28/2019 23:20:00,EDT,Wind,553.0
08/28/2019 23:20:00,EDT,Hydro,2598.0
08/28/2019 23:25:00,EDT,Dual Fuel,3144.0
08/28/2019 23:25:00,EDT,Natural Gas,3164.0
08/28/2019 23:25:00,EDT,Nuclear,5293.0
08/28/2019 23:25:00,EDT,Other Fossil Fuels,352.0
08/28/2019 23:25:00,EDT,Other Renewables,261.0
08/28/2019 23:25:00,EDT,Wind,562.0
08/28/2019 23:25:00,EDT,Hydro,2602.0
08/28/2019 23:30:00,EDT,Dual Fuel,3116.0
08/28/2019 23:30:00,EDT,Natural Gas,3157.0
08/28/2019 23:30:00,EDT,Nuclear,5294.0
08/28/2019 23:30:00,EDT,Other Fossil Fuels,330.0
08/28/2019 23:30:00,EDT,Other Renewables,261.0
08/28/2019 23:30:00,EDT,Wind,579.0
08/28/2019 23:30:00,EDT,Hydro,2576.0
08/28/2019 23:35:00,EDT,Dual Fuel,3130.0
08/28/2019 23:35:00,EDT,Natural Gas,3123.0
08/28/2019 23:35:00,EDT,Nuclear,5293.0
08/28/2019 23:35:00,EDT,Other Fossil Fuels,329.0
08/28/2019 23:35:00,EDT,Other Renewables,263.0
08/28/2019 23:35:00,EDT,Wind,593.0
08/28/2019 23:35:00,EDT,Hydro,2523.0
08/28/2019 23:40:00,EDT,Dual Fuel,3131.0
08/28/2019 23:40:00,EDT,Natural Gas,3044.0
08/28/2019 23:40:00,EDT,Nuclear,5294.0
08/28/2019 23:40:00,EDT,Other Fossil Fuels,326.0
08/28/2019 23:40:00,EDT,Other Renewables,262.0
08/28/2019 23:40:00,EDT,Wind,608.0
08/28/2019 23:40:00,EDT,Hydro,2539.0
08/28/2019 23:45:00,EDT,Dual Fuel,3135.0
08/28/2019 23:45:00,EDT,Natural Gas,2905.0
08/28/2019 23:45:00,EDT,Nuclear,5294.0
08/28/2019 23:45:00,EDT,Other Fossil Fuels,324.0
08/28/2019 23:45:00,EDT,Other Renewables,257.0
08/28/2019 23:45:00,EDT,Wind,634.0
08/28/2019 23:45:00,EDT,Hydro,2562.0
08/28/2019 23:50:00,EDT,Dual Fuel,3117.0
08/28/2019 23:50:00,EDT,Natural Gas,2799.0
08/28/2019 23:50:00,EDT,Nuclear,5296.0
08/28/2019 23:50:00,EDT,Other Fossil Fuels,321.0
08/28/2019 23:50:00,EDT,Other Renewables,259.0
08/28/2019 23:50:00,EDT,Wind,659.0
08/28/2019 23:50:00,EDT,Hydro,2570.0
08/28/2019 23:55:00,EDT,Dual Fuel,3096.0
08/28/2019 23:55:00,EDT,Natural Gas,2780.0
08/28/2019 23:55:00,EDT,Nuclear,5295.0
08/28/2019 23:55:00,EDT,Other Fossil Fuels,318.0
08/28/2019 23:55:00,EDT,Other Renewables,260.0
08/28/2019 23:55:00,EDT,Wind,671.0
08/28/2019 23:55:00,EDT,Hydro,2544.0