Time Stamp,Time Zone,Fuel Category,Gen MW
08/25/2019 00:05:00,EDT,Dual Fuel,2583.0
08/25/2019 00:05:00,EDT,Natural Gas,2328.0
08/25/2019 00:05:00,EDT,Nuclear,5281.0
08/25/2019 00:05:00,EDT,Other Fossil Fuels,51.0
08/25/2019 00:05:00,EDT,Other Renewables,257.0
08/25/2019 00:05:00,EDT,Wind,146.0
08/25/2019 00:05:00,EDT,Hydro,2513.0
08/25/2019 00:10:00,EDT,Dual Fuel,2598.0
08/25/2019 00:10:00,EDT,Natural Gas,2083.0
08/25/2019 00:10:00,EDT,Nuclear,5282.0
08/25/2019 00:10:00,EDT,Other Fossil Fuels,51.0
08/25/2019 00:10:00,EDT,Other Renewables,260.0
08/25/2019 00:10:00,EDT,Wind,155.0
08/25/2019 00:10:00,EDT,Hydro,2510.0
08/25/2019 00:10:51,EDT,Dual Fuel,2645.0
08/25/2019 00:10:51,EDT,Natural Gas,1951.0
08/25/2019 00:10:51,EDT,Nuclear,5282.0
08/25/2019 00:10:51,EDT,Other Fossil Fuels,51.0
08/25/2019 00:10:51,EDT,Other Renewables,261.0
08/25/2019 00:10:51,EDT,Wind,157.0
08/25/2019 00:10:51,EDT,Hydro,2478.0
08/25/2019 00:12:39,EDT,Dual Fuel,2650.0
08/25/2019 00:12:39,EDT,Natural Gas,1874.0
08/25/2019 00:12:39,EDT,Nuclear,5283.0
08/25/2019 00:12:39,EDT,Other Fossil Fuels,51.0
08/25/2019 00:12:39,EDT,Other Renewables,260.0
08/25/2019 00:12:39,EDT,Wind,158.0
08/25/2019 00:12:39,EDT,Hydro,2475.0
08/25/2019 00:15:00,EDT,Dual Fuel,2718.0
08/25/2019 00:15:00,EDT,Natural Gas,1825.0
08/25/2019 00:15:00,EDT,Nuclear,5282.0
08/25/2019 00:15:00,EDT,Other Fossil Fuels,52.0
08/25/2019 00:15:00,EDT,Other Renewables,260.0
08/25/2019 00:15:00,EDT,Wind,161.0
08/25/2019 00:15:00,EDT,Hydro,2472.0
08/25/2019 00:20:00,EDT,Dual Fuel,2793.0
08/25/2019 00:20:00,EDT,Natural Gas,1765.0
08/25/2019 00:20:00,EDT,Nuclear,5284.0
08/25/2019 00:20:00,EDT,Other Fossil Fuels,53.0
08/25/2019 00:20:00,EDT,Other Renewables,258.0
08/25/2019 00:20:00,EDT,Wind,158.0
08/25/2019 00:20:00,EDT,Hydro,2494.0
08/25/2019 00:20:27,EDT,Dual Fuel,2799.0
08/25/2019 00:20:27,EDT,Natural Gas,1753.0
08/25/2019 00:20:27,EDT,Nuclear,5284.0
08/25/2019 00:20:27,EDT,Other Fossil Fuels,53.0
08/25/2019 00:20:27,EDT,Other Renewables,258.0
08/25/2019 00:20:27,EDT,Wind,153.0
08/25/2019 00:20:27,EDT,Hydro,2497.0
08/25/2019 00:25:00,EDT,Dual Fuel,2782.0
08/25/2019 00:25:00,EDT,Natural Gas,1739.0
08/25/2019 00:25:00,EDT,Nuclear,5283.0
08/25/2019 00:25:00,EDT,Other Fossil Fuels,53.0
08/25/2019 00:25:00,EDT,Other Renewables,256.0
08/25/2019 00:25:00,EDT,Wind,148.0
08/25/2019 00:25:00,EDT,Hydro,2478.0
08/25/2019 00:30:00,EDT,Dual Fuel,2753.0
08/25/2019 00:30:00,EDT,Natural Gas,1726.0
08/25/2019 00:30:00,EDT,Nuclear,5284.0
08/25/2019 00:30:00,EDT,Other Fossil Fuels,52.0
08/25/2019 00:30:00,EDT,Other Renewables,258.0
08/25/2019 00:30:00,EDT,Wind,150.0
08/25/2019 00:30:00,EDT,Hydro,2450.0
08/25/2019 00:35:00,EDT,Dual Fuel,2765.0
08/25/2019 00:35:00,EDT,Natural Gas,1715.0
08/25/2019 00:35:00,EDT,Nuclear,5282.0
08/25/2019 00:35:00,EDT,Other Fossil Fuels,51.0
08/25/2019 00:35:00,EDT,Other Renewables,259.0
08/25/2019 00:35:00,EDT,Wind,159.0
08/25/2019 00:35:00,EDT,Hydro,2437.0
08/25/2019 00:40:00,EDT,Dual Fuel,2774.0
08/25/2019 00:40:00,EDT,Natural Gas,1687.0
08/25/2019 00:40:00,EDT,Nuclear,5282.0
08/25/2019 00:40:00,EDT,Other Fossil Fuels,50.0
08/25/2019 00:40:00,EDT,Other Renewables,256.0
08/25/2019 00:40:00,EDT,Wind,162.0
08/25/2019 00:40:00,EDT,Hydro,2454.0
08/25/2019 00:45:00,EDT,Dual Fuel,2801.0
08/25/2019 00:45:00,EDT,Natural Gas,1629.0
08/25/2019 00:45:00,EDT,Nuclear,5281.0
08/25/2019 00:45:00,EDT,Other Fossil Fuels,51.0
08/25/2019 00:45:00,EDT,Other Renewables,257.0
08/25/2019 00:45:00,EDT,Wind,161.0
08/25/2019 00:45:00,EDT,Hydro,2438.0
08/25/2019 00:50:00,EDT,Dual Fuel,2753.0
08/25/2019 00:50:00,EDT,Natural Gas,1598.0
08/25/2019 00:50:00,EDT,Nuclear,5283.0
08/25/2019 00:50:00,EDT,Other Fossil Fuels,51.0
08/25/2019 00:50:00,EDT,Other Renewables,257.0
08/25/2019 00:50:00,EDT,Wind,149.0
08/25/2019 00:50:00,EDT,Hydro,2349.0
08/25/2019 00:55:00,EDT,Dual Fuel,2648.0
08/25/2019 00:55:00,EDT,Natural Gas,1589.0
08/25/2019 00:55:00,EDT,Nuclear,5283.0
08/25/2019 00:55:00,EDT,Other Fossil Fuels,51.0
08/25/2019 00:55:00,EDT,Other Renewables,258.0
08/25/2019 00:55:00,EDT,Wind,141.0
08/25/2019 00:55:00,EDT,Hydro,2334.0
08/25/2019 01:00:00,EDT,Dual Fuel,2605.0
08/25/2019 01:00:00,EDT,Natural Gas,1584.0
08/25/2019 01:00:00,EDT,Nuclear,5283.0
08/25/2019 01:00:00,EDT,Other Fossil Fuels,51.0
08/25/2019 01:00:00,EDT,Other Renewables,263.0
08/25/2019 01:00:00,EDT,Wind,136.0
08/25/2019 01:00:00,EDT,Hydro,2325.0
08/25/2019 01:05:00,EDT,Dual Fuel,2602.0
08/25/2019 01:05:00,EDT,Natural Gas,1532.0
08/25/2019 01:05:00,EDT,Nuclear,5285.0
08/25/2019 01:05:00,EDT,Other Fossil Fuels,51.0
08/25/2019 01:05:00,EDT,Other Renewables,259.0
08/25/2019 01:05:00,EDT,Wind,136.0
08/25/2019 01:05:00,EDT,Hydro,2329.0
08/25/2019 01:10:00,EDT,Dual Fuel,2619.0
08/25/2019 01:10:00,EDT,Natural Gas,1375.0
08/25/2019 01:10:00,EDT,Nuclear,5281.0
08/25/2019 01:10:00,EDT,Other Fossil Fuels,51.0
08/25/2019 01:10:00,EDT,Other Renewables,257.0
08/25/2019 01:10:00,EDT,Wind,142.0
08/25/2019 01:10:00,EDT,Hydro,2329.0
08/25/2019 01:15:00,EDT,Dual Fuel,2654.0
08/25/2019 01:15:00,EDT,Natural Gas,1318.0
08/25/2019 01:15:00,EDT,Nuclear,5282.0
08/25/2019 01:15:00,EDT,Other Fossil Fuels,51.0
08/25/2019 01:15:00,EDT,Other Renewables,259.0
08/25/2019 01:15:00,EDT,Wind,146.0
08/25/2019 01:15:00,EDT,Hydro,2349.0
08/25/2019 01:20:00,EDT,Dual Fuel,2661.0
08/25/2019 01:20:00,EDT,Natural Gas,1303.0
08/25/2019 01:20:00,EDT,Nuclear,5282.0
08/25/2019 01:20:00,EDT,Other Fossil Fuels,51.0
08/25/2019 01:20:00,EDT,Other Renewables,257.0
08/25/2019 01:20:00,EDT,Wind,148.0
08/25/2019 01:20:00,EDT,Hydro,2338.0
08/25/2019 01:25:00,EDT,Dual Fuel,2638.0
08/25/2019 01:25:00,EDT,Natural Gas,1303.0
08/25/2019 01:25:00,EDT,Nuclear,5283.0
08/25/2019 01:25:00,EDT,Other Fossil Fuels,51.0
08/25/2019 01:25:00,EDT,Other Renewables,262.0
08/25/2019 01:25:00,EDT,Wind,148.0
08/25/2019 01:25:00,EDT,Hydro,2347.0
08/25/2019 01:30:00,EDT,Dual Fuel,2580.0
08/25/2019 01:30:00,EDT,Natural Gas,1303.0
08/25/2019 01:30:00,EDT,Nuclear,5283.0
08/25/2019 01:30:00,EDT,Other Fossil Fuels,51.0
08/25/2019 01:30:00,EDT,Other Renewables,263.0
08/25/2019 01:30:00,EDT,Wind,149.0
08/25/2019 01:30:00,EDT,Hydro,2305.0
08/25/2019 01:35:00,EDT,Dual Fuel,2505.0
08/25/2019 01:35:00,EDT,Natural Gas,1308.0
08/25/2019 01:35:00,EDT,Nuclear,5285.0
08/25/2019 01:35:00,EDT,Other Fossil Fuels,51.0
08/25/2019 01:35:00,EDT,Other Renewables,266.0
08/25/2019 01:35:00,EDT,Wind,152.0
08/25/2019 01:35:00,EDT,Hydro,2250.0
08/25/2019 01:40:00,EDT,Dual Fuel,2445.0
08/25/2019 01:40:00,EDT,Natural Gas,1310.0
08/25/2019 01:40:00,EDT,Nuclear,5284.0
08/25/2019 01:40:00,EDT,Other Fossil Fuels,50.0
08/25/2019 01:40:00,EDT,Other Renewables,270.0
08/25/2019 01:40:00,EDT,Wind,157.0
08/25/2019 01:40:00,EDT,Hydro,2252.0
08/25/2019 01:45:00,EDT,Dual Fuel,2379.0
08/25/2019 01:45:00,EDT,Natural Gas,1310.0
08/25/2019 01:45:00,EDT,Nuclear,5283.0
08/25/2019 01:45:00,EDT,Other Fossil Fuels,51.0
08/25/2019 01:45:00,EDT,Other Renewables,270.0
08/25/2019 01:45:00,EDT,Wind,162.0
08/25/2019 01:45:00,EDT,Hydro,2277.0
08/25/2019 01:50:00,EDT,Dual Fuel,2298.0
08/25/2019 01:50:00,EDT,Natural Gas,1310.0
08/25/2019 01:50:00,EDT,Nuclear,5283.0
08/25/2019 01:50:00,EDT,Other Fossil Fuels,50.0
08/25/2019 01:50:00,EDT,Other Renewables,269.0
08/25/2019 01:50:00,EDT,Wind,164.0
08/25/2019 01:50:00,EDT,Hydro,2296.0
08/25/2019 01:55:00,EDT,Dual Fuel,2253.0
08/25/2019 01:55:00,EDT,Natural Gas,1306.0
08/25/2019 01:55:00,EDT,Nuclear,5283.0
08/25/2019 01:55:00,EDT,Other Fossil Fuels,51.0
08/25/2019 01:55:00,EDT,Other Renewables,268.0
08/25/2019 01:55:00,EDT,Wind,162.0
08/25/2019 01:55:00,EDT,Hydro,2303.0
08/25/2019 02:00:00,EDT,Dual Fuel,2303.0
08/25/2019 02:00:00,EDT,Natural Gas,1287.0
08/25/2019 02:00:00,EDT,Nuclear,5283.0
08/25/2019 02:00:00,EDT,Other Fossil Fuels,51.0
08/25/2019 02:00:00,EDT,Other Renewables,270.0
08/25/2019 02:00:00,EDT,Wind,163.0
08/25/2019 02:00:00,EDT,Hydro,2300.0
08/25/2019 02:05:00,EDT,Dual Fuel,2496.0
08/25/2019 02:05:00,EDT,Natural Gas,1214.0
08/25/2019 02:05:00,EDT,Nuclear,5284.0
08/25/2019 02:05:00,EDT,Other Fossil Fuels,51.0
08/25/2019 02:05:00,EDT,Other Renewables,264.0
08/25/2019 02:05:00,EDT,Wind,166.0
08/25/2019 02:05:00,EDT,Hydro,2355.0
08/25/2019 02:10:00,EDT,Dual Fuel,2617.0
08/25/2019 02:10:00,EDT,Natural Gas,1199.0
08/25/2019 02:10:00,EDT,Nuclear,5284.0
08/25/2019 02:10:00,EDT,Other Fossil Fuels,51.0
08/25/2019 02:10:00,EDT,Other Renewables,269.0
08/25/2019 02:10:00,EDT,Wind,163.0
08/25/2019 02:10:00,EDT,Hydro,2354.0
08/25/2019 02:15:00,EDT,Dual Fuel,2600.0
08/25/2019 02:15:00,EDT,Natural Gas,1196.0
08/25/2019 02:15:00,EDT,Nuclear,5284.0
08/25/2019 02:15:00,EDT,Other Fossil Fuels,51.0
08/25/2019 02:15:00,EDT,Other Renewables,271.0
08/25/2019 02:15:00,EDT,Wind,161.0
08/25/2019 02:15:00,EDT,Hydro,2341.0
08/25/2019 02:20:00,EDT,Dual Fuel,2553.0
08/25/2019 02:20:00,EDT,Natural Gas,1193.0
08/25/2019 02:20:00,EDT,Nuclear,5285.0
08/25/2019 02:20:00,EDT,Other Fossil Fuels,51.0
08/25/2019 02:20:00,EDT,Other Renewables,265.0
08/25/2019 02:20:00,EDT,Wind,158.0
08/25/2019 02:20:00,EDT,Hydro,2340.0
08/25/2019 02:25:00,EDT,Dual Fuel,2526.0
08/25/2019 02:25:00,EDT,Natural Gas,1194.0
08/25/2019 02:25:00,EDT,Nuclear,5285.0
08/25/2019 02:25:00,EDT,Other Fossil Fuels,51.0
08/25/2019 02:25:00,EDT,Other Renewables,270.0
08/25/2019 02:25:00,EDT,Wind,153.0
08/25/2019 02:25:00,EDT,Hydro,2348.0
08/25/2019 02:30:00,EDT,Dual Fuel,2516.0
08/25/2019 02:30:00,EDT,Natural Gas,1196.0
08/25/2019 02:30:00,EDT,Nuclear,5285.0
08/25/2019 02:30:00,EDT,Other Fossil Fuels,51.0
08/25/2019 02:30:00,EDT,Other Renewables,267.0
08/25/2019 02:30:00,EDT,Wind,149.0
08/25/2019 02:30:00,EDT,Hydro,2304.0
08/25/2019 02:35:00,EDT,Dual Fuel,2543.0
08/25/2019 02:35:00,EDT,Natural Gas,1196.0
08/25/2019 02:35:00,EDT,Nuclear,5284.0
08/25/2019 02:35:00,EDT,Other Fossil Fuels,51.0
08/25/2019 02:35:00,EDT,Other Renewables,265.0
08/25/2019 02:35:00,EDT,Wind,142.0
08/25/2019 02:35:00,EDT,Hydro,2329.0
08/25/2019 02:40:00,EDT,Dual Fuel,2552.0
08/25/2019 02:40:00,EDT,Natural Gas,1194.0
08/25/2019 02:40:00,EDT,Nuclear,5286.0
08/25/2019 02:40:00,EDT,Other Fossil Fuels,51.0
08/25/2019 02:40:00,EDT,Other Renewables,270.0
08/25/2019 02:40:00,EDT,Wind,135.0
08/25/2019 02:40:00,EDT,Hydro,2272.0
08/25/2019 02:45:00,EDT,Dual Fuel,2485.0
08/25/2019 02:45:00,EDT,Natural Gas,1196.0
08/25/2019 02:45:00,EDT,Nuclear,5286.0
08/25/2019 02:45:00,EDT,Other Fossil Fuels,50.0
08/25/2019 02:45:00,EDT,Other Renewables,271.0
08/25/2019 02:45:00,EDT,Wind,129.0
08/25/2019 02:45:00,EDT,Hydro,2284.0
08/25/2019 02:50:00,EDT,Dual Fuel,2380.0
08/25/2019 02:50:00,EDT,Natural Gas,1196.0
08/25/2019 02:50:00,EDT,Nuclear,5288.0
08/25/2019 02:50:00,EDT,Other Fossil Fuels,51.0
08/25/2019 02:50:00,EDT,Other Renewables,268.0
08/25/2019 02:50:00,EDT,Wind,124.0
08/25/2019 02:50:00,EDT,Hydro,2316.0
08/25/2019 02:55:00,EDT,Dual Fuel,2319.0
08/25/2019 02:55:00,EDT,Natural Gas,1196.0
08/25/2019 02:55:00,EDT,Nuclear,5285.0
08/25/2019 02:55:00,EDT,Other Fossil Fuels,51.0
08/25/2019 02:55:00,EDT,Other Renewables,266.0
08/25/2019 02:55:00,EDT,Wind,121.0
08/25/2019 02:55:00,EDT,Hydro,2340.0
08/25/2019 03:00:00,EDT,Dual Fuel,2345.0
08/25/2019 03:00:00,EDT,Natural Gas,1190.0
08/25/2019 03:00:00,EDT,Nuclear,5287.0
08/25/2019 03:00:00,EDT,Other Fossil Fuels,51.0
08/25/2019 03:00:00,EDT,Other Renewables,270.0
08/25/2019 03:00:00,EDT,Wind,124.0
08/25/2019 03:00:00,EDT,Hydro,2339.0
08/25/2019 03:05:00,EDT,Dual Fuel,2452.0
08/25/2019 03:05:00,EDT,Natural Gas,1191.0
08/25/2019 03:05:00,EDT,Nuclear,5287.0
08/25/2019 03:05:00,EDT,Other Fossil Fuels,51.0
08/25/2019 03:05:00,EDT,Other Renewables,272.0
08/25/2019 03:05:00,EDT,Wind,129.0
08/25/2019 03:05:00,EDT,Hydro,2361.0
08/25/2019 03:10:00,EDT,Dual Fuel,2526.0
08/25/2019 03:10:00,EDT,Natural Gas,1189.0
08/25/2019 03:10:00,EDT,Nuclear,5287.0
08/25/2019 03:10:00,EDT,Other Fossil Fuels,51.0
08/25/2019 03:10:00,EDT,Other Renewables,268.0
08/25/2019 03:10:00,EDT,Wind,135.0
08/25/2019 03:10:00,EDT,Hydro,2355.0
08/25/2019 03:15:00,EDT,Dual Fuel,2526.0
08/25/2019 03:15:00,EDT,Natural Gas,1189.0
08/25/2019 03:15:00,EDT,Nuclear,5288.0
08/25/2019 03:15:00,EDT,Other Fossil Fuels,51.0
08/25/2019 03:15:00,EDT,Other Renewables,267.0
08/25/2019 03:15:00,EDT,Wind,144.0
08/25/2019 03:15:00,EDT,Hydro,2348.0
08/25/2019 03:20:00,EDT,Dual Fuel,2504.0
08/25/2019 03:20:00,EDT,Natural Gas,1188.0
08/25/2019 03:20:00,EDT,Nuclear,5288.0
08/25/2019 03:20:00,EDT,Other Fossil Fuels,51.0
08/25/2019 03:20:00,EDT,Other Renewables,271.0
08/25/2019 03:20:00,EDT,Wind,152.0
08/25/2019 03:20:00,EDT,Hydro,2340.0
08/25/2019 03:25:00,EDT,Dual Fuel,2476.0
08/25/2019 03:25:00,EDT,Natural Gas,1188.0
08/25/2019 03:25:00,EDT,Nuclear,5289.0
08/25/2019 03:25:00,EDT,Other Fossil Fuels,51.0
08/25/2019 03:25:00,EDT,Other Renewables,271.0
08/25/2019 03:25:00,EDT,Wind,163.0
08/25/2019 03:25:00,EDT,Hydro,2333.0
08/25/2019 03:30:00,EDT,Dual Fuel,2446.0
08/25/2019 03:30:00,EDT,Natural Gas,1187.0
08/25/2019 03:30:00,EDT,Nuclear,5288.0
08/25/2019 03:30:00,EDT,Other Fossil Fuels,50.0
08/25/2019 03:30:00,EDT,Other Renewables,272.0
08/25/2019 03:30:00,EDT,Wind,174.0
08/25/2019 03:30:00,EDT,Hydro,2260.0
08/25/2019 03:35:00,EDT,Dual Fuel,2425.0
08/25/2019 03:35:00,EDT,Natural Gas,1187.0
08/25/2019 03:35:00,EDT,Nuclear,5287.0
08/25/2019 03:35:00,EDT,Other Fossil Fuels,51.0
08/25/2019 03:35:00,EDT,Other Renewables,271.0
08/25/2019 03:35:00,EDT,Wind,179.0
08/25/2019 03:35:00,EDT,Hydro,2274.0
08/25/2019 03:40:00,EDT,Dual Fuel,2413.0
08/25/2019 03:40:00,EDT,Natural Gas,1186.0
08/25/2019 03:40:00,EDT,Nuclear,5289.0
08/25/2019 03:40:00,EDT,Other Fossil Fuels,51.0
08/25/2019 03:40:00,EDT,Other Renewables,272.0
08/25/2019 03:40:00,EDT,Wind,184.0
08/25/2019 03:40:00,EDT,Hydro,2293.0
08/25/2019 03:45:00,EDT,Dual Fuel,2364.0
08/25/2019 03:45:00,EDT,Natural Gas,1186.0
08/25/2019 03:45:00,EDT,Nuclear,5289.0
08/25/2019 03:45:00,EDT,Other Fossil Fuels,50.0
08/25/2019 03:45:00,EDT,Other Renewables,273.0
08/25/2019 03:45:00,EDT,Wind,191.0
08/25/2019 03:45:00,EDT,Hydro,2303.0
08/25/2019 03:50:00,EDT,Dual Fuel,2281.0
08/25/2019 03:50:00,EDT,Natural Gas,1186.0
08/25/2019 03:50:00,EDT,Nuclear,5290.0
08/25/2019 03:50:00,EDT,Other Fossil Fuels,51.0
08/25/2019 03:50:00,EDT,Other Renewables,271.0
08/25/2019 03:50:00,EDT,Wind,196.0
08/25/2019 03:50:00,EDT,Hydro,2314.0
08/25/2019 03:55:00,EDT,Dual Fuel,2251.0
08/25/2019 03:55:00,EDT,Natural Gas,1185.0
08/25/2019 03:55:00,EDT,Nuclear,5289.0
08/25/2019 03:55:00,EDT,Other Fossil Fuels,51.0
08/25/2019 03:55:00,EDT,Other Renewables,268.0
08/25/2019 03:55:00,EDT,Wind,196.0
08/25/2019 03:55:00,EDT,Hydro,2283.0
08/25/2019 04:00:00,EDT,Dual Fuel,2297.0
08/25/2019 04:00:00,EDT,Natural Gas,1186.0
08/25/2019 04:00:00,EDT,Nuclear,5289.0
08/25/2019 04:00:00,EDT,Other Fossil Fuels,51.0
08/25/2019 04:00:00,EDT,Other Renewables,269.0
08/25/2019 04:00:00,EDT,Wind,195.0
08/25/2019 04:00:00,EDT,Hydro,2244.0
08/25/2019 04:05:00,EDT,Dual Fuel,2371.0
08/25/2019 04:05:00,EDT,Natural Gas,1185.0
08/25/2019 04:05:00,EDT,Nuclear,5289.0
08/25/2019 04:05:00,EDT,Other Fossil Fuels,51.0
08/25/2019 04:05:00,EDT,Other Renewables,272.0
08/25/2019 04:05:00,EDT,Wind,191.0
08/25/2019 04:05:00,EDT,Hydro,2268.0
08/25/2019 04:10:00,EDT,Dual Fuel,2332.0
08/25/2019 04:10:00,EDT,Natural Gas,1186.0
08/25/2019 04:10:00,EDT,Nuclear,5285.0
08/25/2019 04:10:00,EDT,Other Fossil Fuels,51.0
08/25/2019 04:10:00,EDT,Other Renewables,274.0
08/25/2019 04:10:00,EDT,Wind,189.0
08/25/2019 04:10:00,EDT,Hydro,2253.0
08/25/2019 04:15:00,EDT,Dual Fuel,2325.0
08/25/2019 04:15:00,EDT,Natural Gas,1192.0
08/25/2019 04:15:00,EDT,Nuclear,5285.0
08/25/2019 04:15:00,EDT,Other Fossil Fuels,51.0
08/25/2019 04:15:00,EDT,Other Renewables,274.0
08/25/2019 04:15:00,EDT,Wind,191.0
08/25/2019 04:15:00,EDT,Hydro,2262.0
08/25/2019 04:20:00,EDT,Dual Fuel,2314.0
08/25/2019 04:20:00,EDT,Natural Gas,1177.0
08/25/2019 04:20:00,EDT,Nuclear,5285.0
08/25/2019 04:20:00,EDT,Other Fossil Fuels,51.0
08/25/2019 04:20:00,EDT,Other Renewables,273.0
08/25/2019 04:20:00,EDT,Wind,189.0
08/25/2019 04:20:00,EDT,Hydro,2204.0
08/25/2019 04:25:00,EDT,Dual Fuel,2300.0
08/25/2019 04:25:00,EDT,Natural Gas,1140.0
08/25/2019 04:25:00,EDT,Nuclear,5282.0
08/25/2019 04:25:00,EDT,Other Fossil Fuels,51.0
08/25/2019 04:25:00,EDT,Other Renewables,270.0
08/25/2019 04:25:00,EDT,Wind,185.0
08/25/2019 04:25:00,EDT,Hydro,2263.0
08/25/2019 04:30:00,EDT,Dual Fuel,2296.0
08/25/2019 04:30:00,EDT,Natural Gas,1140.0
08/25/2019 04:30:00,EDT,Nuclear,5278.0
08/25/2019 04:30:00,EDT,Other Fossil Fuels,50.0
08/25/2019 04:30:00,EDT,Other Renewables,270.0
08/25/2019 04:30:00,EDT,Wind,180.0
08/25/2019 04:30:00,EDT,Hydro,2268.0
08/25/2019 04:35:00,EDT,Dual Fuel,2287.0
08/25/2019 04:35:00,EDT,Natural Gas,1139.0
08/25/2019 04:35:00,EDT,Nuclear,5277.0
08/25/2019 04:35:00,EDT,Other Fossil Fuels,51.0
08/25/2019 04:35:00,EDT,Other Renewables,271.0
08/25/2019 04:35:00,EDT,Wind,176.0
08/25/2019 04:35:00,EDT,Hydro,2264.0
08/25/2019 04:40:00,EDT,Dual Fuel,2286.0
08/25/2019 04:40:00,EDT,Natural Gas,1141.0
08/25/2019 04:40:00,EDT,Nuclear,5279.0
08/25/2019 04:40:00,EDT,Other Fossil Fuels,51.0
08/25/2019 04:40:00,EDT,Other Renewables,264.0
08/25/2019 04:40:00,EDT,Wind,176.0
08/25/2019 04:40:00,EDT,Hydro,2278.0
08/25/2019 04:45:00,EDT,Dual Fuel,2308.0
08/25/2019 04:45:00,EDT,Natural Gas,1139.0
08/25/2019 04:45:00,EDT,Nuclear,5281.0
08/25/2019 04:45:00,EDT,Other Fossil Fuels,51.0
08/25/2019 04:45:00,EDT,Other Renewables,264.0
08/25/2019 04:45:00,EDT,Wind,177.0
08/25/2019 04:45:00,EDT,Hydro,2285.0
08/25/2019 04:50:00,EDT,Dual Fuel,2354.0
08/25/2019 04:50:00,EDT,Natural Gas,1140.0
08/25/2019 04:50:00,EDT,Nuclear,5281.0
08/25/2019 04:50:00,EDT,Other Fossil Fuels,51.0
08/25/2019 04:50:00,EDT,Other Renewables,262.0
08/25/2019 04:50:00,EDT,Wind,172.0
08/25/2019 04:50:00,EDT,Hydro,2316.0
08/25/2019 04:55:00,EDT,Dual Fuel,2404.0
08/25/2019 04:55:00,EDT,Natural Gas,1141.0
08/25/2019 04:55:00,EDT,Nuclear,5282.0
08/25/2019 04:55:00,EDT,Other Fossil Fuels,51.0
08/25/2019 04:55:00,EDT,Other Renewables,264.0
08/25/2019 04:55:00,EDT,Wind,167.0
08/25/2019 04:55:00,EDT,Hydro,2342.0
08/25/2019 05:00:00,EDT,Dual Fuel,2376.0
08/25/2019 05:00:00,EDT,Natural Gas,1137.0
08/25/2019 05:00:00,EDT,Nuclear,5285.0
08/25/2019 05:00:00,EDT,Other Fossil Fuels,51.0
08/25/2019 05:00:00,EDT,Other Renewables,268.0
08/25/2019 05:00:00,EDT,Wind,165.0
08/25/2019 05:00:00,EDT,Hydro,2334.0
08/25/2019 05:05:00,EDT,Dual Fuel,2357.0
08/25/2019 05:05:00,EDT,Natural Gas,1138.0
08/25/2019 05:05:00,EDT,Nuclear,5282.0
08/25/2019 05:05:00,EDT,Other Fossil Fuels,51.0
08/25/2019 05:05:00,EDT,Other Renewables,272.0
08/25/2019 05:05:00,EDT,Wind,161.0
08/25/2019 05:05:00,EDT,Hydro,2325.0
08/25/2019 05:10:00,EDT,Dual Fuel,2379.0
08/25/2019 05:10:00,EDT,Natural Gas,1191.0
08/25/2019 05:10:00,EDT,Nuclear,5281.0
08/25/2019 05:10:00,EDT,Other Fossil Fuels,51.0
08/25/2019 05:10:00,EDT,Other Renewables,267.0
08/25/2019 05:10:00,EDT,Wind,154.0
08/25/2019 05:10:00,EDT,Hydro,2351.0
08/25/2019 05:15:00,EDT,Dual Fuel,2460.0
08/25/2019 05:15:00,EDT,Natural Gas,1201.0
08/25/2019 05:15:00,EDT,Nuclear,5281.0
08/25/2019 05:15:00,EDT,Other Fossil Fuels,51.0
08/25/2019 05:15:00,EDT,Other Renewables,267.0
08/25/2019 05:15:00,EDT,Wind,153.0
08/25/2019 05:15:00,EDT,Hydro,2304.0
08/25/2019 05:20:00,EDT,Dual Fuel,2513.0
08/25/2019 05:20:00,EDT,Natural Gas,1202.0
08/25/2019 05:20:00,EDT,Nuclear,5282.0
08/25/2019 05:20:00,EDT,Other Fossil Fuels,51.0
08/25/2019 05:20:00,EDT,Other Renewables,263.0
08/25/2019 05:20:00,EDT,Wind,152.0
08/25/2019 05:20:00,EDT,Hydro,2310.0
08/25/2019 05:25:00,EDT,Dual Fuel,2554.0
08/25/2019 05:25:00,EDT,Natural Gas,1201.0
08/25/2019 05:25:00,EDT,Nuclear,5280.0
08/25/2019 05:25:00,EDT,Other Fossil Fuels,51.0
08/25/2019 05:25:00,EDT,Other Renewables,264.0
08/25/2019 05:25:00,EDT,Wind,151.0
08/25/2019 05:25:00,EDT,Hydro,2302.0
08/25/2019 05:30:00,EDT,Dual Fuel,2553.0
08/25/2019 05:30:00,EDT,Natural Gas,1201.0
08/25/2019 05:30:00,EDT,Nuclear,5279.0
08/25/2019 05:30:00,EDT,Other Fossil Fuels,51.0
08/25/2019 05:30:00,EDT,Other Renewables,263.0
08/25/2019 05:30:00,EDT,Wind,146.0
08/25/2019 05:30:00,EDT,Hydro,2313.0
08/25/2019 05:35:00,EDT,Dual Fuel,2556.0
08/25/2019 05:35:00,EDT,Natural Gas,1201.0
08/25/2019 05:35:00,EDT,Nuclear,5279.0
08/25/2019 05:35:00,EDT,Other Fossil Fuels,51.0
08/25/2019 05:35:00,EDT,Other Renewables,266.0
08/25/2019 05:35:00,EDT,Wind,146.0
08/25/2019 05:35:00,EDT,Hydro,2298.0
08/25/2019 05:40:00,EDT,Dual Fuel,2568.0
08/25/2019 05:40:00,EDT,Natural Gas,1201.0
08/25/2019 05:40:00,EDT,Nuclear,5279.0
08/25/2019 05:40:00,EDT,Other Fossil Fuels,51.0
08/25/2019 05:40:00,EDT,Other Renewables,264.0
08/25/2019 05:40:00,EDT,Wind,145.0
08/25/2019 05:40:00,EDT,Hydro,2279.0
08/25/2019 05:45:00,EDT,Dual Fuel,2589.0
08/25/2019 05:45:00,EDT,Natural Gas,1201.0
08/25/2019 05:45:00,EDT,Nuclear,5280.0
08/25/2019 05:45:00,EDT,Other Fossil Fuels,51.0
08/25/2019 05:45:00,EDT,Other Renewables,263.0
08/25/2019 05:45:00,EDT,Wind,147.0
08/25/2019 05:45:00,EDT,Hydro,2300.0
08/25/2019 05:50:00,EDT,Dual Fuel,2618.0
08/25/2019 05:50:00,EDT,Natural Gas,1201.0
08/25/2019 05:50:00,EDT,Nuclear,5280.0
08/25/2019 05:50:00,EDT,Other Fossil Fuels,50.0
08/25/2019 05:50:00,EDT,Other Renewables,264.0
08/25/2019 05:50:00,EDT,Wind,148.0
08/25/2019 05:50:00,EDT,Hydro,2324.0
08/25/2019 05:55:00,EDT,Dual Fuel,2617.0
08/25/2019 05:55:00,EDT,Natural Gas,1200.0
08/25/2019 05:55:00,EDT,Nuclear,5280.0
08/25/2019 05:55:00,EDT,Other Fossil Fuels,51.0
08/25/2019 05:55:00,EDT,Other Renewables,265.0
08/25/2019 05:55:00,EDT,Wind,148.0
08/25/2019 05:55:00,EDT,Hydro,2323.0
08/25/2019 06:00:00,EDT,Dual Fuel,2635.0
08/25/2019 06:00:00,EDT,Natural Gas,1200.0
08/25/2019 06:00:00,EDT,Nuclear,5280.0
08/25/2019 06:00:00,EDT,Other Fossil Fuels,50.0
08/25/2019 06:00:00,EDT,Other Renewables,263.0
08/25/2019 06:00:00,EDT,Wind,151.0
08/25/2019 06:00:00,EDT,Hydro,2310.0
08/25/2019 06:05:00,EDT,Dual Fuel,2745.0
08/25/2019 06:05:00,EDT,Natural Gas,1185.0
08/25/2019 06:05:00,EDT,Nuclear,5282.0
08/25/2019 06:05:00,EDT,Other Fossil Fuels,50.0
08/25/2019 06:05:00,EDT,Other Renewables,265.0
08/25/2019 06:05:00,EDT,Wind,152.0
08/25/2019 06:05:00,EDT,Hydro,2289.0
08/25/2019 06:10:00,EDT,Dual Fuel,2773.0
08/25/2019 06:10:00,EDT,Natural Gas,1137.0
08/25/2019 06:10:00,EDT,Nuclear,5281.0
08/25/2019 06:10:00,EDT,Other Fossil Fuels,50.0
08/25/2019 06:10:00,EDT,Other Renewables,267.0
08/25/2019 06:10:00,EDT,Wind,149.0
08/25/2019 06:10:00,EDT,Hydro,2327.0
08/25/2019 06:15:00,EDT,Dual Fuel,2790.0
08/25/2019 06:15:00,EDT,Natural Gas,1137.0
08/25/2019 06:15:00,EDT,Nuclear,5283.0
08/25/2019 06:15:00,EDT,Other Fossil Fuels,50.0
08/25/2019 06:15:00,EDT,Other Renewables,263.0
08/25/2019 06:15:00,EDT,Wind,146.0
08/25/2019 06:15:00,EDT,Hydro,2345.0
08/25/2019 06:20:00,EDT,Dual Fuel,2768.0
08/25/2019 06:20:00,EDT,Natural Gas,1142.0
08/25/2019 06:20:00,EDT,Nuclear,5282.0
08/25/2019 06:20:00,EDT,Other Fossil Fuels,50.0
08/25/2019 06:20:00,EDT,Other Renewables,260.0
08/25/2019 06:20:00,EDT,Wind,147.0
08/25/2019 06:20:00,EDT,Hydro,2327.0
08/25/2019 06:25:00,EDT,Dual Fuel,2738.0
08/25/2019 06:25:00,EDT,Natural Gas,1136.0
08/25/2019 06:25:00,EDT,Nuclear,5282.0
08/25/2019 06:25:00,EDT,Other Fossil Fuels,50.0
08/25/2019 06:25:00,EDT,Other Renewables,263.0
08/25/2019 06:25:00,EDT,Wind,143.0
08/25/2019 06:25:00,EDT,Hydro,2299.0
08/25/2019 06:30:00,EDT,Dual Fuel,2719.0
08/25/2019 06:30:00,EDT,Natural Gas,1159.0
08/25/2019 06:30:00,EDT,Nuclear,5282.0
08/25/2019 06:30:00,EDT,Other Fossil Fuels,51.0
08/25/2019 06:30:00,EDT,Other Renewables,267.0
08/25/2019 06:30:00,EDT,Wind,139.0
08/25/2019 06:30:00,EDT,Hydro,2279.0
08/25/2019 06:35:00,EDT,Dual Fuel,2702.0
08/25/2019 06:35:00,EDT,Natural Gas,1173.0
08/25/2019 06:35:00,EDT,Nuclear,5283.0
08/25/2019 06:35:00,EDT,Other Fossil Fuels,50.0
08/25/2019 06:35:00,EDT,Other Renewables,265.0
08/25/2019 06:35:00,EDT,Wind,138.0
08/25/2019 06:35:00,EDT,Hydro,2278.0
08/25/2019 06:40:00,EDT,Dual Fuel,2703.0
08/25/2019 06:40:00,EDT,Natural Gas,1174.0
08/25/2019 06:40:00,EDT,Nuclear,5281.0
08/25/2019 06:40:00,EDT,Other Fossil Fuels,51.0
08/25/2019 06:40:00,EDT,Other Renewables,264.0
08/25/2019 06:40:00,EDT,Wind,144.0
08/25/2019 06:40:00,EDT,Hydro,2295.0
08/25/2019 06:45:00,EDT,Dual Fuel,2750.0
08/25/2019 06:45:00,EDT,Natural Gas,1171.0
08/25/2019 06:45:00,EDT,Nuclear,5282.0
08/25/2019 06:45:00,EDT,Other Fossil Fuels,51.0
08/25/2019 06:45:00,EDT,Other Renewables,275.0
08/25/2019 06:45:00,EDT,Wind,137.0
08/25/2019 06:45:00,EDT,Hydro,2228.0
08/25/2019 06:50:00,EDT,Dual Fuel,2724.0
08/25/2019 06:50:00,EDT,Natural Gas,1182.0
08/25/2019 06:50:00,EDT,Nuclear,5281.0
08/25/2019 06:50:00,EDT,Other Fossil Fuels,50.0
08/25/2019 06:50:00,EDT,Other Renewables,274.0
08/25/2019 06:50:00,EDT,Wind,133.0
08/25/2019 06:50:00,EDT,Hydro,2320.0
08/25/2019 06:55:00,EDT,Dual Fuel,2662.0
08/25/2019 06:55:00,EDT,Natural Gas,1249.0
08/25/2019 06:55:00,EDT,Nuclear,5278.0
08/25/2019 06:55:00,EDT,Other Fossil Fuels,50.0
08/25/2019 06:55:00,EDT,Other Renewables,270.0
08/25/2019 06:55:00,EDT,Wind,142.0
08/25/2019 06:55:00,EDT,Hydro,2351.0
08/25/2019 07:00:00,EDT,Dual Fuel,2570.0
08/25/2019 07:00:00,EDT,Natural Gas,1291.0
08/25/2019 07:00:00,EDT,Nuclear,5279.0
08/25/2019 07:00:00,EDT,Other Fossil Fuels,50.0
08/25/2019 07:00:00,EDT,Other Renewables,268.0
08/25/2019 07:00:00,EDT,Wind,136.0
08/25/2019 07:00:00,EDT,Hydro,2403.0
08/25/2019 07:04:23,EDT,Dual Fuel,2500.0
08/25/2019 07:04:23,EDT,Natural Gas,1321.0
08/25/2019 07:04:23,EDT,Nuclear,5279.0
08/25/2019 07:04:23,EDT,Other Fossil Fuels,51.0
08/25/2019 07:04:23,EDT,Other Renewables,263.0
08/25/2019 07:04:23,EDT,Wind,132.0
08/25/2019 07:04:23,EDT,Hydro,2529.0
08/25/2019 07:05:00,EDT,Dual Fuel,2522.0
08/25/2019 07:05:00,EDT,Natural Gas,1332.0
08/25/2019 07:05:00,EDT,Nuclear,5282.0
08/25/2019 07:05:00,EDT,Other Fossil Fuels,49.0
08/25/2019 07:05:00,EDT,Other Renewables,262.0
08/25/2019 07:05:00,EDT,Wind,129.0
08/25/2019 07:05:00,EDT,Hydro,2556.0
08/25/2019 07:06:29,EDT,Dual Fuel,2545.0
08/25/2019 07:06:29,EDT,Natural Gas,1360.0
08/25/2019 07:06:29,EDT,Nuclear,5279.0
08/25/2019 07:06:29,EDT,Other Fossil Fuels,50.0
08/25/2019 07:06:29,EDT,Other Renewables,260.0
08/25/2019 07:06:29,EDT,Wind,127.0
08/25/2019 07:06:29,EDT,Hydro,2547.0
08/25/2019 07:10:00,EDT,Dual Fuel,2539.0
08/25/2019 07:10:00,EDT,Natural Gas,1416.0
08/25/2019 07:10:00,EDT,Nuclear,5279.0
08/25/2019 07:10:00,EDT,Other Fossil Fuels,51.0
08/25/2019 07:10:00,EDT,Other Renewables,261.0
08/25/2019 07:10:00,EDT,Wind,124.0
08/25/2019 07:10:00,EDT,Hydro,2577.0
08/25/2019 07:15:00,EDT,Dual Fuel,2541.0
08/25/2019 07:15:00,EDT,Natural Gas,1456.0
08/25/2019 07:15:00,EDT,Nuclear,5279.0
08/25/2019 07:15:00,EDT,Other Fossil Fuels,50.0
08/25/2019 07:15:00,EDT,Other Renewables,263.0
08/25/2019 07:15:00,EDT,Wind,122.0
08/25/2019 07:15:00,EDT,Hydro,2555.0
08/25/2019 07:20:00,EDT,Dual Fuel,2573.0
08/25/2019 07:20:00,EDT,Natural Gas,1509.0
08/25/2019 07:20:00,EDT,Nuclear,5279.0
08/25/2019 07:20:00,EDT,Other Fossil Fuels,50.0
08/25/2019 07:20:00,EDT,Other Renewables,260.0
08/25/2019 07:20:00,EDT,Wind,118.0
08/25/2019 07:20:00,EDT,Hydro,2568.0
08/25/2019 07:25:00,EDT,Dual Fuel,2605.0
08/25/2019 07:25:00,EDT,Natural Gas,1519.0
08/25/2019 07:25:00,EDT,Nuclear,5279.0
08/25/2019 07:25:00,EDT,Other Fossil Fuels,51.0
08/25/2019 07:25:00,EDT,Other Renewables,264.0
08/25/2019 07:25:00,EDT,Wind,112.0
08/25/2019 07:25:00,EDT,Hydro,2569.0
08/25/2019 07:30:00,EDT,Dual Fuel,2618.0
08/25/2019 07:30:00,EDT,Natural Gas,1567.0
08/25/2019 07:30:00,EDT,Nuclear,5278.0
08/25/2019 07:30:00,EDT,Other Fossil Fuels,51.0
08/25/2019 07:30:00,EDT,Other Renewables,264.0
08/25/2019 07:30:00,EDT,Wind,105.0
08/25/2019 07:30:00,EDT,Hydro,2571.0
08/25/2019 07:35:00,EDT,Dual Fuel,2612.0
08/25/2019 07:35:00,EDT,Natural Gas,1665.0
08/25/2019 07:35:00,EDT,Nuclear,5278.0
08/25/2019 07:35:00,EDT,Other Fossil Fuels,50.0
08/25/2019 07:35:00,EDT,Other Renewables,266.0
08/25/2019 07:35:00,EDT,Wind,101.0
08/25/2019 07:35:00,EDT,Hydro,2538.0
08/25/2019 07:40:00,EDT,Dual Fuel,2616.0
08/25/2019 07:40:00,EDT,Natural Gas,1730.0
08/25/2019 07:40:00,EDT,Nuclear,5279.0
08/25/2019 07:40:00,EDT,Other Fossil Fuels,51.0
08/25/2019 07:40:00,EDT,Other Renewables,266.0
08/25/2019 07:40:00,EDT,Wind,98.0
08/25/2019 07:40:00,EDT,Hydro,2507.0
08/25/2019 07:45:00,EDT,Dual Fuel,2568.0
08/25/2019 07:45:00,EDT,Natural Gas,1790.0
08/25/2019 07:45:00,EDT,Nuclear,5280.0
08/25/2019 07:45:00,EDT,Other Fossil Fuels,50.0
08/25/2019 07:45:00,EDT,Other Renewables,264.0
08/25/2019 07:45:00,EDT,Wind,94.0
08/25/2019 07:45:00,EDT,Hydro,2488.0
08/25/2019 07:50:00,EDT,Dual Fuel,2506.0
08/25/2019 07:50:00,EDT,Natural Gas,1783.0
08/25/2019 07:50:00,EDT,Nuclear,5278.0
08/25/2019 07:50:00,EDT,Other Fossil Fuels,51.0
08/25/2019 07:50:00,EDT,Other Renewables,265.0
08/25/2019 07:50:00,EDT,Wind,91.0
08/25/2019 07:50:00,EDT,Hydro,2464.0
08/25/2019 07:55:00,EDT,Dual Fuel,2392.0
08/25/2019 07:55:00,EDT,Natural Gas,1817.0
08/25/2019 07:55:00,EDT,Nuclear,5280.0
08/25/2019 07:55:00,EDT,Other Fossil Fuels,51.0
08/25/2019 07:55:00,EDT,Other Renewables,265.0
08/25/2019 07:55:00,EDT,Wind,89.0
08/25/2019 07:55:00,EDT,Hydro,2474.0
08/25/2019 08:00:00,EDT,Dual Fuel,2364.0
08/25/2019 08:00:00,EDT,Natural Gas,1922.0
08/25/2019 08:00:00,EDT,Nuclear,5279.0
08/25/2019 08:00:00,EDT,Other Fossil Fuels,50.0
08/25/2019 08:00:00,EDT,Other Renewables,273.0
08/25/2019 08:00:00,EDT,Wind,86.0
08/25/2019 08:00:00,EDT,Hydro,2481.0
08/25/2019 08:05:00,EDT,Dual Fuel,2339.0
08/25/2019 08:05:00,EDT,Natural Gas,1991.0
08/25/2019 08:05:00,EDT,Nuclear,5278.0
08/25/2019 08:05:00,EDT,Other Fossil Fuels,51.0
08/25/2019 08:05:00,EDT,Other Renewables,268.0
08/25/2019 08:05:00,EDT,Wind,82.0
08/25/2019 08:05:00,EDT,Hydro,2449.0
08/25/2019 08:10:00,EDT,Dual Fuel,2348.0
08/25/2019 08:10:00,EDT,Natural Gas,2014.0
08/25/2019 08:10:00,EDT,Nuclear,5279.0
08/25/2019 08:10:00,EDT,Other Fossil Fuels,51.0
08/25/2019 08:10:00,EDT,Other Renewables,268.0
08/25/2019 08:10:00,EDT,Wind,76.0
08/25/2019 08:10:00,EDT,Hydro,2455.0
08/25/2019 08:15:00,EDT,Dual Fuel,2371.0
08/25/2019 08:15:00,EDT,Natural Gas,2042.0
08/25/2019 08:15:00,EDT,Nuclear,5280.0
08/25/2019 08:15:00,EDT,Other Fossil Fuels,51.0
08/25/2019 08:15:00,EDT,Other Renewables,270.0
08/25/2019 08:15:00,EDT,Wind,72.0
08/25/2019 08:15:00,EDT,Hydro,2541.0
08/25/2019 08:20:00,EDT,Dual Fuel,2385.0
08/25/2019 08:20:00,EDT,Natural Gas,2067.0
08/25/2019 08:20:00,EDT,Nuclear,5282.0
08/25/2019 08:20:00,EDT,Other Fossil Fuels,50.0
08/25/2019 08:20:00,EDT,Other Renewables,274.0
08/25/2019 08:20:00,EDT,Wind,67.0
08/25/2019 08:20:00,EDT,Hydro,2592.0
08/25/2019 08:25:00,EDT,Dual Fuel,2406.0
08/25/2019 08:25:00,EDT,Natural Gas,2089.0
08/25/2019 08:25:00,EDT,Nuclear,5281.0
08/25/2019 08:25:00,EDT,Other Fossil Fuels,51.0
08/25/2019 08:25:00,EDT,Other Renewables,269.0
08/25/2019 08:25:00,EDT,Wind,63.0
08/25/2019 08:25:00,EDT,Hydro,2595.0
08/25/2019 08:30:00,EDT,Dual Fuel,2428.0
08/25/2019 08:30:00,EDT,Natural Gas,2157.0
08/25/2019 08:30:00,EDT,Nuclear,5280.0
08/25/2019 08:30:00,EDT,Other Fossil Fuels,50.0
08/25/2019 08:30:00,EDT,Other Renewables,266.0
08/25/2019 08:30:00,EDT,Wind,57.0
08/25/2019 08:30:00,EDT,Hydro,2593.0
08/25/2019 08:35:00,EDT,Dual Fuel,2472.0
08/25/2019 08:35:00,EDT,Natural Gas,2168.0
08/25/2019 08:35:00,EDT,Nuclear,5281.0
08/25/2019 08:35:00,EDT,Other Fossil Fuels,50.0
08/25/2019 08:35:00,EDT,Other Renewables,270.0
08/25/2019 08:35:00,EDT,Wind,52.0
08/25/2019 08:35:00,EDT,Hydro,2586.0
08/25/2019 08:40:00,EDT,Dual Fuel,2511.0
08/25/2019 08:40:00,EDT,Natural Gas,2196.0
08/25/2019 08:40:00,EDT,Nuclear,5281.0
08/25/2019 08:40:00,EDT,Other Fossil Fuels,50.0
08/25/2019 08:40:00,EDT,Other Renewables,271.0
08/25/2019 08:40:00,EDT,Wind,48.0
08/25/2019 08:40:00,EDT,Hydro,2596.0
08/25/2019 08:45:00,EDT,Dual Fuel,2543.0
08/25/2019 08:45:00,EDT,Natural Gas,2218.0
08/25/2019 08:45:00,EDT,Nuclear,5283.0
08/25/2019 08:45:00,EDT,Other Fossil Fuels,50.0
08/25/2019 08:45:00,EDT,Other Renewables,272.0
08/25/2019 08:45:00,EDT,Wind,41.0
08/25/2019 08:45:00,EDT,Hydro,2583.0
08/25/2019 08:50:00,EDT,Dual Fuel,2565.0
08/25/2019 08:50:00,EDT,Natural Gas,2231.0
08/25/2019 08:50:00,EDT,Nuclear,5280.0
08/25/2019 08:50:00,EDT,Other Fossil Fuels,51.0
08/25/2019 08:50:00,EDT,Other Renewables,273.0
08/25/2019 08:50:00,EDT,Wind,38.0
08/25/2019 08:50:00,EDT,Hydro,2591.0
08/25/2019 08:55:00,EDT,Dual Fuel,2616.0
08/25/2019 08:55:00,EDT,Natural Gas,2243.0
08/25/2019 08:55:00,EDT,Nuclear,5280.0
08/25/2019 08:55:00,EDT,Other Fossil Fuels,51.0
08/25/2019 08:55:00,EDT,Other Renewables,276.0
08/25/2019 08:55:00,EDT,Wind,35.0
08/25/2019 08:55:00,EDT,Hydro,2622.0
08/25/2019 09:00:00,EDT,Dual Fuel,2592.0
08/25/2019 09:00:00,EDT,Natural Gas,2230.0
08/25/2019 09:00:00,EDT,Nuclear,5280.0
08/25/2019 09:00:00,EDT,Other Fossil Fuels,51.0
08/25/2019 09:00:00,EDT,Other Renewables,274.0
08/25/2019 09:00:00,EDT,Wind,30.0
08/25/2019 09:00:00,EDT,Hydro,2646.0
08/25/2019 09:05:00,EDT,Dual Fuel,2550.0
08/25/2019 09:05:00,EDT,Natural Gas,2222.0
08/25/2019 09:05:00,EDT,Nuclear,5279.0
08/25/2019 09:05:00,EDT,Other Fossil Fuels,51.0
08/25/2019 09:05:00,EDT,Other Renewables,271.0
08/25/2019 09:05:00,EDT,Wind,26.0
08/25/2019 09:05:00,EDT,Hydro,2803.0
08/25/2019 09:10:00,EDT,Dual Fuel,2541.0
08/25/2019 09:10:00,EDT,Natural Gas,2347.0
08/25/2019 09:10:00,EDT,Nuclear,5279.0
08/25/2019 09:10:00,EDT,Other Fossil Fuels,50.0
08/25/2019 09:10:00,EDT,Other Renewables,268.0
08/25/2019 09:10:00,EDT,Wind,21.0
08/25/2019 09:10:00,EDT,Hydro,2873.0
08/25/2019 09:15:00,EDT,Dual Fuel,2531.0
08/25/2019 09:15:00,EDT,Natural Gas,2364.0
08/25/2019 09:15:00,EDT,Nuclear,5278.0
08/25/2019 09:15:00,EDT,Other Fossil Fuels,50.0
08/25/2019 09:15:00,EDT,Other Renewables,270.0
08/25/2019 09:15:00,EDT,Wind,17.0
08/25/2019 09:15:00,EDT,Hydro,2933.0
08/25/2019 09:20:00,EDT,Dual Fuel,2543.0
08/25/2019 09:20:00,EDT,Natural Gas,2388.0
08/25/2019 09:20:00,EDT,Nuclear,5279.0
08/25/2019 09:20:00,EDT,Other Fossil Fuels,51.0
08/25/2019 09:20:00,EDT,Other Renewables,268.0
08/25/2019 09:20:00,EDT,Wind,17.0
08/25/2019 09:20:00,EDT,Hydro,2927.0
08/25/2019 09:25:00,EDT,Dual Fuel,2598.0
08/25/2019 09:25:00,EDT,Natural Gas,2417.0
08/25/2019 09:25:00,EDT,Nuclear,5276.0
08/25/2019 09:25:00,EDT,Other Fossil Fuels,50.0
08/25/2019 09:25:00,EDT,Other Renewables,272.0
08/25/2019 09:25:00,EDT,Wind,16.0
08/25/2019 09:25:00,EDT,Hydro,2933.0
08/25/2019 09:30:00,EDT,Dual Fuel,2631.0
08/25/2019 09:30:00,EDT,Natural Gas,2430.0
08/25/2019 09:30:00,EDT,Nuclear,5277.0
08/25/2019 09:30:00,EDT,Other Fossil Fuels,50.0
08/25/2019 09:30:00,EDT,Other Renewables,272.0
08/25/2019 09:30:00,EDT,Wind,17.0
08/25/2019 09:30:00,EDT,Hydro,2925.0
08/25/2019 09:35:00,EDT,Dual Fuel,2649.0
08/25/2019 09:35:00,EDT,Natural Gas,2417.0
08/25/2019 09:35:00,EDT,Nuclear,5278.0
08/25/2019 09:35:00,EDT,Other Fossil Fuels,50.0
08/25/2019 09:35:00,EDT,Other Renewables,273.0
08/25/2019 09:35:00,EDT,Wind,17.0
08/25/2019 09:35:00,EDT,Hydro,2893.0
08/25/2019 09:40:00,EDT,Dual Fuel,2664.0
08/25/2019 09:40:00,EDT,Natural Gas,2413.0
08/25/2019 09:40:00,EDT,Nuclear,5280.0
08/25/2019 09:40:00,EDT,Other Fossil Fuels,50.0
08/25/2019 09:40:00,EDT,Other Renewables,275.0
08/25/2019 09:40:00,EDT,Wind,17.0
08/25/2019 09:40:00,EDT,Hydro,2905.0
08/25/2019 09:45:00,EDT,Dual Fuel,2691.0
08/25/2019 09:45:00,EDT,Natural Gas,2434.0
08/25/2019 09:45:00,EDT,Nuclear,5279.0
08/25/2019 09:45:00,EDT,Other Fossil Fuels,51.0
08/25/2019 09:45:00,EDT,Other Renewables,277.0
08/25/2019 09:45:00,EDT,Wind,17.0
08/25/2019 09:45:00,EDT,Hydro,2909.0
08/25/2019 09:50:00,EDT,Dual Fuel,2718.0
08/25/2019 09:50:00,EDT,Natural Gas,2453.0
08/25/2019 09:50:00,EDT,Nuclear,5280.0
08/25/2019 09:50:00,EDT,Other Fossil Fuels,50.0
08/25/2019 09:50:00,EDT,Other Renewables,281.0
08/25/2019 09:50:00,EDT,Wind,16.0
08/25/2019 09:50:00,EDT,Hydro,2914.0
08/25/2019 09:55:00,EDT,Dual Fuel,2753.0
08/25/2019 09:55:00,EDT,Natural Gas,2459.0
08/25/2019 09:55:00,EDT,Nuclear,5278.0
08/25/2019 09:55:00,EDT,Other Fossil Fuels,50.0
08/25/2019 09:55:00,EDT,Other Renewables,277.0
08/25/2019 09:55:00,EDT,Wind,17.0
08/25/2019 09:55:00,EDT,Hydro,2938.0
08/25/2019 10:00:00,EDT,Dual Fuel,2782.0
08/25/2019 10:00:00,EDT,Natural Gas,2401.0
08/25/2019 10:00:00,EDT,Nuclear,5277.0
08/25/2019 10:00:00,EDT,Other Fossil Fuels,50.0
08/25/2019 10:00:00,EDT,Other Renewables,282.0
08/25/2019 10:00:00,EDT,Wind,16.0
08/25/2019 10:00:00,EDT,Hydro,2938.0
08/25/2019 10:05:00,EDT,Dual Fuel,2799.0
08/25/2019 10:05:00,EDT,Natural Gas,2307.0
08/25/2019 10:05:00,EDT,Nuclear,5277.0
08/25/2019 10:05:00,EDT,Other Fossil Fuels,51.0
08/25/2019 10:05:00,EDT,Other Renewables,288.0
08/25/2019 10:05:00,EDT,Wind,16.0
08/25/2019 10:05:00,EDT,Hydro,2952.0
08/25/2019 10:10:00,EDT,Dual Fuel,2798.0
08/25/2019 10:10:00,EDT,Natural Gas,2326.0
08/25/2019 10:10:00,EDT,Nuclear,5276.0
08/25/2019 10:10:00,EDT,Other Fossil Fuels,50.0
08/25/2019 10:10:00,EDT,Other Renewables,279.0
08/25/2019 10:10:00,EDT,Wind,19.0
08/25/2019 10:10:00,EDT,Hydro,2958.0
08/25/2019 10:15:00,EDT,Dual Fuel,2810.0
08/25/2019 10:15:00,EDT,Natural Gas,2363.0
08/25/2019 10:15:00,EDT,Nuclear,5276.0
08/25/2019 10:15:00,EDT,Other Fossil Fuels,50.0
08/25/2019 10:15:00,EDT,Other Renewables,283.0
08/25/2019 10:15:00,EDT,Wind,17.0
08/25/2019 10:15:00,EDT,Hydro,2944.0
08/25/2019 10:20:00,EDT,Dual Fuel,2813.0
08/25/2019 10:20:00,EDT,Natural Gas,2361.0
08/25/2019 10:20:00,EDT,Nuclear,5277.0
08/25/2019 10:20:00,EDT,Other Fossil Fuels,50.0
08/25/2019 10:20:00,EDT,Other Renewables,285.0
08/25/2019 10:20:00,EDT,Wind,17.0
08/25/2019 10:20:00,EDT,Hydro,2923.0
08/25/2019 10:25:00,EDT,Dual Fuel,2822.0
08/25/2019 10:25:00,EDT,Natural Gas,2356.0
08/25/2019 10:25:00,EDT,Nuclear,5275.0
08/25/2019 10:25:00,EDT,Other Fossil Fuels,50.0
08/25/2019 10:25:00,EDT,Other Renewables,287.0
08/25/2019 10:25:00,EDT,Wind,15.0
08/25/2019 10:25:00,EDT,Hydro,2892.0
08/25/2019 10:30:00,EDT,Dual Fuel,2811.0
08/25/2019 10:30:00,EDT,Natural Gas,2386.0
08/25/2019 10:30:00,EDT,Nuclear,5277.0
08/25/2019 10:30:00,EDT,Other Fossil Fuels,51.0
08/25/2019 10:30:00,EDT,Other Renewables,293.0
08/25/2019 10:30:00,EDT,Wind,13.0
08/25/2019 10:30:00,EDT,Hydro,2862.0
08/25/2019 10:35:00,EDT,Dual Fuel,2834.0
08/25/2019 10:35:00,EDT,Natural Gas,2400.0
08/25/2019 10:35:00,EDT,Nuclear,5277.0
08/25/2019 10:35:00,EDT,Other Fossil Fuels,50.0
08/25/2019 10:35:00,EDT,Other Renewables,289.0
08/25/2019 10:35:00,EDT,Wind,16.0
08/25/2019 10:35:00,EDT,Hydro,2907.0
08/25/2019 10:40:00,EDT,Dual Fuel,2844.0
08/25/2019 10:40:00,EDT,Natural Gas,2416.0
08/25/2019 10:40:00,EDT,Nuclear,5276.0
08/25/2019 10:40:00,EDT,Other Fossil Fuels,50.0
08/25/2019 10:40:00,EDT,Other Renewables,288.0
08/25/2019 10:40:00,EDT,Wind,18.0
08/25/2019 10:40:00,EDT,Hydro,2955.0
08/25/2019 10:45:00,EDT,Dual Fuel,2864.0
08/25/2019 10:45:00,EDT,Natural Gas,2428.0
08/25/2019 10:45:00,EDT,Nuclear,5275.0
08/25/2019 10:45:00,EDT,Other Fossil Fuels,50.0
08/25/2019 10:45:00,EDT,Other Renewables,294.0
08/25/2019 10:45:00,EDT,Wind,20.0
08/25/2019 10:45:00,EDT,Hydro,2963.0
08/25/2019 10:50:00,EDT,Dual Fuel,2908.0
08/25/2019 10:50:00,EDT,Natural Gas,2419.0
08/25/2019 10:50:00,EDT,Nuclear,5275.0
08/25/2019 10:50:00,EDT,Other Fossil Fuels,51.0
08/25/2019 10:50:00,EDT,Other Renewables,294.0
08/25/2019 10:50:00,EDT,Wind,21.0
08/25/2019 10:50:00,EDT,Hydro,2908.0
08/25/2019 10:55:00,EDT,Dual Fuel,2886.0
08/25/2019 10:55:00,EDT,Natural Gas,2420.0
08/25/2019 10:55:00,EDT,Nuclear,5275.0
08/25/2019 10:55:00,EDT,Other Fossil Fuels,50.0
08/25/2019 10:55:00,EDT,Other Renewables,291.0
08/25/2019 10:55:00,EDT,Wind,24.0
08/25/2019 10:55:00,EDT,Hydro,2874.0
08/25/2019 11:00:00,EDT,Dual Fuel,2868.0
08/25/2019 11:00:00,EDT,Natural Gas,2424.0
08/25/2019 11:00:00,EDT,Nuclear,5276.0
08/25/2019 11:00:00,EDT,Other Fossil Fuels,51.0
08/25/2019 11:00:00,EDT,Other Renewables,290.0
08/25/2019 11:00:00,EDT,Wind,31.0
08/25/2019 11:00:00,EDT,Hydro,2924.0
08/25/2019 11:05:00,EDT,Dual Fuel,2897.0
08/25/2019 11:05:00,EDT,Natural Gas,2436.0
08/25/2019 11:05:00,EDT,Nuclear,5276.0
08/25/2019 11:05:00,EDT,Other Fossil Fuels,51.0
08/25/2019 11:05:00,EDT,Other Renewables,289.0
08/25/2019 11:05:00,EDT,Wind,31.0
08/25/2019 11:05:00,EDT,Hydro,2971.0
08/25/2019 11:10:00,EDT,Dual Fuel,2922.0
08/25/2019 11:10:00,EDT,Natural Gas,2459.0
08/25/2019 11:10:00,EDT,Nuclear,5276.0
08/25/2019 11:10:00,EDT,Other Fossil Fuels,51.0
08/25/2019 11:10:00,EDT,Other Renewables,292.0
08/25/2019 11:10:00,EDT,Wind,34.0
08/25/2019 11:10:00,EDT,Hydro,3004.0
08/25/2019 11:15:00,EDT,Dual Fuel,2934.0
08/25/2019 11:15:00,EDT,Natural Gas,2511.0
08/25/2019 11:15:00,EDT,Nuclear,5276.0
08/25/2019 11:15:00,EDT,Other Fossil Fuels,50.0
08/25/2019 11:15:00,EDT,Other Renewables,289.0
08/25/2019 11:15:00,EDT,Wind,35.0
08/25/2019 11:15:00,EDT,Hydro,3003.0
08/25/2019 11:20:00,EDT,Dual Fuel,2932.0
08/25/2019 11:20:00,EDT,Natural Gas,2579.0
08/25/2019 11:20:00,EDT,Nuclear,5275.0
08/25/2019 11:20:00,EDT,Other Fossil Fuels,51.0
08/25/2019 11:20:00,EDT,Other Renewables,286.0
08/25/2019 11:20:00,EDT,Wind,35.0
08/25/2019 11:20:00,EDT,Hydro,2994.0
08/25/2019 11:25:00,EDT,Dual Fuel,2935.0
08/25/2019 11:25:00,EDT,Natural Gas,2642.0
08/25/2019 11:25:00,EDT,Nuclear,5276.0
08/25/2019 11:25:00,EDT,Other Fossil Fuels,51.0
08/25/2019 11:25:00,EDT,Other Renewables,288.0
08/25/2019 11:25:00,EDT,Wind,37.0
08/25/2019 11:25:00,EDT,Hydro,2992.0
08/25/2019 11:30:00,EDT,Dual Fuel,2931.0
08/25/2019 11:30:00,EDT,Natural Gas,2669.0
08/25/2019 11:30:00,EDT,Nuclear,5275.0
08/25/2019 11:30:00,EDT,Other Fossil Fuels,50.0
08/25/2019 11:30:00,EDT,Other Renewables,293.0
08/25/2019 11:30:00,EDT,Wind,39.0
08/25/2019 11:30:00,EDT,Hydro,2988.0
08/25/2019 11:35:00,EDT,Dual Fuel,2921.0
08/25/2019 11:35:00,EDT,Natural Gas,2656.0
08/25/2019 11:35:00,EDT,Nuclear,5276.0
08/25/2019 11:35:00,EDT,Other Fossil Fuels,51.0
08/25/2019 11:35:00,EDT,Other Renewables,294.0
08/25/2019 11:35:00,EDT,Wind,39.0
08/25/2019 11:35:00,EDT,Hydro,2957.0
08/25/2019 11:40:00,EDT,Dual Fuel,2937.0
08/25/2019 11:40:00,EDT,Natural Gas,2660.0
08/25/2019 11:40:00,EDT,Nuclear,5276.0
08/25/2019 11:40:00,EDT,Other Fossil Fuels,51.0
08/25/2019 11:40:00,EDT,Other Renewables,290.0
08/25/2019 11:40:00,EDT,Wind,40.0
08/25/2019 11:40:00,EDT,Hydro,2987.0
08/25/2019 11:45:00,EDT,Dual Fuel,2943.0
08/25/2019 11:45:00,EDT,Natural Gas,2692.0
08/25/2019 11:45:00,EDT,Nuclear,5276.0
08/25/2019 11:45:00,EDT,Other Fossil Fuels,50.0
08/25/2019 11:45:00,EDT,Other Renewables,290.0
08/25/2019 11:45:00,EDT,Wind,46.0
08/25/2019 11:45:00,EDT,Hydro,3008.0
08/25/2019 11:50:00,EDT,Dual Fuel,2942.0
08/25/2019 11:50:00,EDT,Natural Gas,2729.0
08/25/2019 11:50:00,EDT,Nuclear,5275.0
08/25/2019 11:50:00,EDT,Other Fossil Fuels,51.0
08/25/2019 11:50:00,EDT,Other Renewables,296.0
08/25/2019 11:50:00,EDT,Wind,48.0
08/25/2019 11:50:00,EDT,Hydro,3002.0
08/25/2019 11:55:00,EDT,Dual Fuel,2950.0
08/25/2019 11:55:00,EDT,Natural Gas,2738.0
08/25/2019 11:55:00,EDT,Nuclear,5274.0
08/25/2019 11:55:00,EDT,Other Fossil Fuels,50.0
08/25/2019 11:55:00,EDT,Other Renewables,290.0
08/25/2019 11:55:00,EDT,Wind,51.0
08/25/2019 11:55:00,EDT,Hydro,3014.0
08/25/2019 12:00:00,EDT,Dual Fuel,2974.0
08/25/2019 12:00:00,EDT,Natural Gas,2721.0
08/25/2019 12:00:00,EDT,Nuclear,5275.0
08/25/2019 12:00:00,EDT,Other Fossil Fuels,51.0
08/25/2019 12:00:00,EDT,Other Renewables,292.0
08/25/2019 12:00:00,EDT,Wind,51.0
08/25/2019 12:00:00,EDT,Hydro,3029.0
08/25/2019 12:05:00,EDT,Dual Fuel,3024.0
08/25/2019 12:05:00,EDT,Natural Gas,2711.0
08/25/2019 12:05:00,EDT,Nuclear,5274.0
08/25/2019 12:05:00,EDT,Other Fossil Fuels,51.0
08/25/2019 12:05:00,EDT,Other Renewables,293.0
08/25/2019 12:05:00,EDT,Wind,49.0
08/25/2019 12:05:00,EDT,Hydro,3094.0
08/25/2019 12:10:00,EDT,Dual Fuel,3025.0
08/25/2019 12:10:00,EDT,Natural Gas,2783.0
08/25/2019 12:10:00,EDT,Nuclear,5273.0
08/25/2019 12:10:00,EDT,Other Fossil Fuels,50.0
08/25/2019 12:10:00,EDT,Other Renewables,288.0
08/25/2019 12:10:00,EDT,Wind,49.0
08/25/2019 12:10:00,EDT,Hydro,3112.0
08/25/2019 12:15:00,EDT,Dual Fuel,3032.0
08/25/2019 12:15:00,EDT,Natural Gas,2806.0
08/25/2019 12:15:00,EDT,Nuclear,5274.0
08/25/2019 12:15:00,EDT,Other Fossil Fuels,50.0
08/25/2019 12:15:00,EDT,Other Renewables,294.0
08/25/2019 12:15:00,EDT,Wind,50.0
08/25/2019 12:15:00,EDT,Hydro,3097.0
08/25/2019 12:20:00,EDT,Dual Fuel,3030.0
08/25/2019 12:20:00,EDT,Natural Gas,2761.0
08/25/2019 12:20:00,EDT,Nuclear,5275.0
08/25/2019 12:20:00,EDT,Other Fossil Fuels,51.0
08/25/2019 12:20:00,EDT,Other Renewables,305.0
08/25/2019 12:20:00,EDT,Wind,53.0
08/25/2019 12:20:00,EDT,Hydro,3043.0
08/25/2019 12:25:00,EDT,Dual Fuel,3042.0
08/25/2019 12:25:00,EDT,Natural Gas,2728.0
08/25/2019 12:25:00,EDT,Nuclear,5273.0
08/25/2019 12:25:00,EDT,Other Fossil Fuels,50.0
08/25/2019 12:25:00,EDT,Other Renewables,303.0
08/25/2019 12:25:00,EDT,Wind,52.0
08/25/2019 12:25:00,EDT,Hydro,3080.0
08/25/2019 12:30:00,EDT,Dual Fuel,3055.0
08/25/2019 12:30:00,EDT,Natural Gas,2680.0
08/25/2019 12:30:00,EDT,Nuclear,5275.0
08/25/2019 12:30:00,EDT,Other Fossil Fuels,50.0
08/25/2019 12:30:00,EDT,Other Renewables,303.0
08/25/2019 12:30:00,EDT,Wind,47.0
08/25/2019 12:30:00,EDT,Hydro,3109.0
08/25/2019 12:35:00,EDT,Dual Fuel,3065.0
08/25/2019 12:35:00,EDT,Natural Gas,2644.0
08/25/2019 12:35:00,EDT,Nuclear,5273.0
08/25/2019 12:35:00,EDT,Other Fossil Fuels,50.0
08/25/2019 12:35:00,EDT,Other Renewables,301.0
08/25/2019 12:35:00,EDT,Wind,55.0
08/25/2019 12:35:00,EDT,Hydro,3118.0
08/25/2019 12:40:00,EDT,Dual Fuel,3066.0
08/25/2019 12:40:00,EDT,Natural Gas,2637.0
08/25/2019 12:40:00,EDT,Nuclear,5273.0
08/25/2019 12:40:00,EDT,Other Fossil Fuels,50.0
08/25/2019 12:40:00,EDT,Other Renewables,297.0
08/25/2019 12:40:00,EDT,Wind,60.0
08/25/2019 12:40:00,EDT,Hydro,3131.0
08/25/2019 12:45:00,EDT,Dual Fuel,3081.0
08/25/2019 12:45:00,EDT,Natural Gas,2651.0
08/25/2019 12:45:00,EDT,Nuclear,5273.0
08/25/2019 12:45:00,EDT,Other Fossil Fuels,51.0
08/25/2019 12:45:00,EDT,Other Renewables,300.0
08/25/2019 12:45:00,EDT,Wind,58.0
08/25/2019 12:45:00,EDT,Hydro,3162.0
08/25/2019 12:50:00,EDT,Dual Fuel,3075.0
08/25/2019 12:50:00,EDT,Natural Gas,2690.0
08/25/2019 12:50:00,EDT,Nuclear,5273.0
08/25/2019 12:50:00,EDT,Other Fossil Fuels,51.0
08/25/2019 12:50:00,EDT,Other Renewables,306.0
08/25/2019 12:50:00,EDT,Wind,57.0
08/25/2019 12:50:00,EDT,Hydro,3090.0
08/25/2019 12:55:00,EDT,Dual Fuel,3085.0
08/25/2019 12:55:00,EDT,Natural Gas,2764.0
08/25/2019 12:55:00,EDT,Nuclear,5273.0
08/25/2019 12:55:00,EDT,Other Fossil Fuels,50.0
08/25/2019 12:55:00,EDT,Other Renewables,308.0
08/25/2019 12:55:00,EDT,Wind,55.0
08/25/2019 12:55:00,EDT,Hydro,3073.0
08/25/2019 13:00:00,EDT,Dual Fuel,3111.0
08/25/2019 13:00:00,EDT,Natural Gas,2756.0
08/25/2019 13:00:00,EDT,Nuclear,5273.0
08/25/2019 13:00:00,EDT,Other Fossil Fuels,50.0
08/25/2019 13:00:00,EDT,Other Renewables,311.0
08/25/2019 13:00:00,EDT,Wind,61.0
08/25/2019 13:00:00,EDT,Hydro,3054.0
08/25/2019 13:05:00,EDT,Dual Fuel,3144.0
08/25/2019 13:05:00,EDT,Natural Gas,2706.0
08/25/2019 13:05:00,EDT,Nuclear,5274.0
08/25/2019 13:05:00,EDT,Other Fossil Fuels,50.0
08/25/2019 13:05:00,EDT,Other Renewables,310.0
08/25/2019 13:05:00,EDT,Wind,68.0
08/25/2019 13:05:00,EDT,Hydro,3017.0
08/25/2019 13:10:00,EDT,Dual Fuel,3141.0
08/25/2019 13:10:00,EDT,Natural Gas,2671.0
08/25/2019 13:10:00,EDT,Nuclear,5273.0
08/25/2019 13:10:00,EDT,Other Fossil Fuels,50.0
08/25/2019 13:10:00,EDT,Other Renewables,306.0
08/25/2019 13:10:00,EDT,Wind,73.0
08/25/2019 13:10:00,EDT,Hydro,2965.0
08/25/2019 13:15:00,EDT,Dual Fuel,3152.0
08/25/2019 13:15:00,EDT,Natural Gas,2673.0
08/25/2019 13:15:00,EDT,Nuclear,5273.0
08/25/2019 13:15:00,EDT,Other Fossil Fuels,51.0
08/25/2019 13:15:00,EDT,Other Renewables,305.0
08/25/2019 13:15:00,EDT,Wind,70.0
08/25/2019 13:15:00,EDT,Hydro,2936.0
08/25/2019 13:20:00,EDT,Dual Fuel,3163.0
08/25/2019 13:20:00,EDT,Natural Gas,2673.0
08/25/2019 13:20:00,EDT,Nuclear,5274.0
08/25/2019 13:20:00,EDT,Other Fossil Fuels,50.0
08/25/2019 13:20:00,EDT,Other Renewables,305.0
08/25/2019 13:20:00,EDT,Wind,70.0
08/25/2019 13:20:00,EDT,Hydro,2993.0
08/25/2019 13:25:00,EDT,Dual Fuel,3164.0
08/25/2019 13:25:00,EDT,Natural Gas,2644.0
08/25/2019 13:25:00,EDT,Nuclear,5273.0
08/25/2019 13:25:00,EDT,Other Fossil Fuels,51.0
08/25/2019 13:25:00,EDT,Other Renewables,308.0
08/25/2019 13:25:00,EDT,Wind,73.0
08/25/2019 13:25:00,EDT,Hydro,2988.0
08/25/2019 13:30:00,EDT,Dual Fuel,3167.0
08/25/2019 13:30:00,EDT,Natural Gas,2655.0
08/25/2019 13:30:00,EDT,Nuclear,5272.0
08/25/2019 13:30:00,EDT,Other Fossil Fuels,50.0
08/25/2019 13:30:00,EDT,Other Renewables,307.0
08/25/2019 13:30:00,EDT,Wind,74.0
08/25/2019 13:30:00,EDT,Hydro,3025.0
08/25/2019 13:35:00,EDT,Dual Fuel,3165.0
08/25/2019 13:35:00,EDT,Natural Gas,2653.0
08/25/2019 13:35:00,EDT,Nuclear,5272.0
08/25/2019 13:35:00,EDT,Other Fossil Fuels,50.0
08/25/2019 13:35:00,EDT,Other Renewables,309.0
08/25/2019 13:35:00,EDT,Wind,76.0
08/25/2019 13:35:00,EDT,Hydro,3036.0
08/25/2019 13:40:00,EDT,Dual Fuel,3161.0
08/25/2019 13:40:00,EDT,Natural Gas,2656.0
08/25/2019 13:40:00,EDT,Nuclear,5272.0
08/25/2019 13:40:00,EDT,Other Fossil Fuels,50.0
08/25/2019 13:40:00,EDT,Other Renewables,309.0
08/25/2019 13:40:00,EDT,Wind,74.0
08/25/2019 13:40:00,EDT,Hydro,3021.0
08/25/2019 13:45:00,EDT,Dual Fuel,3164.0
08/25/2019 13:45:00,EDT,Natural Gas,2652.0
08/25/2019 13:45:00,EDT,Nuclear,5273.0
08/25/2019 13:45:00,EDT,Other Fossil Fuels,51.0
08/25/2019 13:45:00,EDT,Other Renewables,309.0
08/25/2019 13:45:00,EDT,Wind,68.0
08/25/2019 13:45:00,EDT,Hydro,3021.0
08/25/2019 13:50:00,EDT,Dual Fuel,3172.0
08/25/2019 13:50:00,EDT,Natural Gas,2645.0
08/25/2019 13:50:00,EDT,Nuclear,5273.0
08/25/2019 13:50:00,EDT,Other Fossil Fuels,50.0
08/25/2019 13:50:00,EDT,Other Renewables,307.0
08/25/2019 13:50:00,EDT,Wind,76.0
08/25/2019 13:50:00,EDT,Hydro,3033.0
08/25/2019 13:55:00,EDT,Dual Fuel,3173.0
08/25/2019 13:55:00,EDT,Natural Gas,2641.0
08/25/2019 13:55:00,EDT,Nuclear,5273.0
08/25/2019 13:55:00,EDT,Other Fossil Fuels,51.0
08/25/2019 13:55:00,EDT,Other Renewables,307.0
08/25/2019 13:55:00,EDT,Wind,75.0
08/25/2019 13:55:00,EDT,Hydro,3001.0
08/25/2019 14:00:00,EDT,Dual Fuel,3180.0
08/25/2019 14:00:00,EDT,Natural Gas,2639.0
08/25/2019 14:00:00,EDT,Nuclear,5272.0
08/25/2019 14:00:00,EDT,Other Fossil Fuels,50.0
08/25/2019 14:00:00,EDT,Other Renewables,291.0
08/25/2019 14:00:00,EDT,Wind,80.0
08/25/2019 14:00:00,EDT,Hydro,3058.0
08/25/2019 14:05:00,EDT,Dual Fuel,3173.0
08/25/2019 14:05:00,EDT,Natural Gas,2611.0
08/25/2019 14:05:00,EDT,Nuclear,5272.0
08/25/2019 14:05:00,EDT,Other Fossil Fuels,51.0
08/25/2019 14:05:00,EDT,Other Renewables,300.0
08/25/2019 14:05:00,EDT,Wind,81.0
08/25/2019 14:05:00,EDT,Hydro,3069.0
08/25/2019 14:10:00,EDT,Dual Fuel,3156.0
08/25/2019 14:10:00,EDT,Natural Gas,2619.0
08/25/2019 14:10:00,EDT,Nuclear,5271.0
08/25/2019 14:10:00,EDT,Other Fossil Fuels,50.0
08/25/2019 14:10:00,EDT,Other Renewables,298.0
08/25/2019 14:10:00,EDT,Wind,81.0
08/25/2019 14:10:00,EDT,Hydro,3056.0
08/25/2019 14:15:00,EDT,Dual Fuel,3151.0
08/25/2019 14:15:00,EDT,Natural Gas,2626.0
08/25/2019 14:15:00,EDT,Nuclear,5271.0
08/25/2019 14:15:00,EDT,Other Fossil Fuels,51.0
08/25/2019 14:15:00,EDT,Other Renewables,297.0
08/25/2019 14:15:00,EDT,Wind,83.0
08/25/2019 14:15:00,EDT,Hydro,3033.0
08/25/2019 14:20:00,EDT,Dual Fuel,3161.0
08/25/2019 14:20:00,EDT,Natural Gas,2615.0
08/25/2019 14:20:00,EDT,Nuclear,5272.0
08/25/2019 14:20:00,EDT,Other Fossil Fuels,51.0
08/25/2019 14:20:00,EDT,Other Renewables,300.0
08/25/2019 14:20:00,EDT,Wind,85.0
08/25/2019 14:20:00,EDT,Hydro,3053.0
08/25/2019 14:25:00,EDT,Dual Fuel,3174.0
08/25/2019 14:25:00,EDT,Natural Gas,2638.0
08/25/2019 14:25:00,EDT,Nuclear,5270.0
08/25/2019 14:25:00,EDT,Other Fossil Fuels,50.0
08/25/2019 14:25:00,EDT,Other Renewables,300.0
08/25/2019 14:25:00,EDT,Wind,86.0
08/25/2019 14:25:00,EDT,Hydro,3079.0
08/25/2019 14:30:00,EDT,Dual Fuel,3183.0
08/25/2019 14:30:00,EDT,Natural Gas,2645.0
08/25/2019 14:30:00,EDT,Nuclear,5271.0
08/25/2019 14:30:00,EDT,Other Fossil Fuels,50.0
08/25/2019 14:30:00,EDT,Other Renewables,302.0
08/25/2019 14:30:00,EDT,Wind,84.0
08/25/2019 14:30:00,EDT,Hydro,3044.0
08/25/2019 14:35:00,EDT,Dual Fuel,3169.0
08/25/2019 14:35:00,EDT,Natural Gas,2657.0
08/25/2019 14:35:00,EDT,Nuclear,5271.0
08/25/2019 14:35:00,EDT,Other Fossil Fuels,51.0
08/25/2019 14:35:00,EDT,Other Renewables,299.0
08/25/2019 14:35:00,EDT,Wind,94.0
08/25/2019 14:35:00,EDT,Hydro,3040.0
08/25/2019 14:40:00,EDT,Dual Fuel,3164.0
08/25/2019 14:40:00,EDT,Natural Gas,2652.0
08/25/2019 14:40:00,EDT,Nuclear,5272.0
08/25/2019 14:40:00,EDT,Other Fossil Fuels,50.0
08/25/2019 14:40:00,EDT,Other Renewables,299.0
08/25/2019 14:40:00,EDT,Wind,92.0
08/25/2019 14:40:00,EDT,Hydro,3069.0
08/25/2019 14:45:00,EDT,Dual Fuel,3216.0
08/25/2019 14:45:00,EDT,Natural Gas,2656.0
08/25/2019 14:45:00,EDT,Nuclear,5271.0
08/25/2019 14:45:00,EDT,Other Fossil Fuels,51.0
08/25/2019 14:45:00,EDT,Other Renewables,297.0
08/25/2019 14:45:00,EDT,Wind,96.0
08/25/2019 14:45:00,EDT,Hydro,3088.0
08/25/2019 14:50:00,EDT,Dual Fuel,3196.0
08/25/2019 14:50:00,EDT,Natural Gas,2710.0
08/25/2019 14:50:00,EDT,Nuclear,5272.0
08/25/2019 14:50:00,EDT,Other Fossil Fuels,50.0
08/25/2019 14:50:00,EDT,Other Renewables,294.0
08/25/2019 14:50:00,EDT,Wind,94.0
08/25/2019 14:50:00,EDT,Hydro,3079.0
08/25/2019 14:55:00,EDT,Dual Fuel,3210.0
08/25/2019 14:55:00,EDT,Natural Gas,2750.0
08/25/2019 14:55:00,EDT,Nuclear,5272.0
08/25/2019 14:55:00,EDT,Other Fossil Fuels,50.0
08/25/2019 14:55:00,EDT,Other Renewables,293.0
08/25/2019 14:55:00,EDT,Wind,92.0
08/25/2019 14:55:00,EDT,Hydro,3106.0
08/25/2019 15:00:00,EDT,Dual Fuel,3264.0
08/25/2019 15:00:00,EDT,Natural Gas,2666.0
08/25/2019 15:00:00,EDT,Nuclear,5271.0
08/25/2019 15:00:00,EDT,Other Fossil Fuels,51.0
08/25/2019 15:00:00,EDT,Other Renewables,295.0
08/25/2019 15:00:00,EDT,Wind,89.0
08/25/2019 15:00:00,EDT,Hydro,3108.0
08/25/2019 15:05:00,EDT,Dual Fuel,3324.0
08/25/2019 15:05:00,EDT,Natural Gas,2670.0
08/25/2019 15:05:00,EDT,Nuclear,5271.0
08/25/2019 15:05:00,EDT,Other Fossil Fuels,51.0
08/25/2019 15:05:00,EDT,Other Renewables,291.0
08/25/2019 15:05:00,EDT,Wind,89.0
08/25/2019 15:05:00,EDT,Hydro,3203.0
08/25/2019 15:10:00,EDT,Dual Fuel,3385.0
08/25/2019 15:10:00,EDT,Natural Gas,2804.0
08/25/2019 15:10:00,EDT,Nuclear,5272.0
08/25/2019 15:10:00,EDT,Other Fossil Fuels,50.0
08/25/2019 15:10:00,EDT,Other Renewables,295.0
08/25/2019 15:10:00,EDT,Wind,84.0
08/25/2019 15:10:00,EDT,Hydro,3233.0
08/25/2019 15:15:00,EDT,Dual Fuel,3394.0
08/25/2019 15:15:00,EDT,Natural Gas,2838.0
08/25/2019 15:15:00,EDT,Nuclear,5271.0
08/25/2019 15:15:00,EDT,Other Fossil Fuels,50.0
08/25/2019 15:15:00,EDT,Other Renewables,287.0
08/25/2019 15:15:00,EDT,Wind,88.0
08/25/2019 15:15:00,EDT,Hydro,3230.0
08/25/2019 15:20:00,EDT,Dual Fuel,3408.0
08/25/2019 15:20:00,EDT,Natural Gas,2849.0
08/25/2019 15:20:00,EDT,Nuclear,5272.0
08/25/2019 15:20:00,EDT,Other Fossil Fuels,51.0
08/25/2019 15:20:00,EDT,Other Renewables,282.0
08/25/2019 15:20:00,EDT,Wind,91.0
08/25/2019 15:20:00,EDT,Hydro,3238.0
08/25/2019 15:25:00,EDT,Dual Fuel,3416.0
08/25/2019 15:25:00,EDT,Natural Gas,2859.0
08/25/2019 15:25:00,EDT,Nuclear,5272.0
08/25/2019 15:25:00,EDT,Other Fossil Fuels,51.0
08/25/2019 15:25:00,EDT,Other Renewables,290.0
08/25/2019 15:25:00,EDT,Wind,92.0
08/25/2019 15:25:00,EDT,Hydro,3233.0
08/25/2019 15:30:00,EDT,Dual Fuel,3422.0
08/25/2019 15:30:00,EDT,Natural Gas,2877.0
08/25/2019 15:30:00,EDT,Nuclear,5270.0
08/25/2019 15:30:00,EDT,Other Fossil Fuels,50.0
08/25/2019 15:30:00,EDT,Other Renewables,287.0
08/25/2019 15:30:00,EDT,Wind,99.0
08/25/2019 15:30:00,EDT,Hydro,3246.0
08/25/2019 15:35:00,EDT,Dual Fuel,3423.0
08/25/2019 15:35:00,EDT,Natural Gas,2874.0
08/25/2019 15:35:00,EDT,Nuclear,5269.0
08/25/2019 15:35:00,EDT,Other Fossil Fuels,51.0
08/25/2019 15:35:00,EDT,Other Renewables,286.0
08/25/2019 15:35:00,EDT,Wind,99.0
08/25/2019 15:35:00,EDT,Hydro,3238.0
08/25/2019 15:40:00,EDT,Dual Fuel,3423.0
08/25/2019 15:40:00,EDT,Natural Gas,2903.0
08/25/2019 15:40:00,EDT,Nuclear,5267.0
08/25/2019 15:40:00,EDT,Other Fossil Fuels,51.0
08/25/2019 15:40:00,EDT,Other Renewables,281.0
08/25/2019 15:40:00,EDT,Wind,99.0
08/25/2019 15:40:00,EDT,Hydro,3261.0
08/25/2019 15:45:00,EDT,Dual Fuel,3432.0
08/25/2019 15:45:00,EDT,Natural Gas,2920.0
08/25/2019 15:45:00,EDT,Nuclear,5267.0
08/25/2019 15:45:00,EDT,Other Fossil Fuels,51.0
08/25/2019 15:45:00,EDT,Other Renewables,284.0
08/25/2019 15:45:00,EDT,Wind,102.0
08/25/2019 15:45:00,EDT,Hydro,3257.0
08/25/2019 15:50:00,EDT,Dual Fuel,3448.0
08/25/2019 15:50:00,EDT,Natural Gas,2955.0
08/25/2019 15:50:00,EDT,Nuclear,5267.0
08/25/2019 15:50:00,EDT,Other Fossil Fuels,51.0
08/25/2019 15:50:00,EDT,Other Renewables,286.0
08/25/2019 15:50:00,EDT,Wind,105.0
08/25/2019 15:50:00,EDT,Hydro,3255.0
08/25/2019 15:55:00,EDT,Dual Fuel,3458.0
08/25/2019 15:55:00,EDT,Natural Gas,2975.0
08/25/2019 15:55:00,EDT,Nuclear,5267.0
08/25/2019 15:55:00,EDT,Other Fossil Fuels,51.0
08/25/2019 15:55:00,EDT,Other Renewables,281.0
08/25/2019 15:55:00,EDT,Wind,115.0
08/25/2019 15:55:00,EDT,Hydro,3248.0
08/25/2019 16:00:00,EDT,Dual Fuel,3471.0
08/25/2019 16:00:00,EDT,Natural Gas,2933.0
08/25/2019 16:00:00,EDT,Nuclear,5265.0
08/25/2019 16:00:00,EDT,Other Fossil Fuels,51.0
08/25/2019 16:00:00,EDT,Other Renewables,283.0
08/25/2019 16:00:00,EDT,Wind,115.0
08/25/2019 16:00:00,EDT,Hydro,3245.0
08/25/2019 16:05:00,EDT,Dual Fuel,3476.0
08/25/2019 16:05:00,EDT,Natural Gas,2827.0
08/25/2019 16:05:00,EDT,Nuclear,5268.0
08/25/2019 16:05:00,EDT,Other Fossil Fuels,51.0
08/25/2019 16:05:00,EDT,Other Renewables,283.0
08/25/2019 16:05:00,EDT,Wind,112.0
08/25/2019 16:05:00,EDT,Hydro,3254.0
08/25/2019 16:10:00,EDT,Dual Fuel,3478.0
08/25/2019 16:10:00,EDT,Natural Gas,2763.0
08/25/2019 16:10:00,EDT,Nuclear,5265.0
08/25/2019 16:10:00,EDT,Other Fossil Fuels,51.0
08/25/2019 16:10:00,EDT,Other Renewables,284.0
08/25/2019 16:10:00,EDT,Wind,104.0
08/25/2019 16:10:00,EDT,Hydro,3293.0
08/25/2019 16:15:00,EDT,Dual Fuel,3489.0
08/25/2019 16:15:00,EDT,Natural Gas,2780.0
08/25/2019 16:15:00,EDT,Nuclear,5263.0
08/25/2019 16:15:00,EDT,Other Fossil Fuels,51.0
08/25/2019 16:15:00,EDT,Other Renewables,284.0
08/25/2019 16:15:00,EDT,Wind,106.0
08/25/2019 16:15:00,EDT,Hydro,3314.0
08/25/2019 16:20:00,EDT,Dual Fuel,3496.0
08/25/2019 16:20:00,EDT,Natural Gas,2814.0
08/25/2019 16:20:00,EDT,Nuclear,5260.0
08/25/2019 16:20:00,EDT,Other Fossil Fuels,51.0
08/25/2019 16:20:00,EDT,Other Renewables,282.0
08/25/2019 16:20:00,EDT,Wind,112.0
08/25/2019 16:20:00,EDT,Hydro,3324.0
08/25/2019 16:25:00,EDT,Dual Fuel,3493.0
08/25/2019 16:25:00,EDT,Natural Gas,2853.0
08/25/2019 16:25:00,EDT,Nuclear,5259.0
08/25/2019 16:25:00,EDT,Other Fossil Fuels,50.0
08/25/2019 16:25:00,EDT,Other Renewables,282.0
08/25/2019 16:25:00,EDT,Wind,115.0
08/25/2019 16:25:00,EDT,Hydro,3355.0
08/25/2019 16:30:00,EDT,Dual Fuel,3482.0
08/25/2019 16:30:00,EDT,Natural Gas,2867.0
08/25/2019 16:30:00,EDT,Nuclear,5261.0
08/25/2019 16:30:00,EDT,Other Fossil Fuels,51.0
08/25/2019 16:30:00,EDT,Other Renewables,284.0
08/25/2019 16:30:00,EDT,Wind,108.0
08/25/2019 16:30:00,EDT,Hydro,3316.0
08/25/2019 16:35:00,EDT,Dual Fuel,3498.0
08/25/2019 16:35:00,EDT,Natural Gas,2881.0
08/25/2019 16:35:00,EDT,Nuclear,5260.0
08/25/2019 16:35:00,EDT,Other Fossil Fuels,51.0
08/25/2019 16:35:00,EDT,Other Renewables,285.0
08/25/2019 16:35:00,EDT,Wind,109.0
08/25/2019 16:35:00,EDT,Hydro,3353.0
08/25/2019 16:40:00,EDT,Dual Fuel,3507.0
08/25/2019 16:40:00,EDT,Natural Gas,2886.0
08/25/2019 16:40:00,EDT,Nuclear,5259.0
08/25/2019 16:40:00,EDT,Other Fossil Fuels,50.0
08/25/2019 16:40:00,EDT,Other Renewables,279.0
08/25/2019 16:40:00,EDT,Wind,109.0
08/25/2019 16:40:00,EDT,Hydro,3332.0
08/25/2019 16:45:00,EDT,Dual Fuel,3513.0
08/25/2019 16:45:00,EDT,Natural Gas,2894.0
08/25/2019 16:45:00,EDT,Nuclear,5259.0
08/25/2019 16:45:00,EDT,Other Fossil Fuels,51.0
08/25/2019 16:45:00,EDT,Other Renewables,282.0
08/25/2019 16:45:00,EDT,Wind,103.0
08/25/2019 16:45:00,EDT,Hydro,3347.0
08/25/2019 16:50:00,EDT,Dual Fuel,3520.0
08/25/2019 16:50:00,EDT,Natural Gas,2897.0
08/25/2019 16:50:00,EDT,Nuclear,5258.0
08/25/2019 16:50:00,EDT,Other Fossil Fuels,51.0
08/25/2019 16:50:00,EDT,Other Renewables,282.0
08/25/2019 16:50:00,EDT,Wind,101.0
08/25/2019 16:50:00,EDT,Hydro,3349.0
08/25/2019 16:55:00,EDT,Dual Fuel,3519.0
08/25/2019 16:55:00,EDT,Natural Gas,2913.0
08/25/2019 16:55:00,EDT,Nuclear,5260.0
08/25/2019 16:55:00,EDT,Other Fossil Fuels,51.0
08/25/2019 16:55:00,EDT,Other Renewables,277.0
08/25/2019 16:55:00,EDT,Wind,98.0
08/25/2019 16:55:00,EDT,Hydro,3358.0
08/25/2019 17:00:00,EDT,Dual Fuel,3513.0
08/25/2019 17:00:00,EDT,Natural Gas,2942.0
08/25/2019 17:00:00,EDT,Nuclear,5259.0
08/25/2019 17:00:00,EDT,Other Fossil Fuels,50.0
08/25/2019 17:00:00,EDT,Other Renewables,279.0
08/25/2019 17:00:00,EDT,Wind,97.0
08/25/2019 17:00:00,EDT,Hydro,3325.0
08/25/2019 17:05:00,EDT,Dual Fuel,3512.0
08/25/2019 17:05:00,EDT,Natural Gas,2984.0
08/25/2019 17:05:00,EDT,Nuclear,5260.0
08/25/2019 17:05:00,EDT,Other Fossil Fuels,51.0
08/25/2019 17:05:00,EDT,Other Renewables,279.0
08/25/2019 17:05:00,EDT,Wind,99.0
08/25/2019 17:05:00,EDT,Hydro,3328.0
08/25/2019 17:10:00,EDT,Dual Fuel,3520.0
08/25/2019 17:10:00,EDT,Natural Gas,3061.0
08/25/2019 17:10:00,EDT,Nuclear,5261.0
08/25/2019 17:10:00,EDT,Other Fossil Fuels,51.0
08/25/2019 17:10:00,EDT,Other Renewables,279.0
08/25/2019 17:10:00,EDT,Wind,94.0
08/25/2019 17:10:00,EDT,Hydro,3345.0
08/25/2019 17:15:00,EDT,Dual Fuel,3523.0
08/25/2019 17:15:00,EDT,Natural Gas,3106.0
08/25/2019 17:15:00,EDT,Nuclear,5258.0
08/25/2019 17:15:00,EDT,Other Fossil Fuels,51.0
08/25/2019 17:15:00,EDT,Other Renewables,280.0
08/25/2019 17:15:00,EDT,Wind,93.0
08/25/2019 17:15:00,EDT,Hydro,3437.0
08/25/2019 17:20:00,EDT,Dual Fuel,3524.0
08/25/2019 17:20:00,EDT,Natural Gas,3113.0
08/25/2019 17:20:00,EDT,Nuclear,5258.0
08/25/2019 17:20:00,EDT,Other Fossil Fuels,51.0
08/25/2019 17:20:00,EDT,Other Renewables,287.0
08/25/2019 17:20:00,EDT,Wind,93.0
08/25/2019 17:20:00,EDT,Hydro,3401.0
08/25/2019 17:25:00,EDT,Dual Fuel,3527.0
08/25/2019 17:25:00,EDT,Natural Gas,3166.0
08/25/2019 17:25:00,EDT,Nuclear,5259.0
08/25/2019 17:25:00,EDT,Other Fossil Fuels,50.0
08/25/2019 17:25:00,EDT,Other Renewables,286.0
08/25/2019 17:25:00,EDT,Wind,95.0
08/25/2019 17:25:00,EDT,Hydro,3410.0
08/25/2019 17:30:00,EDT,Dual Fuel,3528.0
08/25/2019 17:30:00,EDT,Natural Gas,3186.0
08/25/2019 17:30:00,EDT,Nuclear,5260.0
08/25/2019 17:30:00,EDT,Other Fossil Fuels,51.0
08/25/2019 17:30:00,EDT,Other Renewables,277.0
08/25/2019 17:30:00,EDT,Wind,93.0
08/25/2019 17:30:00,EDT,Hydro,3431.0
08/25/2019 17:35:00,EDT,Dual Fuel,3528.0
08/25/2019 17:35:00,EDT,Natural Gas,3194.0
08/25/2019 17:35:00,EDT,Nuclear,5259.0
08/25/2019 17:35:00,EDT,Other Fossil Fuels,51.0
08/25/2019 17:35:00,EDT,Other Renewables,276.0
08/25/2019 17:35:00,EDT,Wind,103.0
08/25/2019 17:35:00,EDT,Hydro,3426.0
08/25/2019 17:40:00,EDT,Dual Fuel,3538.0
08/25/2019 17:40:00,EDT,Natural Gas,3198.0
08/25/2019 17:40:00,EDT,Nuclear,5260.0
08/25/2019 17:40:00,EDT,Other Fossil Fuels,50.0
08/25/2019 17:40:00,EDT,Other Renewables,276.0
08/25/2019 17:40:00,EDT,Wind,109.0
08/25/2019 17:40:00,EDT,Hydro,3449.0
08/25/2019 17:45:00,EDT,Dual Fuel,3570.0
08/25/2019 17:45:00,EDT,Natural Gas,3198.0
08/25/2019 17:45:00,EDT,Nuclear,5258.0
08/25/2019 17:45:00,EDT,Other Fossil Fuels,51.0
08/25/2019 17:45:00,EDT,Other Renewables,281.0
08/25/2019 17:45:00,EDT,Wind,109.0
08/25/2019 17:45:00,EDT,Hydro,3442.0
08/25/2019 17:50:00,EDT,Dual Fuel,3600.0
08/25/2019 17:50:00,EDT,Natural Gas,3198.0
08/25/2019 17:50:00,EDT,Nuclear,5259.0
08/25/2019 17:50:00,EDT,Other Fossil Fuels,51.0
08/25/2019 17:50:00,EDT,Other Renewables,280.0
08/25/2019 17:50:00,EDT,Wind,101.0
08/25/2019 17:50:00,EDT,Hydro,3398.0
08/25/2019 17:55:00,EDT,Dual Fuel,3624.0
08/25/2019 17:55:00,EDT,Natural Gas,3210.0
08/25/2019 17:55:00,EDT,Nuclear,5259.0
08/25/2019 17:55:00,EDT,Other Fossil Fuels,51.0
08/25/2019 17:55:00,EDT,Other Renewables,278.0
08/25/2019 17:55:00,EDT,Wind,94.0
08/25/2019 17:55:00,EDT,Hydro,3367.0
08/25/2019 18:00:00,EDT,Dual Fuel,3621.0
08/25/2019 18:00:00,EDT,Natural Gas,3210.0
08/25/2019 18:00:00,EDT,Nuclear,5260.0
08/25/2019 18:00:00,EDT,Other Fossil Fuels,51.0
08/25/2019 18:00:00,EDT,Other Renewables,277.0
08/25/2019 18:00:00,EDT,Wind,94.0
08/25/2019 18:00:00,EDT,Hydro,3355.0
08/25/2019 18:05:00,EDT,Dual Fuel,3565.0
08/25/2019 18:05:00,EDT,Natural Gas,3185.0
08/25/2019 18:05:00,EDT,Nuclear,5260.0
08/25/2019 18:05:00,EDT,Other Fossil Fuels,51.0
08/25/2019 18:05:00,EDT,Other Renewables,276.0
08/25/2019 18:05:00,EDT,Wind,91.0
08/25/2019 18:05:00,EDT,Hydro,3343.0
08/25/2019 18:10:00,EDT,Dual Fuel,3566.0
08/25/2019 18:10:00,EDT,Natural Gas,3161.0
08/25/2019 18:10:00,EDT,Nuclear,5259.0
08/25/2019 18:10:00,EDT,Other Fossil Fuels,50.0
08/25/2019 18:10:00,EDT,Other Renewables,277.0
08/25/2019 18:10:00,EDT,Wind,94.0
08/25/2019 18:10:00,EDT,Hydro,3329.0
08/25/2019 18:15:00,EDT,Dual Fuel,3570.0
08/25/2019 18:15:00,EDT,Natural Gas,3153.0
08/25/2019 18:15:00,EDT,Nuclear,5261.0
08/25/2019 18:15:00,EDT,Other Fossil Fuels,51.0
08/25/2019 18:15:00,EDT,Other Renewables,274.0
08/25/2019 18:15:00,EDT,Wind,99.0
08/25/2019 18:15:00,EDT,Hydro,3329.0
08/25/2019 18:20:00,EDT,Dual Fuel,3572.0
08/25/2019 18:20:00,EDT,Natural Gas,3187.0
08/25/2019 18:20:00,EDT,Nuclear,5261.0
08/25/2019 18:20:00,EDT,Other Fossil Fuels,51.0
08/25/2019 18:20:00,EDT,Other Renewables,279.0
08/25/2019 18:20:00,EDT,Wind,99.0
08/25/2019 18:20:00,EDT,Hydro,3320.0
08/25/2019 18:25:00,EDT,Dual Fuel,3568.0
08/25/2019 18:25:00,EDT,Natural Gas,3200.0
08/25/2019 18:25:00,EDT,Nuclear,5262.0
08/25/2019 18:25:00,EDT,Other Fossil Fuels,51.0
08/25/2019 18:25:00,EDT,Other Renewables,279.0
08/25/2019 18:25:00,EDT,Wind,94.0
08/25/2019 18:25:00,EDT,Hydro,3323.0
08/25/2019 18:30:00,EDT,Dual Fuel,3570.0
08/25/2019 18:30:00,EDT,Natural Gas,3204.0
08/25/2019 18:30:00,EDT,Nuclear,5262.0
08/25/2019 18:30:00,EDT,Other Fossil Fuels,51.0
08/25/2019 18:30:00,EDT,Other Renewables,277.0
08/25/2019 18:30:00,EDT,Wind,88.0
08/25/2019 18:30:00,EDT,Hydro,3332.0
08/25/2019 18:35:00,EDT,Dual Fuel,3569.0
08/25/2019 18:35:00,EDT,Natural Gas,3202.0
08/25/2019 18:35:00,EDT,Nuclear,5261.0
08/25/2019 18:35:00,EDT,Other Fossil Fuels,51.0
08/25/2019 18:35:00,EDT,Other Renewables,274.0
08/25/2019 18:35:00,EDT,Wind,76.0
08/25/2019 18:35:00,EDT,Hydro,3334.0
08/25/2019 18:40:00,EDT,Dual Fuel,3573.0
08/25/2019 18:40:00,EDT,Natural Gas,3204.0
08/25/2019 18:40:00,EDT,Nuclear,5261.0
08/25/2019 18:40:00,EDT,Other Fossil Fuels,51.0
08/25/2019 18:40:00,EDT,Other Renewables,274.0
08/25/2019 18:40:00,EDT,Wind,70.0
08/25/2019 18:40:00,EDT,Hydro,3351.0
08/25/2019 18:45:00,EDT,Dual Fuel,3571.0
08/25/2019 18:45:00,EDT,Natural Gas,3199.0
08/25/2019 18:45:00,EDT,Nuclear,5262.0
08/25/2019 18:45:00,EDT,Other Fossil Fuels,51.0
08/25/2019 18:45:00,EDT,Other Renewables,274.0
08/25/2019 18:45:00,EDT,Wind,68.0
08/25/2019 18:45:00,EDT,Hydro,3315.0
08/25/2019 18:50:00,EDT,Dual Fuel,3572.0
08/25/2019 18:50:00,EDT,Natural Gas,3195.0
08/25/2019 18:50:00,EDT,Nuclear,5265.0
08/25/2019 18:50:00,EDT,Other Fossil Fuels,51.0
08/25/2019 18:50:00,EDT,Other Renewables,271.0
08/25/2019 18:50:00,EDT,Wind,68.0
08/25/2019 18:50:00,EDT,Hydro,3280.0
08/25/2019 18:55:00,EDT,Dual Fuel,3569.0
08/25/2019 18:55:00,EDT,Natural Gas,3187.0
08/25/2019 18:55:00,EDT,Nuclear,5264.0
08/25/2019 18:55:00,EDT,Other Fossil Fuels,51.0
08/25/2019 18:55:00,EDT,Other Renewables,275.0
08/25/2019 18:55:00,EDT,Wind,71.0
08/25/2019 18:55:00,EDT,Hydro,3284.0
08/25/2019 19:00:00,EDT,Dual Fuel,3574.0
08/25/2019 19:00:00,EDT,Natural Gas,3191.0
08/25/2019 19:00:00,EDT,Nuclear,5265.0
08/25/2019 19:00:00,EDT,Other Fossil Fuels,51.0
08/25/2019 19:00:00,EDT,Other Renewables,276.0
08/25/2019 19:00:00,EDT,Wind,75.0
08/25/2019 19:00:00,EDT,Hydro,3289.0
08/25/2019 19:05:00,EDT,Dual Fuel,3574.0
08/25/2019 19:05:00,EDT,Natural Gas,3228.0
08/25/2019 19:05:00,EDT,Nuclear,5264.0
08/25/2019 19:05:00,EDT,Other Fossil Fuels,51.0
08/25/2019 19:05:00,EDT,Other Renewables,270.0
08/25/2019 19:05:00,EDT,Wind,76.0
08/25/2019 19:05:00,EDT,Hydro,3253.0
08/25/2019 19:10:00,EDT,Dual Fuel,3539.0
08/25/2019 19:10:00,EDT,Natural Gas,3228.0
08/25/2019 19:10:00,EDT,Nuclear,5263.0
08/25/2019 19:10:00,EDT,Other Fossil Fuels,51.0
08/25/2019 19:10:00,EDT,Other Renewables,272.0
08/25/2019 19:10:00,EDT,Wind,76.0
08/25/2019 19:10:00,EDT,Hydro,3217.0
08/25/2019 19:15:00,EDT,Dual Fuel,3534.0
08/25/2019 19:15:00,EDT,Natural Gas,3222.0
08/25/2019 19:15:00,EDT,Nuclear,5263.0
08/25/2019 19:15:00,EDT,Other Fossil Fuels,50.0
08/25/2019 19:15:00,EDT,Other Renewables,272.0
08/25/2019 19:15:00,EDT,Wind,77.0
08/25/2019 19:15:00,EDT,Hydro,3216.0
08/25/2019 19:20:00,EDT,Dual Fuel,3533.0
08/25/2019 19:20:00,EDT,Natural Gas,3225.0
08/25/2019 19:20:00,EDT,Nuclear,5264.0
08/25/2019 19:20:00,EDT,Other Fossil Fuels,51.0
08/25/2019 19:20:00,EDT,Other Renewables,272.0
08/25/2019 19:20:00,EDT,Wind,79.0
08/25/2019 19:20:00,EDT,Hydro,3213.0
08/25/2019 19:25:00,EDT,Dual Fuel,3553.0
08/25/2019 19:25:00,EDT,Natural Gas,3232.0
08/25/2019 19:25:00,EDT,Nuclear,5263.0
08/25/2019 19:25:00,EDT,Other Fossil Fuels,51.0
08/25/2019 19:25:00,EDT,Other Renewables,271.0
08/25/2019 19:25:00,EDT,Wind,81.0
08/25/2019 19:25:00,EDT,Hydro,3200.0
08/25/2019 19:30:00,EDT,Dual Fuel,3554.0
08/25/2019 19:30:00,EDT,Natural Gas,3233.0
08/25/2019 19:30:00,EDT,Nuclear,5265.0
08/25/2019 19:30:00,EDT,Other Fossil Fuels,51.0
08/25/2019 19:30:00,EDT,Other Renewables,267.0
08/25/2019 19:30:00,EDT,Wind,85.0
08/25/2019 19:30:00,EDT,Hydro,3207.0
08/25/2019 19:35:00,EDT,Dual Fuel,3558.0
08/25/2019 19:35:00,EDT,Natural Gas,3232.0
08/25/2019 19:35:00,EDT,Nuclear,5266.0
08/25/2019 19:35:00,EDT,Other Fossil Fuels,51.0
08/25/2019 19:35:00,EDT,Other Renewables,264.0
08/25/2019 19:35:00,EDT,Wind,93.0
08/25/2019 19:35:00,EDT,Hydro,3210.0
08/25/2019 19:40:00,EDT,Dual Fuel,3571.0
08/25/2019 19:40:00,EDT,Natural Gas,3231.0
08/25/2019 19:40:00,EDT,Nuclear,5267.0
08/25/2019 19:40:00,EDT,Other Fossil Fuels,51.0
08/25/2019 19:40:00,EDT,Other Renewables,270.0
08/25/2019 19:40:00,EDT,Wind,98.0
08/25/2019 19:40:00,EDT,Hydro,3231.0
08/25/2019 19:45:00,EDT,Dual Fuel,3589.0
08/25/2019 19:45:00,EDT,Natural Gas,3231.0
08/25/2019 19:45:00,EDT,Nuclear,5269.0
08/25/2019 19:45:00,EDT,Other Fossil Fuels,51.0
08/25/2019 19:45:00,EDT,Other Renewables,269.0
08/25/2019 19:45:00,EDT,Wind,101.0
08/25/2019 19:45:00,EDT,Hydro,3201.0
08/25/2019 19:50:00,EDT,Dual Fuel,3622.0
08/25/2019 19:50:00,EDT,Natural Gas,3220.0
08/25/2019 19:50:00,EDT,Nuclear,5269.0
08/25/2019 19:50:00,EDT,Other Fossil Fuels,51.0
08/25/2019 19:50:00,EDT,Other Renewables,269.0
08/25/2019 19:50:00,EDT,Wind,106.0
08/25/2019 19:50:00,EDT,Hydro,3208.0
08/25/2019 19:55:00,EDT,Dual Fuel,3652.0
08/25/2019 19:55:00,EDT,Natural Gas,3195.0
08/25/2019 19:55:00,EDT,Nuclear,5271.0
08/25/2019 19:55:00,EDT,Other Fossil Fuels,51.0
08/25/2019 19:55:00,EDT,Other Renewables,270.0
08/25/2019 19:55:00,EDT,Wind,108.0
08/25/2019 19:55:00,EDT,Hydro,3229.0
08/25/2019 20:00:00,EDT,Dual Fuel,3612.0
08/25/2019 20:00:00,EDT,Natural Gas,3207.0
08/25/2019 20:00:00,EDT,Nuclear,5270.0
08/25/2019 20:00:00,EDT,Other Fossil Fuels,51.0
08/25/2019 20:00:00,EDT,Other Renewables,271.0
08/25/2019 20:00:00,EDT,Wind,111.0
08/25/2019 20:00:00,EDT,Hydro,3290.0
08/25/2019 20:05:00,EDT,Dual Fuel,3539.0
08/25/2019 20:05:00,EDT,Natural Gas,3113.0
08/25/2019 20:05:00,EDT,Nuclear,5272.0
08/25/2019 20:05:00,EDT,Other Fossil Fuels,51.0
08/25/2019 20:05:00,EDT,Other Renewables,272.0
08/25/2019 20:05:00,EDT,Wind,115.0
08/25/2019 20:05:00,EDT,Hydro,3330.0
08/25/2019 20:10:00,EDT,Dual Fuel,3535.0
08/25/2019 20:10:00,EDT,Natural Gas,3030.0
08/25/2019 20:10:00,EDT,Nuclear,5270.0
08/25/2019 20:10:00,EDT,Other Fossil Fuels,51.0
08/25/2019 20:10:00,EDT,Other Renewables,270.0
08/25/2019 20:10:00,EDT,Wind,117.0
08/25/2019 20:10:00,EDT,Hydro,3348.0
08/25/2019 20:15:00,EDT,Dual Fuel,3532.0
08/25/2019 20:15:00,EDT,Natural Gas,3039.0
08/25/2019 20:15:00,EDT,Nuclear,5271.0
08/25/2019 20:15:00,EDT,Other Fossil Fuels,51.0
08/25/2019 20:15:00,EDT,Other Renewables,272.0
08/25/2019 20:15:00,EDT,Wind,120.0
08/25/2019 20:15:00,EDT,Hydro,3348.0
08/25/2019 20:20:00,EDT,Dual Fuel,3530.0
08/25/2019 20:20:00,EDT,Natural Gas,3060.0
08/25/2019 20:20:00,EDT,Nuclear,5269.0
08/25/2019 20:20:00,EDT,Other Fossil Fuels,51.0
08/25/2019 20:20:00,EDT,Other Renewables,274.0
08/25/2019 20:20:00,EDT,Wind,124.0
08/25/2019 20:20:00,EDT,Hydro,3330.0
08/25/2019 20:25:00,EDT,Dual Fuel,3531.0
08/25/2019 20:25:00,EDT,Natural Gas,3070.0
08/25/2019 20:25:00,EDT,Nuclear,5268.0
08/25/2019 20:25:00,EDT,Other Fossil Fuels,51.0
08/25/2019 20:25:00,EDT,Other Renewables,272.0
08/25/2019 20:25:00,EDT,Wind,126.0
08/25/2019 20:25:00,EDT,Hydro,3320.0
08/25/2019 20:30:00,EDT,Dual Fuel,3531.0
08/25/2019 20:30:00,EDT,Natural Gas,3039.0
08/25/2019 20:30:00,EDT,Nuclear,5270.0
08/25/2019 20:30:00,EDT,Other Fossil Fuels,51.0
08/25/2019 20:30:00,EDT,Other Renewables,271.0
08/25/2019 20:30:00,EDT,Wind,128.0
08/25/2019 20:30:00,EDT,Hydro,3315.0
08/25/2019 20:35:00,EDT,Dual Fuel,3533.0
08/25/2019 20:35:00,EDT,Natural Gas,2992.0
08/25/2019 20:35:00,EDT,Nuclear,5270.0
08/25/2019 20:35:00,EDT,Other Fossil Fuels,51.0
08/25/2019 20:35:00,EDT,Other Renewables,272.0
08/25/2019 20:35:00,EDT,Wind,126.0
08/25/2019 20:35:00,EDT,Hydro,3283.0
08/25/2019 20:40:00,EDT,Dual Fuel,3527.0
08/25/2019 20:40:00,EDT,Natural Gas,2960.0
08/25/2019 20:40:00,EDT,Nuclear,5271.0
08/25/2019 20:40:00,EDT,Other Fossil Fuels,51.0
08/25/2019 20:40:00,EDT,Other Renewables,271.0
08/25/2019 20:40:00,EDT,Wind,122.0
08/25/2019 20:40:00,EDT,Hydro,3223.0
08/25/2019 20:45:00,EDT,Dual Fuel,3481.0
08/25/2019 20:45:00,EDT,Natural Gas,2931.0
08/25/2019 20:45:00,EDT,Nuclear,5270.0
08/25/2019 20:45:00,EDT,Other Fossil Fuels,51.0
08/25/2019 20:45:00,EDT,Other Renewables,274.0
08/25/2019 20:45:00,EDT,Wind,120.0
08/25/2019 20:45:00,EDT,Hydro,3270.0
08/25/2019 20:50:00,EDT,Dual Fuel,3468.0
08/25/2019 20:50:00,EDT,Natural Gas,2903.0
08/25/2019 20:50:00,EDT,Nuclear,5271.0
08/25/2019 20:50:00,EDT,Other Fossil Fuels,50.0
08/25/2019 20:50:00,EDT,Other Renewables,273.0
08/25/2019 20:50:00,EDT,Wind,120.0
08/25/2019 20:50:00,EDT,Hydro,3267.0
08/25/2019 20:55:00,EDT,Dual Fuel,3464.0
08/25/2019 20:55:00,EDT,Natural Gas,2857.0
08/25/2019 20:55:00,EDT,Nuclear,5271.0
08/25/2019 20:55:00,EDT,Other Fossil Fuels,51.0
08/25/2019 20:55:00,EDT,Other Renewables,273.0
08/25/2019 20:55:00,EDT,Wind,126.0
08/25/2019 20:55:00,EDT,Hydro,3285.0
08/25/2019 21:00:00,EDT,Dual Fuel,3479.0
08/25/2019 21:00:00,EDT,Natural Gas,2899.0
08/25/2019 21:00:00,EDT,Nuclear,5272.0
08/25/2019 21:00:00,EDT,Other Fossil Fuels,51.0
08/25/2019 21:00:00,EDT,Other Renewables,275.0
08/25/2019 21:00:00,EDT,Wind,136.0
08/25/2019 21:00:00,EDT,Hydro,3233.0
08/25/2019 21:05:00,EDT,Dual Fuel,3505.0
08/25/2019 21:05:00,EDT,Natural Gas,3022.0
08/25/2019 21:05:00,EDT,Nuclear,5272.0
08/25/2019 21:05:00,EDT,Other Fossil Fuels,50.0
08/25/2019 21:05:00,EDT,Other Renewables,273.0
08/25/2019 21:05:00,EDT,Wind,151.0
08/25/2019 21:05:00,EDT,Hydro,3218.0
08/25/2019 21:10:00,EDT,Dual Fuel,3514.0
08/25/2019 21:10:00,EDT,Natural Gas,3108.0
08/25/2019 21:10:00,EDT,Nuclear,5272.0
08/25/2019 21:10:00,EDT,Other Fossil Fuels,51.0
08/25/2019 21:10:00,EDT,Other Renewables,273.0
08/25/2019 21:10:00,EDT,Wind,167.0
08/25/2019 21:10:00,EDT,Hydro,3205.0
08/25/2019 21:15:00,EDT,Dual Fuel,3403.0
08/25/2019 21:15:00,EDT,Natural Gas,3170.0
08/25/2019 21:15:00,EDT,Nuclear,5273.0
08/25/2019 21:15:00,EDT,Other Fossil Fuels,51.0
08/25/2019 21:15:00,EDT,Other Renewables,274.0
08/25/2019 21:15:00,EDT,Wind,178.0
08/25/2019 21:15:00,EDT,Hydro,3236.0
08/25/2019 21:20:00,EDT,Dual Fuel,3384.0
08/25/2019 21:20:00,EDT,Natural Gas,3197.0
08/25/2019 21:20:00,EDT,Nuclear,5273.0
08/25/2019 21:20:00,EDT,Other Fossil Fuels,51.0
08/25/2019 21:20:00,EDT,Other Renewables,274.0
08/25/2019 21:20:00,EDT,Wind,181.0
08/25/2019 21:20:00,EDT,Hydro,3281.0
08/25/2019 21:25:00,EDT,Dual Fuel,3379.0
08/25/2019 21:25:00,EDT,Natural Gas,3193.0
08/25/2019 21:25:00,EDT,Nuclear,5275.0
08/25/2019 21:25:00,EDT,Other Fossil Fuels,51.0
08/25/2019 21:25:00,EDT,Other Renewables,273.0
08/25/2019 21:25:00,EDT,Wind,185.0
08/25/2019 21:25:00,EDT,Hydro,3277.0
08/25/2019 21:30:00,EDT,Dual Fuel,3343.0
08/25/2019 21:30:00,EDT,Natural Gas,3159.0
08/25/2019 21:30:00,EDT,Nuclear,5274.0
08/25/2019 21:30:00,EDT,Other Fossil Fuels,51.0
08/25/2019 21:30:00,EDT,Other Renewables,272.0
08/25/2019 21:30:00,EDT,Wind,189.0
08/25/2019 21:30:00,EDT,Hydro,3222.0
08/25/2019 21:35:00,EDT,Dual Fuel,3329.0
08/25/2019 21:35:00,EDT,Natural Gas,3115.0
08/25/2019 21:35:00,EDT,Nuclear,5276.0
08/25/2019 21:35:00,EDT,Other Fossil Fuels,51.0
08/25/2019 21:35:00,EDT,Other Renewables,276.0
08/25/2019 21:35:00,EDT,Wind,191.0
08/25/2019 21:35:00,EDT,Hydro,3183.0
08/25/2019 21:40:00,EDT,Dual Fuel,3314.0
08/25/2019 21:40:00,EDT,Natural Gas,3077.0
08/25/2019 21:40:00,EDT,Nuclear,5275.0
08/25/2019 21:40:00,EDT,Other Fossil Fuels,51.0
08/25/2019 21:40:00,EDT,Other Renewables,275.0
08/25/2019 21:40:00,EDT,Wind,197.0
08/25/2019 21:40:00,EDT,Hydro,3193.0
08/25/2019 21:45:00,EDT,Dual Fuel,3295.0
08/25/2019 21:45:00,EDT,Natural Gas,3012.0
08/25/2019 21:45:00,EDT,Nuclear,5277.0
08/25/2019 21:45:00,EDT,Other Fossil Fuels,50.0
08/25/2019 21:45:00,EDT,Other Renewables,274.0
08/25/2019 21:45:00,EDT,Wind,204.0
08/25/2019 21:45:00,EDT,Hydro,3198.0
08/25/2019 21:50:00,EDT,Dual Fuel,3279.0
08/25/2019 21:50:00,EDT,Natural Gas,2946.0
08/25/2019 21:50:00,EDT,Nuclear,5276.0
08/25/2019 21:50:00,EDT,Other Fossil Fuels,51.0
08/25/2019 21:50:00,EDT,Other Renewables,275.0
08/25/2019 21:50:00,EDT,Wind,205.0
08/25/2019 21:50:00,EDT,Hydro,3202.0
08/25/2019 21:55:00,EDT,Dual Fuel,3246.0
08/25/2019 21:55:00,EDT,Natural Gas,2878.0
08/25/2019 21:55:00,EDT,Nuclear,5277.0
08/25/2019 21:55:00,EDT,Other Fossil Fuels,51.0
08/25/2019 21:55:00,EDT,Other Renewables,275.0
08/25/2019 21:55:00,EDT,Wind,209.0
08/25/2019 21:55:00,EDT,Hydro,3220.0
08/25/2019 22:00:00,EDT,Dual Fuel,3204.0
08/25/2019 22:00:00,EDT,Natural Gas,2801.0
08/25/2019 22:00:00,EDT,Nuclear,5278.0
08/25/2019 22:00:00,EDT,Other Fossil Fuels,51.0
08/25/2019 22:00:00,EDT,Other Renewables,273.0
08/25/2019 22:00:00,EDT,Wind,214.0
08/25/2019 22:00:00,EDT,Hydro,3197.0
08/25/2019 22:05:00,EDT,Dual Fuel,3179.0
08/25/2019 22:05:00,EDT,Natural Gas,2810.0
08/25/2019 22:05:00,EDT,Nuclear,5276.0
08/25/2019 22:05:00,EDT,Other Fossil Fuels,50.0
08/25/2019 22:05:00,EDT,Other Renewables,277.0
08/25/2019 22:05:00,EDT,Wind,226.0
08/25/2019 22:05:00,EDT,Hydro,3203.0
08/25/2019 22:10:00,EDT,Dual Fuel,3092.0
08/25/2019 22:10:00,EDT,Natural Gas,2877.0
08/25/2019 22:10:00,EDT,Nuclear,5278.0
08/25/2019 22:10:00,EDT,Other Fossil Fuels,51.0
08/25/2019 22:10:00,EDT,Other Renewables,276.0
08/25/2019 22:10:00,EDT,Wind,230.0
08/25/2019 22:10:00,EDT,Hydro,3207.0
08/25/2019 22:15:00,EDT,Dual Fuel,3000.0
08/25/2019 22:15:00,EDT,Natural Gas,2926.0
08/25/2019 22:15:00,EDT,Nuclear,5277.0
08/25/2019 22:15:00,EDT,Other Fossil Fuels,51.0
08/25/2019 22:15:00,EDT,Other Renewables,273.0
08/25/2019 22:15:00,EDT,Wind,232.0
08/25/2019 22:15:00,EDT,Hydro,3217.0
08/25/2019 22:20:00,EDT,Dual Fuel,2961.0
08/25/2019 22:20:00,EDT,Natural Gas,2913.0
08/25/2019 22:20:00,EDT,Nuclear,5277.0
08/25/2019 22:20:00,EDT,Other Fossil Fuels,51.0
08/25/2019 22:20:00,EDT,Other Renewables,272.0
08/25/2019 22:20:00,EDT,Wind,236.0
08/25/2019 22:20:00,EDT,Hydro,3186.0
08/25/2019 22:25:00,EDT,Dual Fuel,2958.0
08/25/2019 22:25:00,EDT,Natural Gas,2858.0
08/25/2019 22:25:00,EDT,Nuclear,5279.0
08/25/2019 22:25:00,EDT,Other Fossil Fuels,51.0
08/25/2019 22:25:00,EDT,Other Renewables,272.0
08/25/2019 22:25:00,EDT,Wind,241.0
08/25/2019 22:25:00,EDT,Hydro,3117.0
08/25/2019 22:30:00,EDT,Dual Fuel,2959.0
08/25/2019 22:30:00,EDT,Natural Gas,2798.0
08/25/2019 22:30:00,EDT,Nuclear,5279.0
08/25/2019 22:30:00,EDT,Other Fossil Fuels,51.0
08/25/2019 22:30:00,EDT,Other Renewables,274.0
08/25/2019 22:30:00,EDT,Wind,239.0
08/25/2019 22:30:00,EDT,Hydro,3099.0
08/25/2019 22:35:00,EDT,Dual Fuel,2958.0
08/25/2019 22:35:00,EDT,Natural Gas,2771.0
08/25/2019 22:35:00,EDT,Nuclear,5274.0
08/25/2019 22:35:00,EDT,Other Fossil Fuels,50.0
08/25/2019 22:35:00,EDT,Other Renewables,279.0
08/25/2019 22:35:00,EDT,Wind,228.0
08/25/2019 22:35:00,EDT,Hydro,3115.0
08/25/2019 22:40:00,EDT,Dual Fuel,2962.0
08/25/2019 22:40:00,EDT,Natural Gas,2698.0
08/25/2019 22:40:00,EDT,Nuclear,5276.0
08/25/2019 22:40:00,EDT,Other Fossil Fuels,51.0
08/25/2019 22:40:00,EDT,Other Renewables,275.0
08/25/2019 22:40:00,EDT,Wind,224.0
08/25/2019 22:40:00,EDT,Hydro,3130.0
08/25/2019 22:45:00,EDT,Dual Fuel,2934.0
08/25/2019 22:45:00,EDT,Natural Gas,2662.0
08/25/2019 22:45:00,EDT,Nuclear,5274.0
08/25/2019 22:45:00,EDT,Other Fossil Fuels,51.0
08/25/2019 22:45:00,EDT,Other Renewables,274.0
08/25/2019 22:45:00,EDT,Wind,226.0
08/25/2019 22:45:00,EDT,Hydro,3122.0
08/25/2019 22:50:00,EDT,Dual Fuel,2909.0
08/25/2019 22:50:00,EDT,Natural Gas,2644.0
08/25/2019 22:50:00,EDT,Nuclear,5274.0
08/25/2019 22:50:00,EDT,Other Fossil Fuels,51.0
08/25/2019 22:50:00,EDT,Other Renewables,270.0
08/25/2019 22:50:00,EDT,Wind,230.0
08/25/2019 22:50:00,EDT,Hydro,3118.0
08/25/2019 22:55:00,EDT,Dual Fuel,2889.0
08/25/2019 22:55:00,EDT,Natural Gas,2612.0
08/25/2019 22:55:00,EDT,Nuclear,5275.0
08/25/2019 22:55:00,EDT,Other Fossil Fuels,51.0
08/25/2019 22:55:00,EDT,Other Renewables,272.0
08/25/2019 22:55:00,EDT,Wind,228.0
08/25/2019 22:55:00,EDT,Hydro,3073.0
08/25/2019 23:00:00,EDT,Dual Fuel,2899.0
08/25/2019 23:00:00,EDT,Natural Gas,2550.0
08/25/2019 23:00:00,EDT,Nuclear,5274.0
08/25/2019 23:00:00,EDT,Other Fossil Fuels,50.0
08/25/2019 23:00:00,EDT,Other Renewables,274.0
08/25/2019 23:00:00,EDT,Wind,226.0
08/25/2019 23:00:00,EDT,Hydro,3069.0
08/25/2019 23:05:00,EDT,Dual Fuel,2817.0
08/25/2019 23:05:00,EDT,Natural Gas,2478.0
08/25/2019 23:05:00,EDT,Nuclear,5275.0
08/25/2019 23:05:00,EDT,Other Fossil Fuels,51.0
08/25/2019 23:05:00,EDT,Other Renewables,269.0
08/25/2019 23:05:00,EDT,Wind,230.0
08/25/2019 23:05:00,EDT,Hydro,3083.0
08/25/2019 23:10:00,EDT,Dual Fuel,2791.0
08/25/2019 23:10:00,EDT,Natural Gas,2355.0
08/25/2019 23:10:00,EDT,Nuclear,5276.0
08/25/2019 23:10:00,EDT,Other Fossil Fuels,51.0
08/25/2019 23:10:00,EDT,Other Renewables,274.0
08/25/2019 23:10:00,EDT,Wind,235.0
08/25/2019 23:10:00,EDT,Hydro,3098.0
08/25/2019 23:15:00,EDT,Dual Fuel,2791.0
08/25/2019 23:15:00,EDT,Natural Gas,2245.0
08/25/2019 23:15:00,EDT,Nuclear,5274.0
08/25/2019 23:15:00,EDT,Other Fossil Fuels,50.0
08/25/2019 23:15:00,EDT,Other Renewables,275.0
08/25/2019 23:15:00,EDT,Wind,241.0
08/25/2019 23:15:00,EDT,Hydro,3089.0
08/25/2019 23:20:00,EDT,Dual Fuel,2790.0
08/25/2019 23:20:00,EDT,Natural Gas,2175.0
08/25/2019 23:20:00,EDT,Nuclear,5277.0
08/25/2019 23:20:00,EDT,Other Fossil Fuels,51.0
08/25/2019 23:20:00,EDT,Other Renewables,277.0
08/25/2019 23:20:00,EDT,Wind,242.0
08/25/2019 23:20:00,EDT,Hydro,3063.0
08/25/2019 23:25:00,EDT,Dual Fuel,2752.0
08/25/2019 23:25:00,EDT,Natural Gas,2173.0
08/25/2019 23:25:00,EDT,Nuclear,5276.0
08/25/2019 23:25:00,EDT,Other Fossil Fuels,50.0
08/25/2019 23:25:00,EDT,Other Renewables,274.0
08/25/2019 23:25:00,EDT,Wind,236.0
08/25/2019 23:25:00,EDT,Hydro,3015.0
08/25/2019 23:30:00,EDT,Dual Fuel,2752.0
08/25/2019 23:30:00,EDT,Natural Gas,2170.0
08/25/2019 23:30:00,EDT,Nuclear,5277.0
08/25/2019 23:30:00,EDT,Other Fossil Fuels,51.0
08/25/2019 23:30:00,EDT,Other Renewables,274.0
08/25/2019 23:30:00,EDT,Wind,227.0
08/25/2019 23:30:00,EDT,Hydro,2994.0
08/25/2019 23:35:00,EDT,Dual Fuel,2778.0
08/25/2019 23:35:00,EDT,Natural Gas,2164.0
08/25/2019 23:35:00,EDT,Nuclear,5277.0
08/25/2019 23:35:00,EDT,Other Fossil Fuels,51.0
08/25/2019 23:35:00,EDT,Other Renewables,277.0
08/25/2019 23:35:00,EDT,Wind,226.0
08/25/2019 23:35:00,EDT,Hydro,2995.0
08/25/2019 23:40:00,EDT,Dual Fuel,2805.0
08/25/2019 23:40:00,EDT,Natural Gas,2116.0
08/25/2019 23:40:00,EDT,Nuclear,5277.0
08/25/2019 23:40:00,EDT,Other Fossil Fuels,51.0
08/25/2019 23:40:00,EDT,Other Renewables,274.0
08/25/2019 23:40:00,EDT,Wind,224.0
08/25/2019 23:40:00,EDT,Hydro,2974.0
08/25/2019 23:45:00,EDT,Dual Fuel,2815.0
08/25/2019 23:45:00,EDT,Natural Gas,2025.0
08/25/2019 23:45:00,EDT,Nuclear,5278.0
08/25/2019 23:45:00,EDT,Other Fossil Fuels,51.0
08/25/2019 23:45:00,EDT,Other Renewables,271.0
08/25/2019 23:45:00,EDT,Wind,226.0
08/25/2019 23:45:00,EDT,Hydro,3021.0
08/25/2019 23:50:00,EDT,Dual Fuel,2804.0
08/25/2019 23:50:00,EDT,Natural Gas,1949.0
08/25/2019 23:50:00,EDT,Nuclear,5276.0
08/25/2019 23:50:00,EDT,Other Fossil Fuels,51.0
08/25/2019 23:50:00,EDT,Other Renewables,269.0
08/25/2019 23:50:00,EDT,Wind,228.0
08/25/2019 23:50:00,EDT,Hydro,2981.0
08/25/2019 23:55:00,EDT,Dual Fuel,2786.0
08/25/2019 23:55:00,EDT,Natural Gas,1942.0
08/25/2019 23:55:00,EDT,Nuclear,5277.0
08/25/2019 23:55:00,EDT,Other Fossil Fuels,50.0
08/25/2019 23:55:00,EDT,Other Renewables,271.0
08/25/2019 23:55:00,EDT,Wind,229.0
08/25/2019 23:55:00,EDT,Hydro,2861.0