Time Stamp,Time Zone,Fuel Category,Gen MW
08/22/2019 00:05:00,EDT,Dual Fuel,4249.0
08/22/2019 00:05:00,EDT,Natural Gas,3889.0
08/22/2019 00:05:00,EDT,Nuclear,5258.0
08/22/2019 00:05:00,EDT,Other Fossil Fuels,51.0
08/22/2019 00:05:00,EDT,Other Renewables,261.0
08/22/2019 00:05:00,EDT,Wind,930.0
08/22/2019 00:05:00,EDT,Hydro,2954.0
08/22/2019 00:10:00,EDT,Dual Fuel,4375.0
08/22/2019 00:10:00,EDT,Natural Gas,3886.0
08/22/2019 00:10:00,EDT,Nuclear,5259.0
08/22/2019 00:10:00,EDT,Other Fossil Fuels,51.0
08/22/2019 00:10:00,EDT,Other Renewables,258.0
08/22/2019 00:10:00,EDT,Wind,931.0
08/22/2019 00:10:00,EDT,Hydro,2972.0
08/22/2019 00:15:00,EDT,Dual Fuel,4309.0
08/22/2019 00:15:00,EDT,Natural Gas,3772.0
08/22/2019 00:15:00,EDT,Nuclear,5259.0
08/22/2019 00:15:00,EDT,Other Fossil Fuels,51.0
08/22/2019 00:15:00,EDT,Other Renewables,260.0
08/22/2019 00:15:00,EDT,Wind,929.0
08/22/2019 00:15:00,EDT,Hydro,2971.0
08/22/2019 00:20:00,EDT,Dual Fuel,4280.0
08/22/2019 00:20:00,EDT,Natural Gas,3719.0
08/22/2019 00:20:00,EDT,Nuclear,5258.0
08/22/2019 00:20:00,EDT,Other Fossil Fuels,50.0
08/22/2019 00:20:00,EDT,Other Renewables,260.0
08/22/2019 00:20:00,EDT,Wind,925.0
08/22/2019 00:20:00,EDT,Hydro,2954.0
08/22/2019 00:25:00,EDT,Dual Fuel,4252.0
08/22/2019 00:25:00,EDT,Natural Gas,3678.0
08/22/2019 00:25:00,EDT,Nuclear,5259.0
08/22/2019 00:25:00,EDT,Other Fossil Fuels,51.0
08/22/2019 00:25:00,EDT,Other Renewables,262.0
08/22/2019 00:25:00,EDT,Wind,921.0
08/22/2019 00:25:00,EDT,Hydro,2963.0
08/22/2019 00:30:00,EDT,Dual Fuel,4252.0
08/22/2019 00:30:00,EDT,Natural Gas,3646.0
08/22/2019 00:30:00,EDT,Nuclear,5261.0
08/22/2019 00:30:00,EDT,Other Fossil Fuels,51.0
08/22/2019 00:30:00,EDT,Other Renewables,261.0
08/22/2019 00:30:00,EDT,Wind,916.0
08/22/2019 00:30:00,EDT,Hydro,2973.0
08/22/2019 00:35:00,EDT,Dual Fuel,4297.0
08/22/2019 00:35:00,EDT,Natural Gas,3643.0
08/22/2019 00:35:00,EDT,Nuclear,5261.0
08/22/2019 00:35:00,EDT,Other Fossil Fuels,50.0
08/22/2019 00:35:00,EDT,Other Renewables,259.0
08/22/2019 00:35:00,EDT,Wind,917.0
08/22/2019 00:35:00,EDT,Hydro,2961.0
08/22/2019 00:40:00,EDT,Dual Fuel,4240.0
08/22/2019 00:40:00,EDT,Natural Gas,3571.0
08/22/2019 00:40:00,EDT,Nuclear,5260.0
08/22/2019 00:40:00,EDT,Other Fossil Fuels,51.0
08/22/2019 00:40:00,EDT,Other Renewables,262.0
08/22/2019 00:40:00,EDT,Wind,929.0
08/22/2019 00:40:00,EDT,Hydro,2954.0
08/22/2019 00:45:00,EDT,Dual Fuel,4236.0
08/22/2019 00:45:00,EDT,Natural Gas,3512.0
08/22/2019 00:45:00,EDT,Nuclear,5262.0
08/22/2019 00:45:00,EDT,Other Fossil Fuels,50.0
08/22/2019 00:45:00,EDT,Other Renewables,260.0
08/22/2019 00:45:00,EDT,Wind,935.0
08/22/2019 00:45:00,EDT,Hydro,2979.0
08/22/2019 00:50:00,EDT,Dual Fuel,4187.0
08/22/2019 00:50:00,EDT,Natural Gas,3421.0
08/22/2019 00:50:00,EDT,Nuclear,5261.0
08/22/2019 00:50:00,EDT,Other Fossil Fuels,51.0
08/22/2019 00:50:00,EDT,Other Renewables,258.0
08/22/2019 00:50:00,EDT,Wind,939.0
08/22/2019 00:50:00,EDT,Hydro,2943.0
08/22/2019 00:55:00,EDT,Dual Fuel,4101.0
08/22/2019 00:55:00,EDT,Natural Gas,3360.0
08/22/2019 00:55:00,EDT,Nuclear,5261.0
08/22/2019 00:55:00,EDT,Other Fossil Fuels,51.0
08/22/2019 00:55:00,EDT,Other Renewables,261.0
08/22/2019 00:55:00,EDT,Wind,929.0
08/22/2019 00:55:00,EDT,Hydro,2880.0
08/22/2019 01:00:00,EDT,Dual Fuel,4026.0
08/22/2019 01:00:00,EDT,Natural Gas,3327.0
08/22/2019 01:00:00,EDT,Nuclear,5260.0
08/22/2019 01:00:00,EDT,Other Fossil Fuels,51.0
08/22/2019 01:00:00,EDT,Other Renewables,263.0
08/22/2019 01:00:00,EDT,Wind,940.0
08/22/2019 01:00:00,EDT,Hydro,2902.0
08/22/2019 01:05:00,EDT,Dual Fuel,3983.0
08/22/2019 01:05:00,EDT,Natural Gas,3313.0
08/22/2019 01:05:00,EDT,Nuclear,5261.0
08/22/2019 01:05:00,EDT,Other Fossil Fuels,51.0
08/22/2019 01:05:00,EDT,Other Renewables,262.0
08/22/2019 01:05:00,EDT,Wind,939.0
08/22/2019 01:05:00,EDT,Hydro,2952.0
08/22/2019 01:10:00,EDT,Dual Fuel,4026.0
08/22/2019 01:10:00,EDT,Natural Gas,3311.0
08/22/2019 01:10:00,EDT,Nuclear,5260.0
08/22/2019 01:10:00,EDT,Other Fossil Fuels,51.0
08/22/2019 01:10:00,EDT,Other Renewables,259.0
08/22/2019 01:10:00,EDT,Wind,949.0
08/22/2019 01:10:00,EDT,Hydro,2979.0
08/22/2019 01:15:00,EDT,Dual Fuel,4017.0
08/22/2019 01:15:00,EDT,Natural Gas,3306.0
08/22/2019 01:15:00,EDT,Nuclear,5262.0
08/22/2019 01:15:00,EDT,Other Fossil Fuels,51.0
08/22/2019 01:15:00,EDT,Other Renewables,260.0
08/22/2019 01:15:00,EDT,Wind,952.0
08/22/2019 01:15:00,EDT,Hydro,2963.0
08/22/2019 01:20:00,EDT,Dual Fuel,3998.0
08/22/2019 01:20:00,EDT,Natural Gas,3271.0
08/22/2019 01:20:00,EDT,Nuclear,5260.0
08/22/2019 01:20:00,EDT,Other Fossil Fuels,51.0
08/22/2019 01:20:00,EDT,Other Renewables,260.0
08/22/2019 01:20:00,EDT,Wind,956.0
08/22/2019 01:20:00,EDT,Hydro,2959.0
08/22/2019 01:25:00,EDT,Dual Fuel,3990.0
08/22/2019 01:25:00,EDT,Natural Gas,3253.0
08/22/2019 01:25:00,EDT,Nuclear,5260.0
08/22/2019 01:25:00,EDT,Other Fossil Fuels,51.0
08/22/2019 01:25:00,EDT,Other Renewables,259.0
08/22/2019 01:25:00,EDT,Wind,950.0
08/22/2019 01:25:00,EDT,Hydro,2940.0
08/22/2019 01:30:00,EDT,Dual Fuel,3958.0
08/22/2019 01:30:00,EDT,Natural Gas,3241.0
08/22/2019 01:30:00,EDT,Nuclear,5259.0
08/22/2019 01:30:00,EDT,Other Fossil Fuels,51.0
08/22/2019 01:30:00,EDT,Other Renewables,256.0
08/22/2019 01:30:00,EDT,Wind,925.0
08/22/2019 01:30:00,EDT,Hydro,2903.0
08/22/2019 01:35:00,EDT,Dual Fuel,3929.0
08/22/2019 01:35:00,EDT,Natural Gas,3227.0
08/22/2019 01:35:00,EDT,Nuclear,5259.0
08/22/2019 01:35:00,EDT,Other Fossil Fuels,51.0
08/22/2019 01:35:00,EDT,Other Renewables,263.0
08/22/2019 01:35:00,EDT,Wind,928.0
08/22/2019 01:35:00,EDT,Hydro,2887.0
08/22/2019 01:40:00,EDT,Dual Fuel,3903.0
08/22/2019 01:40:00,EDT,Natural Gas,3184.0
08/22/2019 01:40:00,EDT,Nuclear,5259.0
08/22/2019 01:40:00,EDT,Other Fossil Fuels,51.0
08/22/2019 01:40:00,EDT,Other Renewables,260.0
08/22/2019 01:40:00,EDT,Wind,913.0
08/22/2019 01:40:00,EDT,Hydro,2871.0
08/22/2019 01:45:00,EDT,Dual Fuel,3870.0
08/22/2019 01:45:00,EDT,Natural Gas,3162.0
08/22/2019 01:45:00,EDT,Nuclear,5257.0
08/22/2019 01:45:00,EDT,Other Fossil Fuels,51.0
08/22/2019 01:45:00,EDT,Other Renewables,260.0
08/22/2019 01:45:00,EDT,Wind,905.0
08/22/2019 01:45:00,EDT,Hydro,2874.0
08/22/2019 01:50:00,EDT,Dual Fuel,3847.0
08/22/2019 01:50:00,EDT,Natural Gas,3158.0
08/22/2019 01:50:00,EDT,Nuclear,5253.0
08/22/2019 01:50:00,EDT,Other Fossil Fuels,50.0
08/22/2019 01:50:00,EDT,Other Renewables,257.0
08/22/2019 01:50:00,EDT,Wind,901.0
08/22/2019 01:50:00,EDT,Hydro,2873.0
08/22/2019 01:55:00,EDT,Dual Fuel,3819.0
08/22/2019 01:55:00,EDT,Natural Gas,3150.0
08/22/2019 01:55:00,EDT,Nuclear,5253.0
08/22/2019 01:55:00,EDT,Other Fossil Fuels,50.0
08/22/2019 01:55:00,EDT,Other Renewables,256.0
08/22/2019 01:55:00,EDT,Wind,902.0
08/22/2019 01:55:00,EDT,Hydro,2868.0
08/22/2019 02:00:00,EDT,Dual Fuel,3784.0
08/22/2019 02:00:00,EDT,Natural Gas,3131.0
08/22/2019 02:00:00,EDT,Nuclear,5253.0
08/22/2019 02:00:00,EDT,Other Fossil Fuels,51.0
08/22/2019 02:00:00,EDT,Other Renewables,257.0
08/22/2019 02:00:00,EDT,Wind,887.0
08/22/2019 02:00:00,EDT,Hydro,2900.0
08/22/2019 02:05:00,EDT,Dual Fuel,3706.0
08/22/2019 02:05:00,EDT,Natural Gas,3079.0
08/22/2019 02:05:00,EDT,Nuclear,5251.0
08/22/2019 02:05:00,EDT,Other Fossil Fuels,50.0
08/22/2019 02:05:00,EDT,Other Renewables,258.0
08/22/2019 02:05:00,EDT,Wind,868.0
08/22/2019 02:05:00,EDT,Hydro,2969.0
08/22/2019 02:10:00,EDT,Dual Fuel,3670.0
08/22/2019 02:10:00,EDT,Natural Gas,3016.0
08/22/2019 02:10:00,EDT,Nuclear,5251.0
08/22/2019 02:10:00,EDT,Other Fossil Fuels,51.0
08/22/2019 02:10:00,EDT,Other Renewables,263.0
08/22/2019 02:10:00,EDT,Wind,848.0
08/22/2019 02:10:00,EDT,Hydro,2971.0
08/22/2019 02:15:00,EDT,Dual Fuel,3625.0
08/22/2019 02:15:00,EDT,Natural Gas,2984.0
08/22/2019 02:15:00,EDT,Nuclear,5248.0
08/22/2019 02:15:00,EDT,Other Fossil Fuels,51.0
08/22/2019 02:15:00,EDT,Other Renewables,261.0
08/22/2019 02:15:00,EDT,Wind,835.0
08/22/2019 02:15:00,EDT,Hydro,2956.0
08/22/2019 02:20:00,EDT,Dual Fuel,3561.0
08/22/2019 02:20:00,EDT,Natural Gas,2955.0
08/22/2019 02:20:00,EDT,Nuclear,5247.0
08/22/2019 02:20:00,EDT,Other Fossil Fuels,51.0
08/22/2019 02:20:00,EDT,Other Renewables,262.0
08/22/2019 02:20:00,EDT,Wind,813.0
08/22/2019 02:20:00,EDT,Hydro,2940.0
08/22/2019 02:25:00,EDT,Dual Fuel,3547.0
08/22/2019 02:25:00,EDT,Natural Gas,2924.0
08/22/2019 02:25:00,EDT,Nuclear,5247.0
08/22/2019 02:25:00,EDT,Other Fossil Fuels,51.0
08/22/2019 02:25:00,EDT,Other Renewables,257.0
08/22/2019 02:25:00,EDT,Wind,810.0
08/22/2019 02:25:00,EDT,Hydro,2936.0
08/22/2019 02:30:00,EDT,Dual Fuel,3532.0
08/22/2019 02:30:00,EDT,Natural Gas,2913.0
08/22/2019 02:30:00,EDT,Nuclear,5246.0
08/22/2019 02:30:00,EDT,Other Fossil Fuels,51.0
08/22/2019 02:30:00,EDT,Other Renewables,259.0
08/22/2019 02:30:00,EDT,Wind,819.0
08/22/2019 02:30:00,EDT,Hydro,2896.0
08/22/2019 02:35:00,EDT,Dual Fuel,3538.0
08/22/2019 02:35:00,EDT,Natural Gas,2899.0
08/22/2019 02:35:00,EDT,Nuclear,5247.0
08/22/2019 02:35:00,EDT,Other Fossil Fuels,51.0
08/22/2019 02:35:00,EDT,Other Renewables,260.0
08/22/2019 02:35:00,EDT,Wind,838.0
08/22/2019 02:35:00,EDT,Hydro,2874.0
08/22/2019 02:40:00,EDT,Dual Fuel,3532.0
08/22/2019 02:40:00,EDT,Natural Gas,2871.0
08/22/2019 02:40:00,EDT,Nuclear,5247.0
08/22/2019 02:40:00,EDT,Other Fossil Fuels,51.0
08/22/2019 02:40:00,EDT,Other Renewables,258.0
08/22/2019 02:40:00,EDT,Wind,825.0
08/22/2019 02:40:00,EDT,Hydro,2852.0
08/22/2019 02:45:00,EDT,Dual Fuel,3517.0
08/22/2019 02:45:00,EDT,Natural Gas,2848.0
08/22/2019 02:45:00,EDT,Nuclear,5248.0
08/22/2019 02:45:00,EDT,Other Fossil Fuels,50.0
08/22/2019 02:45:00,EDT,Other Renewables,257.0
08/22/2019 02:45:00,EDT,Wind,798.0
08/22/2019 02:45:00,EDT,Hydro,2890.0
08/22/2019 02:50:00,EDT,Dual Fuel,3556.0
08/22/2019 02:50:00,EDT,Natural Gas,2813.0
08/22/2019 02:50:00,EDT,Nuclear,5250.0
08/22/2019 02:50:00,EDT,Other Fossil Fuels,51.0
08/22/2019 02:50:00,EDT,Other Renewables,262.0
08/22/2019 02:50:00,EDT,Wind,772.0
08/22/2019 02:50:00,EDT,Hydro,2922.0
08/22/2019 02:55:00,EDT,Dual Fuel,3571.0
08/22/2019 02:55:00,EDT,Natural Gas,2833.0
08/22/2019 02:55:00,EDT,Nuclear,5250.0
08/22/2019 02:55:00,EDT,Other Fossil Fuels,51.0
08/22/2019 02:55:00,EDT,Other Renewables,261.0
08/22/2019 02:55:00,EDT,Wind,729.0
08/22/2019 02:55:00,EDT,Hydro,2967.0
08/22/2019 03:00:00,EDT,Dual Fuel,3547.0
08/22/2019 03:00:00,EDT,Natural Gas,2860.0
08/22/2019 03:00:00,EDT,Nuclear,5250.0
08/22/2019 03:00:00,EDT,Other Fossil Fuels,51.0
08/22/2019 03:00:00,EDT,Other Renewables,259.0
08/22/2019 03:00:00,EDT,Wind,693.0
08/22/2019 03:00:00,EDT,Hydro,2975.0
08/22/2019 03:05:00,EDT,Dual Fuel,3538.0
08/22/2019 03:05:00,EDT,Natural Gas,2860.0
08/22/2019 03:05:00,EDT,Nuclear,5251.0
08/22/2019 03:05:00,EDT,Other Fossil Fuels,51.0
08/22/2019 03:05:00,EDT,Other Renewables,258.0
08/22/2019 03:05:00,EDT,Wind,663.0
08/22/2019 03:05:00,EDT,Hydro,2981.0
08/22/2019 03:10:00,EDT,Dual Fuel,3564.0
08/22/2019 03:10:00,EDT,Natural Gas,2863.0
08/22/2019 03:10:00,EDT,Nuclear,5253.0
08/22/2019 03:10:00,EDT,Other Fossil Fuels,51.0
08/22/2019 03:10:00,EDT,Other Renewables,261.0
08/22/2019 03:10:00,EDT,Wind,637.0
08/22/2019 03:10:00,EDT,Hydro,2989.0
08/22/2019 03:15:00,EDT,Dual Fuel,3561.0
08/22/2019 03:15:00,EDT,Natural Gas,2905.0
08/22/2019 03:15:00,EDT,Nuclear,5254.0
08/22/2019 03:15:00,EDT,Other Fossil Fuels,51.0
08/22/2019 03:15:00,EDT,Other Renewables,259.0
08/22/2019 03:15:00,EDT,Wind,622.0
08/22/2019 03:15:00,EDT,Hydro,2975.0
08/22/2019 03:20:00,EDT,Dual Fuel,3555.0
08/22/2019 03:20:00,EDT,Natural Gas,2867.0
08/22/2019 03:20:00,EDT,Nuclear,5253.0
08/22/2019 03:20:00,EDT,Other Fossil Fuels,51.0
08/22/2019 03:20:00,EDT,Other Renewables,254.0
08/22/2019 03:20:00,EDT,Wind,607.0
08/22/2019 03:20:00,EDT,Hydro,2979.0
08/22/2019 03:25:00,EDT,Dual Fuel,3537.0
08/22/2019 03:25:00,EDT,Natural Gas,2888.0
08/22/2019 03:25:00,EDT,Nuclear,5248.0
08/22/2019 03:25:00,EDT,Other Fossil Fuels,51.0
08/22/2019 03:25:00,EDT,Other Renewables,252.0
08/22/2019 03:25:00,EDT,Wind,576.0
08/22/2019 03:25:00,EDT,Hydro,2984.0
08/22/2019 03:30:00,EDT,Dual Fuel,3520.0
08/22/2019 03:30:00,EDT,Natural Gas,2917.0
08/22/2019 03:30:00,EDT,Nuclear,5248.0
08/22/2019 03:30:00,EDT,Other Fossil Fuels,51.0
08/22/2019 03:30:00,EDT,Other Renewables,254.0
08/22/2019 03:30:00,EDT,Wind,534.0
08/22/2019 03:30:00,EDT,Hydro,2975.0
08/22/2019 03:35:00,EDT,Dual Fuel,3528.0
08/22/2019 03:35:00,EDT,Natural Gas,2943.0
08/22/2019 03:35:00,EDT,Nuclear,5247.0
08/22/2019 03:35:00,EDT,Other Fossil Fuels,51.0
08/22/2019 03:35:00,EDT,Other Renewables,261.0
08/22/2019 03:35:00,EDT,Wind,502.0
08/22/2019 03:35:00,EDT,Hydro,2983.0
08/22/2019 03:40:00,EDT,Dual Fuel,3544.0
08/22/2019 03:40:00,EDT,Natural Gas,2941.0
08/22/2019 03:40:00,EDT,Nuclear,5247.0
08/22/2019 03:40:00,EDT,Other Fossil Fuels,51.0
08/22/2019 03:40:00,EDT,Other Renewables,261.0
08/22/2019 03:40:00,EDT,Wind,482.0
08/22/2019 03:40:00,EDT,Hydro,2985.0
08/22/2019 03:45:00,EDT,Dual Fuel,3552.0
08/22/2019 03:45:00,EDT,Natural Gas,2875.0
08/22/2019 03:45:00,EDT,Nuclear,5246.0
08/22/2019 03:45:00,EDT,Other Fossil Fuels,51.0
08/22/2019 03:45:00,EDT,Other Renewables,257.0
08/22/2019 03:45:00,EDT,Wind,482.0
08/22/2019 03:45:00,EDT,Hydro,2985.0
08/22/2019 03:50:00,EDT,Dual Fuel,3561.0
08/22/2019 03:50:00,EDT,Natural Gas,2883.0
08/22/2019 03:50:00,EDT,Nuclear,5245.0
08/22/2019 03:50:00,EDT,Other Fossil Fuels,51.0
08/22/2019 03:50:00,EDT,Other Renewables,261.0
08/22/2019 03:50:00,EDT,Wind,490.0
08/22/2019 03:50:00,EDT,Hydro,2986.0
08/22/2019 03:55:00,EDT,Dual Fuel,3553.0
08/22/2019 03:55:00,EDT,Natural Gas,2856.0
08/22/2019 03:55:00,EDT,Nuclear,5246.0
08/22/2019 03:55:00,EDT,Other Fossil Fuels,51.0
08/22/2019 03:55:00,EDT,Other Renewables,259.0
08/22/2019 03:55:00,EDT,Wind,470.0
08/22/2019 03:55:00,EDT,Hydro,2984.0
08/22/2019 04:00:00,EDT,Dual Fuel,3544.0
08/22/2019 04:00:00,EDT,Natural Gas,2865.0
08/22/2019 04:00:00,EDT,Nuclear,5246.0
08/22/2019 04:00:00,EDT,Other Fossil Fuels,51.0
08/22/2019 04:00:00,EDT,Other Renewables,259.0
08/22/2019 04:00:00,EDT,Wind,479.0
08/22/2019 04:00:00,EDT,Hydro,2954.0
08/22/2019 04:05:00,EDT,Dual Fuel,3546.0
08/22/2019 04:05:00,EDT,Natural Gas,2849.0
08/22/2019 04:05:00,EDT,Nuclear,5247.0
08/22/2019 04:05:00,EDT,Other Fossil Fuels,51.0
08/22/2019 04:05:00,EDT,Other Renewables,256.0
08/22/2019 04:05:00,EDT,Wind,501.0
08/22/2019 04:05:00,EDT,Hydro,2957.0
08/22/2019 04:10:00,EDT,Dual Fuel,3555.0
08/22/2019 04:10:00,EDT,Natural Gas,2847.0
08/22/2019 04:10:00,EDT,Nuclear,5245.0
08/22/2019 04:10:00,EDT,Other Fossil Fuels,51.0
08/22/2019 04:10:00,EDT,Other Renewables,257.0
08/22/2019 04:10:00,EDT,Wind,514.0
08/22/2019 04:10:00,EDT,Hydro,2965.0
08/22/2019 04:15:00,EDT,Dual Fuel,3542.0
08/22/2019 04:15:00,EDT,Natural Gas,2839.0
08/22/2019 04:15:00,EDT,Nuclear,5244.0
08/22/2019 04:15:00,EDT,Other Fossil Fuels,51.0
08/22/2019 04:15:00,EDT,Other Renewables,259.0
08/22/2019 04:15:00,EDT,Wind,505.0
08/22/2019 04:15:00,EDT,Hydro,3008.0
08/22/2019 04:20:00,EDT,Dual Fuel,3517.0
08/22/2019 04:20:00,EDT,Natural Gas,2861.0
08/22/2019 04:20:00,EDT,Nuclear,5244.0
08/22/2019 04:20:00,EDT,Other Fossil Fuels,51.0
08/22/2019 04:20:00,EDT,Other Renewables,262.0
08/22/2019 04:20:00,EDT,Wind,495.0
08/22/2019 04:20:00,EDT,Hydro,3006.0
08/22/2019 04:25:00,EDT,Dual Fuel,3529.0
08/22/2019 04:25:00,EDT,Natural Gas,2851.0
08/22/2019 04:25:00,EDT,Nuclear,5244.0
08/22/2019 04:25:00,EDT,Other Fossil Fuels,51.0
08/22/2019 04:25:00,EDT,Other Renewables,263.0
08/22/2019 04:25:00,EDT,Wind,497.0
08/22/2019 04:25:00,EDT,Hydro,2999.0
08/22/2019 04:30:00,EDT,Dual Fuel,3550.0
08/22/2019 04:30:00,EDT,Natural Gas,2844.0
08/22/2019 04:30:00,EDT,Nuclear,5243.0
08/22/2019 04:30:00,EDT,Other Fossil Fuels,51.0
08/22/2019 04:30:00,EDT,Other Renewables,260.0
08/22/2019 04:30:00,EDT,Wind,497.0
08/22/2019 04:30:00,EDT,Hydro,2993.0
08/22/2019 04:35:00,EDT,Dual Fuel,3557.0
08/22/2019 04:35:00,EDT,Natural Gas,2827.0
08/22/2019 04:35:00,EDT,Nuclear,5244.0
08/22/2019 04:35:00,EDT,Other Fossil Fuels,51.0
08/22/2019 04:35:00,EDT,Other Renewables,256.0
08/22/2019 04:35:00,EDT,Wind,488.0
08/22/2019 04:35:00,EDT,Hydro,2992.0
08/22/2019 04:40:00,EDT,Dual Fuel,3591.0
08/22/2019 04:40:00,EDT,Natural Gas,2844.0
08/22/2019 04:40:00,EDT,Nuclear,5244.0
08/22/2019 04:40:00,EDT,Other Fossil Fuels,51.0
08/22/2019 04:40:00,EDT,Other Renewables,251.0
08/22/2019 04:40:00,EDT,Wind,465.0
08/22/2019 04:40:00,EDT,Hydro,2988.0
08/22/2019 04:45:00,EDT,Dual Fuel,3597.0
08/22/2019 04:45:00,EDT,Natural Gas,2866.0
08/22/2019 04:45:00,EDT,Nuclear,5247.0
08/22/2019 04:45:00,EDT,Other Fossil Fuels,51.0
08/22/2019 04:45:00,EDT,Other Renewables,260.0
08/22/2019 04:45:00,EDT,Wind,422.0
08/22/2019 04:45:00,EDT,Hydro,3007.0
08/22/2019 04:50:00,EDT,Dual Fuel,3598.0
08/22/2019 04:50:00,EDT,Natural Gas,2896.0
08/22/2019 04:50:00,EDT,Nuclear,5245.0
08/22/2019 04:50:00,EDT,Other Fossil Fuels,51.0
08/22/2019 04:50:00,EDT,Other Renewables,258.0
08/22/2019 04:50:00,EDT,Wind,397.0
08/22/2019 04:50:00,EDT,Hydro,3017.0
08/22/2019 04:55:00,EDT,Dual Fuel,3610.0
08/22/2019 04:55:00,EDT,Natural Gas,2915.0
08/22/2019 04:55:00,EDT,Nuclear,5247.0
08/22/2019 04:55:00,EDT,Other Fossil Fuels,51.0
08/22/2019 04:55:00,EDT,Other Renewables,254.0
08/22/2019 04:55:00,EDT,Wind,360.0
08/22/2019 04:55:00,EDT,Hydro,3012.0
08/22/2019 05:00:00,EDT,Dual Fuel,3633.0
08/22/2019 05:00:00,EDT,Natural Gas,2929.0
08/22/2019 05:00:00,EDT,Nuclear,5248.0
08/22/2019 05:00:00,EDT,Other Fossil Fuels,51.0
08/22/2019 05:00:00,EDT,Other Renewables,253.0
08/22/2019 05:00:00,EDT,Wind,326.0
08/22/2019 05:00:00,EDT,Hydro,3013.0
08/22/2019 05:05:00,EDT,Dual Fuel,3750.0
08/22/2019 05:05:00,EDT,Natural Gas,2959.0
08/22/2019 05:05:00,EDT,Nuclear,5248.0
08/22/2019 05:05:00,EDT,Other Fossil Fuels,51.0
08/22/2019 05:05:00,EDT,Other Renewables,253.0
08/22/2019 05:05:00,EDT,Wind,296.0
08/22/2019 05:05:00,EDT,Hydro,3021.0
08/22/2019 05:10:00,EDT,Dual Fuel,3884.0
08/22/2019 05:10:00,EDT,Natural Gas,3001.0
08/22/2019 05:10:00,EDT,Nuclear,5249.0
08/22/2019 05:10:00,EDT,Other Fossil Fuels,51.0
08/22/2019 05:10:00,EDT,Other Renewables,253.0
08/22/2019 05:10:00,EDT,Wind,279.0
08/22/2019 05:10:00,EDT,Hydro,3015.0
08/22/2019 05:15:00,EDT,Dual Fuel,3883.0
08/22/2019 05:15:00,EDT,Natural Gas,3026.0
08/22/2019 05:15:00,EDT,Nuclear,5250.0
08/22/2019 05:15:00,EDT,Other Fossil Fuels,51.0
08/22/2019 05:15:00,EDT,Other Renewables,256.0
08/22/2019 05:15:00,EDT,Wind,275.0
08/22/2019 05:15:00,EDT,Hydro,3006.0
08/22/2019 05:20:00,EDT,Dual Fuel,3882.0
08/22/2019 05:20:00,EDT,Natural Gas,3024.0
08/22/2019 05:20:00,EDT,Nuclear,5251.0
08/22/2019 05:20:00,EDT,Other Fossil Fuels,51.0
08/22/2019 05:20:00,EDT,Other Renewables,256.0
08/22/2019 05:20:00,EDT,Wind,283.0
08/22/2019 05:20:00,EDT,Hydro,3005.0
08/22/2019 05:25:00,EDT,Dual Fuel,3881.0
08/22/2019 05:25:00,EDT,Natural Gas,2993.0
08/22/2019 05:25:00,EDT,Nuclear,5251.0
08/22/2019 05:25:00,EDT,Other Fossil Fuels,51.0
08/22/2019 05:25:00,EDT,Other Renewables,257.0
08/22/2019 05:25:00,EDT,Wind,285.0
08/22/2019 05:25:00,EDT,Hydro,2995.0
08/22/2019 05:30:00,EDT,Dual Fuel,3877.0
08/22/2019 05:30:00,EDT,Natural Gas,3033.0
08/22/2019 05:30:00,EDT,Nuclear,5251.0
08/22/2019 05:30:00,EDT,Other Fossil Fuels,51.0
08/22/2019 05:30:00,EDT,Other Renewables,256.0
08/22/2019 05:30:00,EDT,Wind,267.0
08/22/2019 05:30:00,EDT,Hydro,2995.0
08/22/2019 05:35:00,EDT,Dual Fuel,3855.0
08/22/2019 05:35:00,EDT,Natural Gas,3061.0
08/22/2019 05:35:00,EDT,Nuclear,5252.0
08/22/2019 05:35:00,EDT,Other Fossil Fuels,51.0
08/22/2019 05:35:00,EDT,Other Renewables,253.0
08/22/2019 05:35:00,EDT,Wind,252.0
08/22/2019 05:35:00,EDT,Hydro,3012.0
08/22/2019 05:40:00,EDT,Dual Fuel,3940.0
08/22/2019 05:40:00,EDT,Natural Gas,3088.0
08/22/2019 05:40:00,EDT,Nuclear,5252.0
08/22/2019 05:40:00,EDT,Other Fossil Fuels,51.0
08/22/2019 05:40:00,EDT,Other Renewables,257.0
08/22/2019 05:40:00,EDT,Wind,236.0
08/22/2019 05:40:00,EDT,Hydro,3019.0
08/22/2019 05:45:00,EDT,Dual Fuel,4017.0
08/22/2019 05:45:00,EDT,Natural Gas,3103.0
08/22/2019 05:45:00,EDT,Nuclear,5251.0
08/22/2019 05:45:00,EDT,Other Fossil Fuels,51.0
08/22/2019 05:45:00,EDT,Other Renewables,256.0
08/22/2019 05:45:00,EDT,Wind,218.0
08/22/2019 05:45:00,EDT,Hydro,3010.0
08/22/2019 05:50:00,EDT,Dual Fuel,4072.0
08/22/2019 05:50:00,EDT,Natural Gas,3130.0
08/22/2019 05:50:00,EDT,Nuclear,5254.0
08/22/2019 05:50:00,EDT,Other Fossil Fuels,51.0
08/22/2019 05:50:00,EDT,Other Renewables,256.0
08/22/2019 05:50:00,EDT,Wind,206.0
08/22/2019 05:50:00,EDT,Hydro,3021.0
08/22/2019 05:55:00,EDT,Dual Fuel,4087.0
08/22/2019 05:55:00,EDT,Natural Gas,3177.0
08/22/2019 05:55:00,EDT,Nuclear,5252.0
08/22/2019 05:55:00,EDT,Other Fossil Fuels,51.0
08/22/2019 05:55:00,EDT,Other Renewables,254.0
08/22/2019 05:55:00,EDT,Wind,206.0
08/22/2019 05:55:00,EDT,Hydro,3053.0
08/22/2019 06:00:00,EDT,Dual Fuel,4093.0
08/22/2019 06:00:00,EDT,Natural Gas,3151.0
08/22/2019 06:00:00,EDT,Nuclear,5253.0
08/22/2019 06:00:00,EDT,Other Fossil Fuels,51.0
08/22/2019 06:00:00,EDT,Other Renewables,256.0
08/22/2019 06:00:00,EDT,Wind,213.0
08/22/2019 06:00:00,EDT,Hydro,3140.0
08/22/2019 06:05:00,EDT,Dual Fuel,4192.0
08/22/2019 06:05:00,EDT,Natural Gas,3159.0
08/22/2019 06:05:00,EDT,Nuclear,5253.0
08/22/2019 06:05:00,EDT,Other Fossil Fuels,51.0
08/22/2019 06:05:00,EDT,Other Renewables,257.0
08/22/2019 06:05:00,EDT,Wind,232.0
08/22/2019 06:05:00,EDT,Hydro,3285.0
08/22/2019 06:10:00,EDT,Dual Fuel,4313.0
08/22/2019 06:10:00,EDT,Natural Gas,3244.0
08/22/2019 06:10:00,EDT,Nuclear,5254.0
08/22/2019 06:10:00,EDT,Other Fossil Fuels,51.0
08/22/2019 06:10:00,EDT,Other Renewables,253.0
08/22/2019 06:10:00,EDT,Wind,238.0
08/22/2019 06:10:00,EDT,Hydro,3426.0
08/22/2019 06:15:00,EDT,Dual Fuel,4389.0
08/22/2019 06:15:00,EDT,Natural Gas,3255.0
08/22/2019 06:15:00,EDT,Nuclear,5253.0
08/22/2019 06:15:00,EDT,Other Fossil Fuels,51.0
08/22/2019 06:15:00,EDT,Other Renewables,252.0
08/22/2019 06:15:00,EDT,Wind,229.0
08/22/2019 06:15:00,EDT,Hydro,3428.0
08/22/2019 06:20:00,EDT,Dual Fuel,4453.0
08/22/2019 06:20:00,EDT,Natural Gas,3318.0
08/22/2019 06:20:00,EDT,Nuclear,5252.0
08/22/2019 06:20:00,EDT,Other Fossil Fuels,51.0
08/22/2019 06:20:00,EDT,Other Renewables,251.0
08/22/2019 06:20:00,EDT,Wind,232.0
08/22/2019 06:20:00,EDT,Hydro,3427.0
08/22/2019 06:25:00,EDT,Dual Fuel,4484.0
08/22/2019 06:25:00,EDT,Natural Gas,3391.0
08/22/2019 06:25:00,EDT,Nuclear,5255.0
08/22/2019 06:25:00,EDT,Other Fossil Fuels,51.0
08/22/2019 06:25:00,EDT,Other Renewables,252.0
08/22/2019 06:25:00,EDT,Wind,238.0
08/22/2019 06:25:00,EDT,Hydro,3381.0
08/22/2019 06:30:00,EDT,Dual Fuel,4534.0
08/22/2019 06:30:00,EDT,Natural Gas,3434.0
08/22/2019 06:30:00,EDT,Nuclear,5254.0
08/22/2019 06:30:00,EDT,Other Fossil Fuels,51.0
08/22/2019 06:30:00,EDT,Other Renewables,255.0
08/22/2019 06:30:00,EDT,Wind,239.0
08/22/2019 06:30:00,EDT,Hydro,3377.0
08/22/2019 06:35:00,EDT,Dual Fuel,4571.0
08/22/2019 06:35:00,EDT,Natural Gas,3479.0
08/22/2019 06:35:00,EDT,Nuclear,5255.0
08/22/2019 06:35:00,EDT,Other Fossil Fuels,51.0
08/22/2019 06:35:00,EDT,Other Renewables,251.0
08/22/2019 06:35:00,EDT,Wind,239.0
08/22/2019 06:35:00,EDT,Hydro,3366.0
08/22/2019 06:40:00,EDT,Dual Fuel,4565.0
08/22/2019 06:40:00,EDT,Natural Gas,3524.0
08/22/2019 06:40:00,EDT,Nuclear,5255.0
08/22/2019 06:40:00,EDT,Other Fossil Fuels,51.0
08/22/2019 06:40:00,EDT,Other Renewables,253.0
08/22/2019 06:40:00,EDT,Wind,241.0
08/22/2019 06:40:00,EDT,Hydro,3372.0
08/22/2019 06:45:00,EDT,Dual Fuel,4593.0
08/22/2019 06:45:00,EDT,Natural Gas,3627.0
08/22/2019 06:45:00,EDT,Nuclear,5255.0
08/22/2019 06:45:00,EDT,Other Fossil Fuels,51.0
08/22/2019 06:45:00,EDT,Other Renewables,246.0
08/22/2019 06:45:00,EDT,Wind,222.0
08/22/2019 06:45:00,EDT,Hydro,3382.0
08/22/2019 06:50:00,EDT,Dual Fuel,4605.0
08/22/2019 06:50:00,EDT,Natural Gas,3671.0
08/22/2019 06:50:00,EDT,Nuclear,5257.0
08/22/2019 06:50:00,EDT,Other Fossil Fuels,51.0
08/22/2019 06:50:00,EDT,Other Renewables,254.0
08/22/2019 06:50:00,EDT,Wind,223.0
08/22/2019 06:50:00,EDT,Hydro,3343.0
08/22/2019 06:55:00,EDT,Dual Fuel,4585.0
08/22/2019 06:55:00,EDT,Natural Gas,3683.0
08/22/2019 06:55:00,EDT,Nuclear,5257.0
08/22/2019 06:55:00,EDT,Other Fossil Fuels,51.0
08/22/2019 06:55:00,EDT,Other Renewables,258.0
08/22/2019 06:55:00,EDT,Wind,230.0
08/22/2019 06:55:00,EDT,Hydro,3369.0
08/22/2019 07:00:00,EDT,Dual Fuel,4540.0
08/22/2019 07:00:00,EDT,Natural Gas,3701.0
08/22/2019 07:00:00,EDT,Nuclear,5256.0
08/22/2019 07:00:00,EDT,Other Fossil Fuels,51.0
08/22/2019 07:00:00,EDT,Other Renewables,252.0
08/22/2019 07:00:00,EDT,Wind,238.0
08/22/2019 07:00:00,EDT,Hydro,3480.0
08/22/2019 07:05:00,EDT,Dual Fuel,4465.0
08/22/2019 07:05:00,EDT,Natural Gas,3600.0
08/22/2019 07:05:00,EDT,Nuclear,5255.0
08/22/2019 07:05:00,EDT,Other Fossil Fuels,51.0
08/22/2019 07:05:00,EDT,Other Renewables,254.0
08/22/2019 07:05:00,EDT,Wind,244.0
08/22/2019 07:05:00,EDT,Hydro,3628.0
08/22/2019 07:10:00,EDT,Dual Fuel,4444.0
08/22/2019 07:10:00,EDT,Natural Gas,3560.0
08/22/2019 07:10:00,EDT,Nuclear,5259.0
08/22/2019 07:10:00,EDT,Other Fossil Fuels,51.0
08/22/2019 07:10:00,EDT,Other Renewables,254.0
08/22/2019 07:10:00,EDT,Wind,253.0
08/22/2019 07:10:00,EDT,Hydro,3638.0
08/22/2019 07:15:00,EDT,Dual Fuel,4493.0
08/22/2019 07:15:00,EDT,Natural Gas,3607.0
08/22/2019 07:15:00,EDT,Nuclear,5259.0
08/22/2019 07:15:00,EDT,Other Fossil Fuels,51.0
08/22/2019 07:15:00,EDT,Other Renewables,253.0
08/22/2019 07:15:00,EDT,Wind,252.0
08/22/2019 07:15:00,EDT,Hydro,3634.0
08/22/2019 07:20:00,EDT,Dual Fuel,4549.0
08/22/2019 07:20:00,EDT,Natural Gas,3613.0
08/22/2019 07:20:00,EDT,Nuclear,5260.0
08/22/2019 07:20:00,EDT,Other Fossil Fuels,51.0
08/22/2019 07:20:00,EDT,Other Renewables,251.0
08/22/2019 07:20:00,EDT,Wind,246.0
08/22/2019 07:20:00,EDT,Hydro,3607.0
08/22/2019 07:25:00,EDT,Dual Fuel,4585.0
08/22/2019 07:25:00,EDT,Natural Gas,3600.0
08/22/2019 07:25:00,EDT,Nuclear,5259.0
08/22/2019 07:25:00,EDT,Other Fossil Fuels,50.0
08/22/2019 07:25:00,EDT,Other Renewables,254.0
08/22/2019 07:25:00,EDT,Wind,241.0
08/22/2019 07:25:00,EDT,Hydro,3608.0
08/22/2019 07:30:00,EDT,Dual Fuel,4656.0
08/22/2019 07:30:00,EDT,Natural Gas,3639.0
08/22/2019 07:30:00,EDT,Nuclear,5260.0
08/22/2019 07:30:00,EDT,Other Fossil Fuels,51.0
08/22/2019 07:30:00,EDT,Other Renewables,256.0
08/22/2019 07:30:00,EDT,Wind,235.0
08/22/2019 07:30:00,EDT,Hydro,3624.0
08/22/2019 07:35:00,EDT,Dual Fuel,4712.0
08/22/2019 07:35:00,EDT,Natural Gas,3684.0
08/22/2019 07:35:00,EDT,Nuclear,5262.0
08/22/2019 07:35:00,EDT,Other Fossil Fuels,51.0
08/22/2019 07:35:00,EDT,Other Renewables,255.0
08/22/2019 07:35:00,EDT,Wind,231.0
08/22/2019 07:35:00,EDT,Hydro,3631.0
08/22/2019 07:40:00,EDT,Dual Fuel,4798.0
08/22/2019 07:40:00,EDT,Natural Gas,3723.0
08/22/2019 07:40:00,EDT,Nuclear,5263.0
08/22/2019 07:40:00,EDT,Other Fossil Fuels,51.0
08/22/2019 07:40:00,EDT,Other Renewables,252.0
08/22/2019 07:40:00,EDT,Wind,237.0
08/22/2019 07:40:00,EDT,Hydro,3601.0
08/22/2019 07:45:00,EDT,Dual Fuel,4875.0
08/22/2019 07:45:00,EDT,Natural Gas,3754.0
08/22/2019 07:45:00,EDT,Nuclear,5263.0
08/22/2019 07:45:00,EDT,Other Fossil Fuels,51.0
08/22/2019 07:45:00,EDT,Other Renewables,256.0
08/22/2019 07:45:00,EDT,Wind,246.0
08/22/2019 07:45:00,EDT,Hydro,3543.0
08/22/2019 07:50:00,EDT,Dual Fuel,4912.0
08/22/2019 07:50:00,EDT,Natural Gas,3735.0
08/22/2019 07:50:00,EDT,Nuclear,5261.0
08/22/2019 07:50:00,EDT,Other Fossil Fuels,50.0
08/22/2019 07:50:00,EDT,Other Renewables,257.0
08/22/2019 07:50:00,EDT,Wind,253.0
08/22/2019 07:50:00,EDT,Hydro,3554.0
08/22/2019 07:55:00,EDT,Dual Fuel,4949.0
08/22/2019 07:55:00,EDT,Natural Gas,3755.0
08/22/2019 07:55:00,EDT,Nuclear,5262.0
08/22/2019 07:55:00,EDT,Other Fossil Fuels,51.0
08/22/2019 07:55:00,EDT,Other Renewables,258.0
08/22/2019 07:55:00,EDT,Wind,258.0
08/22/2019 07:55:00,EDT,Hydro,3573.0
08/22/2019 08:00:00,EDT,Dual Fuel,4991.0
08/22/2019 08:00:00,EDT,Natural Gas,3780.0
08/22/2019 08:00:00,EDT,Nuclear,5261.0
08/22/2019 08:00:00,EDT,Other Fossil Fuels,51.0
08/22/2019 08:00:00,EDT,Other Renewables,262.0
08/22/2019 08:00:00,EDT,Wind,266.0
08/22/2019 08:00:00,EDT,Hydro,3606.0
08/22/2019 08:05:00,EDT,Dual Fuel,5015.0
08/22/2019 08:05:00,EDT,Natural Gas,3780.0
08/22/2019 08:05:00,EDT,Nuclear,5260.0
08/22/2019 08:05:00,EDT,Other Fossil Fuels,51.0
08/22/2019 08:05:00,EDT,Other Renewables,256.0
08/22/2019 08:05:00,EDT,Wind,290.0
08/22/2019 08:05:00,EDT,Hydro,3655.0
08/22/2019 08:10:00,EDT,Dual Fuel,5060.0
08/22/2019 08:10:00,EDT,Natural Gas,3745.0
08/22/2019 08:10:00,EDT,Nuclear,5259.0
08/22/2019 08:10:00,EDT,Other Fossil Fuels,51.0
08/22/2019 08:10:00,EDT,Other Renewables,254.0
08/22/2019 08:10:00,EDT,Wind,304.0
08/22/2019 08:10:00,EDT,Hydro,3719.0
08/22/2019 08:15:00,EDT,Dual Fuel,5085.0
08/22/2019 08:15:00,EDT,Natural Gas,3808.0
08/22/2019 08:15:00,EDT,Nuclear,5259.0
08/22/2019 08:15:00,EDT,Other Fossil Fuels,51.0
08/22/2019 08:15:00,EDT,Other Renewables,257.0
08/22/2019 08:15:00,EDT,Wind,300.0
08/22/2019 08:15:00,EDT,Hydro,3698.0
08/22/2019 08:20:00,EDT,Dual Fuel,5115.0
08/22/2019 08:20:00,EDT,Natural Gas,3950.0
08/22/2019 08:20:00,EDT,Nuclear,5258.0
08/22/2019 08:20:00,EDT,Other Fossil Fuels,50.0
08/22/2019 08:20:00,EDT,Other Renewables,256.0
08/22/2019 08:20:00,EDT,Wind,310.0
08/22/2019 08:20:00,EDT,Hydro,3596.0
08/22/2019 08:25:00,EDT,Dual Fuel,5182.0
08/22/2019 08:25:00,EDT,Natural Gas,4045.0
08/22/2019 08:25:00,EDT,Nuclear,5259.0
08/22/2019 08:25:00,EDT,Other Fossil Fuels,51.0
08/22/2019 08:25:00,EDT,Other Renewables,256.0
08/22/2019 08:25:00,EDT,Wind,313.0
08/22/2019 08:25:00,EDT,Hydro,3484.0
08/22/2019 08:30:00,EDT,Dual Fuel,5230.0
08/22/2019 08:30:00,EDT,Natural Gas,4087.0
08/22/2019 08:30:00,EDT,Nuclear,5261.0
08/22/2019 08:30:00,EDT,Other Fossil Fuels,61.0
08/22/2019 08:30:00,EDT,Other Renewables,259.0
08/22/2019 08:30:00,EDT,Wind,314.0
08/22/2019 08:30:00,EDT,Hydro,3448.0
08/22/2019 08:35:00,EDT,Dual Fuel,5248.0
08/22/2019 08:35:00,EDT,Natural Gas,4139.0
08/22/2019 08:35:00,EDT,Nuclear,5261.0
08/22/2019 08:35:00,EDT,Other Fossil Fuels,67.0
08/22/2019 08:35:00,EDT,Other Renewables,261.0
08/22/2019 08:35:00,EDT,Wind,326.0
08/22/2019 08:35:00,EDT,Hydro,3478.0
08/22/2019 08:40:00,EDT,Dual Fuel,5291.0
08/22/2019 08:40:00,EDT,Natural Gas,4154.0
08/22/2019 08:40:00,EDT,Nuclear,5262.0
08/22/2019 08:40:00,EDT,Other Fossil Fuels,67.0
08/22/2019 08:40:00,EDT,Other Renewables,262.0
08/22/2019 08:40:00,EDT,Wind,329.0
08/22/2019 08:40:00,EDT,Hydro,3483.0
08/22/2019 08:45:00,EDT,Dual Fuel,5351.0
08/22/2019 08:45:00,EDT,Natural Gas,4166.0
08/22/2019 08:45:00,EDT,Nuclear,5262.0
08/22/2019 08:45:00,EDT,Other Fossil Fuels,67.0
08/22/2019 08:45:00,EDT,Other Renewables,261.0
08/22/2019 08:45:00,EDT,Wind,319.0
08/22/2019 08:45:00,EDT,Hydro,3420.0
08/22/2019 08:50:00,EDT,Dual Fuel,5382.0
08/22/2019 08:50:00,EDT,Natural Gas,4191.0
08/22/2019 08:50:00,EDT,Nuclear,5262.0
08/22/2019 08:50:00,EDT,Other Fossil Fuels,67.0
08/22/2019 08:50:00,EDT,Other Renewables,264.0
08/22/2019 08:50:00,EDT,Wind,320.0
08/22/2019 08:50:00,EDT,Hydro,3431.0
08/22/2019 08:55:00,EDT,Dual Fuel,5435.0
08/22/2019 08:55:00,EDT,Natural Gas,4213.0
08/22/2019 08:55:00,EDT,Nuclear,5264.0
08/22/2019 08:55:00,EDT,Other Fossil Fuels,67.0
08/22/2019 08:55:00,EDT,Other Renewables,266.0
08/22/2019 08:55:00,EDT,Wind,312.0
08/22/2019 08:55:00,EDT,Hydro,3446.0
08/22/2019 09:00:00,EDT,Dual Fuel,5588.0
08/22/2019 09:00:00,EDT,Natural Gas,4232.0
08/22/2019 09:00:00,EDT,Nuclear,5264.0
08/22/2019 09:00:00,EDT,Other Fossil Fuels,67.0
08/22/2019 09:00:00,EDT,Other Renewables,268.0
08/22/2019 09:00:00,EDT,Wind,287.0
08/22/2019 09:00:00,EDT,Hydro,3408.0
08/22/2019 09:05:00,EDT,Dual Fuel,5756.0
08/22/2019 09:05:00,EDT,Natural Gas,4235.0
08/22/2019 09:05:00,EDT,Nuclear,5264.0
08/22/2019 09:05:00,EDT,Other Fossil Fuels,67.0
08/22/2019 09:05:00,EDT,Other Renewables,264.0
08/22/2019 09:05:00,EDT,Wind,273.0
08/22/2019 09:05:00,EDT,Hydro,3363.0
08/22/2019 09:10:00,EDT,Dual Fuel,5842.0
08/22/2019 09:10:00,EDT,Natural Gas,4220.0
08/22/2019 09:10:00,EDT,Nuclear,5265.0
08/22/2019 09:10:00,EDT,Other Fossil Fuels,67.0
08/22/2019 09:10:00,EDT,Other Renewables,259.0
08/22/2019 09:10:00,EDT,Wind,259.0
08/22/2019 09:10:00,EDT,Hydro,3435.0
08/22/2019 09:15:00,EDT,Dual Fuel,5914.0
08/22/2019 09:15:00,EDT,Natural Gas,4251.0
08/22/2019 09:15:00,EDT,Nuclear,5264.0
08/22/2019 09:15:00,EDT,Other Fossil Fuels,67.0
08/22/2019 09:15:00,EDT,Other Renewables,260.0
08/22/2019 09:15:00,EDT,Wind,261.0
08/22/2019 09:15:00,EDT,Hydro,3361.0
08/22/2019 09:20:00,EDT,Dual Fuel,5970.0
08/22/2019 09:20:00,EDT,Natural Gas,4220.0
08/22/2019 09:20:00,EDT,Nuclear,5264.0
08/22/2019 09:20:00,EDT,Other Fossil Fuels,71.0
08/22/2019 09:20:00,EDT,Other Renewables,269.0
08/22/2019 09:20:00,EDT,Wind,276.0
08/22/2019 09:20:00,EDT,Hydro,3459.0
08/22/2019 09:25:00,EDT,Dual Fuel,5881.0
08/22/2019 09:25:00,EDT,Natural Gas,4154.0
08/22/2019 09:25:00,EDT,Nuclear,5265.0
08/22/2019 09:25:00,EDT,Other Fossil Fuels,73.0
08/22/2019 09:25:00,EDT,Other Renewables,268.0
08/22/2019 09:25:00,EDT,Wind,270.0
08/22/2019 09:25:00,EDT,Hydro,3584.0
08/22/2019 09:30:00,EDT,Dual Fuel,5835.0
08/22/2019 09:30:00,EDT,Natural Gas,4181.0
08/22/2019 09:30:00,EDT,Nuclear,5264.0
08/22/2019 09:30:00,EDT,Other Fossil Fuels,74.0
08/22/2019 09:30:00,EDT,Other Renewables,269.0
08/22/2019 09:30:00,EDT,Wind,278.0
08/22/2019 09:30:00,EDT,Hydro,3654.0
08/22/2019 09:35:00,EDT,Dual Fuel,5834.0
08/22/2019 09:35:00,EDT,Natural Gas,4196.0
08/22/2019 09:35:00,EDT,Nuclear,5264.0
08/22/2019 09:35:00,EDT,Other Fossil Fuels,73.0
08/22/2019 09:35:00,EDT,Other Renewables,269.0
08/22/2019 09:35:00,EDT,Wind,287.0
08/22/2019 09:35:00,EDT,Hydro,3669.0
08/22/2019 09:40:00,EDT,Dual Fuel,5877.0
08/22/2019 09:40:00,EDT,Natural Gas,4192.0
08/22/2019 09:40:00,EDT,Nuclear,5264.0
08/22/2019 09:40:00,EDT,Other Fossil Fuels,74.0
08/22/2019 09:40:00,EDT,Other Renewables,268.0
08/22/2019 09:40:00,EDT,Wind,296.0
08/22/2019 09:40:00,EDT,Hydro,3659.0
08/22/2019 09:45:00,EDT,Dual Fuel,5953.0
08/22/2019 09:45:00,EDT,Natural Gas,4223.0
08/22/2019 09:45:00,EDT,Nuclear,5264.0
08/22/2019 09:45:00,EDT,Other Fossil Fuels,73.0
08/22/2019 09:45:00,EDT,Other Renewables,266.0
08/22/2019 09:45:00,EDT,Wind,298.0
08/22/2019 09:45:00,EDT,Hydro,3646.0
08/22/2019 09:50:00,EDT,Dual Fuel,6032.0
08/22/2019 09:50:00,EDT,Natural Gas,4268.0
08/22/2019 09:50:00,EDT,Nuclear,5263.0
08/22/2019 09:50:00,EDT,Other Fossil Fuels,74.0
08/22/2019 09:50:00,EDT,Other Renewables,270.0
08/22/2019 09:50:00,EDT,Wind,319.0
08/22/2019 09:50:00,EDT,Hydro,3621.0
08/22/2019 09:55:00,EDT,Dual Fuel,6150.0
08/22/2019 09:55:00,EDT,Natural Gas,4319.0
08/22/2019 09:55:00,EDT,Nuclear,5263.0
08/22/2019 09:55:00,EDT,Other Fossil Fuels,73.0
08/22/2019 09:55:00,EDT,Other Renewables,273.0
08/22/2019 09:55:00,EDT,Wind,353.0
08/22/2019 09:55:00,EDT,Hydro,3539.0
08/22/2019 10:00:00,EDT,Dual Fuel,6283.0
08/22/2019 10:00:00,EDT,Natural Gas,4345.0
08/22/2019 10:00:00,EDT,Nuclear,5263.0
08/22/2019 10:00:00,EDT,Other Fossil Fuels,77.0
08/22/2019 10:00:00,EDT,Other Renewables,274.0
08/22/2019 10:00:00,EDT,Wind,363.0
08/22/2019 10:00:00,EDT,Hydro,3557.0
08/22/2019 10:05:00,EDT,Dual Fuel,6383.0
08/22/2019 10:05:00,EDT,Natural Gas,4347.0
08/22/2019 10:05:00,EDT,Nuclear,5263.0
08/22/2019 10:05:00,EDT,Other Fossil Fuels,81.0
08/22/2019 10:05:00,EDT,Other Renewables,276.0
08/22/2019 10:05:00,EDT,Wind,365.0
08/22/2019 10:05:00,EDT,Hydro,3616.0
08/22/2019 10:10:00,EDT,Dual Fuel,6524.0
08/22/2019 10:10:00,EDT,Natural Gas,4348.0
08/22/2019 10:10:00,EDT,Nuclear,5263.0
08/22/2019 10:10:00,EDT,Other Fossil Fuels,81.0
08/22/2019 10:10:00,EDT,Other Renewables,276.0
08/22/2019 10:10:00,EDT,Wind,364.0
08/22/2019 10:10:00,EDT,Hydro,3605.0
08/22/2019 10:15:00,EDT,Dual Fuel,6552.0
08/22/2019 10:15:00,EDT,Natural Gas,4369.0
08/22/2019 10:15:00,EDT,Nuclear,5263.0
08/22/2019 10:15:00,EDT,Other Fossil Fuels,80.0
08/22/2019 10:15:00,EDT,Other Renewables,277.0
08/22/2019 10:15:00,EDT,Wind,344.0
08/22/2019 10:15:00,EDT,Hydro,3633.0
08/22/2019 10:20:00,EDT,Dual Fuel,6553.0
08/22/2019 10:20:00,EDT,Natural Gas,4402.0
08/22/2019 10:20:00,EDT,Nuclear,5265.0
08/22/2019 10:20:00,EDT,Other Fossil Fuels,81.0
08/22/2019 10:20:00,EDT,Other Renewables,275.0
08/22/2019 10:20:00,EDT,Wind,323.0
08/22/2019 10:20:00,EDT,Hydro,3632.0
08/22/2019 10:25:00,EDT,Dual Fuel,6595.0
08/22/2019 10:25:00,EDT,Natural Gas,4442.0
08/22/2019 10:25:00,EDT,Nuclear,5263.0
08/22/2019 10:25:00,EDT,Other Fossil Fuels,81.0
08/22/2019 10:25:00,EDT,Other Renewables,275.0
08/22/2019 10:25:00,EDT,Wind,318.0
08/22/2019 10:25:00,EDT,Hydro,3622.0
08/22/2019 10:30:00,EDT,Dual Fuel,6602.0
08/22/2019 10:30:00,EDT,Natural Gas,4449.0
08/22/2019 10:30:00,EDT,Nuclear,5263.0
08/22/2019 10:30:00,EDT,Other Fossil Fuels,80.0
08/22/2019 10:30:00,EDT,Other Renewables,271.0
08/22/2019 10:30:00,EDT,Wind,319.0
08/22/2019 10:30:00,EDT,Hydro,3635.0
08/22/2019 10:35:00,EDT,Dual Fuel,6655.0
08/22/2019 10:35:00,EDT,Natural Gas,4456.0
08/22/2019 10:35:00,EDT,Nuclear,5264.0
08/22/2019 10:35:00,EDT,Other Fossil Fuels,80.0
08/22/2019 10:35:00,EDT,Other Renewables,275.0
08/22/2019 10:35:00,EDT,Wind,315.0
08/22/2019 10:35:00,EDT,Hydro,3663.0
08/22/2019 10:40:00,EDT,Dual Fuel,6725.0
08/22/2019 10:40:00,EDT,Natural Gas,4461.0
08/22/2019 10:40:00,EDT,Nuclear,5263.0
08/22/2019 10:40:00,EDT,Other Fossil Fuels,81.0
08/22/2019 10:40:00,EDT,Other Renewables,275.0
08/22/2019 10:40:00,EDT,Wind,302.0
08/22/2019 10:40:00,EDT,Hydro,3707.0
08/22/2019 10:45:00,EDT,Dual Fuel,6801.0
08/22/2019 10:45:00,EDT,Natural Gas,4460.0
08/22/2019 10:45:00,EDT,Nuclear,5263.0
08/22/2019 10:45:00,EDT,Other Fossil Fuels,97.0
08/22/2019 10:45:00,EDT,Other Renewables,275.0
08/22/2019 10:45:00,EDT,Wind,302.0
08/22/2019 10:45:00,EDT,Hydro,3709.0
08/22/2019 10:50:00,EDT,Dual Fuel,6820.0
08/22/2019 10:50:00,EDT,Natural Gas,4469.0
08/22/2019 10:50:00,EDT,Nuclear,5263.0
08/22/2019 10:50:00,EDT,Other Fossil Fuels,131.0
08/22/2019 10:50:00,EDT,Other Renewables,280.0
08/22/2019 10:50:00,EDT,Wind,314.0
08/22/2019 10:50:00,EDT,Hydro,3730.0
08/22/2019 10:55:00,EDT,Dual Fuel,6818.0
08/22/2019 10:55:00,EDT,Natural Gas,4508.0
08/22/2019 10:55:00,EDT,Nuclear,5263.0
08/22/2019 10:55:00,EDT,Other Fossil Fuels,133.0
08/22/2019 10:55:00,EDT,Other Renewables,281.0
08/22/2019 10:55:00,EDT,Wind,330.0
08/22/2019 10:55:00,EDT,Hydro,3730.0
08/22/2019 11:00:00,EDT,Dual Fuel,6865.0
08/22/2019 11:00:00,EDT,Natural Gas,4499.0
08/22/2019 11:00:00,EDT,Nuclear,5262.0
08/22/2019 11:00:00,EDT,Other Fossil Fuels,128.0
08/22/2019 11:00:00,EDT,Other Renewables,284.0
08/22/2019 11:00:00,EDT,Wind,354.0
08/22/2019 11:00:00,EDT,Hydro,3721.0
08/22/2019 11:05:00,EDT,Dual Fuel,6993.0
08/22/2019 11:05:00,EDT,Natural Gas,4562.0
08/22/2019 11:05:00,EDT,Nuclear,5262.0
08/22/2019 11:05:00,EDT,Other Fossil Fuels,128.0
08/22/2019 11:05:00,EDT,Other Renewables,279.0
08/22/2019 11:05:00,EDT,Wind,351.0
08/22/2019 11:05:00,EDT,Hydro,3607.0
08/22/2019 11:10:00,EDT,Dual Fuel,7105.0
08/22/2019 11:10:00,EDT,Natural Gas,4593.0
08/22/2019 11:10:00,EDT,Nuclear,5262.0
08/22/2019 11:10:00,EDT,Other Fossil Fuels,131.0
08/22/2019 11:10:00,EDT,Other Renewables,278.0
08/22/2019 11:10:00,EDT,Wind,352.0
08/22/2019 11:10:00,EDT,Hydro,3616.0
08/22/2019 11:15:00,EDT,Dual Fuel,7208.0
08/22/2019 11:15:00,EDT,Natural Gas,4604.0
08/22/2019 11:15:00,EDT,Nuclear,5263.0
08/22/2019 11:15:00,EDT,Other Fossil Fuels,132.0
08/22/2019 11:15:00,EDT,Other Renewables,283.0
08/22/2019 11:15:00,EDT,Wind,366.0
08/22/2019 11:15:00,EDT,Hydro,3599.0
08/22/2019 11:20:00,EDT,Dual Fuel,7297.0
08/22/2019 11:20:00,EDT,Natural Gas,4591.0
08/22/2019 11:20:00,EDT,Nuclear,5262.0
08/22/2019 11:20:00,EDT,Other Fossil Fuels,128.0
08/22/2019 11:20:00,EDT,Other Renewables,285.0
08/22/2019 11:20:00,EDT,Wind,347.0
08/22/2019 11:20:00,EDT,Hydro,3642.0
08/22/2019 11:25:00,EDT,Dual Fuel,7303.0
08/22/2019 11:25:00,EDT,Natural Gas,4621.0
08/22/2019 11:25:00,EDT,Nuclear,5262.0
08/22/2019 11:25:00,EDT,Other Fossil Fuels,127.0
08/22/2019 11:25:00,EDT,Other Renewables,282.0
08/22/2019 11:25:00,EDT,Wind,366.0
08/22/2019 11:25:00,EDT,Hydro,3746.0
08/22/2019 11:30:00,EDT,Dual Fuel,7317.0
08/22/2019 11:30:00,EDT,Natural Gas,4606.0
08/22/2019 11:30:00,EDT,Nuclear,5263.0
08/22/2019 11:30:00,EDT,Other Fossil Fuels,128.0
08/22/2019 11:30:00,EDT,Other Renewables,281.0
08/22/2019 11:30:00,EDT,Wind,379.0
08/22/2019 11:30:00,EDT,Hydro,3749.0
08/22/2019 11:35:00,EDT,Dual Fuel,7353.0
08/22/2019 11:35:00,EDT,Natural Gas,4603.0
08/22/2019 11:35:00,EDT,Nuclear,5263.0
08/22/2019 11:35:00,EDT,Other Fossil Fuels,127.0
08/22/2019 11:35:00,EDT,Other Renewables,282.0
08/22/2019 11:35:00,EDT,Wind,382.0
08/22/2019 11:35:00,EDT,Hydro,3719.0
08/22/2019 11:40:00,EDT,Dual Fuel,7354.0
08/22/2019 11:40:00,EDT,Natural Gas,4554.0
08/22/2019 11:40:00,EDT,Nuclear,5262.0
08/22/2019 11:40:00,EDT,Other Fossil Fuels,127.0
08/22/2019 11:40:00,EDT,Other Renewables,281.0
08/22/2019 11:40:00,EDT,Wind,385.0
08/22/2019 11:40:00,EDT,Hydro,3771.0
08/22/2019 11:45:00,EDT,Dual Fuel,7411.0
08/22/2019 11:45:00,EDT,Natural Gas,4542.0
08/22/2019 11:45:00,EDT,Nuclear,5264.0
08/22/2019 11:45:00,EDT,Other Fossil Fuels,127.0
08/22/2019 11:45:00,EDT,Other Renewables,281.0
08/22/2019 11:45:00,EDT,Wind,381.0
08/22/2019 11:45:00,EDT,Hydro,3787.0
08/22/2019 11:50:00,EDT,Dual Fuel,7431.0
08/22/2019 11:50:00,EDT,Natural Gas,4531.0
08/22/2019 11:50:00,EDT,Nuclear,5262.0
08/22/2019 11:50:00,EDT,Other Fossil Fuels,127.0
08/22/2019 11:50:00,EDT,Other Renewables,283.0
08/22/2019 11:50:00,EDT,Wind,370.0
08/22/2019 11:50:00,EDT,Hydro,3861.0
08/22/2019 11:55:00,EDT,Dual Fuel,7483.0
08/22/2019 11:55:00,EDT,Natural Gas,4583.0
08/22/2019 11:55:00,EDT,Nuclear,5261.0
08/22/2019 11:55:00,EDT,Other Fossil Fuels,127.0
08/22/2019 11:55:00,EDT,Other Renewables,283.0
08/22/2019 11:55:00,EDT,Wind,367.0
08/22/2019 11:55:00,EDT,Hydro,3854.0
08/22/2019 12:00:00,EDT,Dual Fuel,7544.0
08/22/2019 12:00:00,EDT,Natural Gas,4563.0
08/22/2019 12:00:00,EDT,Nuclear,5262.0
08/22/2019 12:00:00,EDT,Other Fossil Fuels,127.0
08/22/2019 12:00:00,EDT,Other Renewables,278.0
08/22/2019 12:00:00,EDT,Wind,378.0
08/22/2019 12:00:00,EDT,Hydro,3861.0
08/22/2019 12:05:00,EDT,Dual Fuel,7634.0
08/22/2019 12:05:00,EDT,Natural Gas,4531.0
08/22/2019 12:05:00,EDT,Nuclear,5262.0
08/22/2019 12:05:00,EDT,Other Fossil Fuels,127.0
08/22/2019 12:05:00,EDT,Other Renewables,272.0
08/22/2019 12:05:00,EDT,Wind,390.0
08/22/2019 12:05:00,EDT,Hydro,3801.0
08/22/2019 12:10:00,EDT,Dual Fuel,7679.0
08/22/2019 12:10:00,EDT,Natural Gas,4583.0
08/22/2019 12:10:00,EDT,Nuclear,5263.0
08/22/2019 12:10:00,EDT,Other Fossil Fuels,127.0
08/22/2019 12:10:00,EDT,Other Renewables,281.0
08/22/2019 12:10:00,EDT,Wind,377.0
08/22/2019 12:10:00,EDT,Hydro,3799.0
08/22/2019 12:15:00,EDT,Dual Fuel,7708.0
08/22/2019 12:15:00,EDT,Natural Gas,4624.0
08/22/2019 12:15:00,EDT,Nuclear,5261.0
08/22/2019 12:15:00,EDT,Other Fossil Fuels,127.0
08/22/2019 12:15:00,EDT,Other Renewables,281.0
08/22/2019 12:15:00,EDT,Wind,361.0
08/22/2019 12:15:00,EDT,Hydro,3824.0
08/22/2019 12:20:00,EDT,Dual Fuel,7759.0
08/22/2019 12:20:00,EDT,Natural Gas,4616.0
08/22/2019 12:20:00,EDT,Nuclear,5262.0
08/22/2019 12:20:00,EDT,Other Fossil Fuels,127.0
08/22/2019 12:20:00,EDT,Other Renewables,279.0
08/22/2019 12:20:00,EDT,Wind,383.0
08/22/2019 12:20:00,EDT,Hydro,3875.0
08/22/2019 12:25:00,EDT,Dual Fuel,7784.0
08/22/2019 12:25:00,EDT,Natural Gas,4513.0
08/22/2019 12:25:00,EDT,Nuclear,5262.0
08/22/2019 12:25:00,EDT,Other Fossil Fuels,127.0
08/22/2019 12:25:00,EDT,Other Renewables,286.0
08/22/2019 12:25:00,EDT,Wind,384.0
08/22/2019 12:25:00,EDT,Hydro,3936.0
08/22/2019 12:30:00,EDT,Dual Fuel,7821.0
08/22/2019 12:30:00,EDT,Natural Gas,4514.0
08/22/2019 12:30:00,EDT,Nuclear,5261.0
08/22/2019 12:30:00,EDT,Other Fossil Fuels,127.0
08/22/2019 12:30:00,EDT,Other Renewables,286.0
08/22/2019 12:30:00,EDT,Wind,392.0
08/22/2019 12:30:00,EDT,Hydro,3885.0
08/22/2019 12:35:00,EDT,Dual Fuel,7813.0
08/22/2019 12:35:00,EDT,Natural Gas,4521.0
08/22/2019 12:35:00,EDT,Nuclear,5260.0
08/22/2019 12:35:00,EDT,Other Fossil Fuels,127.0
08/22/2019 12:35:00,EDT,Other Renewables,291.0
08/22/2019 12:35:00,EDT,Wind,394.0
08/22/2019 12:35:00,EDT,Hydro,3925.0
08/22/2019 12:40:00,EDT,Dual Fuel,7795.0
08/22/2019 12:40:00,EDT,Natural Gas,4507.0
08/22/2019 12:40:00,EDT,Nuclear,5259.0
08/22/2019 12:40:00,EDT,Other Fossil Fuels,127.0
08/22/2019 12:40:00,EDT,Other Renewables,290.0
08/22/2019 12:40:00,EDT,Wind,420.0
08/22/2019 12:40:00,EDT,Hydro,3976.0
08/22/2019 12:45:00,EDT,Dual Fuel,7903.0
08/22/2019 12:45:00,EDT,Natural Gas,4549.0
08/22/2019 12:45:00,EDT,Nuclear,5261.0
08/22/2019 12:45:00,EDT,Other Fossil Fuels,127.0
08/22/2019 12:45:00,EDT,Other Renewables,285.0
08/22/2019 12:45:00,EDT,Wind,448.0
08/22/2019 12:45:00,EDT,Hydro,3961.0
08/22/2019 12:50:00,EDT,Dual Fuel,8036.0
08/22/2019 12:50:00,EDT,Natural Gas,4593.0
08/22/2019 12:50:00,EDT,Nuclear,5261.0
08/22/2019 12:50:00,EDT,Other Fossil Fuels,127.0
08/22/2019 12:50:00,EDT,Other Renewables,283.0
08/22/2019 12:50:00,EDT,Wind,472.0
08/22/2019 12:50:00,EDT,Hydro,3880.0
08/22/2019 12:55:00,EDT,Dual Fuel,8137.0
08/22/2019 12:55:00,EDT,Natural Gas,4649.0
08/22/2019 12:55:00,EDT,Nuclear,5262.0
08/22/2019 12:55:00,EDT,Other Fossil Fuels,127.0
08/22/2019 12:55:00,EDT,Other Renewables,288.0
08/22/2019 12:55:00,EDT,Wind,476.0
08/22/2019 12:55:00,EDT,Hydro,3826.0
08/22/2019 13:00:00,EDT,Dual Fuel,8166.0
08/22/2019 13:00:00,EDT,Natural Gas,4618.0
08/22/2019 13:00:00,EDT,Nuclear,5264.0
08/22/2019 13:00:00,EDT,Other Fossil Fuels,127.0
08/22/2019 13:00:00,EDT,Other Renewables,290.0
08/22/2019 13:00:00,EDT,Wind,460.0
08/22/2019 13:00:00,EDT,Hydro,3840.0
08/22/2019 13:05:00,EDT,Dual Fuel,8144.0
08/22/2019 13:05:00,EDT,Natural Gas,4614.0
08/22/2019 13:05:00,EDT,Nuclear,5262.0
08/22/2019 13:05:00,EDT,Other Fossil Fuels,128.0
08/22/2019 13:05:00,EDT,Other Renewables,290.0
08/22/2019 13:05:00,EDT,Wind,469.0
08/22/2019 13:05:00,EDT,Hydro,3936.0
08/22/2019 13:10:00,EDT,Dual Fuel,8074.0
08/22/2019 13:10:00,EDT,Natural Gas,4583.0
08/22/2019 13:10:00,EDT,Nuclear,5262.0
08/22/2019 13:10:00,EDT,Other Fossil Fuels,128.0
08/22/2019 13:10:00,EDT,Other Renewables,290.0
08/22/2019 13:10:00,EDT,Wind,492.0
08/22/2019 13:10:00,EDT,Hydro,4013.0
08/22/2019 13:15:00,EDT,Dual Fuel,8089.0
08/22/2019 13:15:00,EDT,Natural Gas,4592.0
08/22/2019 13:15:00,EDT,Nuclear,5262.0
08/22/2019 13:15:00,EDT,Other Fossil Fuels,128.0
08/22/2019 13:15:00,EDT,Other Renewables,289.0
08/22/2019 13:15:00,EDT,Wind,486.0
08/22/2019 13:15:00,EDT,Hydro,3985.0
08/22/2019 13:20:00,EDT,Dual Fuel,8141.0
08/22/2019 13:20:00,EDT,Natural Gas,4686.0
08/22/2019 13:20:00,EDT,Nuclear,5264.0
08/22/2019 13:20:00,EDT,Other Fossil Fuels,128.0
08/22/2019 13:20:00,EDT,Other Renewables,286.0
08/22/2019 13:20:00,EDT,Wind,486.0
08/22/2019 13:20:00,EDT,Hydro,3888.0
08/22/2019 13:25:00,EDT,Dual Fuel,8178.0
08/22/2019 13:25:00,EDT,Natural Gas,4717.0
08/22/2019 13:25:00,EDT,Nuclear,5260.0
08/22/2019 13:25:00,EDT,Other Fossil Fuels,128.0
08/22/2019 13:25:00,EDT,Other Renewables,286.0
08/22/2019 13:25:00,EDT,Wind,484.0
08/22/2019 13:25:00,EDT,Hydro,3926.0
08/22/2019 13:30:00,EDT,Dual Fuel,8207.0
08/22/2019 13:30:00,EDT,Natural Gas,4719.0
08/22/2019 13:30:00,EDT,Nuclear,5258.0
08/22/2019 13:30:00,EDT,Other Fossil Fuels,127.0
08/22/2019 13:30:00,EDT,Other Renewables,292.0
08/22/2019 13:30:00,EDT,Wind,485.0
08/22/2019 13:30:00,EDT,Hydro,3907.0
08/22/2019 13:35:00,EDT,Dual Fuel,8257.0
08/22/2019 13:35:00,EDT,Natural Gas,4741.0
08/22/2019 13:35:00,EDT,Nuclear,5258.0
08/22/2019 13:35:00,EDT,Other Fossil Fuels,127.0
08/22/2019 13:35:00,EDT,Other Renewables,293.0
08/22/2019 13:35:00,EDT,Wind,476.0
08/22/2019 13:35:00,EDT,Hydro,3899.0
08/22/2019 13:40:00,EDT,Dual Fuel,8261.0
08/22/2019 13:40:00,EDT,Natural Gas,4724.0
08/22/2019 13:40:00,EDT,Nuclear,5258.0
08/22/2019 13:40:00,EDT,Other Fossil Fuels,127.0
08/22/2019 13:40:00,EDT,Other Renewables,290.0
08/22/2019 13:40:00,EDT,Wind,488.0
08/22/2019 13:40:00,EDT,Hydro,3978.0
08/22/2019 13:45:00,EDT,Dual Fuel,8264.0
08/22/2019 13:45:00,EDT,Natural Gas,4766.0
08/22/2019 13:45:00,EDT,Nuclear,5256.0
08/22/2019 13:45:00,EDT,Other Fossil Fuels,127.0
08/22/2019 13:45:00,EDT,Other Renewables,290.0
08/22/2019 13:45:00,EDT,Wind,479.0
08/22/2019 13:45:00,EDT,Hydro,3961.0
08/22/2019 13:50:00,EDT,Dual Fuel,8270.0
08/22/2019 13:50:00,EDT,Natural Gas,4789.0
08/22/2019 13:50:00,EDT,Nuclear,5254.0
08/22/2019 13:50:00,EDT,Other Fossil Fuels,127.0
08/22/2019 13:50:00,EDT,Other Renewables,289.0
08/22/2019 13:50:00,EDT,Wind,478.0
08/22/2019 13:50:00,EDT,Hydro,3937.0
08/22/2019 13:55:00,EDT,Dual Fuel,8295.0
08/22/2019 13:55:00,EDT,Natural Gas,4796.0
08/22/2019 13:55:00,EDT,Nuclear,5252.0
08/22/2019 13:55:00,EDT,Other Fossil Fuels,128.0
08/22/2019 13:55:00,EDT,Other Renewables,290.0
08/22/2019 13:55:00,EDT,Wind,462.0
08/22/2019 13:55:00,EDT,Hydro,3924.0
08/22/2019 14:00:00,EDT,Dual Fuel,8391.0
08/22/2019 14:00:00,EDT,Natural Gas,4863.0
08/22/2019 14:00:00,EDT,Nuclear,5251.0
08/22/2019 14:00:00,EDT,Other Fossil Fuels,134.0
08/22/2019 14:00:00,EDT,Other Renewables,291.0
08/22/2019 14:00:00,EDT,Wind,461.0
08/22/2019 14:00:00,EDT,Hydro,3893.0
08/22/2019 14:05:00,EDT,Dual Fuel,8551.0
08/22/2019 14:05:00,EDT,Natural Gas,4924.0
08/22/2019 14:05:00,EDT,Nuclear,5254.0
08/22/2019 14:05:00,EDT,Other Fossil Fuels,140.0
08/22/2019 14:05:00,EDT,Other Renewables,289.0
08/22/2019 14:05:00,EDT,Wind,450.0
08/22/2019 14:05:00,EDT,Hydro,3899.0
08/22/2019 14:10:00,EDT,Dual Fuel,8597.0
08/22/2019 14:10:00,EDT,Natural Gas,4947.0
08/22/2019 14:10:00,EDT,Nuclear,5253.0
08/22/2019 14:10:00,EDT,Other Fossil Fuels,143.0
08/22/2019 14:10:00,EDT,Other Renewables,289.0
08/22/2019 14:10:00,EDT,Wind,438.0
08/22/2019 14:10:00,EDT,Hydro,4031.0
08/22/2019 14:15:00,EDT,Dual Fuel,8716.0
08/22/2019 14:15:00,EDT,Natural Gas,4938.0
08/22/2019 14:15:00,EDT,Nuclear,5252.0
08/22/2019 14:15:00,EDT,Other Fossil Fuels,139.0
08/22/2019 14:15:00,EDT,Other Renewables,286.0
08/22/2019 14:15:00,EDT,Wind,441.0
08/22/2019 14:15:00,EDT,Hydro,4013.0
08/22/2019 14:20:00,EDT,Dual Fuel,8819.0
08/22/2019 14:20:00,EDT,Natural Gas,4943.0
08/22/2019 14:20:00,EDT,Nuclear,5250.0
08/22/2019 14:20:00,EDT,Other Fossil Fuels,138.0
08/22/2019 14:20:00,EDT,Other Renewables,287.0
08/22/2019 14:20:00,EDT,Wind,426.0
08/22/2019 14:20:00,EDT,Hydro,3956.0
08/22/2019 14:25:00,EDT,Dual Fuel,8876.0
08/22/2019 14:25:00,EDT,Natural Gas,4926.0
08/22/2019 14:25:00,EDT,Nuclear,5250.0
08/22/2019 14:25:00,EDT,Other Fossil Fuels,138.0
08/22/2019 14:25:00,EDT,Other Renewables,289.0
08/22/2019 14:25:00,EDT,Wind,435.0
08/22/2019 14:25:00,EDT,Hydro,3985.0
08/22/2019 14:30:00,EDT,Dual Fuel,8919.0
08/22/2019 14:30:00,EDT,Natural Gas,4924.0
08/22/2019 14:30:00,EDT,Nuclear,5249.0
08/22/2019 14:30:00,EDT,Other Fossil Fuels,138.0
08/22/2019 14:30:00,EDT,Other Renewables,291.0
08/22/2019 14:30:00,EDT,Wind,426.0
08/22/2019 14:30:00,EDT,Hydro,3925.0
08/22/2019 14:35:00,EDT,Dual Fuel,9012.0
08/22/2019 14:35:00,EDT,Natural Gas,4946.0
08/22/2019 14:35:00,EDT,Nuclear,5249.0
08/22/2019 14:35:00,EDT,Other Fossil Fuels,141.0
08/22/2019 14:35:00,EDT,Other Renewables,291.0
08/22/2019 14:35:00,EDT,Wind,423.0
08/22/2019 14:35:00,EDT,Hydro,3957.0
08/22/2019 14:40:00,EDT,Dual Fuel,9139.0
08/22/2019 14:40:00,EDT,Natural Gas,4969.0
08/22/2019 14:40:00,EDT,Nuclear,5250.0
08/22/2019 14:40:00,EDT,Other Fossil Fuels,146.0
08/22/2019 14:40:00,EDT,Other Renewables,289.0
08/22/2019 14:40:00,EDT,Wind,431.0
08/22/2019 14:40:00,EDT,Hydro,3924.0
08/22/2019 14:45:00,EDT,Dual Fuel,9261.0
08/22/2019 14:45:00,EDT,Natural Gas,4967.0
08/22/2019 14:45:00,EDT,Nuclear,5251.0
08/22/2019 14:45:00,EDT,Other Fossil Fuels,148.0
08/22/2019 14:45:00,EDT,Other Renewables,285.0
08/22/2019 14:45:00,EDT,Wind,408.0
08/22/2019 14:45:00,EDT,Hydro,3872.0
08/22/2019 14:50:00,EDT,Dual Fuel,9357.0
08/22/2019 14:50:00,EDT,Natural Gas,4912.0
08/22/2019 14:50:00,EDT,Nuclear,5251.0
08/22/2019 14:50:00,EDT,Other Fossil Fuels,147.0
08/22/2019 14:50:00,EDT,Other Renewables,288.0
08/22/2019 14:50:00,EDT,Wind,410.0
08/22/2019 14:50:00,EDT,Hydro,3887.0
08/22/2019 14:55:00,EDT,Dual Fuel,9375.0
08/22/2019 14:55:00,EDT,Natural Gas,4886.0
08/22/2019 14:55:00,EDT,Nuclear,5253.0
08/22/2019 14:55:00,EDT,Other Fossil Fuels,149.0
08/22/2019 14:55:00,EDT,Other Renewables,283.0
08/22/2019 14:55:00,EDT,Wind,433.0
08/22/2019 14:55:00,EDT,Hydro,3871.0
08/22/2019 15:00:00,EDT,Dual Fuel,9380.0
08/22/2019 15:00:00,EDT,Natural Gas,4807.0
08/22/2019 15:00:00,EDT,Nuclear,5257.0
08/22/2019 15:00:00,EDT,Other Fossil Fuels,145.0
08/22/2019 15:00:00,EDT,Other Renewables,284.0
08/22/2019 15:00:00,EDT,Wind,428.0
08/22/2019 15:00:00,EDT,Hydro,3906.0
08/22/2019 15:05:00,EDT,Dual Fuel,9366.0
08/22/2019 15:05:00,EDT,Natural Gas,4603.0
08/22/2019 15:05:00,EDT,Nuclear,5260.0
08/22/2019 15:05:00,EDT,Other Fossil Fuels,141.0
08/22/2019 15:05:00,EDT,Other Renewables,282.0
08/22/2019 15:05:00,EDT,Wind,404.0
08/22/2019 15:05:00,EDT,Hydro,3973.0
08/22/2019 15:10:00,EDT,Dual Fuel,9321.0
08/22/2019 15:10:00,EDT,Natural Gas,4561.0
08/22/2019 15:10:00,EDT,Nuclear,5259.0
08/22/2019 15:10:00,EDT,Other Fossil Fuels,140.0
08/22/2019 15:10:00,EDT,Other Renewables,281.0
08/22/2019 15:10:00,EDT,Wind,377.0
08/22/2019 15:10:00,EDT,Hydro,3999.0
08/22/2019 15:15:00,EDT,Dual Fuel,9384.0
08/22/2019 15:15:00,EDT,Natural Gas,4583.0
08/22/2019 15:15:00,EDT,Nuclear,5256.0
08/22/2019 15:15:00,EDT,Other Fossil Fuels,139.0
08/22/2019 15:15:00,EDT,Other Renewables,280.0
08/22/2019 15:15:00,EDT,Wind,356.0
08/22/2019 15:15:00,EDT,Hydro,3993.0
08/22/2019 15:20:00,EDT,Dual Fuel,9455.0
08/22/2019 15:20:00,EDT,Natural Gas,4701.0
08/22/2019 15:20:00,EDT,Nuclear,5255.0
08/22/2019 15:20:00,EDT,Other Fossil Fuels,140.0
08/22/2019 15:20:00,EDT,Other Renewables,278.0
08/22/2019 15:20:00,EDT,Wind,365.0
08/22/2019 15:20:00,EDT,Hydro,3938.0
08/22/2019 15:25:00,EDT,Dual Fuel,9498.0
08/22/2019 15:25:00,EDT,Natural Gas,4784.0
08/22/2019 15:25:00,EDT,Nuclear,5253.0
08/22/2019 15:25:00,EDT,Other Fossil Fuels,141.0
08/22/2019 15:25:00,EDT,Other Renewables,279.0
08/22/2019 15:25:00,EDT,Wind,366.0
08/22/2019 15:25:00,EDT,Hydro,3915.0
08/22/2019 15:30:00,EDT,Dual Fuel,9576.0
08/22/2019 15:30:00,EDT,Natural Gas,4785.0
08/22/2019 15:30:00,EDT,Nuclear,5251.0
08/22/2019 15:30:00,EDT,Other Fossil Fuels,138.0
08/22/2019 15:30:00,EDT,Other Renewables,279.0
08/22/2019 15:30:00,EDT,Wind,376.0
08/22/2019 15:30:00,EDT,Hydro,3942.0
08/22/2019 15:35:00,EDT,Dual Fuel,9557.0
08/22/2019 15:35:00,EDT,Natural Gas,4786.0
08/22/2019 15:35:00,EDT,Nuclear,5253.0
08/22/2019 15:35:00,EDT,Other Fossil Fuels,138.0
08/22/2019 15:35:00,EDT,Other Renewables,275.0
08/22/2019 15:35:00,EDT,Wind,384.0
08/22/2019 15:35:00,EDT,Hydro,3941.0
08/22/2019 15:40:00,EDT,Dual Fuel,9595.0
08/22/2019 15:40:00,EDT,Natural Gas,4781.0
08/22/2019 15:40:00,EDT,Nuclear,5250.0
08/22/2019 15:40:00,EDT,Other Fossil Fuels,139.0
08/22/2019 15:40:00,EDT,Other Renewables,273.0
08/22/2019 15:40:00,EDT,Wind,374.0
08/22/2019 15:40:00,EDT,Hydro,3941.0
08/22/2019 15:45:00,EDT,Dual Fuel,9667.0
08/22/2019 15:45:00,EDT,Natural Gas,4739.0
08/22/2019 15:45:00,EDT,Nuclear,5249.0
08/22/2019 15:45:00,EDT,Other Fossil Fuels,154.0
08/22/2019 15:45:00,EDT,Other Renewables,278.0
08/22/2019 15:45:00,EDT,Wind,365.0
08/22/2019 15:45:00,EDT,Hydro,3949.0
08/22/2019 15:50:00,EDT,Dual Fuel,9713.0
08/22/2019 15:50:00,EDT,Natural Gas,4700.0
08/22/2019 15:50:00,EDT,Nuclear,5251.0
08/22/2019 15:50:00,EDT,Other Fossil Fuels,159.0
08/22/2019 15:50:00,EDT,Other Renewables,279.0
08/22/2019 15:50:00,EDT,Wind,345.0
08/22/2019 15:50:00,EDT,Hydro,3954.0
08/22/2019 15:55:00,EDT,Dual Fuel,9718.0
08/22/2019 15:55:00,EDT,Natural Gas,4692.0
08/22/2019 15:55:00,EDT,Nuclear,5249.0
08/22/2019 15:55:00,EDT,Other Fossil Fuels,154.0
08/22/2019 15:55:00,EDT,Other Renewables,280.0
08/22/2019 15:55:00,EDT,Wind,331.0
08/22/2019 15:55:00,EDT,Hydro,4015.0
08/22/2019 16:00:00,EDT,Dual Fuel,9648.0
08/22/2019 16:00:00,EDT,Natural Gas,4672.0
08/22/2019 16:00:00,EDT,Nuclear,5249.0
08/22/2019 16:00:00,EDT,Other Fossil Fuels,154.0
08/22/2019 16:00:00,EDT,Other Renewables,278.0
08/22/2019 16:00:00,EDT,Wind,321.0
08/22/2019 16:00:00,EDT,Hydro,4068.0
08/22/2019 16:05:00,EDT,Dual Fuel,9521.0
08/22/2019 16:05:00,EDT,Natural Gas,4612.0
08/22/2019 16:05:00,EDT,Nuclear,5249.0
08/22/2019 16:05:00,EDT,Other Fossil Fuels,154.0
08/22/2019 16:05:00,EDT,Other Renewables,276.0
08/22/2019 16:05:00,EDT,Wind,318.0
08/22/2019 16:05:00,EDT,Hydro,4109.0
08/22/2019 16:10:00,EDT,Dual Fuel,9414.0
08/22/2019 16:10:00,EDT,Natural Gas,4567.0
08/22/2019 16:10:00,EDT,Nuclear,5249.0
08/22/2019 16:10:00,EDT,Other Fossil Fuels,167.0
08/22/2019 16:10:00,EDT,Other Renewables,276.0
08/22/2019 16:10:00,EDT,Wind,328.0
08/22/2019 16:10:00,EDT,Hydro,4092.0
08/22/2019 16:15:00,EDT,Dual Fuel,9367.0
08/22/2019 16:15:00,EDT,Natural Gas,4539.0
08/22/2019 16:15:00,EDT,Nuclear,5249.0
08/22/2019 16:15:00,EDT,Other Fossil Fuels,196.0
08/22/2019 16:15:00,EDT,Other Renewables,284.0
08/22/2019 16:15:00,EDT,Wind,333.0
08/22/2019 16:15:00,EDT,Hydro,4081.0
08/22/2019 16:20:00,EDT,Dual Fuel,9324.0
08/22/2019 16:20:00,EDT,Natural Gas,4570.0
08/22/2019 16:20:00,EDT,Nuclear,5249.0
08/22/2019 16:20:00,EDT,Other Fossil Fuels,198.0
08/22/2019 16:20:00,EDT,Other Renewables,282.0
08/22/2019 16:20:00,EDT,Wind,342.0
08/22/2019 16:20:00,EDT,Hydro,4090.0
08/22/2019 16:25:00,EDT,Dual Fuel,9325.0
08/22/2019 16:25:00,EDT,Natural Gas,4645.0
08/22/2019 16:25:00,EDT,Nuclear,5248.0
08/22/2019 16:25:00,EDT,Other Fossil Fuels,198.0
08/22/2019 16:25:00,EDT,Other Renewables,279.0
08/22/2019 16:25:00,EDT,Wind,352.0
08/22/2019 16:25:00,EDT,Hydro,4119.0
08/22/2019 16:30:00,EDT,Dual Fuel,9290.0
08/22/2019 16:30:00,EDT,Natural Gas,4684.0
08/22/2019 16:30:00,EDT,Nuclear,5248.0
08/22/2019 16:30:00,EDT,Other Fossil Fuels,198.0
08/22/2019 16:30:00,EDT,Other Renewables,273.0
08/22/2019 16:30:00,EDT,Wind,364.0
08/22/2019 16:30:00,EDT,Hydro,4080.0
08/22/2019 16:35:00,EDT,Dual Fuel,9329.0
08/22/2019 16:35:00,EDT,Natural Gas,4744.0
08/22/2019 16:35:00,EDT,Nuclear,5248.0
08/22/2019 16:35:00,EDT,Other Fossil Fuels,198.0
08/22/2019 16:35:00,EDT,Other Renewables,277.0
08/22/2019 16:35:00,EDT,Wind,339.0
08/22/2019 16:35:00,EDT,Hydro,3985.0
08/22/2019 16:40:00,EDT,Dual Fuel,9308.0
08/22/2019 16:40:00,EDT,Natural Gas,4768.0
08/22/2019 16:40:00,EDT,Nuclear,5246.0
08/22/2019 16:40:00,EDT,Other Fossil Fuels,198.0
08/22/2019 16:40:00,EDT,Other Renewables,277.0
08/22/2019 16:40:00,EDT,Wind,308.0
08/22/2019 16:40:00,EDT,Hydro,3925.0
08/22/2019 16:45:00,EDT,Dual Fuel,9328.0
08/22/2019 16:45:00,EDT,Natural Gas,4784.0
08/22/2019 16:45:00,EDT,Nuclear,5246.0
08/22/2019 16:45:00,EDT,Other Fossil Fuels,200.0
08/22/2019 16:45:00,EDT,Other Renewables,275.0
08/22/2019 16:45:00,EDT,Wind,297.0
08/22/2019 16:45:00,EDT,Hydro,3864.0
08/22/2019 16:50:00,EDT,Dual Fuel,9362.0
08/22/2019 16:50:00,EDT,Natural Gas,4793.0
08/22/2019 16:50:00,EDT,Nuclear,5246.0
08/22/2019 16:50:00,EDT,Other Fossil Fuels,206.0
08/22/2019 16:50:00,EDT,Other Renewables,273.0
08/22/2019 16:50:00,EDT,Wind,286.0
08/22/2019 16:50:00,EDT,Hydro,3851.0
08/22/2019 16:55:00,EDT,Dual Fuel,9388.0
08/22/2019 16:55:00,EDT,Natural Gas,4798.0
08/22/2019 16:55:00,EDT,Nuclear,5245.0
08/22/2019 16:55:00,EDT,Other Fossil Fuels,207.0
08/22/2019 16:55:00,EDT,Other Renewables,270.0
08/22/2019 16:55:00,EDT,Wind,267.0
08/22/2019 16:55:00,EDT,Hydro,3877.0
08/22/2019 17:00:00,EDT,Dual Fuel,9365.0
08/22/2019 17:00:00,EDT,Natural Gas,4792.0
08/22/2019 17:00:00,EDT,Nuclear,5246.0
08/22/2019 17:00:00,EDT,Other Fossil Fuels,203.0
08/22/2019 17:00:00,EDT,Other Renewables,271.0
08/22/2019 17:00:00,EDT,Wind,257.0
08/22/2019 17:00:00,EDT,Hydro,3896.0
08/22/2019 17:05:00,EDT,Dual Fuel,9307.0
08/22/2019 17:05:00,EDT,Natural Gas,4762.0
08/22/2019 17:05:00,EDT,Nuclear,5247.0
08/22/2019 17:05:00,EDT,Other Fossil Fuels,202.0
08/22/2019 17:05:00,EDT,Other Renewables,272.0
08/22/2019 17:05:00,EDT,Wind,259.0
08/22/2019 17:05:00,EDT,Hydro,3927.0
08/22/2019 17:10:00,EDT,Dual Fuel,9282.0
08/22/2019 17:10:00,EDT,Natural Gas,4680.0
08/22/2019 17:10:00,EDT,Nuclear,5248.0
08/22/2019 17:10:00,EDT,Other Fossil Fuels,199.0
08/22/2019 17:10:00,EDT,Other Renewables,271.0
08/22/2019 17:10:00,EDT,Wind,255.0
08/22/2019 17:10:00,EDT,Hydro,3958.0
08/22/2019 17:15:00,EDT,Dual Fuel,9284.0
08/22/2019 17:15:00,EDT,Natural Gas,4664.0
08/22/2019 17:15:00,EDT,Nuclear,5248.0
08/22/2019 17:15:00,EDT,Other Fossil Fuels,196.0
08/22/2019 17:15:00,EDT,Other Renewables,263.0
08/22/2019 17:15:00,EDT,Wind,243.0
08/22/2019 17:15:00,EDT,Hydro,3994.0
08/22/2019 17:20:00,EDT,Dual Fuel,9282.0
08/22/2019 17:20:00,EDT,Natural Gas,4708.0
08/22/2019 17:20:00,EDT,Nuclear,5249.0
08/22/2019 17:20:00,EDT,Other Fossil Fuels,196.0
08/22/2019 17:20:00,EDT,Other Renewables,268.0
08/22/2019 17:20:00,EDT,Wind,256.0
08/22/2019 17:20:00,EDT,Hydro,3980.0
08/22/2019 17:25:00,EDT,Dual Fuel,9249.0
08/22/2019 17:25:00,EDT,Natural Gas,4747.0
08/22/2019 17:25:00,EDT,Nuclear,5248.0
08/22/2019 17:25:00,EDT,Other Fossil Fuels,196.0
08/22/2019 17:25:00,EDT,Other Renewables,264.0
08/22/2019 17:25:00,EDT,Wind,256.0
08/22/2019 17:25:00,EDT,Hydro,3994.0
08/22/2019 17:30:00,EDT,Dual Fuel,9210.0
08/22/2019 17:30:00,EDT,Natural Gas,4746.0
08/22/2019 17:30:00,EDT,Nuclear,5251.0
08/22/2019 17:30:00,EDT,Other Fossil Fuels,196.0
08/22/2019 17:30:00,EDT,Other Renewables,263.0
08/22/2019 17:30:00,EDT,Wind,249.0
08/22/2019 17:30:00,EDT,Hydro,3981.0
08/22/2019 17:35:00,EDT,Dual Fuel,9193.0
08/22/2019 17:35:00,EDT,Natural Gas,4739.0
08/22/2019 17:35:00,EDT,Nuclear,5252.0
08/22/2019 17:35:00,EDT,Other Fossil Fuels,196.0
08/22/2019 17:35:00,EDT,Other Renewables,267.0
08/22/2019 17:35:00,EDT,Wind,240.0
08/22/2019 17:35:00,EDT,Hydro,3988.0
08/22/2019 17:40:00,EDT,Dual Fuel,9161.0
08/22/2019 17:40:00,EDT,Natural Gas,4757.0
08/22/2019 17:40:00,EDT,Nuclear,5251.0
08/22/2019 17:40:00,EDT,Other Fossil Fuels,195.0
08/22/2019 17:40:00,EDT,Other Renewables,267.0
08/22/2019 17:40:00,EDT,Wind,239.0
08/22/2019 17:40:00,EDT,Hydro,3990.0
08/22/2019 17:45:00,EDT,Dual Fuel,9185.0
08/22/2019 17:45:00,EDT,Natural Gas,4734.0
08/22/2019 17:45:00,EDT,Nuclear,5253.0
08/22/2019 17:45:00,EDT,Other Fossil Fuels,203.0
08/22/2019 17:45:00,EDT,Other Renewables,269.0
08/22/2019 17:45:00,EDT,Wind,227.0
08/22/2019 17:45:00,EDT,Hydro,3993.0
08/22/2019 17:50:00,EDT,Dual Fuel,9195.0
08/22/2019 17:50:00,EDT,Natural Gas,4720.0
08/22/2019 17:50:00,EDT,Nuclear,5254.0
08/22/2019 17:50:00,EDT,Other Fossil Fuels,239.0
08/22/2019 17:50:00,EDT,Other Renewables,263.0
08/22/2019 17:50:00,EDT,Wind,208.0
08/22/2019 17:50:00,EDT,Hydro,3975.0
08/22/2019 17:55:00,EDT,Dual Fuel,9225.0
08/22/2019 17:55:00,EDT,Natural Gas,4708.0
08/22/2019 17:55:00,EDT,Nuclear,5255.0
08/22/2019 17:55:00,EDT,Other Fossil Fuels,233.0
08/22/2019 17:55:00,EDT,Other Renewables,260.0
08/22/2019 17:55:00,EDT,Wind,194.0
08/22/2019 17:55:00,EDT,Hydro,3981.0
08/22/2019 18:00:00,EDT,Dual Fuel,9265.0
08/22/2019 18:00:00,EDT,Natural Gas,4691.0
08/22/2019 18:00:00,EDT,Nuclear,5254.0
08/22/2019 18:00:00,EDT,Other Fossil Fuels,200.0
08/22/2019 18:00:00,EDT,Other Renewables,262.0
08/22/2019 18:00:00,EDT,Wind,187.0
08/22/2019 18:00:00,EDT,Hydro,3982.0
08/22/2019 18:05:00,EDT,Dual Fuel,9331.0
08/22/2019 18:05:00,EDT,Natural Gas,4718.0
08/22/2019 18:05:00,EDT,Nuclear,5255.0
08/22/2019 18:05:00,EDT,Other Fossil Fuels,228.0
08/22/2019 18:05:00,EDT,Other Renewables,265.0
08/22/2019 18:05:00,EDT,Wind,184.0
08/22/2019 18:05:00,EDT,Hydro,3972.0
08/22/2019 18:10:00,EDT,Dual Fuel,9356.0
08/22/2019 18:10:00,EDT,Natural Gas,4727.0
08/22/2019 18:10:00,EDT,Nuclear,5254.0
08/22/2019 18:10:00,EDT,Other Fossil Fuels,240.0
08/22/2019 18:10:00,EDT,Other Renewables,263.0
08/22/2019 18:10:00,EDT,Wind,179.0
08/22/2019 18:10:00,EDT,Hydro,3953.0
08/22/2019 18:15:00,EDT,Dual Fuel,9280.0
08/22/2019 18:15:00,EDT,Natural Gas,4733.0
08/22/2019 18:15:00,EDT,Nuclear,5254.0
08/22/2019 18:15:00,EDT,Other Fossil Fuels,240.0
08/22/2019 18:15:00,EDT,Other Renewables,258.0
08/22/2019 18:15:00,EDT,Wind,187.0
08/22/2019 18:15:00,EDT,Hydro,3943.0
08/22/2019 18:20:00,EDT,Dual Fuel,9139.0
08/22/2019 18:20:00,EDT,Natural Gas,4734.0
08/22/2019 18:20:00,EDT,Nuclear,5253.0
08/22/2019 18:20:00,EDT,Other Fossil Fuels,240.0
08/22/2019 18:20:00,EDT,Other Renewables,256.0
08/22/2019 18:20:00,EDT,Wind,196.0
08/22/2019 18:20:00,EDT,Hydro,3916.0
08/22/2019 18:25:00,EDT,Dual Fuel,9064.0
08/22/2019 18:25:00,EDT,Natural Gas,4716.0
08/22/2019 18:25:00,EDT,Nuclear,5253.0
08/22/2019 18:25:00,EDT,Other Fossil Fuels,240.0
08/22/2019 18:25:00,EDT,Other Renewables,258.0
08/22/2019 18:25:00,EDT,Wind,198.0
08/22/2019 18:25:00,EDT,Hydro,3936.0
08/22/2019 18:30:00,EDT,Dual Fuel,9018.0
08/22/2019 18:30:00,EDT,Natural Gas,4703.0
08/22/2019 18:30:00,EDT,Nuclear,5253.0
08/22/2019 18:30:00,EDT,Other Fossil Fuels,241.0
08/22/2019 18:30:00,EDT,Other Renewables,259.0
08/22/2019 18:30:00,EDT,Wind,201.0
08/22/2019 18:30:00,EDT,Hydro,3947.0
08/22/2019 18:35:00,EDT,Dual Fuel,8955.0
08/22/2019 18:35:00,EDT,Natural Gas,4681.0
08/22/2019 18:35:00,EDT,Nuclear,5254.0
08/22/2019 18:35:00,EDT,Other Fossil Fuels,240.0
08/22/2019 18:35:00,EDT,Other Renewables,257.0
08/22/2019 18:35:00,EDT,Wind,198.0
08/22/2019 18:35:00,EDT,Hydro,3918.0
08/22/2019 18:40:00,EDT,Dual Fuel,8901.0
08/22/2019 18:40:00,EDT,Natural Gas,4664.0
08/22/2019 18:40:00,EDT,Nuclear,5253.0
08/22/2019 18:40:00,EDT,Other Fossil Fuels,234.0
08/22/2019 18:40:00,EDT,Other Renewables,262.0
08/22/2019 18:40:00,EDT,Wind,185.0
08/22/2019 18:40:00,EDT,Hydro,3913.0
08/22/2019 18:45:00,EDT,Dual Fuel,8822.0
08/22/2019 18:45:00,EDT,Natural Gas,4670.0
08/22/2019 18:45:00,EDT,Nuclear,5253.0
08/22/2019 18:45:00,EDT,Other Fossil Fuels,230.0
08/22/2019 18:45:00,EDT,Other Renewables,258.0
08/22/2019 18:45:00,EDT,Wind,184.0
08/22/2019 18:45:00,EDT,Hydro,3914.0
08/22/2019 18:50:00,EDT,Dual Fuel,8757.0
08/22/2019 18:50:00,EDT,Natural Gas,4700.0
08/22/2019 18:50:00,EDT,Nuclear,5254.0
08/22/2019 18:50:00,EDT,Other Fossil Fuels,231.0
08/22/2019 18:50:00,EDT,Other Renewables,258.0
08/22/2019 18:50:00,EDT,Wind,176.0
08/22/2019 18:50:00,EDT,Hydro,3918.0
08/22/2019 18:55:00,EDT,Dual Fuel,8686.0
08/22/2019 18:55:00,EDT,Natural Gas,4725.0
08/22/2019 18:55:00,EDT,Nuclear,5255.0
08/22/2019 18:55:00,EDT,Other Fossil Fuels,230.0
08/22/2019 18:55:00,EDT,Other Renewables,254.0
08/22/2019 18:55:00,EDT,Wind,177.0
08/22/2019 18:55:00,EDT,Hydro,3900.0
08/22/2019 19:00:00,EDT,Dual Fuel,8630.0
08/22/2019 19:00:00,EDT,Natural Gas,4714.0
08/22/2019 19:00:00,EDT,Nuclear,5257.0
08/22/2019 19:00:00,EDT,Other Fossil Fuels,231.0
08/22/2019 19:00:00,EDT,Other Renewables,256.0
08/22/2019 19:00:00,EDT,Wind,177.0
08/22/2019 19:00:00,EDT,Hydro,3850.0
08/22/2019 19:05:00,EDT,Dual Fuel,8639.0
08/22/2019 19:05:00,EDT,Natural Gas,4731.0
08/22/2019 19:05:00,EDT,Nuclear,5257.0
08/22/2019 19:05:00,EDT,Other Fossil Fuels,230.0
08/22/2019 19:05:00,EDT,Other Renewables,261.0
08/22/2019 19:05:00,EDT,Wind,183.0
08/22/2019 19:05:00,EDT,Hydro,3767.0
08/22/2019 19:10:00,EDT,Dual Fuel,8702.0
08/22/2019 19:10:00,EDT,Natural Gas,4726.0
08/22/2019 19:10:00,EDT,Nuclear,5256.0
08/22/2019 19:10:00,EDT,Other Fossil Fuels,231.0
08/22/2019 19:10:00,EDT,Other Renewables,263.0
08/22/2019 19:10:00,EDT,Wind,188.0
08/22/2019 19:10:00,EDT,Hydro,3721.0
08/22/2019 19:15:00,EDT,Dual Fuel,8732.0
08/22/2019 19:15:00,EDT,Natural Gas,4694.0
08/22/2019 19:15:00,EDT,Nuclear,5256.0
08/22/2019 19:15:00,EDT,Other Fossil Fuels,231.0
08/22/2019 19:15:00,EDT,Other Renewables,262.0
08/22/2019 19:15:00,EDT,Wind,195.0
08/22/2019 19:15:00,EDT,Hydro,3657.0
08/22/2019 19:20:00,EDT,Dual Fuel,8593.0
08/22/2019 19:20:00,EDT,Natural Gas,4679.0
08/22/2019 19:20:00,EDT,Nuclear,5257.0
08/22/2019 19:20:00,EDT,Other Fossil Fuels,230.0
08/22/2019 19:20:00,EDT,Other Renewables,263.0
08/22/2019 19:20:00,EDT,Wind,197.0
08/22/2019 19:20:00,EDT,Hydro,3644.0
08/22/2019 19:25:00,EDT,Dual Fuel,8501.0
08/22/2019 19:25:00,EDT,Natural Gas,4733.0
08/22/2019 19:25:00,EDT,Nuclear,5257.0
08/22/2019 19:25:00,EDT,Other Fossil Fuels,231.0
08/22/2019 19:25:00,EDT,Other Renewables,260.0
08/22/2019 19:25:00,EDT,Wind,203.0
08/22/2019 19:25:00,EDT,Hydro,3661.0
08/22/2019 19:30:00,EDT,Dual Fuel,8428.0
08/22/2019 19:30:00,EDT,Natural Gas,4740.0
08/22/2019 19:30:00,EDT,Nuclear,5257.0
08/22/2019 19:30:00,EDT,Other Fossil Fuels,231.0
08/22/2019 19:30:00,EDT,Other Renewables,262.0
08/22/2019 19:30:00,EDT,Wind,205.0
08/22/2019 19:30:00,EDT,Hydro,3666.0
08/22/2019 19:35:00,EDT,Dual Fuel,8320.0
08/22/2019 19:35:00,EDT,Natural Gas,4771.0
08/22/2019 19:35:00,EDT,Nuclear,5258.0
08/22/2019 19:35:00,EDT,Other Fossil Fuels,228.0
08/22/2019 19:35:00,EDT,Other Renewables,265.0
08/22/2019 19:35:00,EDT,Wind,213.0
08/22/2019 19:35:00,EDT,Hydro,3681.0
08/22/2019 19:40:00,EDT,Dual Fuel,8252.0
08/22/2019 19:40:00,EDT,Natural Gas,4783.0
08/22/2019 19:40:00,EDT,Nuclear,5258.0
08/22/2019 19:40:00,EDT,Other Fossil Fuels,204.0
08/22/2019 19:40:00,EDT,Other Renewables,263.0
08/22/2019 19:40:00,EDT,Wind,218.0
08/22/2019 19:40:00,EDT,Hydro,3682.0
08/22/2019 19:45:00,EDT,Dual Fuel,8216.0
08/22/2019 19:45:00,EDT,Natural Gas,4793.0
08/22/2019 19:45:00,EDT,Nuclear,5257.0
08/22/2019 19:45:00,EDT,Other Fossil Fuels,182.0
08/22/2019 19:45:00,EDT,Other Renewables,262.0
08/22/2019 19:45:00,EDT,Wind,230.0
08/22/2019 19:45:00,EDT,Hydro,3710.0
08/22/2019 19:50:00,EDT,Dual Fuel,8183.0
08/22/2019 19:50:00,EDT,Natural Gas,4781.0
08/22/2019 19:50:00,EDT,Nuclear,5257.0
08/22/2019 19:50:00,EDT,Other Fossil Fuels,181.0
08/22/2019 19:50:00,EDT,Other Renewables,261.0
08/22/2019 19:50:00,EDT,Wind,236.0
08/22/2019 19:50:00,EDT,Hydro,3724.0
08/22/2019 19:55:00,EDT,Dual Fuel,8180.0
08/22/2019 19:55:00,EDT,Natural Gas,4797.0
08/22/2019 19:55:00,EDT,Nuclear,5257.0
08/22/2019 19:55:00,EDT,Other Fossil Fuels,175.0
08/22/2019 19:55:00,EDT,Other Renewables,258.0
08/22/2019 19:55:00,EDT,Wind,248.0
08/22/2019 19:55:00,EDT,Hydro,3724.0
08/22/2019 20:00:00,EDT,Dual Fuel,8146.0
08/22/2019 20:00:00,EDT,Natural Gas,4817.0
08/22/2019 20:00:00,EDT,Nuclear,5258.0
08/22/2019 20:00:00,EDT,Other Fossil Fuels,167.0
08/22/2019 20:00:00,EDT,Other Renewables,261.0
08/22/2019 20:00:00,EDT,Wind,258.0
08/22/2019 20:00:00,EDT,Hydro,3746.0
08/22/2019 20:05:00,EDT,Dual Fuel,8158.0
08/22/2019 20:05:00,EDT,Natural Gas,4811.0
08/22/2019 20:05:00,EDT,Nuclear,5257.0
08/22/2019 20:05:00,EDT,Other Fossil Fuels,167.0
08/22/2019 20:05:00,EDT,Other Renewables,261.0
08/22/2019 20:05:00,EDT,Wind,270.0
08/22/2019 20:05:00,EDT,Hydro,3767.0
08/22/2019 20:10:00,EDT,Dual Fuel,8151.0
08/22/2019 20:10:00,EDT,Natural Gas,4825.0
08/22/2019 20:10:00,EDT,Nuclear,5257.0
08/22/2019 20:10:00,EDT,Other Fossil Fuels,167.0
08/22/2019 20:10:00,EDT,Other Renewables,261.0
08/22/2019 20:10:00,EDT,Wind,283.0
08/22/2019 20:10:00,EDT,Hydro,3772.0
08/22/2019 20:15:00,EDT,Dual Fuel,8065.0
08/22/2019 20:15:00,EDT,Natural Gas,4834.0
08/22/2019 20:15:00,EDT,Nuclear,5257.0
08/22/2019 20:15:00,EDT,Other Fossil Fuels,168.0
08/22/2019 20:15:00,EDT,Other Renewables,262.0
08/22/2019 20:15:00,EDT,Wind,292.0
08/22/2019 20:15:00,EDT,Hydro,3756.0
08/22/2019 20:20:00,EDT,Dual Fuel,7947.0
08/22/2019 20:20:00,EDT,Natural Gas,4844.0
08/22/2019 20:20:00,EDT,Nuclear,5257.0
08/22/2019 20:20:00,EDT,Other Fossil Fuels,168.0
08/22/2019 20:20:00,EDT,Other Renewables,262.0
08/22/2019 20:20:00,EDT,Wind,313.0
08/22/2019 20:20:00,EDT,Hydro,3748.0
08/22/2019 20:25:00,EDT,Dual Fuel,7855.0
08/22/2019 20:25:00,EDT,Natural Gas,4830.0
08/22/2019 20:25:00,EDT,Nuclear,5258.0
08/22/2019 20:25:00,EDT,Other Fossil Fuels,168.0
08/22/2019 20:25:00,EDT,Other Renewables,264.0
08/22/2019 20:25:00,EDT,Wind,329.0
08/22/2019 20:25:00,EDT,Hydro,3725.0
08/22/2019 20:30:00,EDT,Dual Fuel,7822.0
08/22/2019 20:30:00,EDT,Natural Gas,4824.0
08/22/2019 20:30:00,EDT,Nuclear,5257.0
08/22/2019 20:30:00,EDT,Other Fossil Fuels,167.0
08/22/2019 20:30:00,EDT,Other Renewables,261.0
08/22/2019 20:30:00,EDT,Wind,330.0
08/22/2019 20:30:00,EDT,Hydro,3726.0
08/22/2019 20:35:00,EDT,Dual Fuel,7783.0
08/22/2019 20:35:00,EDT,Natural Gas,4832.0
08/22/2019 20:35:00,EDT,Nuclear,5256.0
08/22/2019 20:35:00,EDT,Other Fossil Fuels,167.0
08/22/2019 20:35:00,EDT,Other Renewables,257.0
08/22/2019 20:35:00,EDT,Wind,334.0
08/22/2019 20:35:00,EDT,Hydro,3747.0
08/22/2019 20:40:00,EDT,Dual Fuel,7755.0
08/22/2019 20:40:00,EDT,Natural Gas,4821.0
08/22/2019 20:40:00,EDT,Nuclear,5255.0
08/22/2019 20:40:00,EDT,Other Fossil Fuels,168.0
08/22/2019 20:40:00,EDT,Other Renewables,256.0
08/22/2019 20:40:00,EDT,Wind,334.0
08/22/2019 20:40:00,EDT,Hydro,3738.0
08/22/2019 20:45:00,EDT,Dual Fuel,7767.0
08/22/2019 20:45:00,EDT,Natural Gas,4761.0
08/22/2019 20:45:00,EDT,Nuclear,5257.0
08/22/2019 20:45:00,EDT,Other Fossil Fuels,168.0
08/22/2019 20:45:00,EDT,Other Renewables,257.0
08/22/2019 20:45:00,EDT,Wind,330.0
08/22/2019 20:45:00,EDT,Hydro,3669.0
08/22/2019 20:50:00,EDT,Dual Fuel,7673.0
08/22/2019 20:50:00,EDT,Natural Gas,4766.0
08/22/2019 20:50:00,EDT,Nuclear,5242.0
08/22/2019 20:50:00,EDT,Other Fossil Fuels,168.0
08/22/2019 20:50:00,EDT,Other Renewables,262.0
08/22/2019 20:50:00,EDT,Wind,332.0
08/22/2019 20:50:00,EDT,Hydro,3645.0
08/22/2019 20:51:51,EDT,Dual Fuel,7603.0
08/22/2019 20:51:51,EDT,Natural Gas,4780.0
08/22/2019 20:51:51,EDT,Nuclear,5240.0
08/22/2019 20:51:51,EDT,Other Fossil Fuels,168.0
08/22/2019 20:51:51,EDT,Other Renewables,264.0
08/22/2019 20:51:51,EDT,Wind,335.0
08/22/2019 20:51:51,EDT,Hydro,3660.0
08/22/2019 20:54:33,EDT,Dual Fuel,7544.0
08/22/2019 20:54:33,EDT,Natural Gas,4801.0
08/22/2019 20:54:33,EDT,Nuclear,5242.0
08/22/2019 20:54:33,EDT,Other Fossil Fuels,168.0
08/22/2019 20:54:33,EDT,Other Renewables,266.0
08/22/2019 20:54:33,EDT,Wind,341.0
08/22/2019 20:54:33,EDT,Hydro,3594.0
08/22/2019 20:55:00,EDT,Dual Fuel,7491.0
08/22/2019 20:55:00,EDT,Natural Gas,4808.0
08/22/2019 20:55:00,EDT,Nuclear,5238.0
08/22/2019 20:55:00,EDT,Other Fossil Fuels,168.0
08/22/2019 20:55:00,EDT,Other Renewables,265.0
08/22/2019 20:55:00,EDT,Wind,343.0
08/22/2019 20:55:00,EDT,Hydro,3397.0
08/22/2019 21:00:00,EDT,Dual Fuel,7412.0
08/22/2019 21:00:00,EDT,Natural Gas,4801.0
08/22/2019 21:00:00,EDT,Nuclear,5234.0
08/22/2019 21:00:00,EDT,Other Fossil Fuels,168.0
08/22/2019 21:00:00,EDT,Other Renewables,264.0
08/22/2019 21:00:00,EDT,Wind,348.0
08/22/2019 21:00:00,EDT,Hydro,3317.0
08/22/2019 21:05:00,EDT,Dual Fuel,7253.0
08/22/2019 21:05:00,EDT,Natural Gas,4765.0
08/22/2019 21:05:00,EDT,Nuclear,5234.0
08/22/2019 21:05:00,EDT,Other Fossil Fuels,168.0
08/22/2019 21:05:00,EDT,Other Renewables,261.0
08/22/2019 21:05:00,EDT,Wind,353.0
08/22/2019 21:05:00,EDT,Hydro,3218.0
08/22/2019 21:10:00,EDT,Dual Fuel,7007.0
08/22/2019 21:10:00,EDT,Natural Gas,4700.0
08/22/2019 21:10:00,EDT,Nuclear,5232.0
08/22/2019 21:10:00,EDT,Other Fossil Fuels,165.0
08/22/2019 21:10:00,EDT,Other Renewables,260.0
08/22/2019 21:10:00,EDT,Wind,357.0
08/22/2019 21:10:00,EDT,Hydro,3221.0
08/22/2019 21:15:00,EDT,Dual Fuel,6740.0
08/22/2019 21:15:00,EDT,Natural Gas,4638.0
08/22/2019 21:15:00,EDT,Nuclear,5232.0
08/22/2019 21:15:00,EDT,Other Fossil Fuels,162.0
08/22/2019 21:15:00,EDT,Other Renewables,260.0
08/22/2019 21:15:00,EDT,Wind,361.0
08/22/2019 21:15:00,EDT,Hydro,3560.0
08/22/2019 21:20:00,EDT,Dual Fuel,6570.0
08/22/2019 21:20:00,EDT,Natural Gas,4658.0
08/22/2019 21:20:00,EDT,Nuclear,5237.0
08/22/2019 21:20:00,EDT,Other Fossil Fuels,162.0
08/22/2019 21:20:00,EDT,Other Renewables,262.0
08/22/2019 21:20:00,EDT,Wind,367.0
08/22/2019 21:20:00,EDT,Hydro,3506.0
08/22/2019 21:25:00,EDT,Dual Fuel,6361.0
08/22/2019 21:25:00,EDT,Natural Gas,4658.0
08/22/2019 21:25:00,EDT,Nuclear,5245.0
08/22/2019 21:25:00,EDT,Other Fossil Fuels,163.0
08/22/2019 21:25:00,EDT,Other Renewables,263.0
08/22/2019 21:25:00,EDT,Wind,377.0
08/22/2019 21:25:00,EDT,Hydro,3568.0
08/22/2019 21:30:00,EDT,Dual Fuel,6241.0
08/22/2019 21:30:00,EDT,Natural Gas,4663.0
08/22/2019 21:30:00,EDT,Nuclear,5238.0
08/22/2019 21:30:00,EDT,Other Fossil Fuels,162.0
08/22/2019 21:30:00,EDT,Other Renewables,260.0
08/22/2019 21:30:00,EDT,Wind,382.0
08/22/2019 21:30:00,EDT,Hydro,3573.0
08/22/2019 21:35:00,EDT,Dual Fuel,6111.0
08/22/2019 21:35:00,EDT,Natural Gas,4725.0
08/22/2019 21:35:00,EDT,Nuclear,5237.0
08/22/2019 21:35:00,EDT,Other Fossil Fuels,162.0
08/22/2019 21:35:00,EDT,Other Renewables,261.0
08/22/2019 21:35:00,EDT,Wind,381.0
08/22/2019 21:35:00,EDT,Hydro,3609.0
08/22/2019 21:40:00,EDT,Dual Fuel,6128.0
08/22/2019 21:40:00,EDT,Natural Gas,4699.0
08/22/2019 21:40:00,EDT,Nuclear,5237.0
08/22/2019 21:40:00,EDT,Other Fossil Fuels,153.0
08/22/2019 21:40:00,EDT,Other Renewables,261.0
08/22/2019 21:40:00,EDT,Wind,384.0
08/22/2019 21:40:00,EDT,Hydro,3596.0
08/22/2019 21:45:00,EDT,Dual Fuel,6034.0
08/22/2019 21:45:00,EDT,Natural Gas,4704.0
08/22/2019 21:45:00,EDT,Nuclear,5236.0
08/22/2019 21:45:00,EDT,Other Fossil Fuels,117.0
08/22/2019 21:45:00,EDT,Other Renewables,262.0
08/22/2019 21:45:00,EDT,Wind,379.0
08/22/2019 21:45:00,EDT,Hydro,3608.0
08/22/2019 21:50:00,EDT,Dual Fuel,5868.0
08/22/2019 21:50:00,EDT,Natural Gas,4743.0
08/22/2019 21:50:00,EDT,Nuclear,5235.0
08/22/2019 21:50:00,EDT,Other Fossil Fuels,117.0
08/22/2019 21:50:00,EDT,Other Renewables,263.0
08/22/2019 21:50:00,EDT,Wind,373.0
08/22/2019 21:50:00,EDT,Hydro,3607.0
08/22/2019 21:55:00,EDT,Dual Fuel,5747.0
08/22/2019 21:55:00,EDT,Natural Gas,4714.0
08/22/2019 21:55:00,EDT,Nuclear,5245.0
08/22/2019 21:55:00,EDT,Other Fossil Fuels,117.0
08/22/2019 21:55:00,EDT,Other Renewables,263.0
08/22/2019 21:55:00,EDT,Wind,370.0
08/22/2019 21:55:00,EDT,Hydro,3611.0
08/22/2019 22:00:00,EDT,Dual Fuel,5675.0
08/22/2019 22:00:00,EDT,Natural Gas,4633.0
08/22/2019 22:00:00,EDT,Nuclear,5238.0
08/22/2019 22:00:00,EDT,Other Fossil Fuels,117.0
08/22/2019 22:00:00,EDT,Other Renewables,260.0
08/22/2019 22:00:00,EDT,Wind,369.0
08/22/2019 22:00:00,EDT,Hydro,3569.0
08/22/2019 22:05:00,EDT,Dual Fuel,5590.0
08/22/2019 22:05:00,EDT,Natural Gas,4542.0
08/22/2019 22:05:00,EDT,Nuclear,5238.0
08/22/2019 22:05:00,EDT,Other Fossil Fuels,118.0
08/22/2019 22:05:00,EDT,Other Renewables,258.0
08/22/2019 22:05:00,EDT,Wind,361.0
08/22/2019 22:05:00,EDT,Hydro,3505.0
08/22/2019 22:10:00,EDT,Dual Fuel,5435.0
08/22/2019 22:10:00,EDT,Natural Gas,4464.0
08/22/2019 22:10:00,EDT,Nuclear,5237.0
08/22/2019 22:10:00,EDT,Other Fossil Fuels,118.0
08/22/2019 22:10:00,EDT,Other Renewables,261.0
08/22/2019 22:10:00,EDT,Wind,360.0
08/22/2019 22:10:00,EDT,Hydro,3498.0
08/22/2019 22:15:00,EDT,Dual Fuel,5296.0
08/22/2019 22:15:00,EDT,Natural Gas,4426.0
08/22/2019 22:15:00,EDT,Nuclear,5236.0
08/22/2019 22:15:00,EDT,Other Fossil Fuels,117.0
08/22/2019 22:15:00,EDT,Other Renewables,263.0
08/22/2019 22:15:00,EDT,Wind,361.0
08/22/2019 22:15:00,EDT,Hydro,3498.0
08/22/2019 22:20:00,EDT,Dual Fuel,5166.0
08/22/2019 22:20:00,EDT,Natural Gas,4450.0
08/22/2019 22:20:00,EDT,Nuclear,5238.0
08/22/2019 22:20:00,EDT,Other Fossil Fuels,117.0
08/22/2019 22:20:00,EDT,Other Renewables,264.0
08/22/2019 22:20:00,EDT,Wind,362.0
08/22/2019 22:20:00,EDT,Hydro,3490.0
08/22/2019 22:25:00,EDT,Dual Fuel,5080.0
08/22/2019 22:25:00,EDT,Natural Gas,4438.0
08/22/2019 22:25:00,EDT,Nuclear,5251.0
08/22/2019 22:25:00,EDT,Other Fossil Fuels,117.0
08/22/2019 22:25:00,EDT,Other Renewables,263.0
08/22/2019 22:25:00,EDT,Wind,358.0
08/22/2019 22:25:00,EDT,Hydro,3494.0
08/22/2019 22:30:00,EDT,Dual Fuel,4962.0
08/22/2019 22:30:00,EDT,Natural Gas,4412.0
08/22/2019 22:30:00,EDT,Nuclear,5258.0
08/22/2019 22:30:00,EDT,Other Fossil Fuels,117.0
08/22/2019 22:30:00,EDT,Other Renewables,261.0
08/22/2019 22:30:00,EDT,Wind,356.0
08/22/2019 22:30:00,EDT,Hydro,3494.0
08/22/2019 22:35:00,EDT,Dual Fuel,4924.0
08/22/2019 22:35:00,EDT,Natural Gas,4338.0
08/22/2019 22:35:00,EDT,Nuclear,5257.0
08/22/2019 22:35:00,EDT,Other Fossil Fuels,117.0
08/22/2019 22:35:00,EDT,Other Renewables,260.0
08/22/2019 22:35:00,EDT,Wind,353.0
08/22/2019 22:35:00,EDT,Hydro,3491.0
08/22/2019 22:40:00,EDT,Dual Fuel,4880.0
08/22/2019 22:40:00,EDT,Natural Gas,4275.0
08/22/2019 22:40:00,EDT,Nuclear,5258.0
08/22/2019 22:40:00,EDT,Other Fossil Fuels,117.0
08/22/2019 22:40:00,EDT,Other Renewables,259.0
08/22/2019 22:40:00,EDT,Wind,350.0
08/22/2019 22:40:00,EDT,Hydro,3490.0
08/22/2019 22:45:00,EDT,Dual Fuel,4802.0
08/22/2019 22:45:00,EDT,Natural Gas,4228.0
08/22/2019 22:45:00,EDT,Nuclear,5259.0
08/22/2019 22:45:00,EDT,Other Fossil Fuels,117.0
08/22/2019 22:45:00,EDT,Other Renewables,256.0
08/22/2019 22:45:00,EDT,Wind,344.0
08/22/2019 22:45:00,EDT,Hydro,3489.0
08/22/2019 22:50:00,EDT,Dual Fuel,4697.0
08/22/2019 22:50:00,EDT,Natural Gas,4120.0
08/22/2019 22:50:00,EDT,Nuclear,5261.0
08/22/2019 22:50:00,EDT,Other Fossil Fuels,117.0
08/22/2019 22:50:00,EDT,Other Renewables,258.0
08/22/2019 22:50:00,EDT,Wind,332.0
08/22/2019 22:50:00,EDT,Hydro,3486.0
08/22/2019 22:55:00,EDT,Dual Fuel,4621.0
08/22/2019 22:55:00,EDT,Natural Gas,4078.0
08/22/2019 22:55:00,EDT,Nuclear,5260.0
08/22/2019 22:55:00,EDT,Other Fossil Fuels,117.0
08/22/2019 22:55:00,EDT,Other Renewables,262.0
08/22/2019 22:55:00,EDT,Wind,320.0
08/22/2019 22:55:00,EDT,Hydro,3439.0
08/22/2019 23:00:00,EDT,Dual Fuel,4594.0
08/22/2019 23:00:00,EDT,Natural Gas,4142.0
08/22/2019 23:00:00,EDT,Nuclear,5259.0
08/22/2019 23:00:00,EDT,Other Fossil Fuels,118.0
08/22/2019 23:00:00,EDT,Other Renewables,264.0
08/22/2019 23:00:00,EDT,Wind,309.0
08/22/2019 23:00:00,EDT,Hydro,3302.0
08/22/2019 23:05:00,EDT,Dual Fuel,4702.0
08/22/2019 23:05:00,EDT,Natural Gas,4138.0
08/22/2019 23:05:00,EDT,Nuclear,5259.0
08/22/2019 23:05:00,EDT,Other Fossil Fuels,118.0
08/22/2019 23:05:00,EDT,Other Renewables,264.0
08/22/2019 23:05:00,EDT,Wind,299.0
08/22/2019 23:05:00,EDT,Hydro,3183.0
08/22/2019 23:10:00,EDT,Dual Fuel,4848.0
08/22/2019 23:10:00,EDT,Natural Gas,4100.0
08/22/2019 23:10:00,EDT,Nuclear,5260.0
08/22/2019 23:10:00,EDT,Other Fossil Fuels,118.0
08/22/2019 23:10:00,EDT,Other Renewables,263.0
08/22/2019 23:10:00,EDT,Wind,288.0
08/22/2019 23:10:00,EDT,Hydro,3193.0
08/22/2019 23:15:00,EDT,Dual Fuel,4863.0
08/22/2019 23:15:00,EDT,Natural Gas,4046.0
08/22/2019 23:15:00,EDT,Nuclear,5259.0
08/22/2019 23:15:00,EDT,Other Fossil Fuels,88.0
08/22/2019 23:15:00,EDT,Other Renewables,262.0
08/22/2019 23:15:00,EDT,Wind,276.0
08/22/2019 23:15:00,EDT,Hydro,3174.0
08/22/2019 23:20:00,EDT,Dual Fuel,4792.0
08/22/2019 23:20:00,EDT,Natural Gas,4006.0
08/22/2019 23:20:00,EDT,Nuclear,5260.0
08/22/2019 23:20:00,EDT,Other Fossil Fuels,67.0
08/22/2019 23:20:00,EDT,Other Renewables,264.0
08/22/2019 23:20:00,EDT,Wind,262.0
08/22/2019 23:20:00,EDT,Hydro,3160.0
08/22/2019 23:25:00,EDT,Dual Fuel,4681.0
08/22/2019 23:25:00,EDT,Natural Gas,3974.0
08/22/2019 23:25:00,EDT,Nuclear,5260.0
08/22/2019 23:25:00,EDT,Other Fossil Fuels,67.0
08/22/2019 23:25:00,EDT,Other Renewables,265.0
08/22/2019 23:25:00,EDT,Wind,254.0
08/22/2019 23:25:00,EDT,Hydro,3139.0
08/22/2019 23:30:00,EDT,Dual Fuel,4631.0
08/22/2019 23:30:00,EDT,Natural Gas,3948.0
08/22/2019 23:30:00,EDT,Nuclear,5259.0
08/22/2019 23:30:00,EDT,Other Fossil Fuels,68.0
08/22/2019 23:30:00,EDT,Other Renewables,261.0
08/22/2019 23:30:00,EDT,Wind,237.0
08/22/2019 23:30:00,EDT,Hydro,3156.0
08/22/2019 23:35:00,EDT,Dual Fuel,4622.0
08/22/2019 23:35:00,EDT,Natural Gas,3926.0
08/22/2019 23:35:00,EDT,Nuclear,5261.0
08/22/2019 23:35:00,EDT,Other Fossil Fuels,68.0
08/22/2019 23:35:00,EDT,Other Renewables,262.0
08/22/2019 23:35:00,EDT,Wind,219.0
08/22/2019 23:35:00,EDT,Hydro,3149.0
08/22/2019 23:40:00,EDT,Dual Fuel,4650.0
08/22/2019 23:40:00,EDT,Natural Gas,3826.0
08/22/2019 23:40:00,EDT,Nuclear,5262.0
08/22/2019 23:40:00,EDT,Other Fossil Fuels,68.0
08/22/2019 23:40:00,EDT,Other Renewables,262.0
08/22/2019 23:40:00,EDT,Wind,208.0
08/22/2019 23:40:00,EDT,Hydro,3171.0
08/22/2019 23:45:00,EDT,Dual Fuel,4684.0
08/22/2019 23:45:00,EDT,Natural Gas,3685.0
08/22/2019 23:45:00,EDT,Nuclear,5263.0
08/22/2019 23:45:00,EDT,Other Fossil Fuels,67.0
08/22/2019 23:45:00,EDT,Other Renewables,263.0
08/22/2019 23:45:00,EDT,Wind,196.0
08/22/2019 23:45:00,EDT,Hydro,3150.0
08/22/2019 23:50:00,EDT,Dual Fuel,4645.0
08/22/2019 23:50:00,EDT,Natural Gas,3558.0
08/22/2019 23:50:00,EDT,Nuclear,5263.0
08/22/2019 23:50:00,EDT,Other Fossil Fuels,68.0
08/22/2019 23:50:00,EDT,Other Renewables,265.0
08/22/2019 23:50:00,EDT,Wind,184.0
08/22/2019 23:50:00,EDT,Hydro,3120.0
08/22/2019 23:55:00,EDT,Dual Fuel,4599.0
08/22/2019 23:55:00,EDT,Natural Gas,3482.0
08/22/2019 23:55:00,EDT,Nuclear,5265.0
08/22/2019 23:55:00,EDT,Other Fossil Fuels,65.0
08/22/2019 23:55:00,EDT,Other Renewables,263.0
08/22/2019 23:55:00,EDT,Wind,176.0
08/22/2019 23:55:00,EDT,Hydro,3084.0