Time Stamp,Time Zone,Fuel Category,Gen MW
08/21/2019 00:05:00,EDT,Dual Fuel,4667.0
08/21/2019 00:05:00,EDT,Natural Gas,3860.0
08/21/2019 00:05:00,EDT,Nuclear,5271.0
08/21/2019 00:05:00,EDT,Other Fossil Fuels,51.0
08/21/2019 00:05:00,EDT,Other Renewables,267.0
08/21/2019 00:05:00,EDT,Wind,615.0
08/21/2019 00:05:00,EDT,Hydro,2833.0
08/21/2019 00:10:00,EDT,Dual Fuel,4639.0
08/21/2019 00:10:00,EDT,Natural Gas,3748.0
08/21/2019 00:10:00,EDT,Nuclear,5271.0
08/21/2019 00:10:00,EDT,Other Fossil Fuels,51.0
08/21/2019 00:10:00,EDT,Other Renewables,268.0
08/21/2019 00:10:00,EDT,Wind,623.0
08/21/2019 00:10:00,EDT,Hydro,2694.0
08/21/2019 00:15:00,EDT,Dual Fuel,4720.0
08/21/2019 00:15:00,EDT,Natural Gas,3596.0
08/21/2019 00:15:00,EDT,Nuclear,5269.0
08/21/2019 00:15:00,EDT,Other Fossil Fuels,51.0
08/21/2019 00:15:00,EDT,Other Renewables,265.0
08/21/2019 00:15:00,EDT,Wind,617.0
08/21/2019 00:15:00,EDT,Hydro,2679.0
08/21/2019 00:20:00,EDT,Dual Fuel,4660.0
08/21/2019 00:20:00,EDT,Natural Gas,3487.0
08/21/2019 00:20:00,EDT,Nuclear,5268.0
08/21/2019 00:20:00,EDT,Other Fossil Fuels,51.0
08/21/2019 00:20:00,EDT,Other Renewables,268.0
08/21/2019 00:20:00,EDT,Wind,615.0
08/21/2019 00:20:00,EDT,Hydro,2706.0
08/21/2019 00:25:00,EDT,Dual Fuel,4487.0
08/21/2019 00:25:00,EDT,Natural Gas,3491.0
08/21/2019 00:25:00,EDT,Nuclear,5267.0
08/21/2019 00:25:00,EDT,Other Fossil Fuels,51.0
08/21/2019 00:25:00,EDT,Other Renewables,269.0
08/21/2019 00:25:00,EDT,Wind,615.0
08/21/2019 00:25:00,EDT,Hydro,2737.0
08/21/2019 00:30:00,EDT,Dual Fuel,4405.0
08/21/2019 00:30:00,EDT,Natural Gas,3493.0
08/21/2019 00:30:00,EDT,Nuclear,5266.0
08/21/2019 00:30:00,EDT,Other Fossil Fuels,51.0
08/21/2019 00:30:00,EDT,Other Renewables,265.0
08/21/2019 00:30:00,EDT,Wind,615.0
08/21/2019 00:30:00,EDT,Hydro,2739.0
08/21/2019 00:35:00,EDT,Dual Fuel,4365.0
08/21/2019 00:35:00,EDT,Natural Gas,3514.0
08/21/2019 00:35:00,EDT,Nuclear,5265.0
08/21/2019 00:35:00,EDT,Other Fossil Fuels,51.0
08/21/2019 00:35:00,EDT,Other Renewables,266.0
08/21/2019 00:35:00,EDT,Wind,623.0
08/21/2019 00:35:00,EDT,Hydro,2740.0
08/21/2019 00:40:00,EDT,Dual Fuel,4307.0
08/21/2019 00:40:00,EDT,Natural Gas,3450.0
08/21/2019 00:40:00,EDT,Nuclear,5262.0
08/21/2019 00:40:00,EDT,Other Fossil Fuels,51.0
08/21/2019 00:40:00,EDT,Other Renewables,265.0
08/21/2019 00:40:00,EDT,Wind,629.0
08/21/2019 00:40:00,EDT,Hydro,2736.0
08/21/2019 00:45:00,EDT,Dual Fuel,4262.0
08/21/2019 00:45:00,EDT,Natural Gas,3407.0
08/21/2019 00:45:00,EDT,Nuclear,5260.0
08/21/2019 00:45:00,EDT,Other Fossil Fuels,51.0
08/21/2019 00:45:00,EDT,Other Renewables,268.0
08/21/2019 00:45:00,EDT,Wind,628.0
08/21/2019 00:45:00,EDT,Hydro,2729.0
08/21/2019 00:50:00,EDT,Dual Fuel,4227.0
08/21/2019 00:50:00,EDT,Natural Gas,3358.0
08/21/2019 00:50:00,EDT,Nuclear,5260.0
08/21/2019 00:50:00,EDT,Other Fossil Fuels,51.0
08/21/2019 00:50:00,EDT,Other Renewables,267.0
08/21/2019 00:50:00,EDT,Wind,635.0
08/21/2019 00:50:00,EDT,Hydro,2735.0
08/21/2019 00:55:00,EDT,Dual Fuel,4162.0
08/21/2019 00:55:00,EDT,Natural Gas,3401.0
08/21/2019 00:55:00,EDT,Nuclear,5262.0
08/21/2019 00:55:00,EDT,Other Fossil Fuels,51.0
08/21/2019 00:55:00,EDT,Other Renewables,261.0
08/21/2019 00:55:00,EDT,Wind,635.0
08/21/2019 00:55:00,EDT,Hydro,2711.0
08/21/2019 01:00:00,EDT,Dual Fuel,4108.0
08/21/2019 01:00:00,EDT,Natural Gas,3473.0
08/21/2019 01:00:00,EDT,Nuclear,5263.0
08/21/2019 01:00:00,EDT,Other Fossil Fuels,51.0
08/21/2019 01:00:00,EDT,Other Renewables,267.0
08/21/2019 01:00:00,EDT,Wind,646.0
08/21/2019 01:00:00,EDT,Hydro,2684.0
08/21/2019 01:05:00,EDT,Dual Fuel,4143.0
08/21/2019 01:05:00,EDT,Natural Gas,3596.0
08/21/2019 01:05:00,EDT,Nuclear,5263.0
08/21/2019 01:05:00,EDT,Other Fossil Fuels,50.0
08/21/2019 01:05:00,EDT,Other Renewables,269.0
08/21/2019 01:05:00,EDT,Wind,662.0
08/21/2019 01:05:00,EDT,Hydro,2723.0
08/21/2019 01:10:00,EDT,Dual Fuel,4146.0
08/21/2019 01:10:00,EDT,Natural Gas,3622.0
08/21/2019 01:10:00,EDT,Nuclear,5265.0
08/21/2019 01:10:00,EDT,Other Fossil Fuels,51.0
08/21/2019 01:10:00,EDT,Other Renewables,269.0
08/21/2019 01:10:00,EDT,Wind,682.0
08/21/2019 01:10:00,EDT,Hydro,2582.0
08/21/2019 01:15:00,EDT,Dual Fuel,4046.0
08/21/2019 01:15:00,EDT,Natural Gas,3532.0
08/21/2019 01:15:00,EDT,Nuclear,5264.0
08/21/2019 01:15:00,EDT,Other Fossil Fuels,51.0
08/21/2019 01:15:00,EDT,Other Renewables,270.0
08/21/2019 01:15:00,EDT,Wind,690.0
08/21/2019 01:15:00,EDT,Hydro,2550.0
08/21/2019 01:20:00,EDT,Dual Fuel,4008.0
08/21/2019 01:20:00,EDT,Natural Gas,3414.0
08/21/2019 01:20:00,EDT,Nuclear,5267.0
08/21/2019 01:20:00,EDT,Other Fossil Fuels,51.0
08/21/2019 01:20:00,EDT,Other Renewables,268.0
08/21/2019 01:20:00,EDT,Wind,683.0
08/21/2019 01:20:00,EDT,Hydro,2617.0
08/21/2019 01:25:00,EDT,Dual Fuel,3996.0
08/21/2019 01:25:00,EDT,Natural Gas,3410.0
08/21/2019 01:25:00,EDT,Nuclear,5265.0
08/21/2019 01:25:00,EDT,Other Fossil Fuels,51.0
08/21/2019 01:25:00,EDT,Other Renewables,267.0
08/21/2019 01:25:00,EDT,Wind,684.0
08/21/2019 01:25:00,EDT,Hydro,2614.0
08/21/2019 01:30:00,EDT,Dual Fuel,4022.0
08/21/2019 01:30:00,EDT,Natural Gas,3405.0
08/21/2019 01:30:00,EDT,Nuclear,5267.0
08/21/2019 01:30:00,EDT,Other Fossil Fuels,51.0
08/21/2019 01:30:00,EDT,Other Renewables,270.0
08/21/2019 01:30:00,EDT,Wind,662.0
08/21/2019 01:30:00,EDT,Hydro,2634.0
08/21/2019 01:35:00,EDT,Dual Fuel,3930.0
08/21/2019 01:35:00,EDT,Natural Gas,3378.0
08/21/2019 01:35:00,EDT,Nuclear,5272.0
08/21/2019 01:35:00,EDT,Other Fossil Fuels,51.0
08/21/2019 01:35:00,EDT,Other Renewables,267.0
08/21/2019 01:35:00,EDT,Wind,643.0
08/21/2019 01:35:00,EDT,Hydro,2658.0
08/21/2019 01:40:00,EDT,Dual Fuel,3865.0
08/21/2019 01:40:00,EDT,Natural Gas,3370.0
08/21/2019 01:40:00,EDT,Nuclear,5271.0
08/21/2019 01:40:00,EDT,Other Fossil Fuels,51.0
08/21/2019 01:40:00,EDT,Other Renewables,267.0
08/21/2019 01:40:00,EDT,Wind,642.0
08/21/2019 01:40:00,EDT,Hydro,2691.0
08/21/2019 01:45:00,EDT,Dual Fuel,3840.0
08/21/2019 01:45:00,EDT,Natural Gas,3352.0
08/21/2019 01:45:00,EDT,Nuclear,5266.0
08/21/2019 01:45:00,EDT,Other Fossil Fuels,51.0
08/21/2019 01:45:00,EDT,Other Renewables,267.0
08/21/2019 01:45:00,EDT,Wind,638.0
08/21/2019 01:45:00,EDT,Hydro,2733.0
08/21/2019 01:50:00,EDT,Dual Fuel,3850.0
08/21/2019 01:50:00,EDT,Natural Gas,3337.0
08/21/2019 01:50:00,EDT,Nuclear,5266.0
08/21/2019 01:50:00,EDT,Other Fossil Fuels,51.0
08/21/2019 01:50:00,EDT,Other Renewables,263.0
08/21/2019 01:50:00,EDT,Wind,653.0
08/21/2019 01:50:00,EDT,Hydro,2734.0
08/21/2019 01:55:00,EDT,Dual Fuel,3803.0
08/21/2019 01:55:00,EDT,Natural Gas,3332.0
08/21/2019 01:55:00,EDT,Nuclear,5267.0
08/21/2019 01:55:00,EDT,Other Fossil Fuels,51.0
08/21/2019 01:55:00,EDT,Other Renewables,261.0
08/21/2019 01:55:00,EDT,Wind,665.0
08/21/2019 01:55:00,EDT,Hydro,2728.0
08/21/2019 02:00:00,EDT,Dual Fuel,3753.0
08/21/2019 02:00:00,EDT,Natural Gas,3327.0
08/21/2019 02:00:00,EDT,Nuclear,5264.0
08/21/2019 02:00:00,EDT,Other Fossil Fuels,51.0
08/21/2019 02:00:00,EDT,Other Renewables,267.0
08/21/2019 02:00:00,EDT,Wind,658.0
08/21/2019 02:00:00,EDT,Hydro,2735.0
08/21/2019 02:05:00,EDT,Dual Fuel,3748.0
08/21/2019 02:05:00,EDT,Natural Gas,3295.0
08/21/2019 02:05:00,EDT,Nuclear,5262.0
08/21/2019 02:05:00,EDT,Other Fossil Fuels,51.0
08/21/2019 02:05:00,EDT,Other Renewables,266.0
08/21/2019 02:05:00,EDT,Wind,656.0
08/21/2019 02:05:00,EDT,Hydro,2741.0
08/21/2019 02:10:00,EDT,Dual Fuel,3763.0
08/21/2019 02:10:00,EDT,Natural Gas,3283.0
08/21/2019 02:10:00,EDT,Nuclear,5263.0
08/21/2019 02:10:00,EDT,Other Fossil Fuels,51.0
08/21/2019 02:10:00,EDT,Other Renewables,267.0
08/21/2019 02:10:00,EDT,Wind,646.0
08/21/2019 02:10:00,EDT,Hydro,2735.0
08/21/2019 02:15:00,EDT,Dual Fuel,3729.0
08/21/2019 02:15:00,EDT,Natural Gas,3283.0
08/21/2019 02:15:00,EDT,Nuclear,5261.0
08/21/2019 02:15:00,EDT,Other Fossil Fuels,51.0
08/21/2019 02:15:00,EDT,Other Renewables,265.0
08/21/2019 02:15:00,EDT,Wind,619.0
08/21/2019 02:15:00,EDT,Hydro,2737.0
08/21/2019 02:20:00,EDT,Dual Fuel,3765.0
08/21/2019 02:20:00,EDT,Natural Gas,3283.0
08/21/2019 02:20:00,EDT,Nuclear,5261.0
08/21/2019 02:20:00,EDT,Other Fossil Fuels,50.0
08/21/2019 02:20:00,EDT,Other Renewables,266.0
08/21/2019 02:20:00,EDT,Wind,599.0
08/21/2019 02:20:00,EDT,Hydro,2737.0
08/21/2019 02:25:00,EDT,Dual Fuel,3770.0
08/21/2019 02:25:00,EDT,Natural Gas,3270.0
08/21/2019 02:25:00,EDT,Nuclear,5262.0
08/21/2019 02:25:00,EDT,Other Fossil Fuels,51.0
08/21/2019 02:25:00,EDT,Other Renewables,266.0
08/21/2019 02:25:00,EDT,Wind,590.0
08/21/2019 02:25:00,EDT,Hydro,2735.0
08/21/2019 02:30:00,EDT,Dual Fuel,3763.0
08/21/2019 02:30:00,EDT,Natural Gas,3245.0
08/21/2019 02:30:00,EDT,Nuclear,5260.0
08/21/2019 02:30:00,EDT,Other Fossil Fuels,50.0
08/21/2019 02:30:00,EDT,Other Renewables,267.0
08/21/2019 02:30:00,EDT,Wind,602.0
08/21/2019 02:30:00,EDT,Hydro,2733.0
08/21/2019 02:35:00,EDT,Dual Fuel,3747.0
08/21/2019 02:35:00,EDT,Natural Gas,3216.0
08/21/2019 02:35:00,EDT,Nuclear,5263.0
08/21/2019 02:35:00,EDT,Other Fossil Fuels,51.0
08/21/2019 02:35:00,EDT,Other Renewables,264.0
08/21/2019 02:35:00,EDT,Wind,619.0
08/21/2019 02:35:00,EDT,Hydro,2735.0
08/21/2019 02:40:00,EDT,Dual Fuel,3723.0
08/21/2019 02:40:00,EDT,Natural Gas,3227.0
08/21/2019 02:40:00,EDT,Nuclear,5262.0
08/21/2019 02:40:00,EDT,Other Fossil Fuels,50.0
08/21/2019 02:40:00,EDT,Other Renewables,262.0
08/21/2019 02:40:00,EDT,Wind,615.0
08/21/2019 02:40:00,EDT,Hydro,2725.0
08/21/2019 02:45:00,EDT,Dual Fuel,3699.0
08/21/2019 02:45:00,EDT,Natural Gas,3226.0
08/21/2019 02:45:00,EDT,Nuclear,5261.0
08/21/2019 02:45:00,EDT,Other Fossil Fuels,51.0
08/21/2019 02:45:00,EDT,Other Renewables,265.0
08/21/2019 02:45:00,EDT,Wind,615.0
08/21/2019 02:45:00,EDT,Hydro,2651.0
08/21/2019 02:50:00,EDT,Dual Fuel,3699.0
08/21/2019 02:50:00,EDT,Natural Gas,3240.0
08/21/2019 02:50:00,EDT,Nuclear,5259.0
08/21/2019 02:50:00,EDT,Other Fossil Fuels,51.0
08/21/2019 02:50:00,EDT,Other Renewables,262.0
08/21/2019 02:50:00,EDT,Wind,625.0
08/21/2019 02:50:00,EDT,Hydro,2588.0
08/21/2019 02:55:00,EDT,Dual Fuel,3697.0
08/21/2019 02:55:00,EDT,Natural Gas,3253.0
08/21/2019 02:55:00,EDT,Nuclear,5258.0
08/21/2019 02:55:00,EDT,Other Fossil Fuels,51.0
08/21/2019 02:55:00,EDT,Other Renewables,261.0
08/21/2019 02:55:00,EDT,Wind,642.0
08/21/2019 02:55:00,EDT,Hydro,2571.0
08/21/2019 03:00:00,EDT,Dual Fuel,3654.0
08/21/2019 03:00:00,EDT,Natural Gas,3271.0
08/21/2019 03:00:00,EDT,Nuclear,5257.0
08/21/2019 03:00:00,EDT,Other Fossil Fuels,50.0
08/21/2019 03:00:00,EDT,Other Renewables,263.0
08/21/2019 03:00:00,EDT,Wind,656.0
08/21/2019 03:00:00,EDT,Hydro,2597.0
08/21/2019 03:05:00,EDT,Dual Fuel,3703.0
08/21/2019 03:05:00,EDT,Natural Gas,3292.0
08/21/2019 03:05:00,EDT,Nuclear,5258.0
08/21/2019 03:05:00,EDT,Other Fossil Fuels,51.0
08/21/2019 03:05:00,EDT,Other Renewables,265.0
08/21/2019 03:05:00,EDT,Wind,647.0
08/21/2019 03:05:00,EDT,Hydro,2670.0
08/21/2019 03:10:00,EDT,Dual Fuel,3720.0
08/21/2019 03:10:00,EDT,Natural Gas,3281.0
08/21/2019 03:10:00,EDT,Nuclear,5256.0
08/21/2019 03:10:00,EDT,Other Fossil Fuels,50.0
08/21/2019 03:10:00,EDT,Other Renewables,262.0
08/21/2019 03:10:00,EDT,Wind,635.0
08/21/2019 03:10:00,EDT,Hydro,2606.0
08/21/2019 03:15:00,EDT,Dual Fuel,3732.0
08/21/2019 03:15:00,EDT,Natural Gas,3272.0
08/21/2019 03:15:00,EDT,Nuclear,5257.0
08/21/2019 03:15:00,EDT,Other Fossil Fuels,51.0
08/21/2019 03:15:00,EDT,Other Renewables,260.0
08/21/2019 03:15:00,EDT,Wind,623.0
08/21/2019 03:15:00,EDT,Hydro,2612.0
08/21/2019 03:20:00,EDT,Dual Fuel,3714.0
08/21/2019 03:20:00,EDT,Natural Gas,3303.0
08/21/2019 03:20:00,EDT,Nuclear,5258.0
08/21/2019 03:20:00,EDT,Other Fossil Fuels,50.0
08/21/2019 03:20:00,EDT,Other Renewables,262.0
08/21/2019 03:20:00,EDT,Wind,600.0
08/21/2019 03:20:00,EDT,Hydro,2651.0
08/21/2019 03:25:00,EDT,Dual Fuel,3705.0
08/21/2019 03:25:00,EDT,Natural Gas,3308.0
08/21/2019 03:25:00,EDT,Nuclear,5258.0
08/21/2019 03:25:00,EDT,Other Fossil Fuels,50.0
08/21/2019 03:25:00,EDT,Other Renewables,260.0
08/21/2019 03:25:00,EDT,Wind,579.0
08/21/2019 03:25:00,EDT,Hydro,2693.0
08/21/2019 03:30:00,EDT,Dual Fuel,3679.0
08/21/2019 03:30:00,EDT,Natural Gas,3299.0
08/21/2019 03:30:00,EDT,Nuclear,5258.0
08/21/2019 03:30:00,EDT,Other Fossil Fuels,51.0
08/21/2019 03:30:00,EDT,Other Renewables,262.0
08/21/2019 03:30:00,EDT,Wind,617.0
08/21/2019 03:30:00,EDT,Hydro,2720.0
08/21/2019 03:35:00,EDT,Dual Fuel,3662.0
08/21/2019 03:35:00,EDT,Natural Gas,3300.0
08/21/2019 03:35:00,EDT,Nuclear,5259.0
08/21/2019 03:35:00,EDT,Other Fossil Fuels,51.0
08/21/2019 03:35:00,EDT,Other Renewables,260.0
08/21/2019 03:35:00,EDT,Wind,677.0
08/21/2019 03:35:00,EDT,Hydro,2673.0
08/21/2019 03:40:00,EDT,Dual Fuel,3650.0
08/21/2019 03:40:00,EDT,Natural Gas,3282.0
08/21/2019 03:40:00,EDT,Nuclear,5257.0
08/21/2019 03:40:00,EDT,Other Fossil Fuels,50.0
08/21/2019 03:40:00,EDT,Other Renewables,261.0
08/21/2019 03:40:00,EDT,Wind,697.0
08/21/2019 03:40:00,EDT,Hydro,2612.0
08/21/2019 03:45:00,EDT,Dual Fuel,3627.0
08/21/2019 03:45:00,EDT,Natural Gas,3260.0
08/21/2019 03:45:00,EDT,Nuclear,5260.0
08/21/2019 03:45:00,EDT,Other Fossil Fuels,51.0
08/21/2019 03:45:00,EDT,Other Renewables,260.0
08/21/2019 03:45:00,EDT,Wind,682.0
08/21/2019 03:45:00,EDT,Hydro,2601.0
08/21/2019 03:50:00,EDT,Dual Fuel,3639.0
08/21/2019 03:50:00,EDT,Natural Gas,3263.0
08/21/2019 03:50:00,EDT,Nuclear,5260.0
08/21/2019 03:50:00,EDT,Other Fossil Fuels,51.0
08/21/2019 03:50:00,EDT,Other Renewables,261.0
08/21/2019 03:50:00,EDT,Wind,677.0
08/21/2019 03:50:00,EDT,Hydro,2604.0
08/21/2019 03:55:00,EDT,Dual Fuel,3630.0
08/21/2019 03:55:00,EDT,Natural Gas,3270.0
08/21/2019 03:55:00,EDT,Nuclear,5262.0
08/21/2019 03:55:00,EDT,Other Fossil Fuels,50.0
08/21/2019 03:55:00,EDT,Other Renewables,259.0
08/21/2019 03:55:00,EDT,Wind,679.0
08/21/2019 03:55:00,EDT,Hydro,2601.0
08/21/2019 04:00:00,EDT,Dual Fuel,3608.0
08/21/2019 04:00:00,EDT,Natural Gas,3285.0
08/21/2019 04:00:00,EDT,Nuclear,5263.0
08/21/2019 04:00:00,EDT,Other Fossil Fuels,50.0
08/21/2019 04:00:00,EDT,Other Renewables,262.0
08/21/2019 04:00:00,EDT,Wind,643.0
08/21/2019 04:00:00,EDT,Hydro,2622.0
08/21/2019 04:05:00,EDT,Dual Fuel,3667.0
08/21/2019 04:05:00,EDT,Natural Gas,3279.0
08/21/2019 04:05:00,EDT,Nuclear,5263.0
08/21/2019 04:05:00,EDT,Other Fossil Fuels,51.0
08/21/2019 04:05:00,EDT,Other Renewables,261.0
08/21/2019 04:05:00,EDT,Wind,632.0
08/21/2019 04:05:00,EDT,Hydro,2661.0
08/21/2019 04:10:00,EDT,Dual Fuel,3696.0
08/21/2019 04:10:00,EDT,Natural Gas,3295.0
08/21/2019 04:10:00,EDT,Nuclear,5264.0
08/21/2019 04:10:00,EDT,Other Fossil Fuels,51.0
08/21/2019 04:10:00,EDT,Other Renewables,256.0
08/21/2019 04:10:00,EDT,Wind,599.0
08/21/2019 04:10:00,EDT,Hydro,2730.0
08/21/2019 04:15:00,EDT,Dual Fuel,3702.0
08/21/2019 04:15:00,EDT,Natural Gas,3315.0
08/21/2019 04:15:00,EDT,Nuclear,5267.0
08/21/2019 04:15:00,EDT,Other Fossil Fuels,51.0
08/21/2019 04:15:00,EDT,Other Renewables,260.0
08/21/2019 04:15:00,EDT,Wind,577.0
08/21/2019 04:15:00,EDT,Hydro,2730.0
08/21/2019 04:20:00,EDT,Dual Fuel,3703.0
08/21/2019 04:20:00,EDT,Natural Gas,3320.0
08/21/2019 04:20:00,EDT,Nuclear,5269.0
08/21/2019 04:20:00,EDT,Other Fossil Fuels,51.0
08/21/2019 04:20:00,EDT,Other Renewables,262.0
08/21/2019 04:20:00,EDT,Wind,560.0
08/21/2019 04:20:00,EDT,Hydro,2733.0
08/21/2019 04:25:00,EDT,Dual Fuel,3703.0
08/21/2019 04:25:00,EDT,Natural Gas,3308.0
08/21/2019 04:25:00,EDT,Nuclear,5267.0
08/21/2019 04:25:00,EDT,Other Fossil Fuels,50.0
08/21/2019 04:25:00,EDT,Other Renewables,258.0
08/21/2019 04:25:00,EDT,Wind,540.0
08/21/2019 04:25:00,EDT,Hydro,2737.0
08/21/2019 04:30:00,EDT,Dual Fuel,3706.0
08/21/2019 04:30:00,EDT,Natural Gas,3292.0
08/21/2019 04:30:00,EDT,Nuclear,5269.0
08/21/2019 04:30:00,EDT,Other Fossil Fuels,51.0
08/21/2019 04:30:00,EDT,Other Renewables,257.0
08/21/2019 04:30:00,EDT,Wind,540.0
08/21/2019 04:30:00,EDT,Hydro,2735.0
08/21/2019 04:35:00,EDT,Dual Fuel,3706.0
08/21/2019 04:35:00,EDT,Natural Gas,3309.0
08/21/2019 04:35:00,EDT,Nuclear,5269.0
08/21/2019 04:35:00,EDT,Other Fossil Fuels,50.0
08/21/2019 04:35:00,EDT,Other Renewables,263.0
08/21/2019 04:35:00,EDT,Wind,541.0
08/21/2019 04:35:00,EDT,Hydro,2737.0
08/21/2019 04:40:00,EDT,Dual Fuel,3707.0
08/21/2019 04:40:00,EDT,Natural Gas,3324.0
08/21/2019 04:40:00,EDT,Nuclear,5268.0
08/21/2019 04:40:00,EDT,Other Fossil Fuels,51.0
08/21/2019 04:40:00,EDT,Other Renewables,263.0
08/21/2019 04:40:00,EDT,Wind,544.0
08/21/2019 04:40:00,EDT,Hydro,2733.0
08/21/2019 04:45:00,EDT,Dual Fuel,3718.0
08/21/2019 04:45:00,EDT,Natural Gas,3315.0
08/21/2019 04:45:00,EDT,Nuclear,5270.0
08/21/2019 04:45:00,EDT,Other Fossil Fuels,51.0
08/21/2019 04:45:00,EDT,Other Renewables,270.0
08/21/2019 04:45:00,EDT,Wind,541.0
08/21/2019 04:45:00,EDT,Hydro,2740.0
08/21/2019 04:50:00,EDT,Dual Fuel,3719.0
08/21/2019 04:50:00,EDT,Natural Gas,3334.0
08/21/2019 04:50:00,EDT,Nuclear,5270.0
08/21/2019 04:50:00,EDT,Other Fossil Fuels,51.0
08/21/2019 04:50:00,EDT,Other Renewables,272.0
08/21/2019 04:50:00,EDT,Wind,532.0
08/21/2019 04:50:00,EDT,Hydro,2737.0
08/21/2019 04:55:00,EDT,Dual Fuel,3714.0
08/21/2019 04:55:00,EDT,Natural Gas,3343.0
08/21/2019 04:55:00,EDT,Nuclear,5269.0
08/21/2019 04:55:00,EDT,Other Fossil Fuels,50.0
08/21/2019 04:55:00,EDT,Other Renewables,266.0
08/21/2019 04:55:00,EDT,Wind,509.0
08/21/2019 04:55:00,EDT,Hydro,2738.0
08/21/2019 05:00:00,EDT,Dual Fuel,3713.0
08/21/2019 05:00:00,EDT,Natural Gas,3354.0
08/21/2019 05:00:00,EDT,Nuclear,5270.0
08/21/2019 05:00:00,EDT,Other Fossil Fuels,51.0
08/21/2019 05:00:00,EDT,Other Renewables,265.0
08/21/2019 05:00:00,EDT,Wind,488.0
08/21/2019 05:00:00,EDT,Hydro,2738.0
08/21/2019 05:05:00,EDT,Dual Fuel,3726.0
08/21/2019 05:05:00,EDT,Natural Gas,3351.0
08/21/2019 05:05:00,EDT,Nuclear,5270.0
08/21/2019 05:05:00,EDT,Other Fossil Fuels,51.0
08/21/2019 05:05:00,EDT,Other Renewables,267.0
08/21/2019 05:05:00,EDT,Wind,525.0
08/21/2019 05:05:00,EDT,Hydro,2766.0
08/21/2019 05:10:00,EDT,Dual Fuel,3756.0
08/21/2019 05:10:00,EDT,Natural Gas,3428.0
08/21/2019 05:10:00,EDT,Nuclear,5269.0
08/21/2019 05:10:00,EDT,Other Fossil Fuels,51.0
08/21/2019 05:10:00,EDT,Other Renewables,270.0
08/21/2019 05:10:00,EDT,Wind,539.0
08/21/2019 05:10:00,EDT,Hydro,2797.0
08/21/2019 05:15:00,EDT,Dual Fuel,3803.0
08/21/2019 05:15:00,EDT,Natural Gas,3456.0
08/21/2019 05:15:00,EDT,Nuclear,5270.0
08/21/2019 05:15:00,EDT,Other Fossil Fuels,51.0
08/21/2019 05:15:00,EDT,Other Renewables,271.0
08/21/2019 05:15:00,EDT,Wind,544.0
08/21/2019 05:15:00,EDT,Hydro,2736.0
08/21/2019 05:20:00,EDT,Dual Fuel,3821.0
08/21/2019 05:20:00,EDT,Natural Gas,3485.0
08/21/2019 05:20:00,EDT,Nuclear,5271.0
08/21/2019 05:20:00,EDT,Other Fossil Fuels,51.0
08/21/2019 05:20:00,EDT,Other Renewables,267.0
08/21/2019 05:20:00,EDT,Wind,512.0
08/21/2019 05:20:00,EDT,Hydro,2734.0
08/21/2019 05:25:00,EDT,Dual Fuel,3881.0
08/21/2019 05:25:00,EDT,Natural Gas,3524.0
08/21/2019 05:25:00,EDT,Nuclear,5270.0
08/21/2019 05:25:00,EDT,Other Fossil Fuels,51.0
08/21/2019 05:25:00,EDT,Other Renewables,269.0
08/21/2019 05:25:00,EDT,Wind,480.0
08/21/2019 05:25:00,EDT,Hydro,2738.0
08/21/2019 05:30:00,EDT,Dual Fuel,3916.0
08/21/2019 05:30:00,EDT,Natural Gas,3572.0
08/21/2019 05:30:00,EDT,Nuclear,5271.0
08/21/2019 05:30:00,EDT,Other Fossil Fuels,55.0
08/21/2019 05:30:00,EDT,Other Renewables,265.0
08/21/2019 05:30:00,EDT,Wind,468.0
08/21/2019 05:30:00,EDT,Hydro,2759.0
08/21/2019 05:35:00,EDT,Dual Fuel,3846.0
08/21/2019 05:35:00,EDT,Natural Gas,3618.0
08/21/2019 05:35:00,EDT,Nuclear,5270.0
08/21/2019 05:35:00,EDT,Other Fossil Fuels,57.0
08/21/2019 05:35:00,EDT,Other Renewables,263.0
08/21/2019 05:35:00,EDT,Wind,468.0
08/21/2019 05:35:00,EDT,Hydro,2824.0
08/21/2019 05:40:00,EDT,Dual Fuel,3884.0
08/21/2019 05:40:00,EDT,Natural Gas,3676.0
08/21/2019 05:40:00,EDT,Nuclear,5270.0
08/21/2019 05:40:00,EDT,Other Fossil Fuels,57.0
08/21/2019 05:40:00,EDT,Other Renewables,267.0
08/21/2019 05:40:00,EDT,Wind,456.0
08/21/2019 05:40:00,EDT,Hydro,2873.0
08/21/2019 05:45:00,EDT,Dual Fuel,3963.0
08/21/2019 05:45:00,EDT,Natural Gas,3744.0
08/21/2019 05:45:00,EDT,Nuclear,5271.0
08/21/2019 05:45:00,EDT,Other Fossil Fuels,58.0
08/21/2019 05:45:00,EDT,Other Renewables,269.0
08/21/2019 05:45:00,EDT,Wind,442.0
08/21/2019 05:45:00,EDT,Hydro,2868.0
08/21/2019 05:50:00,EDT,Dual Fuel,4089.0
08/21/2019 05:50:00,EDT,Natural Gas,3729.0
08/21/2019 05:50:00,EDT,Nuclear,5271.0
08/21/2019 05:50:00,EDT,Other Fossil Fuels,57.0
08/21/2019 05:50:00,EDT,Other Renewables,268.0
08/21/2019 05:50:00,EDT,Wind,430.0
08/21/2019 05:50:00,EDT,Hydro,2868.0
08/21/2019 05:55:00,EDT,Dual Fuel,4059.0
08/21/2019 05:55:00,EDT,Natural Gas,3754.0
08/21/2019 05:55:00,EDT,Nuclear,5271.0
08/21/2019 05:55:00,EDT,Other Fossil Fuels,57.0
08/21/2019 05:55:00,EDT,Other Renewables,267.0
08/21/2019 05:55:00,EDT,Wind,406.0
08/21/2019 05:55:00,EDT,Hydro,2932.0
08/21/2019 06:00:00,EDT,Dual Fuel,3993.0
08/21/2019 06:00:00,EDT,Natural Gas,3791.0
08/21/2019 06:00:00,EDT,Nuclear,5272.0
08/21/2019 06:00:00,EDT,Other Fossil Fuels,57.0
08/21/2019 06:00:00,EDT,Other Renewables,265.0
08/21/2019 06:00:00,EDT,Wind,389.0
08/21/2019 06:00:00,EDT,Hydro,3016.0
08/21/2019 06:05:00,EDT,Dual Fuel,3949.0
08/21/2019 06:05:00,EDT,Natural Gas,3807.0
08/21/2019 06:05:00,EDT,Nuclear,5273.0
08/21/2019 06:05:00,EDT,Other Fossil Fuels,57.0
08/21/2019 06:05:00,EDT,Other Renewables,263.0
08/21/2019 06:05:00,EDT,Wind,411.0
08/21/2019 06:05:00,EDT,Hydro,3097.0
08/21/2019 06:10:00,EDT,Dual Fuel,3946.0
08/21/2019 06:10:00,EDT,Natural Gas,3849.0
08/21/2019 06:10:00,EDT,Nuclear,5272.0
08/21/2019 06:10:00,EDT,Other Fossil Fuels,57.0
08/21/2019 06:10:00,EDT,Other Renewables,262.0
08/21/2019 06:10:00,EDT,Wind,422.0
08/21/2019 06:10:00,EDT,Hydro,3119.0
08/21/2019 06:15:00,EDT,Dual Fuel,3959.0
08/21/2019 06:15:00,EDT,Natural Gas,3877.0
08/21/2019 06:15:00,EDT,Nuclear,5271.0
08/21/2019 06:15:00,EDT,Other Fossil Fuels,57.0
08/21/2019 06:15:00,EDT,Other Renewables,266.0
08/21/2019 06:15:00,EDT,Wind,412.0
08/21/2019 06:15:00,EDT,Hydro,3169.0
08/21/2019 06:20:00,EDT,Dual Fuel,3983.0
08/21/2019 06:20:00,EDT,Natural Gas,3890.0
08/21/2019 06:20:00,EDT,Nuclear,5271.0
08/21/2019 06:20:00,EDT,Other Fossil Fuels,57.0
08/21/2019 06:20:00,EDT,Other Renewables,263.0
08/21/2019 06:20:00,EDT,Wind,410.0
08/21/2019 06:20:00,EDT,Hydro,3219.0
08/21/2019 06:25:00,EDT,Dual Fuel,4017.0
08/21/2019 06:25:00,EDT,Natural Gas,3957.0
08/21/2019 06:25:00,EDT,Nuclear,5273.0
08/21/2019 06:25:00,EDT,Other Fossil Fuels,53.0
08/21/2019 06:25:00,EDT,Other Renewables,267.0
08/21/2019 06:25:00,EDT,Wind,418.0
08/21/2019 06:25:00,EDT,Hydro,3267.0
08/21/2019 06:30:00,EDT,Dual Fuel,4055.0
08/21/2019 06:30:00,EDT,Natural Gas,4039.0
08/21/2019 06:30:00,EDT,Nuclear,5271.0
08/21/2019 06:30:00,EDT,Other Fossil Fuels,51.0
08/21/2019 06:30:00,EDT,Other Renewables,265.0
08/21/2019 06:30:00,EDT,Wind,410.0
08/21/2019 06:30:00,EDT,Hydro,3258.0
08/21/2019 06:35:00,EDT,Dual Fuel,4071.0
08/21/2019 06:35:00,EDT,Natural Gas,4058.0
08/21/2019 06:35:00,EDT,Nuclear,5272.0
08/21/2019 06:35:00,EDT,Other Fossil Fuels,50.0
08/21/2019 06:35:00,EDT,Other Renewables,267.0
08/21/2019 06:35:00,EDT,Wind,409.0
08/21/2019 06:35:00,EDT,Hydro,3241.0
08/21/2019 06:40:00,EDT,Dual Fuel,4121.0
08/21/2019 06:40:00,EDT,Natural Gas,4082.0
08/21/2019 06:40:00,EDT,Nuclear,5271.0
08/21/2019 06:40:00,EDT,Other Fossil Fuels,51.0
08/21/2019 06:40:00,EDT,Other Renewables,267.0
08/21/2019 06:40:00,EDT,Wind,410.0
08/21/2019 06:40:00,EDT,Hydro,3236.0
08/21/2019 06:45:00,EDT,Dual Fuel,4223.0
08/21/2019 06:45:00,EDT,Natural Gas,4105.0
08/21/2019 06:45:00,EDT,Nuclear,5271.0
08/21/2019 06:45:00,EDT,Other Fossil Fuels,51.0
08/21/2019 06:45:00,EDT,Other Renewables,265.0
08/21/2019 06:45:00,EDT,Wind,416.0
08/21/2019 06:45:00,EDT,Hydro,3206.0
08/21/2019 06:50:00,EDT,Dual Fuel,4211.0
08/21/2019 06:50:00,EDT,Natural Gas,4105.0
08/21/2019 06:50:00,EDT,Nuclear,5272.0
08/21/2019 06:50:00,EDT,Other Fossil Fuels,50.0
08/21/2019 06:50:00,EDT,Other Renewables,261.0
08/21/2019 06:50:00,EDT,Wind,433.0
08/21/2019 06:50:00,EDT,Hydro,3185.0
08/21/2019 06:55:00,EDT,Dual Fuel,4215.0
08/21/2019 06:55:00,EDT,Natural Gas,4130.0
08/21/2019 06:55:00,EDT,Nuclear,5270.0
08/21/2019 06:55:00,EDT,Other Fossil Fuels,51.0
08/21/2019 06:55:00,EDT,Other Renewables,260.0
08/21/2019 06:55:00,EDT,Wind,411.0
08/21/2019 06:55:00,EDT,Hydro,3195.0
08/21/2019 07:00:00,EDT,Dual Fuel,4235.0
08/21/2019 07:00:00,EDT,Natural Gas,4149.0
08/21/2019 07:00:00,EDT,Nuclear,5269.0
08/21/2019 07:00:00,EDT,Other Fossil Fuels,61.0
08/21/2019 07:00:00,EDT,Other Renewables,265.0
08/21/2019 07:00:00,EDT,Wind,391.0
08/21/2019 07:00:00,EDT,Hydro,3209.0
08/21/2019 07:05:00,EDT,Dual Fuel,4208.0
08/21/2019 07:05:00,EDT,Natural Gas,4087.0
08/21/2019 07:05:00,EDT,Nuclear,5269.0
08/21/2019 07:05:00,EDT,Other Fossil Fuels,61.0
08/21/2019 07:05:00,EDT,Other Renewables,265.0
08/21/2019 07:05:00,EDT,Wind,397.0
08/21/2019 07:05:00,EDT,Hydro,3192.0
08/21/2019 07:10:00,EDT,Dual Fuel,4111.0
08/21/2019 07:10:00,EDT,Natural Gas,4084.0
08/21/2019 07:10:00,EDT,Nuclear,5267.0
08/21/2019 07:10:00,EDT,Other Fossil Fuels,61.0
08/21/2019 07:10:00,EDT,Other Renewables,263.0
08/21/2019 07:10:00,EDT,Wind,410.0
08/21/2019 07:10:00,EDT,Hydro,3227.0
08/21/2019 07:15:00,EDT,Dual Fuel,4155.0
08/21/2019 07:15:00,EDT,Natural Gas,4102.0
08/21/2019 07:15:00,EDT,Nuclear,5266.0
08/21/2019 07:15:00,EDT,Other Fossil Fuels,62.0
08/21/2019 07:15:00,EDT,Other Renewables,267.0
08/21/2019 07:15:00,EDT,Wind,390.0
08/21/2019 07:15:00,EDT,Hydro,3274.0
08/21/2019 07:20:00,EDT,Dual Fuel,4204.0
08/21/2019 07:20:00,EDT,Natural Gas,4093.0
08/21/2019 07:20:00,EDT,Nuclear,5266.0
08/21/2019 07:20:00,EDT,Other Fossil Fuels,62.0
08/21/2019 07:20:00,EDT,Other Renewables,266.0
08/21/2019 07:20:00,EDT,Wind,371.0
08/21/2019 07:20:00,EDT,Hydro,3292.0
08/21/2019 07:25:00,EDT,Dual Fuel,4316.0
08/21/2019 07:25:00,EDT,Natural Gas,4104.0
08/21/2019 07:25:00,EDT,Nuclear,5264.0
08/21/2019 07:25:00,EDT,Other Fossil Fuels,62.0
08/21/2019 07:25:00,EDT,Other Renewables,265.0
08/21/2019 07:25:00,EDT,Wind,373.0
08/21/2019 07:25:00,EDT,Hydro,3277.0
08/21/2019 07:30:00,EDT,Dual Fuel,4394.0
08/21/2019 07:30:00,EDT,Natural Gas,4118.0
08/21/2019 07:30:00,EDT,Nuclear,5262.0
08/21/2019 07:30:00,EDT,Other Fossil Fuels,61.0
08/21/2019 07:30:00,EDT,Other Renewables,267.0
08/21/2019 07:30:00,EDT,Wind,383.0
08/21/2019 07:30:00,EDT,Hydro,3293.0
08/21/2019 07:35:00,EDT,Dual Fuel,4433.0
08/21/2019 07:35:00,EDT,Natural Gas,4118.0
08/21/2019 07:35:00,EDT,Nuclear,5263.0
08/21/2019 07:35:00,EDT,Other Fossil Fuels,61.0
08/21/2019 07:35:00,EDT,Other Renewables,267.0
08/21/2019 07:35:00,EDT,Wind,409.0
08/21/2019 07:35:00,EDT,Hydro,3278.0
08/21/2019 07:40:00,EDT,Dual Fuel,4484.0
08/21/2019 07:40:00,EDT,Natural Gas,4111.0
08/21/2019 07:40:00,EDT,Nuclear,5262.0
08/21/2019 07:40:00,EDT,Other Fossil Fuels,62.0
08/21/2019 07:40:00,EDT,Other Renewables,267.0
08/21/2019 07:40:00,EDT,Wind,427.0
08/21/2019 07:40:00,EDT,Hydro,3261.0
08/21/2019 07:45:00,EDT,Dual Fuel,4514.0
08/21/2019 07:45:00,EDT,Natural Gas,4106.0
08/21/2019 07:45:00,EDT,Nuclear,5262.0
08/21/2019 07:45:00,EDT,Other Fossil Fuels,62.0
08/21/2019 07:45:00,EDT,Other Renewables,266.0
08/21/2019 07:45:00,EDT,Wind,415.0
08/21/2019 07:45:00,EDT,Hydro,3268.0
08/21/2019 07:50:00,EDT,Dual Fuel,4549.0
08/21/2019 07:50:00,EDT,Natural Gas,4102.0
08/21/2019 07:50:00,EDT,Nuclear,5264.0
08/21/2019 07:50:00,EDT,Other Fossil Fuels,62.0
08/21/2019 07:50:00,EDT,Other Renewables,264.0
08/21/2019 07:50:00,EDT,Wind,431.0
08/21/2019 07:50:00,EDT,Hydro,3245.0
08/21/2019 07:55:00,EDT,Dual Fuel,4574.0
08/21/2019 07:55:00,EDT,Natural Gas,4110.0
08/21/2019 07:55:00,EDT,Nuclear,5261.0
08/21/2019 07:55:00,EDT,Other Fossil Fuels,61.0
08/21/2019 07:55:00,EDT,Other Renewables,265.0
08/21/2019 07:55:00,EDT,Wind,489.0
08/21/2019 07:55:00,EDT,Hydro,3220.0
08/21/2019 08:00:00,EDT,Dual Fuel,4602.0
08/21/2019 08:00:00,EDT,Natural Gas,4118.0
08/21/2019 08:00:00,EDT,Nuclear,5260.0
08/21/2019 08:00:00,EDT,Other Fossil Fuels,61.0
08/21/2019 08:00:00,EDT,Other Renewables,262.0
08/21/2019 08:00:00,EDT,Wind,537.0
08/21/2019 08:00:00,EDT,Hydro,3218.0
08/21/2019 08:05:00,EDT,Dual Fuel,4567.0
08/21/2019 08:05:00,EDT,Natural Gas,4127.0
08/21/2019 08:05:00,EDT,Nuclear,5260.0
08/21/2019 08:05:00,EDT,Other Fossil Fuels,61.0
08/21/2019 08:05:00,EDT,Other Renewables,265.0
08/21/2019 08:05:00,EDT,Wind,514.0
08/21/2019 08:05:00,EDT,Hydro,3197.0
08/21/2019 08:10:00,EDT,Dual Fuel,4515.0
08/21/2019 08:10:00,EDT,Natural Gas,4189.0
08/21/2019 08:10:00,EDT,Nuclear,5261.0
08/21/2019 08:10:00,EDT,Other Fossil Fuels,61.0
08/21/2019 08:10:00,EDT,Other Renewables,262.0
08/21/2019 08:10:00,EDT,Wind,494.0
08/21/2019 08:10:00,EDT,Hydro,3284.0
08/21/2019 08:15:00,EDT,Dual Fuel,4560.0
08/21/2019 08:15:00,EDT,Natural Gas,4228.0
08/21/2019 08:15:00,EDT,Nuclear,5261.0
08/21/2019 08:15:00,EDT,Other Fossil Fuels,61.0
08/21/2019 08:15:00,EDT,Other Renewables,269.0
08/21/2019 08:15:00,EDT,Wind,492.0
08/21/2019 08:15:00,EDT,Hydro,3317.0
08/21/2019 08:20:00,EDT,Dual Fuel,4600.0
08/21/2019 08:20:00,EDT,Natural Gas,4226.0
08/21/2019 08:20:00,EDT,Nuclear,5263.0
08/21/2019 08:20:00,EDT,Other Fossil Fuels,62.0
08/21/2019 08:20:00,EDT,Other Renewables,272.0
08/21/2019 08:20:00,EDT,Wind,530.0
08/21/2019 08:20:00,EDT,Hydro,3329.0
08/21/2019 08:25:00,EDT,Dual Fuel,4632.0
08/21/2019 08:25:00,EDT,Natural Gas,4239.0
08/21/2019 08:25:00,EDT,Nuclear,5264.0
08/21/2019 08:25:00,EDT,Other Fossil Fuels,61.0
08/21/2019 08:25:00,EDT,Other Renewables,273.0
08/21/2019 08:25:00,EDT,Wind,558.0
08/21/2019 08:25:00,EDT,Hydro,3320.0
08/21/2019 08:30:00,EDT,Dual Fuel,4653.0
08/21/2019 08:30:00,EDT,Natural Gas,4252.0
08/21/2019 08:30:00,EDT,Nuclear,5264.0
08/21/2019 08:30:00,EDT,Other Fossil Fuels,61.0
08/21/2019 08:30:00,EDT,Other Renewables,272.0
08/21/2019 08:30:00,EDT,Wind,532.0
08/21/2019 08:30:00,EDT,Hydro,3302.0
08/21/2019 08:35:00,EDT,Dual Fuel,4666.0
08/21/2019 08:35:00,EDT,Natural Gas,4279.0
08/21/2019 08:35:00,EDT,Nuclear,5263.0
08/21/2019 08:35:00,EDT,Other Fossil Fuels,73.0
08/21/2019 08:35:00,EDT,Other Renewables,269.0
08/21/2019 08:35:00,EDT,Wind,472.0
08/21/2019 08:35:00,EDT,Hydro,3418.0
08/21/2019 08:40:00,EDT,Dual Fuel,4698.0
08/21/2019 08:40:00,EDT,Natural Gas,4326.0
08/21/2019 08:40:00,EDT,Nuclear,5262.0
08/21/2019 08:40:00,EDT,Other Fossil Fuels,78.0
08/21/2019 08:40:00,EDT,Other Renewables,269.0
08/21/2019 08:40:00,EDT,Wind,391.0
08/21/2019 08:40:00,EDT,Hydro,3504.0
08/21/2019 08:45:00,EDT,Dual Fuel,4767.0
08/21/2019 08:45:00,EDT,Natural Gas,4358.0
08/21/2019 08:45:00,EDT,Nuclear,5263.0
08/21/2019 08:45:00,EDT,Other Fossil Fuels,78.0
08/21/2019 08:45:00,EDT,Other Renewables,268.0
08/21/2019 08:45:00,EDT,Wind,333.0
08/21/2019 08:45:00,EDT,Hydro,3552.0
08/21/2019 08:50:00,EDT,Dual Fuel,4832.0
08/21/2019 08:50:00,EDT,Natural Gas,4375.0
08/21/2019 08:50:00,EDT,Nuclear,5263.0
08/21/2019 08:50:00,EDT,Other Fossil Fuels,78.0
08/21/2019 08:50:00,EDT,Other Renewables,268.0
08/21/2019 08:50:00,EDT,Wind,318.0
08/21/2019 08:50:00,EDT,Hydro,3630.0
08/21/2019 08:55:00,EDT,Dual Fuel,4908.0
08/21/2019 08:55:00,EDT,Natural Gas,4387.0
08/21/2019 08:55:00,EDT,Nuclear,5262.0
08/21/2019 08:55:00,EDT,Other Fossil Fuels,78.0
08/21/2019 08:55:00,EDT,Other Renewables,269.0
08/21/2019 08:55:00,EDT,Wind,300.0
08/21/2019 08:55:00,EDT,Hydro,3642.0
08/21/2019 09:00:00,EDT,Dual Fuel,4991.0
08/21/2019 09:00:00,EDT,Natural Gas,4393.0
08/21/2019 09:00:00,EDT,Nuclear,5263.0
08/21/2019 09:00:00,EDT,Other Fossil Fuels,78.0
08/21/2019 09:00:00,EDT,Other Renewables,271.0
08/21/2019 09:00:00,EDT,Wind,287.0
08/21/2019 09:00:00,EDT,Hydro,3673.0
08/21/2019 09:05:00,EDT,Dual Fuel,5033.0
08/21/2019 09:05:00,EDT,Natural Gas,4364.0
08/21/2019 09:05:00,EDT,Nuclear,5262.0
08/21/2019 09:05:00,EDT,Other Fossil Fuels,78.0
08/21/2019 09:05:00,EDT,Other Renewables,273.0
08/21/2019 09:05:00,EDT,Wind,273.0
08/21/2019 09:05:00,EDT,Hydro,3754.0
08/21/2019 09:10:00,EDT,Dual Fuel,5020.0
08/21/2019 09:10:00,EDT,Natural Gas,4359.0
08/21/2019 09:10:00,EDT,Nuclear,5262.0
08/21/2019 09:10:00,EDT,Other Fossil Fuels,78.0
08/21/2019 09:10:00,EDT,Other Renewables,274.0
08/21/2019 09:10:00,EDT,Wind,251.0
08/21/2019 09:10:00,EDT,Hydro,3748.0
08/21/2019 09:15:00,EDT,Dual Fuel,5050.0
08/21/2019 09:15:00,EDT,Natural Gas,4398.0
08/21/2019 09:15:00,EDT,Nuclear,5264.0
08/21/2019 09:15:00,EDT,Other Fossil Fuels,78.0
08/21/2019 09:15:00,EDT,Other Renewables,276.0
08/21/2019 09:15:00,EDT,Wind,238.0
08/21/2019 09:15:00,EDT,Hydro,3750.0
08/21/2019 09:20:00,EDT,Dual Fuel,5183.0
08/21/2019 09:20:00,EDT,Natural Gas,4423.0
08/21/2019 09:20:00,EDT,Nuclear,5263.0
08/21/2019 09:20:00,EDT,Other Fossil Fuels,78.0
08/21/2019 09:20:00,EDT,Other Renewables,273.0
08/21/2019 09:20:00,EDT,Wind,218.0
08/21/2019 09:20:00,EDT,Hydro,3758.0
08/21/2019 09:25:00,EDT,Dual Fuel,5263.0
08/21/2019 09:25:00,EDT,Natural Gas,4486.0
08/21/2019 09:25:00,EDT,Nuclear,5262.0
08/21/2019 09:25:00,EDT,Other Fossil Fuels,78.0
08/21/2019 09:25:00,EDT,Other Renewables,274.0
08/21/2019 09:25:00,EDT,Wind,200.0
08/21/2019 09:25:00,EDT,Hydro,3758.0
08/21/2019 09:30:00,EDT,Dual Fuel,5345.0
08/21/2019 09:30:00,EDT,Natural Gas,4505.0
08/21/2019 09:30:00,EDT,Nuclear,5265.0
08/21/2019 09:30:00,EDT,Other Fossil Fuels,78.0
08/21/2019 09:30:00,EDT,Other Renewables,277.0
08/21/2019 09:30:00,EDT,Wind,181.0
08/21/2019 09:30:00,EDT,Hydro,3754.0
08/21/2019 09:35:00,EDT,Dual Fuel,5456.0
08/21/2019 09:35:00,EDT,Natural Gas,4505.0
08/21/2019 09:35:00,EDT,Nuclear,5267.0
08/21/2019 09:35:00,EDT,Other Fossil Fuels,78.0
08/21/2019 09:35:00,EDT,Other Renewables,274.0
08/21/2019 09:35:00,EDT,Wind,164.0
08/21/2019 09:35:00,EDT,Hydro,3757.0
08/21/2019 09:40:00,EDT,Dual Fuel,5514.0
08/21/2019 09:40:00,EDT,Natural Gas,4506.0
08/21/2019 09:40:00,EDT,Nuclear,5267.0
08/21/2019 09:40:00,EDT,Other Fossil Fuels,78.0
08/21/2019 09:40:00,EDT,Other Renewables,279.0
08/21/2019 09:40:00,EDT,Wind,172.0
08/21/2019 09:40:00,EDT,Hydro,3760.0
08/21/2019 09:45:00,EDT,Dual Fuel,5564.0
08/21/2019 09:45:00,EDT,Natural Gas,4501.0
08/21/2019 09:45:00,EDT,Nuclear,5265.0
08/21/2019 09:45:00,EDT,Other Fossil Fuels,78.0
08/21/2019 09:45:00,EDT,Other Renewables,278.0
08/21/2019 09:45:00,EDT,Wind,245.0
08/21/2019 09:45:00,EDT,Hydro,3800.0
08/21/2019 09:50:00,EDT,Dual Fuel,5597.0
08/21/2019 09:50:00,EDT,Natural Gas,4464.0
08/21/2019 09:50:00,EDT,Nuclear,5266.0
08/21/2019 09:50:00,EDT,Other Fossil Fuels,78.0
08/21/2019 09:50:00,EDT,Other Renewables,279.0
08/21/2019 09:50:00,EDT,Wind,278.0
08/21/2019 09:50:00,EDT,Hydro,3885.0
08/21/2019 09:55:00,EDT,Dual Fuel,5583.0
08/21/2019 09:55:00,EDT,Natural Gas,4491.0
08/21/2019 09:55:00,EDT,Nuclear,5266.0
08/21/2019 09:55:00,EDT,Other Fossil Fuels,78.0
08/21/2019 09:55:00,EDT,Other Renewables,274.0
08/21/2019 09:55:00,EDT,Wind,249.0
08/21/2019 09:55:00,EDT,Hydro,3892.0
08/21/2019 10:00:00,EDT,Dual Fuel,5714.0
08/21/2019 10:00:00,EDT,Natural Gas,4537.0
08/21/2019 10:00:00,EDT,Nuclear,5264.0
08/21/2019 10:00:00,EDT,Other Fossil Fuels,78.0
08/21/2019 10:00:00,EDT,Other Renewables,276.0
08/21/2019 10:00:00,EDT,Wind,183.0
08/21/2019 10:00:00,EDT,Hydro,3923.0
08/21/2019 10:05:00,EDT,Dual Fuel,5897.0
08/21/2019 10:05:00,EDT,Natural Gas,4582.0
08/21/2019 10:05:00,EDT,Nuclear,5265.0
08/21/2019 10:05:00,EDT,Other Fossil Fuels,78.0
08/21/2019 10:05:00,EDT,Other Renewables,277.0
08/21/2019 10:05:00,EDT,Wind,118.0
08/21/2019 10:05:00,EDT,Hydro,3953.0
08/21/2019 10:10:00,EDT,Dual Fuel,6070.0
08/21/2019 10:10:00,EDT,Natural Gas,4618.0
08/21/2019 10:10:00,EDT,Nuclear,5267.0
08/21/2019 10:10:00,EDT,Other Fossil Fuels,78.0
08/21/2019 10:10:00,EDT,Other Renewables,275.0
08/21/2019 10:10:00,EDT,Wind,91.0
08/21/2019 10:10:00,EDT,Hydro,3962.0
08/21/2019 10:15:00,EDT,Dual Fuel,6260.0
08/21/2019 10:15:00,EDT,Natural Gas,4666.0
08/21/2019 10:15:00,EDT,Nuclear,5265.0
08/21/2019 10:15:00,EDT,Other Fossil Fuels,78.0
08/21/2019 10:15:00,EDT,Other Renewables,275.0
08/21/2019 10:15:00,EDT,Wind,89.0
08/21/2019 10:15:00,EDT,Hydro,3954.0
08/21/2019 10:20:00,EDT,Dual Fuel,6400.0
08/21/2019 10:20:00,EDT,Natural Gas,4687.0
08/21/2019 10:20:00,EDT,Nuclear,5266.0
08/21/2019 10:20:00,EDT,Other Fossil Fuels,84.0
08/21/2019 10:20:00,EDT,Other Renewables,277.0
08/21/2019 10:20:00,EDT,Wind,97.0
08/21/2019 10:20:00,EDT,Hydro,3950.0
08/21/2019 10:25:00,EDT,Dual Fuel,6508.0
08/21/2019 10:25:00,EDT,Natural Gas,4689.0
08/21/2019 10:25:00,EDT,Nuclear,5267.0
08/21/2019 10:25:00,EDT,Other Fossil Fuels,119.0
08/21/2019 10:25:00,EDT,Other Renewables,272.0
08/21/2019 10:25:00,EDT,Wind,111.0
08/21/2019 10:25:00,EDT,Hydro,3950.0
08/21/2019 10:30:00,EDT,Dual Fuel,6653.0
08/21/2019 10:30:00,EDT,Natural Gas,4643.0
08/21/2019 10:30:00,EDT,Nuclear,5267.0
08/21/2019 10:30:00,EDT,Other Fossil Fuels,127.0
08/21/2019 10:30:00,EDT,Other Renewables,276.0
08/21/2019 10:30:00,EDT,Wind,137.0
08/21/2019 10:30:00,EDT,Hydro,3946.0
08/21/2019 10:35:00,EDT,Dual Fuel,6792.0
08/21/2019 10:35:00,EDT,Natural Gas,4573.0
08/21/2019 10:35:00,EDT,Nuclear,5266.0
08/21/2019 10:35:00,EDT,Other Fossil Fuels,127.0
08/21/2019 10:35:00,EDT,Other Renewables,279.0
08/21/2019 10:35:00,EDT,Wind,160.0
08/21/2019 10:35:00,EDT,Hydro,3952.0
08/21/2019 10:40:00,EDT,Dual Fuel,6843.0
08/21/2019 10:40:00,EDT,Natural Gas,4589.0
08/21/2019 10:40:00,EDT,Nuclear,5268.0
08/21/2019 10:40:00,EDT,Other Fossil Fuels,127.0
08/21/2019 10:40:00,EDT,Other Renewables,282.0
08/21/2019 10:40:00,EDT,Wind,192.0
08/21/2019 10:40:00,EDT,Hydro,3945.0
08/21/2019 10:45:00,EDT,Dual Fuel,6883.0
08/21/2019 10:45:00,EDT,Natural Gas,4587.0
08/21/2019 10:45:00,EDT,Nuclear,5266.0
08/21/2019 10:45:00,EDT,Other Fossil Fuels,127.0
08/21/2019 10:45:00,EDT,Other Renewables,283.0
08/21/2019 10:45:00,EDT,Wind,222.0
08/21/2019 10:45:00,EDT,Hydro,3935.0
08/21/2019 10:50:00,EDT,Dual Fuel,6912.0
08/21/2019 10:50:00,EDT,Natural Gas,4602.0
08/21/2019 10:50:00,EDT,Nuclear,5265.0
08/21/2019 10:50:00,EDT,Other Fossil Fuels,127.0
08/21/2019 10:50:00,EDT,Other Renewables,277.0
08/21/2019 10:50:00,EDT,Wind,237.0
08/21/2019 10:50:00,EDT,Hydro,3946.0
08/21/2019 10:55:00,EDT,Dual Fuel,6973.0
08/21/2019 10:55:00,EDT,Natural Gas,4626.0
08/21/2019 10:55:00,EDT,Nuclear,5265.0
08/21/2019 10:55:00,EDT,Other Fossil Fuels,127.0
08/21/2019 10:55:00,EDT,Other Renewables,288.0
08/21/2019 10:55:00,EDT,Wind,252.0
08/21/2019 10:55:00,EDT,Hydro,3935.0
08/21/2019 11:00:00,EDT,Dual Fuel,7022.0
08/21/2019 11:00:00,EDT,Natural Gas,4673.0
08/21/2019 11:00:00,EDT,Nuclear,5264.0
08/21/2019 11:00:00,EDT,Other Fossil Fuels,127.0
08/21/2019 11:00:00,EDT,Other Renewables,290.0
08/21/2019 11:00:00,EDT,Wind,254.0
08/21/2019 11:00:00,EDT,Hydro,3933.0
08/21/2019 11:05:00,EDT,Dual Fuel,7090.0
08/21/2019 11:05:00,EDT,Natural Gas,4721.0
08/21/2019 11:05:00,EDT,Nuclear,5264.0
08/21/2019 11:05:00,EDT,Other Fossil Fuels,127.0
08/21/2019 11:05:00,EDT,Other Renewables,285.0
08/21/2019 11:05:00,EDT,Wind,244.0
08/21/2019 11:05:00,EDT,Hydro,3937.0
08/21/2019 11:10:00,EDT,Dual Fuel,7081.0
08/21/2019 11:10:00,EDT,Natural Gas,4744.0
08/21/2019 11:10:00,EDT,Nuclear,5263.0
08/21/2019 11:10:00,EDT,Other Fossil Fuels,127.0
08/21/2019 11:10:00,EDT,Other Renewables,277.0
08/21/2019 11:10:00,EDT,Wind,235.0
08/21/2019 11:10:00,EDT,Hydro,3938.0
08/21/2019 11:15:00,EDT,Dual Fuel,7114.0
08/21/2019 11:15:00,EDT,Natural Gas,4791.0
08/21/2019 11:15:00,EDT,Nuclear,5262.0
08/21/2019 11:15:00,EDT,Other Fossil Fuels,127.0
08/21/2019 11:15:00,EDT,Other Renewables,280.0
08/21/2019 11:15:00,EDT,Wind,214.0
08/21/2019 11:15:00,EDT,Hydro,3941.0
08/21/2019 11:20:00,EDT,Dual Fuel,7183.0
08/21/2019 11:20:00,EDT,Natural Gas,4849.0
08/21/2019 11:20:00,EDT,Nuclear,5263.0
08/21/2019 11:20:00,EDT,Other Fossil Fuels,127.0
08/21/2019 11:20:00,EDT,Other Renewables,287.0
08/21/2019 11:20:00,EDT,Wind,185.0
08/21/2019 11:20:00,EDT,Hydro,3947.0
08/21/2019 11:25:00,EDT,Dual Fuel,7299.0
08/21/2019 11:25:00,EDT,Natural Gas,4870.0
08/21/2019 11:25:00,EDT,Nuclear,5263.0
08/21/2019 11:25:00,EDT,Other Fossil Fuels,127.0
08/21/2019 11:25:00,EDT,Other Renewables,286.0
08/21/2019 11:25:00,EDT,Wind,165.0
08/21/2019 11:25:00,EDT,Hydro,3948.0
08/21/2019 11:30:00,EDT,Dual Fuel,7393.0
08/21/2019 11:30:00,EDT,Natural Gas,4879.0
08/21/2019 11:30:00,EDT,Nuclear,5262.0
08/21/2019 11:30:00,EDT,Other Fossil Fuels,127.0
08/21/2019 11:30:00,EDT,Other Renewables,287.0
08/21/2019 11:30:00,EDT,Wind,144.0
08/21/2019 11:30:00,EDT,Hydro,3953.0
08/21/2019 11:35:00,EDT,Dual Fuel,7427.0
08/21/2019 11:35:00,EDT,Natural Gas,4907.0
08/21/2019 11:35:00,EDT,Nuclear,5263.0
08/21/2019 11:35:00,EDT,Other Fossil Fuels,128.0
08/21/2019 11:35:00,EDT,Other Renewables,287.0
08/21/2019 11:35:00,EDT,Wind,127.0
08/21/2019 11:35:00,EDT,Hydro,3953.0
08/21/2019 11:40:00,EDT,Dual Fuel,7510.0
08/21/2019 11:40:00,EDT,Natural Gas,4900.0
08/21/2019 11:40:00,EDT,Nuclear,5263.0
08/21/2019 11:40:00,EDT,Other Fossil Fuels,128.0
08/21/2019 11:40:00,EDT,Other Renewables,288.0
08/21/2019 11:40:00,EDT,Wind,120.0
08/21/2019 11:40:00,EDT,Hydro,3948.0
08/21/2019 11:45:00,EDT,Dual Fuel,7540.0
08/21/2019 11:45:00,EDT,Natural Gas,4854.0
08/21/2019 11:45:00,EDT,Nuclear,5263.0
08/21/2019 11:45:00,EDT,Other Fossil Fuels,127.0
08/21/2019 11:45:00,EDT,Other Renewables,281.0
08/21/2019 11:45:00,EDT,Wind,117.0
08/21/2019 11:45:00,EDT,Hydro,3951.0
08/21/2019 11:50:00,EDT,Dual Fuel,7565.0
08/21/2019 11:50:00,EDT,Natural Gas,4820.0
08/21/2019 11:50:00,EDT,Nuclear,5263.0
08/21/2019 11:50:00,EDT,Other Fossil Fuels,129.0
08/21/2019 11:50:00,EDT,Other Renewables,277.0
08/21/2019 11:50:00,EDT,Wind,116.0
08/21/2019 11:50:00,EDT,Hydro,3967.0
08/21/2019 11:55:00,EDT,Dual Fuel,7613.0
08/21/2019 11:55:00,EDT,Natural Gas,4802.0
08/21/2019 11:55:00,EDT,Nuclear,5262.0
08/21/2019 11:55:00,EDT,Other Fossil Fuels,130.0
08/21/2019 11:55:00,EDT,Other Renewables,275.0
08/21/2019 11:55:00,EDT,Wind,103.0
08/21/2019 11:55:00,EDT,Hydro,3965.0
08/21/2019 12:00:00,EDT,Dual Fuel,7712.0
08/21/2019 12:00:00,EDT,Natural Gas,4829.0
08/21/2019 12:00:00,EDT,Nuclear,5263.0
08/21/2019 12:00:00,EDT,Other Fossil Fuels,127.0
08/21/2019 12:00:00,EDT,Other Renewables,279.0
08/21/2019 12:00:00,EDT,Wind,89.0
08/21/2019 12:00:00,EDT,Hydro,3957.0
08/21/2019 12:05:00,EDT,Dual Fuel,7871.0
08/21/2019 12:05:00,EDT,Natural Gas,4865.0
08/21/2019 12:05:00,EDT,Nuclear,5263.0
08/21/2019 12:05:00,EDT,Other Fossil Fuels,127.0
08/21/2019 12:05:00,EDT,Other Renewables,277.0
08/21/2019 12:05:00,EDT,Wind,84.0
08/21/2019 12:05:00,EDT,Hydro,3959.0
08/21/2019 12:10:00,EDT,Dual Fuel,8047.0
08/21/2019 12:10:00,EDT,Natural Gas,4886.0
08/21/2019 12:10:00,EDT,Nuclear,5265.0
08/21/2019 12:10:00,EDT,Other Fossil Fuels,127.0
08/21/2019 12:10:00,EDT,Other Renewables,277.0
08/21/2019 12:10:00,EDT,Wind,84.0
08/21/2019 12:10:00,EDT,Hydro,3971.0
08/21/2019 12:15:00,EDT,Dual Fuel,8122.0
08/21/2019 12:15:00,EDT,Natural Gas,4881.0
08/21/2019 12:15:00,EDT,Nuclear,5262.0
08/21/2019 12:15:00,EDT,Other Fossil Fuels,127.0
08/21/2019 12:15:00,EDT,Other Renewables,282.0
08/21/2019 12:15:00,EDT,Wind,82.0
08/21/2019 12:15:00,EDT,Hydro,3979.0
08/21/2019 12:20:00,EDT,Dual Fuel,8160.0
08/21/2019 12:20:00,EDT,Natural Gas,4905.0
08/21/2019 12:20:00,EDT,Nuclear,5261.0
08/21/2019 12:20:00,EDT,Other Fossil Fuels,127.0
08/21/2019 12:20:00,EDT,Other Renewables,279.0
08/21/2019 12:20:00,EDT,Wind,74.0
08/21/2019 12:20:00,EDT,Hydro,3978.0
08/21/2019 12:25:00,EDT,Dual Fuel,8217.0
08/21/2019 12:25:00,EDT,Natural Gas,4894.0
08/21/2019 12:25:00,EDT,Nuclear,5261.0
08/21/2019 12:25:00,EDT,Other Fossil Fuels,127.0
08/21/2019 12:25:00,EDT,Other Renewables,280.0
08/21/2019 12:25:00,EDT,Wind,67.0
08/21/2019 12:25:00,EDT,Hydro,3966.0
08/21/2019 12:30:00,EDT,Dual Fuel,8207.0
08/21/2019 12:30:00,EDT,Natural Gas,4869.0
08/21/2019 12:30:00,EDT,Nuclear,5261.0
08/21/2019 12:30:00,EDT,Other Fossil Fuels,127.0
08/21/2019 12:30:00,EDT,Other Renewables,285.0
08/21/2019 12:30:00,EDT,Wind,68.0
08/21/2019 12:30:00,EDT,Hydro,3973.0
08/21/2019 12:35:00,EDT,Dual Fuel,8249.0
08/21/2019 12:35:00,EDT,Natural Gas,4879.0
08/21/2019 12:35:00,EDT,Nuclear,5260.0
08/21/2019 12:35:00,EDT,Other Fossil Fuels,126.0
08/21/2019 12:35:00,EDT,Other Renewables,288.0
08/21/2019 12:35:00,EDT,Wind,70.0
08/21/2019 12:35:00,EDT,Hydro,3976.0
08/21/2019 12:40:00,EDT,Dual Fuel,8282.0
08/21/2019 12:40:00,EDT,Natural Gas,4894.0
08/21/2019 12:40:00,EDT,Nuclear,5258.0
08/21/2019 12:40:00,EDT,Other Fossil Fuels,127.0
08/21/2019 12:40:00,EDT,Other Renewables,281.0
08/21/2019 12:40:00,EDT,Wind,69.0
08/21/2019 12:40:00,EDT,Hydro,3975.0
08/21/2019 12:45:00,EDT,Dual Fuel,8305.0
08/21/2019 12:45:00,EDT,Natural Gas,4897.0
08/21/2019 12:45:00,EDT,Nuclear,5256.0
08/21/2019 12:45:00,EDT,Other Fossil Fuels,126.0
08/21/2019 12:45:00,EDT,Other Renewables,284.0
08/21/2019 12:45:00,EDT,Wind,61.0
08/21/2019 12:45:00,EDT,Hydro,3976.0
08/21/2019 12:50:00,EDT,Dual Fuel,8311.0
08/21/2019 12:50:00,EDT,Natural Gas,4907.0
08/21/2019 12:50:00,EDT,Nuclear,5255.0
08/21/2019 12:50:00,EDT,Other Fossil Fuels,127.0
08/21/2019 12:50:00,EDT,Other Renewables,291.0
08/21/2019 12:50:00,EDT,Wind,59.0
08/21/2019 12:50:00,EDT,Hydro,3985.0
08/21/2019 12:55:00,EDT,Dual Fuel,8323.0
08/21/2019 12:55:00,EDT,Natural Gas,4945.0
08/21/2019 12:55:00,EDT,Nuclear,5253.0
08/21/2019 12:55:00,EDT,Other Fossil Fuels,131.0
08/21/2019 12:55:00,EDT,Other Renewables,276.0
08/21/2019 12:55:00,EDT,Wind,69.0
08/21/2019 12:55:00,EDT,Hydro,3973.0
08/21/2019 13:00:00,EDT,Dual Fuel,8327.0
08/21/2019 13:00:00,EDT,Natural Gas,5011.0
08/21/2019 13:00:00,EDT,Nuclear,5251.0
08/21/2019 13:00:00,EDT,Other Fossil Fuels,134.0
08/21/2019 13:00:00,EDT,Other Renewables,277.0
08/21/2019 13:00:00,EDT,Wind,82.0
08/21/2019 13:00:00,EDT,Hydro,3976.0
08/21/2019 13:05:00,EDT,Dual Fuel,8319.0
08/21/2019 13:05:00,EDT,Natural Gas,5076.0
08/21/2019 13:05:00,EDT,Nuclear,5249.0
08/21/2019 13:05:00,EDT,Other Fossil Fuels,134.0
08/21/2019 13:05:00,EDT,Other Renewables,283.0
08/21/2019 13:05:00,EDT,Wind,85.0
08/21/2019 13:05:00,EDT,Hydro,3986.0
08/21/2019 13:10:00,EDT,Dual Fuel,8326.0
08/21/2019 13:10:00,EDT,Natural Gas,5102.0
08/21/2019 13:10:00,EDT,Nuclear,5248.0
08/21/2019 13:10:00,EDT,Other Fossil Fuels,134.0
08/21/2019 13:10:00,EDT,Other Renewables,276.0
08/21/2019 13:10:00,EDT,Wind,77.0
08/21/2019 13:10:00,EDT,Hydro,3999.0
08/21/2019 13:15:00,EDT,Dual Fuel,8364.0
08/21/2019 13:15:00,EDT,Natural Gas,5165.0
08/21/2019 13:15:00,EDT,Nuclear,5248.0
08/21/2019 13:15:00,EDT,Other Fossil Fuels,134.0
08/21/2019 13:15:00,EDT,Other Renewables,274.0
08/21/2019 13:15:00,EDT,Wind,66.0
08/21/2019 13:15:00,EDT,Hydro,4014.0
08/21/2019 13:20:00,EDT,Dual Fuel,8389.0
08/21/2019 13:20:00,EDT,Natural Gas,5207.0
08/21/2019 13:20:00,EDT,Nuclear,5247.0
08/21/2019 13:20:00,EDT,Other Fossil Fuels,134.0
08/21/2019 13:20:00,EDT,Other Renewables,278.0
08/21/2019 13:20:00,EDT,Wind,60.0
08/21/2019 13:20:00,EDT,Hydro,4005.0
08/21/2019 13:25:00,EDT,Dual Fuel,8458.0
08/21/2019 13:25:00,EDT,Natural Gas,5213.0
08/21/2019 13:25:00,EDT,Nuclear,5244.0
08/21/2019 13:25:00,EDT,Other Fossil Fuels,134.0
08/21/2019 13:25:00,EDT,Other Renewables,284.0
08/21/2019 13:25:00,EDT,Wind,59.0
08/21/2019 13:25:00,EDT,Hydro,4008.0
08/21/2019 13:30:00,EDT,Dual Fuel,8542.0
08/21/2019 13:30:00,EDT,Natural Gas,5183.0
08/21/2019 13:30:00,EDT,Nuclear,5243.0
08/21/2019 13:30:00,EDT,Other Fossil Fuels,134.0
08/21/2019 13:30:00,EDT,Other Renewables,285.0
08/21/2019 13:30:00,EDT,Wind,70.0
08/21/2019 13:30:00,EDT,Hydro,4006.0
08/21/2019 13:35:00,EDT,Dual Fuel,8614.0
08/21/2019 13:35:00,EDT,Natural Gas,5173.0
08/21/2019 13:35:00,EDT,Nuclear,5242.0
08/21/2019 13:35:00,EDT,Other Fossil Fuels,135.0
08/21/2019 13:35:00,EDT,Other Renewables,287.0
08/21/2019 13:35:00,EDT,Wind,67.0
08/21/2019 13:35:00,EDT,Hydro,4006.0
08/21/2019 13:40:00,EDT,Dual Fuel,8681.0
08/21/2019 13:40:00,EDT,Natural Gas,5197.0
08/21/2019 13:40:00,EDT,Nuclear,5244.0
08/21/2019 13:40:00,EDT,Other Fossil Fuels,134.0
08/21/2019 13:40:00,EDT,Other Renewables,289.0
08/21/2019 13:40:00,EDT,Wind,62.0
08/21/2019 13:40:00,EDT,Hydro,4011.0
08/21/2019 13:45:00,EDT,Dual Fuel,8748.0
08/21/2019 13:45:00,EDT,Natural Gas,5193.0
08/21/2019 13:45:00,EDT,Nuclear,5245.0
08/21/2019 13:45:00,EDT,Other Fossil Fuels,137.0
08/21/2019 13:45:00,EDT,Other Renewables,291.0
08/21/2019 13:45:00,EDT,Wind,60.0
08/21/2019 13:45:00,EDT,Hydro,4012.0
08/21/2019 13:50:00,EDT,Dual Fuel,8800.0
08/21/2019 13:50:00,EDT,Natural Gas,5182.0
08/21/2019 13:50:00,EDT,Nuclear,5245.0
08/21/2019 13:50:00,EDT,Other Fossil Fuels,142.0
08/21/2019 13:50:00,EDT,Other Renewables,291.0
08/21/2019 13:50:00,EDT,Wind,62.0
08/21/2019 13:50:00,EDT,Hydro,4007.0
08/21/2019 13:55:00,EDT,Dual Fuel,8867.0
08/21/2019 13:55:00,EDT,Natural Gas,5168.0
08/21/2019 13:55:00,EDT,Nuclear,5246.0
08/21/2019 13:55:00,EDT,Other Fossil Fuels,146.0
08/21/2019 13:55:00,EDT,Other Renewables,291.0
08/21/2019 13:55:00,EDT,Wind,58.0
08/21/2019 13:55:00,EDT,Hydro,4015.0
08/21/2019 14:00:00,EDT,Dual Fuel,8939.0
08/21/2019 14:00:00,EDT,Natural Gas,5167.0
08/21/2019 14:00:00,EDT,Nuclear,5252.0
08/21/2019 14:00:00,EDT,Other Fossil Fuels,151.0
08/21/2019 14:00:00,EDT,Other Renewables,293.0
08/21/2019 14:00:00,EDT,Wind,55.0
08/21/2019 14:00:00,EDT,Hydro,4006.0
08/21/2019 14:05:00,EDT,Dual Fuel,9052.0
08/21/2019 14:05:00,EDT,Natural Gas,5166.0
08/21/2019 14:05:00,EDT,Nuclear,5255.0
08/21/2019 14:05:00,EDT,Other Fossil Fuels,157.0
08/21/2019 14:05:00,EDT,Other Renewables,284.0
08/21/2019 14:05:00,EDT,Wind,57.0
08/21/2019 14:05:00,EDT,Hydro,4018.0
08/21/2019 14:10:00,EDT,Dual Fuel,9166.0
08/21/2019 14:10:00,EDT,Natural Gas,5150.0
08/21/2019 14:10:00,EDT,Nuclear,5256.0
08/21/2019 14:10:00,EDT,Other Fossil Fuels,163.0
08/21/2019 14:10:00,EDT,Other Renewables,280.0
08/21/2019 14:10:00,EDT,Wind,64.0
08/21/2019 14:10:00,EDT,Hydro,3911.0
08/21/2019 14:15:00,EDT,Dual Fuel,9199.0
08/21/2019 14:15:00,EDT,Natural Gas,5169.0
08/21/2019 14:15:00,EDT,Nuclear,5254.0
08/21/2019 14:15:00,EDT,Other Fossil Fuels,171.0
08/21/2019 14:15:00,EDT,Other Renewables,280.0
08/21/2019 14:15:00,EDT,Wind,78.0
08/21/2019 14:15:00,EDT,Hydro,3965.0
08/21/2019 14:20:00,EDT,Dual Fuel,9205.0
08/21/2019 14:20:00,EDT,Natural Gas,5180.0
08/21/2019 14:20:00,EDT,Nuclear,5251.0
08/21/2019 14:20:00,EDT,Other Fossil Fuels,177.0
08/21/2019 14:20:00,EDT,Other Renewables,281.0
08/21/2019 14:20:00,EDT,Wind,82.0
08/21/2019 14:20:00,EDT,Hydro,4029.0
08/21/2019 14:25:00,EDT,Dual Fuel,9176.0
08/21/2019 14:25:00,EDT,Natural Gas,5189.0
08/21/2019 14:25:00,EDT,Nuclear,5249.0
08/21/2019 14:25:00,EDT,Other Fossil Fuels,180.0
08/21/2019 14:25:00,EDT,Other Renewables,286.0
08/21/2019 14:25:00,EDT,Wind,93.0
08/21/2019 14:25:00,EDT,Hydro,4035.0
08/21/2019 14:30:00,EDT,Dual Fuel,9177.0
08/21/2019 14:30:00,EDT,Natural Gas,5197.0
08/21/2019 14:30:00,EDT,Nuclear,5246.0
08/21/2019 14:30:00,EDT,Other Fossil Fuels,186.0
08/21/2019 14:30:00,EDT,Other Renewables,285.0
08/21/2019 14:30:00,EDT,Wind,106.0
08/21/2019 14:30:00,EDT,Hydro,4033.0
08/21/2019 14:35:00,EDT,Dual Fuel,9177.0
08/21/2019 14:35:00,EDT,Natural Gas,5195.0
08/21/2019 14:35:00,EDT,Nuclear,5246.0
08/21/2019 14:35:00,EDT,Other Fossil Fuels,193.0
08/21/2019 14:35:00,EDT,Other Renewables,294.0
08/21/2019 14:35:00,EDT,Wind,118.0
08/21/2019 14:35:00,EDT,Hydro,4027.0
08/21/2019 14:40:00,EDT,Dual Fuel,9230.0
08/21/2019 14:40:00,EDT,Natural Gas,5204.0
08/21/2019 14:40:00,EDT,Nuclear,5246.0
08/21/2019 14:40:00,EDT,Other Fossil Fuels,195.0
08/21/2019 14:40:00,EDT,Other Renewables,289.0
08/21/2019 14:40:00,EDT,Wind,138.0
08/21/2019 14:40:00,EDT,Hydro,4026.0
08/21/2019 14:45:00,EDT,Dual Fuel,9219.0
08/21/2019 14:45:00,EDT,Natural Gas,5213.0
08/21/2019 14:45:00,EDT,Nuclear,5248.0
08/21/2019 14:45:00,EDT,Other Fossil Fuels,196.0
08/21/2019 14:45:00,EDT,Other Renewables,284.0
08/21/2019 14:45:00,EDT,Wind,154.0
08/21/2019 14:45:00,EDT,Hydro,4045.0
08/21/2019 14:50:00,EDT,Dual Fuel,9186.0
08/21/2019 14:50:00,EDT,Natural Gas,5223.0
08/21/2019 14:50:00,EDT,Nuclear,5246.0
08/21/2019 14:50:00,EDT,Other Fossil Fuels,192.0
08/21/2019 14:50:00,EDT,Other Renewables,285.0
08/21/2019 14:50:00,EDT,Wind,146.0
08/21/2019 14:50:00,EDT,Hydro,4044.0
08/21/2019 14:55:00,EDT,Dual Fuel,9208.0
08/21/2019 14:55:00,EDT,Natural Gas,5235.0
08/21/2019 14:55:00,EDT,Nuclear,5245.0
08/21/2019 14:55:00,EDT,Other Fossil Fuels,187.0
08/21/2019 14:55:00,EDT,Other Renewables,283.0
08/21/2019 14:55:00,EDT,Wind,115.0
08/21/2019 14:55:00,EDT,Hydro,4063.0
08/21/2019 15:00:00,EDT,Dual Fuel,9320.0
08/21/2019 15:00:00,EDT,Natural Gas,5254.0
08/21/2019 15:00:00,EDT,Nuclear,5246.0
08/21/2019 15:00:00,EDT,Other Fossil Fuels,184.0
08/21/2019 15:00:00,EDT,Other Renewables,280.0
08/21/2019 15:00:00,EDT,Wind,102.0
08/21/2019 15:00:00,EDT,Hydro,4070.0
08/21/2019 15:05:00,EDT,Dual Fuel,9404.0
08/21/2019 15:05:00,EDT,Natural Gas,5269.0
08/21/2019 15:05:00,EDT,Nuclear,5246.0
08/21/2019 15:05:00,EDT,Other Fossil Fuels,190.0
08/21/2019 15:05:00,EDT,Other Renewables,279.0
08/21/2019 15:05:00,EDT,Wind,98.0
08/21/2019 15:05:00,EDT,Hydro,4067.0
08/21/2019 15:10:00,EDT,Dual Fuel,9499.0
08/21/2019 15:10:00,EDT,Natural Gas,5272.0
08/21/2019 15:10:00,EDT,Nuclear,5246.0
08/21/2019 15:10:00,EDT,Other Fossil Fuels,197.0
08/21/2019 15:10:00,EDT,Other Renewables,287.0
08/21/2019 15:10:00,EDT,Wind,97.0
08/21/2019 15:10:00,EDT,Hydro,4086.0
08/21/2019 15:15:00,EDT,Dual Fuel,9520.0
08/21/2019 15:15:00,EDT,Natural Gas,5276.0
08/21/2019 15:15:00,EDT,Nuclear,5245.0
08/21/2019 15:15:00,EDT,Other Fossil Fuels,203.0
08/21/2019 15:15:00,EDT,Other Renewables,285.0
08/21/2019 15:15:00,EDT,Wind,93.0
08/21/2019 15:15:00,EDT,Hydro,4049.0
08/21/2019 15:20:00,EDT,Dual Fuel,9563.0
08/21/2019 15:20:00,EDT,Natural Gas,5273.0
08/21/2019 15:20:00,EDT,Nuclear,5246.0
08/21/2019 15:20:00,EDT,Other Fossil Fuels,206.0
08/21/2019 15:20:00,EDT,Other Renewables,287.0
08/21/2019 15:20:00,EDT,Wind,100.0
08/21/2019 15:20:00,EDT,Hydro,3998.0
08/21/2019 15:25:00,EDT,Dual Fuel,9608.0
08/21/2019 15:25:00,EDT,Natural Gas,5273.0
08/21/2019 15:25:00,EDT,Nuclear,5246.0
08/21/2019 15:25:00,EDT,Other Fossil Fuels,211.0
08/21/2019 15:25:00,EDT,Other Renewables,288.0
08/21/2019 15:25:00,EDT,Wind,104.0
08/21/2019 15:25:00,EDT,Hydro,3966.0
08/21/2019 15:30:00,EDT,Dual Fuel,9608.0
08/21/2019 15:30:00,EDT,Natural Gas,5266.0
08/21/2019 15:30:00,EDT,Nuclear,5244.0
08/21/2019 15:30:00,EDT,Other Fossil Fuels,219.0
08/21/2019 15:30:00,EDT,Other Renewables,278.0
08/21/2019 15:30:00,EDT,Wind,102.0
08/21/2019 15:30:00,EDT,Hydro,3950.0
08/21/2019 15:35:00,EDT,Dual Fuel,9570.0
08/21/2019 15:35:00,EDT,Natural Gas,5268.0
08/21/2019 15:35:00,EDT,Nuclear,5245.0
08/21/2019 15:35:00,EDT,Other Fossil Fuels,220.0
08/21/2019 15:35:00,EDT,Other Renewables,284.0
08/21/2019 15:35:00,EDT,Wind,99.0
08/21/2019 15:35:00,EDT,Hydro,3883.0
08/21/2019 15:40:00,EDT,Dual Fuel,9508.0
08/21/2019 15:40:00,EDT,Natural Gas,5279.0
08/21/2019 15:40:00,EDT,Nuclear,5244.0
08/21/2019 15:40:00,EDT,Other Fossil Fuels,221.0
08/21/2019 15:40:00,EDT,Other Renewables,287.0
08/21/2019 15:40:00,EDT,Wind,102.0
08/21/2019 15:40:00,EDT,Hydro,3885.0
08/21/2019 15:45:00,EDT,Dual Fuel,9502.0
08/21/2019 15:45:00,EDT,Natural Gas,5292.0
08/21/2019 15:45:00,EDT,Nuclear,5243.0
08/21/2019 15:45:00,EDT,Other Fossil Fuels,220.0
08/21/2019 15:45:00,EDT,Other Renewables,289.0
08/21/2019 15:45:00,EDT,Wind,106.0
08/21/2019 15:45:00,EDT,Hydro,3879.0
08/21/2019 15:50:00,EDT,Dual Fuel,9474.0
08/21/2019 15:50:00,EDT,Natural Gas,5285.0
08/21/2019 15:50:00,EDT,Nuclear,5245.0
08/21/2019 15:50:00,EDT,Other Fossil Fuels,242.0
08/21/2019 15:50:00,EDT,Other Renewables,287.0
08/21/2019 15:50:00,EDT,Wind,112.0
08/21/2019 15:50:00,EDT,Hydro,3894.0
08/21/2019 15:55:00,EDT,Dual Fuel,9454.0
08/21/2019 15:55:00,EDT,Natural Gas,5264.0
08/21/2019 15:55:00,EDT,Nuclear,5244.0
08/21/2019 15:55:00,EDT,Other Fossil Fuels,248.0
08/21/2019 15:55:00,EDT,Other Renewables,284.0
08/21/2019 15:55:00,EDT,Wind,114.0
08/21/2019 15:55:00,EDT,Hydro,3884.0
08/21/2019 16:00:00,EDT,Dual Fuel,9432.0
08/21/2019 16:00:00,EDT,Natural Gas,5231.0
08/21/2019 16:00:00,EDT,Nuclear,5243.0
08/21/2019 16:00:00,EDT,Other Fossil Fuels,245.0
08/21/2019 16:00:00,EDT,Other Renewables,279.0
08/21/2019 16:00:00,EDT,Wind,121.0
08/21/2019 16:00:00,EDT,Hydro,3850.0
08/21/2019 16:05:00,EDT,Dual Fuel,9327.0
08/21/2019 16:05:00,EDT,Natural Gas,5175.0
08/21/2019 16:05:00,EDT,Nuclear,5242.0
08/21/2019 16:05:00,EDT,Other Fossil Fuels,237.0
08/21/2019 16:05:00,EDT,Other Renewables,283.0
08/21/2019 16:05:00,EDT,Wind,117.0
08/21/2019 16:05:00,EDT,Hydro,3836.0
08/21/2019 16:10:00,EDT,Dual Fuel,9136.0
08/21/2019 16:10:00,EDT,Natural Gas,5154.0
08/21/2019 16:10:00,EDT,Nuclear,5243.0
08/21/2019 16:10:00,EDT,Other Fossil Fuels,230.0
08/21/2019 16:10:00,EDT,Other Renewables,284.0
08/21/2019 16:10:00,EDT,Wind,115.0
08/21/2019 16:10:00,EDT,Hydro,3854.0
08/21/2019 16:15:00,EDT,Dual Fuel,9111.0
08/21/2019 16:15:00,EDT,Natural Gas,5156.0
08/21/2019 16:15:00,EDT,Nuclear,5244.0
08/21/2019 16:15:00,EDT,Other Fossil Fuels,225.0
08/21/2019 16:15:00,EDT,Other Renewables,283.0
08/21/2019 16:15:00,EDT,Wind,113.0
08/21/2019 16:15:00,EDT,Hydro,3871.0
08/21/2019 16:20:00,EDT,Dual Fuel,9059.0
08/21/2019 16:20:00,EDT,Natural Gas,5139.0
08/21/2019 16:20:00,EDT,Nuclear,5243.0
08/21/2019 16:20:00,EDT,Other Fossil Fuels,192.0
08/21/2019 16:20:00,EDT,Other Renewables,278.0
08/21/2019 16:20:00,EDT,Wind,123.0
08/21/2019 16:20:00,EDT,Hydro,3885.0
08/21/2019 16:25:00,EDT,Dual Fuel,9059.0
08/21/2019 16:25:00,EDT,Natural Gas,5067.0
08/21/2019 16:25:00,EDT,Nuclear,5244.0
08/21/2019 16:25:00,EDT,Other Fossil Fuels,164.0
08/21/2019 16:25:00,EDT,Other Renewables,276.0
08/21/2019 16:25:00,EDT,Wind,125.0
08/21/2019 16:25:00,EDT,Hydro,3899.0
08/21/2019 16:30:00,EDT,Dual Fuel,9313.0
08/21/2019 16:30:00,EDT,Natural Gas,4942.0
08/21/2019 16:30:00,EDT,Nuclear,5244.0
08/21/2019 16:30:00,EDT,Other Fossil Fuels,157.0
08/21/2019 16:30:00,EDT,Other Renewables,276.0
08/21/2019 16:30:00,EDT,Wind,121.0
08/21/2019 16:30:00,EDT,Hydro,3834.0
08/21/2019 16:35:00,EDT,Dual Fuel,9394.0
08/21/2019 16:35:00,EDT,Natural Gas,4876.0
08/21/2019 16:35:00,EDT,Nuclear,5242.0
08/21/2019 16:35:00,EDT,Other Fossil Fuels,150.0
08/21/2019 16:35:00,EDT,Other Renewables,271.0
08/21/2019 16:35:00,EDT,Wind,113.0
08/21/2019 16:35:00,EDT,Hydro,3668.0
08/21/2019 16:40:00,EDT,Dual Fuel,9345.0
08/21/2019 16:40:00,EDT,Natural Gas,4920.0
08/21/2019 16:40:00,EDT,Nuclear,5243.0
08/21/2019 16:40:00,EDT,Other Fossil Fuels,145.0
08/21/2019 16:40:00,EDT,Other Renewables,269.0
08/21/2019 16:40:00,EDT,Wind,121.0
08/21/2019 16:40:00,EDT,Hydro,3671.0
08/21/2019 16:45:00,EDT,Dual Fuel,9361.0
08/21/2019 16:45:00,EDT,Natural Gas,4939.0
08/21/2019 16:45:00,EDT,Nuclear,5242.0
08/21/2019 16:45:00,EDT,Other Fossil Fuels,146.0
08/21/2019 16:45:00,EDT,Other Renewables,268.0
08/21/2019 16:45:00,EDT,Wind,129.0
08/21/2019 16:45:00,EDT,Hydro,3695.0
08/21/2019 16:50:00,EDT,Dual Fuel,9388.0
08/21/2019 16:50:00,EDT,Natural Gas,5005.0
08/21/2019 16:50:00,EDT,Nuclear,5244.0
08/21/2019 16:50:00,EDT,Other Fossil Fuels,174.0
08/21/2019 16:50:00,EDT,Other Renewables,275.0
08/21/2019 16:50:00,EDT,Wind,142.0
08/21/2019 16:50:00,EDT,Hydro,3721.0
08/21/2019 16:55:00,EDT,Dual Fuel,9406.0
08/21/2019 16:55:00,EDT,Natural Gas,5051.0
08/21/2019 16:55:00,EDT,Nuclear,5245.0
08/21/2019 16:55:00,EDT,Other Fossil Fuels,186.0
08/21/2019 16:55:00,EDT,Other Renewables,268.0
08/21/2019 16:55:00,EDT,Wind,154.0
08/21/2019 16:55:00,EDT,Hydro,3756.0
08/21/2019 17:00:00,EDT,Dual Fuel,9432.0
08/21/2019 17:00:00,EDT,Natural Gas,5086.0
08/21/2019 17:00:00,EDT,Nuclear,5246.0
08/21/2019 17:00:00,EDT,Other Fossil Fuels,209.0
08/21/2019 17:00:00,EDT,Other Renewables,265.0
08/21/2019 17:00:00,EDT,Wind,164.0
08/21/2019 17:00:00,EDT,Hydro,3732.0
08/21/2019 17:05:00,EDT,Dual Fuel,9413.0
08/21/2019 17:05:00,EDT,Natural Gas,5180.0
08/21/2019 17:05:00,EDT,Nuclear,5249.0
08/21/2019 17:05:00,EDT,Other Fossil Fuels,232.0
08/21/2019 17:05:00,EDT,Other Renewables,270.0
08/21/2019 17:05:00,EDT,Wind,172.0
08/21/2019 17:05:00,EDT,Hydro,3593.0
08/21/2019 17:10:00,EDT,Dual Fuel,9449.0
08/21/2019 17:10:00,EDT,Natural Gas,5172.0
08/21/2019 17:10:00,EDT,Nuclear,5251.0
08/21/2019 17:10:00,EDT,Other Fossil Fuels,234.0
08/21/2019 17:10:00,EDT,Other Renewables,274.0
08/21/2019 17:10:00,EDT,Wind,175.0
08/21/2019 17:10:00,EDT,Hydro,3463.0
08/21/2019 17:15:00,EDT,Dual Fuel,9399.0
08/21/2019 17:15:00,EDT,Natural Gas,5160.0
08/21/2019 17:15:00,EDT,Nuclear,5251.0
08/21/2019 17:15:00,EDT,Other Fossil Fuels,234.0
08/21/2019 17:15:00,EDT,Other Renewables,275.0
08/21/2019 17:15:00,EDT,Wind,184.0
08/21/2019 17:15:00,EDT,Hydro,3469.0
08/21/2019 17:20:00,EDT,Dual Fuel,9379.0
08/21/2019 17:20:00,EDT,Natural Gas,5186.0
08/21/2019 17:20:00,EDT,Nuclear,5252.0
08/21/2019 17:20:00,EDT,Other Fossil Fuels,234.0
08/21/2019 17:20:00,EDT,Other Renewables,274.0
08/21/2019 17:20:00,EDT,Wind,193.0
08/21/2019 17:20:00,EDT,Hydro,3493.0
08/21/2019 17:25:00,EDT,Dual Fuel,9361.0
08/21/2019 17:25:00,EDT,Natural Gas,5211.0
08/21/2019 17:25:00,EDT,Nuclear,5254.0
08/21/2019 17:25:00,EDT,Other Fossil Fuels,234.0
08/21/2019 17:25:00,EDT,Other Renewables,273.0
08/21/2019 17:25:00,EDT,Wind,197.0
08/21/2019 17:25:00,EDT,Hydro,3539.0
08/21/2019 17:30:00,EDT,Dual Fuel,9303.0
08/21/2019 17:30:00,EDT,Natural Gas,5221.0
08/21/2019 17:30:00,EDT,Nuclear,5254.0
08/21/2019 17:30:00,EDT,Other Fossil Fuels,234.0
08/21/2019 17:30:00,EDT,Other Renewables,265.0
08/21/2019 17:30:00,EDT,Wind,201.0
08/21/2019 17:30:00,EDT,Hydro,3590.0
08/21/2019 17:35:00,EDT,Dual Fuel,9247.0
08/21/2019 17:35:00,EDT,Natural Gas,5151.0
08/21/2019 17:35:00,EDT,Nuclear,5256.0
08/21/2019 17:35:00,EDT,Other Fossil Fuels,234.0
08/21/2019 17:35:00,EDT,Other Renewables,267.0
08/21/2019 17:35:00,EDT,Wind,197.0
08/21/2019 17:35:00,EDT,Hydro,3607.0
08/21/2019 17:40:00,EDT,Dual Fuel,9287.0
08/21/2019 17:40:00,EDT,Natural Gas,5080.0
08/21/2019 17:40:00,EDT,Nuclear,5254.0
08/21/2019 17:40:00,EDT,Other Fossil Fuels,234.0
08/21/2019 17:40:00,EDT,Other Renewables,270.0
08/21/2019 17:40:00,EDT,Wind,194.0
08/21/2019 17:40:00,EDT,Hydro,3537.0
08/21/2019 17:45:00,EDT,Dual Fuel,9280.0
08/21/2019 17:45:00,EDT,Natural Gas,5077.0
08/21/2019 17:45:00,EDT,Nuclear,5253.0
08/21/2019 17:45:00,EDT,Other Fossil Fuels,235.0
08/21/2019 17:45:00,EDT,Other Renewables,267.0
08/21/2019 17:45:00,EDT,Wind,189.0
08/21/2019 17:45:00,EDT,Hydro,3472.0
08/21/2019 17:50:00,EDT,Dual Fuel,9268.0
08/21/2019 17:50:00,EDT,Natural Gas,5090.0
08/21/2019 17:50:00,EDT,Nuclear,5254.0
08/21/2019 17:50:00,EDT,Other Fossil Fuels,234.0
08/21/2019 17:50:00,EDT,Other Renewables,266.0
08/21/2019 17:50:00,EDT,Wind,189.0
08/21/2019 17:50:00,EDT,Hydro,3452.0
08/21/2019 17:55:00,EDT,Dual Fuel,9243.0
08/21/2019 17:55:00,EDT,Natural Gas,5085.0
08/21/2019 17:55:00,EDT,Nuclear,5254.0
08/21/2019 17:55:00,EDT,Other Fossil Fuels,232.0
08/21/2019 17:55:00,EDT,Other Renewables,267.0
08/21/2019 17:55:00,EDT,Wind,194.0
08/21/2019 17:55:00,EDT,Hydro,3456.0
08/21/2019 18:00:00,EDT,Dual Fuel,9183.0
08/21/2019 18:00:00,EDT,Natural Gas,5092.0
08/21/2019 18:00:00,EDT,Nuclear,5256.0
08/21/2019 18:00:00,EDT,Other Fossil Fuels,221.0
08/21/2019 18:00:00,EDT,Other Renewables,269.0
08/21/2019 18:00:00,EDT,Wind,216.0
08/21/2019 18:00:00,EDT,Hydro,3435.0
08/21/2019 18:05:00,EDT,Dual Fuel,9128.0
08/21/2019 18:05:00,EDT,Natural Gas,5165.0
08/21/2019 18:05:00,EDT,Nuclear,5258.0
08/21/2019 18:05:00,EDT,Other Fossil Fuels,186.0
08/21/2019 18:05:00,EDT,Other Renewables,268.0
08/21/2019 18:05:00,EDT,Wind,226.0
08/21/2019 18:05:00,EDT,Hydro,3413.0
08/21/2019 18:10:00,EDT,Dual Fuel,9078.0
08/21/2019 18:10:00,EDT,Natural Gas,5160.0
08/21/2019 18:10:00,EDT,Nuclear,5257.0
08/21/2019 18:10:00,EDT,Other Fossil Fuels,184.0
08/21/2019 18:10:00,EDT,Other Renewables,265.0
08/21/2019 18:10:00,EDT,Wind,239.0
08/21/2019 18:10:00,EDT,Hydro,3407.0
08/21/2019 18:15:00,EDT,Dual Fuel,9058.0
08/21/2019 18:15:00,EDT,Natural Gas,5137.0
08/21/2019 18:15:00,EDT,Nuclear,5257.0
08/21/2019 18:15:00,EDT,Other Fossil Fuels,184.0
08/21/2019 18:15:00,EDT,Other Renewables,267.0
08/21/2019 18:15:00,EDT,Wind,233.0
08/21/2019 18:15:00,EDT,Hydro,3398.0
08/21/2019 18:20:00,EDT,Dual Fuel,9057.0
08/21/2019 18:20:00,EDT,Natural Gas,5095.0
08/21/2019 18:20:00,EDT,Nuclear,5258.0
08/21/2019 18:20:00,EDT,Other Fossil Fuels,181.0
08/21/2019 18:20:00,EDT,Other Renewables,265.0
08/21/2019 18:20:00,EDT,Wind,224.0
08/21/2019 18:20:00,EDT,Hydro,3423.0
08/21/2019 18:25:00,EDT,Dual Fuel,9036.0
08/21/2019 18:25:00,EDT,Natural Gas,5115.0
08/21/2019 18:25:00,EDT,Nuclear,5258.0
08/21/2019 18:25:00,EDT,Other Fossil Fuels,179.0
08/21/2019 18:25:00,EDT,Other Renewables,266.0
08/21/2019 18:25:00,EDT,Wind,220.0
08/21/2019 18:25:00,EDT,Hydro,3441.0
08/21/2019 18:30:00,EDT,Dual Fuel,8991.0
08/21/2019 18:30:00,EDT,Natural Gas,5098.0
08/21/2019 18:30:00,EDT,Nuclear,5257.0
08/21/2019 18:30:00,EDT,Other Fossil Fuels,179.0
08/21/2019 18:30:00,EDT,Other Renewables,267.0
08/21/2019 18:30:00,EDT,Wind,210.0
08/21/2019 18:30:00,EDT,Hydro,3482.0
08/21/2019 18:35:00,EDT,Dual Fuel,8986.0
08/21/2019 18:35:00,EDT,Natural Gas,5100.0
08/21/2019 18:35:00,EDT,Nuclear,5257.0
08/21/2019 18:35:00,EDT,Other Fossil Fuels,179.0
08/21/2019 18:35:00,EDT,Other Renewables,262.0
08/21/2019 18:35:00,EDT,Wind,203.0
08/21/2019 18:35:00,EDT,Hydro,3522.0
08/21/2019 18:40:00,EDT,Dual Fuel,8980.0
08/21/2019 18:40:00,EDT,Natural Gas,5138.0
08/21/2019 18:40:00,EDT,Nuclear,5259.0
08/21/2019 18:40:00,EDT,Other Fossil Fuels,179.0
08/21/2019 18:40:00,EDT,Other Renewables,266.0
08/21/2019 18:40:00,EDT,Wind,193.0
08/21/2019 18:40:00,EDT,Hydro,3599.0
08/21/2019 18:45:00,EDT,Dual Fuel,9008.0
08/21/2019 18:45:00,EDT,Natural Gas,5118.0
08/21/2019 18:45:00,EDT,Nuclear,5259.0
08/21/2019 18:45:00,EDT,Other Fossil Fuels,179.0
08/21/2019 18:45:00,EDT,Other Renewables,265.0
08/21/2019 18:45:00,EDT,Wind,198.0
08/21/2019 18:45:00,EDT,Hydro,3571.0
08/21/2019 18:50:00,EDT,Dual Fuel,9041.0
08/21/2019 18:50:00,EDT,Natural Gas,5122.0
08/21/2019 18:50:00,EDT,Nuclear,5260.0
08/21/2019 18:50:00,EDT,Other Fossil Fuels,179.0
08/21/2019 18:50:00,EDT,Other Renewables,263.0
08/21/2019 18:50:00,EDT,Wind,193.0
08/21/2019 18:50:00,EDT,Hydro,3572.0
08/21/2019 18:55:00,EDT,Dual Fuel,9064.0
08/21/2019 18:55:00,EDT,Natural Gas,5150.0
08/21/2019 18:55:00,EDT,Nuclear,5258.0
08/21/2019 18:55:00,EDT,Other Fossil Fuels,179.0
08/21/2019 18:55:00,EDT,Other Renewables,265.0
08/21/2019 18:55:00,EDT,Wind,188.0
08/21/2019 18:55:00,EDT,Hydro,3592.0
08/21/2019 19:00:00,EDT,Dual Fuel,8991.0
08/21/2019 19:00:00,EDT,Natural Gas,5140.0
08/21/2019 19:00:00,EDT,Nuclear,5259.0
08/21/2019 19:00:00,EDT,Other Fossil Fuels,179.0
08/21/2019 19:00:00,EDT,Other Renewables,263.0
08/21/2019 19:00:00,EDT,Wind,188.0
08/21/2019 19:00:00,EDT,Hydro,3540.0
08/21/2019 19:05:00,EDT,Dual Fuel,8834.0
08/21/2019 19:05:00,EDT,Natural Gas,5108.0
08/21/2019 19:05:00,EDT,Nuclear,5259.0
08/21/2019 19:05:00,EDT,Other Fossil Fuels,180.0
08/21/2019 19:05:00,EDT,Other Renewables,256.0
08/21/2019 19:05:00,EDT,Wind,190.0
08/21/2019 19:05:00,EDT,Hydro,3507.0
08/21/2019 19:10:00,EDT,Dual Fuel,8767.0
08/21/2019 19:10:00,EDT,Natural Gas,5062.0
08/21/2019 19:10:00,EDT,Nuclear,5259.0
08/21/2019 19:10:00,EDT,Other Fossil Fuels,180.0
08/21/2019 19:10:00,EDT,Other Renewables,262.0
08/21/2019 19:10:00,EDT,Wind,187.0
08/21/2019 19:10:00,EDT,Hydro,3417.0
08/21/2019 19:15:00,EDT,Dual Fuel,8763.0
08/21/2019 19:15:00,EDT,Natural Gas,5043.0
08/21/2019 19:15:00,EDT,Nuclear,5261.0
08/21/2019 19:15:00,EDT,Other Fossil Fuels,179.0
08/21/2019 19:15:00,EDT,Other Renewables,263.0
08/21/2019 19:15:00,EDT,Wind,193.0
08/21/2019 19:15:00,EDT,Hydro,3362.0
08/21/2019 19:20:00,EDT,Dual Fuel,8731.0
08/21/2019 19:20:00,EDT,Natural Gas,4998.0
08/21/2019 19:20:00,EDT,Nuclear,5259.0
08/21/2019 19:20:00,EDT,Other Fossil Fuels,180.0
08/21/2019 19:20:00,EDT,Other Renewables,265.0
08/21/2019 19:20:00,EDT,Wind,203.0
08/21/2019 19:20:00,EDT,Hydro,3333.0
08/21/2019 19:25:00,EDT,Dual Fuel,8723.0
08/21/2019 19:25:00,EDT,Natural Gas,4928.0
08/21/2019 19:25:00,EDT,Nuclear,5259.0
08/21/2019 19:25:00,EDT,Other Fossil Fuels,180.0
08/21/2019 19:25:00,EDT,Other Renewables,265.0
08/21/2019 19:25:00,EDT,Wind,218.0
08/21/2019 19:25:00,EDT,Hydro,3334.0
08/21/2019 19:30:00,EDT,Dual Fuel,8672.0
08/21/2019 19:30:00,EDT,Natural Gas,4925.0
08/21/2019 19:30:00,EDT,Nuclear,5258.0
08/21/2019 19:30:00,EDT,Other Fossil Fuels,153.0
08/21/2019 19:30:00,EDT,Other Renewables,262.0
08/21/2019 19:30:00,EDT,Wind,223.0
08/21/2019 19:30:00,EDT,Hydro,3359.0
08/21/2019 19:35:00,EDT,Dual Fuel,8600.0
08/21/2019 19:35:00,EDT,Natural Gas,4949.0
08/21/2019 19:35:00,EDT,Nuclear,5259.0
08/21/2019 19:35:00,EDT,Other Fossil Fuels,130.0
08/21/2019 19:35:00,EDT,Other Renewables,263.0
08/21/2019 19:35:00,EDT,Wind,219.0
08/21/2019 19:35:00,EDT,Hydro,3425.0
08/21/2019 19:40:00,EDT,Dual Fuel,8560.0
08/21/2019 19:40:00,EDT,Natural Gas,4966.0
08/21/2019 19:40:00,EDT,Nuclear,5258.0
08/21/2019 19:40:00,EDT,Other Fossil Fuels,130.0
08/21/2019 19:40:00,EDT,Other Renewables,262.0
08/21/2019 19:40:00,EDT,Wind,231.0
08/21/2019 19:40:00,EDT,Hydro,3484.0
08/21/2019 19:45:00,EDT,Dual Fuel,8521.0
08/21/2019 19:45:00,EDT,Natural Gas,4986.0
08/21/2019 19:45:00,EDT,Nuclear,5259.0
08/21/2019 19:45:00,EDT,Other Fossil Fuels,130.0
08/21/2019 19:45:00,EDT,Other Renewables,269.0
08/21/2019 19:45:00,EDT,Wind,241.0
08/21/2019 19:45:00,EDT,Hydro,3513.0
08/21/2019 19:50:00,EDT,Dual Fuel,8474.0
08/21/2019 19:50:00,EDT,Natural Gas,4979.0
08/21/2019 19:50:00,EDT,Nuclear,5259.0
08/21/2019 19:50:00,EDT,Other Fossil Fuels,130.0
08/21/2019 19:50:00,EDT,Other Renewables,267.0
08/21/2019 19:50:00,EDT,Wind,244.0
08/21/2019 19:50:00,EDT,Hydro,3483.0
08/21/2019 19:55:00,EDT,Dual Fuel,8432.0
08/21/2019 19:55:00,EDT,Natural Gas,4980.0
08/21/2019 19:55:00,EDT,Nuclear,5258.0
08/21/2019 19:55:00,EDT,Other Fossil Fuels,129.0
08/21/2019 19:55:00,EDT,Other Renewables,261.0
08/21/2019 19:55:00,EDT,Wind,249.0
08/21/2019 19:55:00,EDT,Hydro,3485.0
08/21/2019 20:00:00,EDT,Dual Fuel,8365.0
08/21/2019 20:00:00,EDT,Natural Gas,4979.0
08/21/2019 20:00:00,EDT,Nuclear,5258.0
08/21/2019 20:00:00,EDT,Other Fossil Fuels,94.0
08/21/2019 20:00:00,EDT,Other Renewables,262.0
08/21/2019 20:00:00,EDT,Wind,264.0
08/21/2019 20:00:00,EDT,Hydro,3517.0
08/21/2019 20:05:00,EDT,Dual Fuel,8186.0
08/21/2019 20:05:00,EDT,Natural Gas,4908.0
08/21/2019 20:05:00,EDT,Nuclear,5258.0
08/21/2019 20:05:00,EDT,Other Fossil Fuels,85.0
08/21/2019 20:05:00,EDT,Other Renewables,265.0
08/21/2019 20:05:00,EDT,Wind,284.0
08/21/2019 20:05:00,EDT,Hydro,3570.0
08/21/2019 20:10:00,EDT,Dual Fuel,8045.0
08/21/2019 20:10:00,EDT,Natural Gas,4862.0
08/21/2019 20:10:00,EDT,Nuclear,5259.0
08/21/2019 20:10:00,EDT,Other Fossil Fuels,85.0
08/21/2019 20:10:00,EDT,Other Renewables,262.0
08/21/2019 20:10:00,EDT,Wind,301.0
08/21/2019 20:10:00,EDT,Hydro,3566.0
08/21/2019 20:15:00,EDT,Dual Fuel,7945.0
08/21/2019 20:15:00,EDT,Natural Gas,4877.0
08/21/2019 20:15:00,EDT,Nuclear,5258.0
08/21/2019 20:15:00,EDT,Other Fossil Fuels,85.0
08/21/2019 20:15:00,EDT,Other Renewables,263.0
08/21/2019 20:15:00,EDT,Wind,322.0
08/21/2019 20:15:00,EDT,Hydro,3618.0
08/21/2019 20:20:00,EDT,Dual Fuel,7883.0
08/21/2019 20:20:00,EDT,Natural Gas,4882.0
08/21/2019 20:20:00,EDT,Nuclear,5257.0
08/21/2019 20:20:00,EDT,Other Fossil Fuels,85.0
08/21/2019 20:20:00,EDT,Other Renewables,264.0
08/21/2019 20:20:00,EDT,Wind,335.0
08/21/2019 20:20:00,EDT,Hydro,3660.0
08/21/2019 20:25:00,EDT,Dual Fuel,7845.0
08/21/2019 20:25:00,EDT,Natural Gas,4896.0
08/21/2019 20:25:00,EDT,Nuclear,5257.0
08/21/2019 20:25:00,EDT,Other Fossil Fuels,85.0
08/21/2019 20:25:00,EDT,Other Renewables,259.0
08/21/2019 20:25:00,EDT,Wind,346.0
08/21/2019 20:25:00,EDT,Hydro,3690.0
08/21/2019 20:30:00,EDT,Dual Fuel,7796.0
08/21/2019 20:30:00,EDT,Natural Gas,4897.0
08/21/2019 20:30:00,EDT,Nuclear,5257.0
08/21/2019 20:30:00,EDT,Other Fossil Fuels,85.0
08/21/2019 20:30:00,EDT,Other Renewables,263.0
08/21/2019 20:30:00,EDT,Wind,352.0
08/21/2019 20:30:00,EDT,Hydro,3703.0
08/21/2019 20:35:00,EDT,Dual Fuel,7771.0
08/21/2019 20:35:00,EDT,Natural Gas,4890.0
08/21/2019 20:35:00,EDT,Nuclear,5258.0
08/21/2019 20:35:00,EDT,Other Fossil Fuels,86.0
08/21/2019 20:35:00,EDT,Other Renewables,258.0
08/21/2019 20:35:00,EDT,Wind,365.0
08/21/2019 20:35:00,EDT,Hydro,3704.0
08/21/2019 20:40:00,EDT,Dual Fuel,7746.0
08/21/2019 20:40:00,EDT,Natural Gas,4883.0
08/21/2019 20:40:00,EDT,Nuclear,5258.0
08/21/2019 20:40:00,EDT,Other Fossil Fuels,86.0
08/21/2019 20:40:00,EDT,Other Renewables,256.0
08/21/2019 20:40:00,EDT,Wind,380.0
08/21/2019 20:40:00,EDT,Hydro,3725.0
08/21/2019 20:45:00,EDT,Dual Fuel,7702.0
08/21/2019 20:45:00,EDT,Natural Gas,4845.0
08/21/2019 20:45:00,EDT,Nuclear,5258.0
08/21/2019 20:45:00,EDT,Other Fossil Fuels,85.0
08/21/2019 20:45:00,EDT,Other Renewables,262.0
08/21/2019 20:45:00,EDT,Wind,373.0
08/21/2019 20:45:00,EDT,Hydro,3705.0
08/21/2019 20:50:00,EDT,Dual Fuel,7662.0
08/21/2019 20:50:00,EDT,Natural Gas,4815.0
08/21/2019 20:50:00,EDT,Nuclear,5257.0
08/21/2019 20:50:00,EDT,Other Fossil Fuels,86.0
08/21/2019 20:50:00,EDT,Other Renewables,261.0
08/21/2019 20:50:00,EDT,Wind,374.0
08/21/2019 20:50:00,EDT,Hydro,3708.0
08/21/2019 20:55:00,EDT,Dual Fuel,7611.0
08/21/2019 20:55:00,EDT,Natural Gas,4789.0
08/21/2019 20:55:00,EDT,Nuclear,5259.0
08/21/2019 20:55:00,EDT,Other Fossil Fuels,85.0
08/21/2019 20:55:00,EDT,Other Renewables,260.0
08/21/2019 20:55:00,EDT,Wind,407.0
08/21/2019 20:55:00,EDT,Hydro,3661.0
08/21/2019 21:00:00,EDT,Dual Fuel,7534.0
08/21/2019 21:00:00,EDT,Natural Gas,4767.0
08/21/2019 21:00:00,EDT,Nuclear,5258.0
08/21/2019 21:00:00,EDT,Other Fossil Fuels,77.0
08/21/2019 21:00:00,EDT,Other Renewables,258.0
08/21/2019 21:00:00,EDT,Wind,439.0
08/21/2019 21:00:00,EDT,Hydro,3556.0
08/21/2019 21:05:00,EDT,Dual Fuel,7353.0
08/21/2019 21:05:00,EDT,Natural Gas,4758.0
08/21/2019 21:05:00,EDT,Nuclear,5258.0
08/21/2019 21:05:00,EDT,Other Fossil Fuels,75.0
08/21/2019 21:05:00,EDT,Other Renewables,263.0
08/21/2019 21:05:00,EDT,Wind,450.0
08/21/2019 21:05:00,EDT,Hydro,3532.0
08/21/2019 21:10:00,EDT,Dual Fuel,7245.0
08/21/2019 21:10:00,EDT,Natural Gas,4735.0
08/21/2019 21:10:00,EDT,Nuclear,5258.0
08/21/2019 21:10:00,EDT,Other Fossil Fuels,71.0
08/21/2019 21:10:00,EDT,Other Renewables,263.0
08/21/2019 21:10:00,EDT,Wind,477.0
08/21/2019 21:10:00,EDT,Hydro,3504.0
08/21/2019 21:15:00,EDT,Dual Fuel,7110.0
08/21/2019 21:15:00,EDT,Natural Gas,4722.0
08/21/2019 21:15:00,EDT,Nuclear,5258.0
08/21/2019 21:15:00,EDT,Other Fossil Fuels,67.0
08/21/2019 21:15:00,EDT,Other Renewables,262.0
08/21/2019 21:15:00,EDT,Wind,500.0
08/21/2019 21:15:00,EDT,Hydro,3501.0
08/21/2019 21:20:00,EDT,Dual Fuel,7020.0
08/21/2019 21:20:00,EDT,Natural Gas,4696.0
08/21/2019 21:20:00,EDT,Nuclear,5257.0
08/21/2019 21:20:00,EDT,Other Fossil Fuels,67.0
08/21/2019 21:20:00,EDT,Other Renewables,262.0
08/21/2019 21:20:00,EDT,Wind,508.0
08/21/2019 21:20:00,EDT,Hydro,3515.0
08/21/2019 21:25:00,EDT,Dual Fuel,6931.0
08/21/2019 21:25:00,EDT,Natural Gas,4672.0
08/21/2019 21:25:00,EDT,Nuclear,5258.0
08/21/2019 21:25:00,EDT,Other Fossil Fuels,68.0
08/21/2019 21:25:00,EDT,Other Renewables,261.0
08/21/2019 21:25:00,EDT,Wind,507.0
08/21/2019 21:25:00,EDT,Hydro,3538.0
08/21/2019 21:30:00,EDT,Dual Fuel,6834.0
08/21/2019 21:30:00,EDT,Natural Gas,4674.0
08/21/2019 21:30:00,EDT,Nuclear,5258.0
08/21/2019 21:30:00,EDT,Other Fossil Fuels,68.0
08/21/2019 21:30:00,EDT,Other Renewables,264.0
08/21/2019 21:30:00,EDT,Wind,511.0
08/21/2019 21:30:00,EDT,Hydro,3546.0
08/21/2019 21:35:00,EDT,Dual Fuel,6720.0
08/21/2019 21:35:00,EDT,Natural Gas,4682.0
08/21/2019 21:35:00,EDT,Nuclear,5255.0
08/21/2019 21:35:00,EDT,Other Fossil Fuels,67.0
08/21/2019 21:35:00,EDT,Other Renewables,264.0
08/21/2019 21:35:00,EDT,Wind,518.0
08/21/2019 21:35:00,EDT,Hydro,3557.0
08/21/2019 21:40:00,EDT,Dual Fuel,6619.0
08/21/2019 21:40:00,EDT,Natural Gas,4672.0
08/21/2019 21:40:00,EDT,Nuclear,5257.0
08/21/2019 21:40:00,EDT,Other Fossil Fuels,67.0
08/21/2019 21:40:00,EDT,Other Renewables,266.0
08/21/2019 21:40:00,EDT,Wind,536.0
08/21/2019 21:40:00,EDT,Hydro,3558.0
08/21/2019 21:45:00,EDT,Dual Fuel,6510.0
08/21/2019 21:45:00,EDT,Natural Gas,4658.0
08/21/2019 21:45:00,EDT,Nuclear,5255.0
08/21/2019 21:45:00,EDT,Other Fossil Fuels,68.0
08/21/2019 21:45:00,EDT,Other Renewables,268.0
08/21/2019 21:45:00,EDT,Wind,550.0
08/21/2019 21:45:00,EDT,Hydro,3542.0
08/21/2019 21:50:00,EDT,Dual Fuel,6378.0
08/21/2019 21:50:00,EDT,Natural Gas,4623.0
08/21/2019 21:50:00,EDT,Nuclear,5257.0
08/21/2019 21:50:00,EDT,Other Fossil Fuels,68.0
08/21/2019 21:50:00,EDT,Other Renewables,265.0
08/21/2019 21:50:00,EDT,Wind,588.0
08/21/2019 21:50:00,EDT,Hydro,3517.0
08/21/2019 21:55:00,EDT,Dual Fuel,6264.0
08/21/2019 21:55:00,EDT,Natural Gas,4610.0
08/21/2019 21:55:00,EDT,Nuclear,5256.0
08/21/2019 21:55:00,EDT,Other Fossil Fuels,67.0
08/21/2019 21:55:00,EDT,Other Renewables,260.0
08/21/2019 21:55:00,EDT,Wind,623.0
08/21/2019 21:55:00,EDT,Hydro,3495.0
08/21/2019 22:00:00,EDT,Dual Fuel,6058.0
08/21/2019 22:00:00,EDT,Natural Gas,4602.0
08/21/2019 22:00:00,EDT,Nuclear,5257.0
08/21/2019 22:00:00,EDT,Other Fossil Fuels,68.0
08/21/2019 22:00:00,EDT,Other Renewables,260.0
08/21/2019 22:00:00,EDT,Wind,638.0
08/21/2019 22:00:00,EDT,Hydro,3510.0
08/21/2019 22:05:00,EDT,Dual Fuel,5826.0
08/21/2019 22:05:00,EDT,Natural Gas,4576.0
08/21/2019 22:05:00,EDT,Nuclear,5257.0
08/21/2019 22:05:00,EDT,Other Fossil Fuels,67.0
08/21/2019 22:05:00,EDT,Other Renewables,263.0
08/21/2019 22:05:00,EDT,Wind,635.0
08/21/2019 22:05:00,EDT,Hydro,3531.0
08/21/2019 22:10:00,EDT,Dual Fuel,5695.0
08/21/2019 22:10:00,EDT,Natural Gas,4549.0
08/21/2019 22:10:00,EDT,Nuclear,5258.0
08/21/2019 22:10:00,EDT,Other Fossil Fuels,67.0
08/21/2019 22:10:00,EDT,Other Renewables,264.0
08/21/2019 22:10:00,EDT,Wind,647.0
08/21/2019 22:10:00,EDT,Hydro,3469.0
08/21/2019 22:15:00,EDT,Dual Fuel,5576.0
08/21/2019 22:15:00,EDT,Natural Gas,4533.0
08/21/2019 22:15:00,EDT,Nuclear,5258.0
08/21/2019 22:15:00,EDT,Other Fossil Fuels,67.0
08/21/2019 22:15:00,EDT,Other Renewables,261.0
08/21/2019 22:15:00,EDT,Wind,669.0
08/21/2019 22:15:00,EDT,Hydro,3466.0
08/21/2019 22:20:00,EDT,Dual Fuel,5527.0
08/21/2019 22:20:00,EDT,Natural Gas,4455.0
08/21/2019 22:20:00,EDT,Nuclear,5258.0
08/21/2019 22:20:00,EDT,Other Fossil Fuels,67.0
08/21/2019 22:20:00,EDT,Other Renewables,261.0
08/21/2019 22:20:00,EDT,Wind,694.0
08/21/2019 22:20:00,EDT,Hydro,3470.0
08/21/2019 22:25:00,EDT,Dual Fuel,5372.0
08/21/2019 22:25:00,EDT,Natural Gas,4437.0
08/21/2019 22:25:00,EDT,Nuclear,5259.0
08/21/2019 22:25:00,EDT,Other Fossil Fuels,67.0
08/21/2019 22:25:00,EDT,Other Renewables,258.0
08/21/2019 22:25:00,EDT,Wind,719.0
08/21/2019 22:25:00,EDT,Hydro,3464.0
08/21/2019 22:30:00,EDT,Dual Fuel,5232.0
08/21/2019 22:30:00,EDT,Natural Gas,4440.0
08/21/2019 22:30:00,EDT,Nuclear,5258.0
08/21/2019 22:30:00,EDT,Other Fossil Fuels,67.0
08/21/2019 22:30:00,EDT,Other Renewables,265.0
08/21/2019 22:30:00,EDT,Wind,737.0
08/21/2019 22:30:00,EDT,Hydro,3455.0
08/21/2019 22:35:00,EDT,Dual Fuel,5155.0
08/21/2019 22:35:00,EDT,Natural Gas,4430.0
08/21/2019 22:35:00,EDT,Nuclear,5259.0
08/21/2019 22:35:00,EDT,Other Fossil Fuels,67.0
08/21/2019 22:35:00,EDT,Other Renewables,259.0
08/21/2019 22:35:00,EDT,Wind,734.0
08/21/2019 22:35:00,EDT,Hydro,3415.0
08/21/2019 22:40:00,EDT,Dual Fuel,5088.0
08/21/2019 22:40:00,EDT,Natural Gas,4438.0
08/21/2019 22:40:00,EDT,Nuclear,5258.0
08/21/2019 22:40:00,EDT,Other Fossil Fuels,65.0
08/21/2019 22:40:00,EDT,Other Renewables,262.0
08/21/2019 22:40:00,EDT,Wind,726.0
08/21/2019 22:40:00,EDT,Hydro,3369.0
08/21/2019 22:45:00,EDT,Dual Fuel,5006.0
08/21/2019 22:45:00,EDT,Natural Gas,4412.0
08/21/2019 22:45:00,EDT,Nuclear,5258.0
08/21/2019 22:45:00,EDT,Other Fossil Fuels,51.0
08/21/2019 22:45:00,EDT,Other Renewables,262.0
08/21/2019 22:45:00,EDT,Wind,752.0
08/21/2019 22:45:00,EDT,Hydro,3371.0
08/21/2019 22:50:00,EDT,Dual Fuel,4909.0
08/21/2019 22:50:00,EDT,Natural Gas,4377.0
08/21/2019 22:50:00,EDT,Nuclear,5258.0
08/21/2019 22:50:00,EDT,Other Fossil Fuels,51.0
08/21/2019 22:50:00,EDT,Other Renewables,260.0
08/21/2019 22:50:00,EDT,Wind,781.0
08/21/2019 22:50:00,EDT,Hydro,3367.0
08/21/2019 22:55:00,EDT,Dual Fuel,4819.0
08/21/2019 22:55:00,EDT,Natural Gas,4363.0
08/21/2019 22:55:00,EDT,Nuclear,5258.0
08/21/2019 22:55:00,EDT,Other Fossil Fuels,51.0
08/21/2019 22:55:00,EDT,Other Renewables,254.0
08/21/2019 22:55:00,EDT,Wind,808.0
08/21/2019 22:55:00,EDT,Hydro,3369.0
08/21/2019 23:00:00,EDT,Dual Fuel,4689.0
08/21/2019 23:00:00,EDT,Natural Gas,4314.0
08/21/2019 23:00:00,EDT,Nuclear,5259.0
08/21/2019 23:00:00,EDT,Other Fossil Fuels,51.0
08/21/2019 23:00:00,EDT,Other Renewables,266.0
08/21/2019 23:00:00,EDT,Wind,830.0
08/21/2019 23:00:00,EDT,Hydro,3324.0
08/21/2019 23:05:00,EDT,Dual Fuel,4731.0
08/21/2019 23:05:00,EDT,Natural Gas,4278.0
08/21/2019 23:05:00,EDT,Nuclear,5259.0
08/21/2019 23:05:00,EDT,Other Fossil Fuels,51.0
08/21/2019 23:05:00,EDT,Other Renewables,270.0
08/21/2019 23:05:00,EDT,Wind,834.0
08/21/2019 23:05:00,EDT,Hydro,3198.0
08/21/2019 23:10:00,EDT,Dual Fuel,4687.0
08/21/2019 23:10:00,EDT,Natural Gas,4277.0
08/21/2019 23:10:00,EDT,Nuclear,5258.0
08/21/2019 23:10:00,EDT,Other Fossil Fuels,51.0
08/21/2019 23:10:00,EDT,Other Renewables,268.0
08/21/2019 23:10:00,EDT,Wind,812.0
08/21/2019 23:10:00,EDT,Hydro,3172.0
08/21/2019 23:15:00,EDT,Dual Fuel,4611.0
08/21/2019 23:15:00,EDT,Natural Gas,4249.0
08/21/2019 23:15:00,EDT,Nuclear,5258.0
08/21/2019 23:15:00,EDT,Other Fossil Fuels,51.0
08/21/2019 23:15:00,EDT,Other Renewables,262.0
08/21/2019 23:15:00,EDT,Wind,784.0
08/21/2019 23:15:00,EDT,Hydro,3164.0
08/21/2019 23:20:00,EDT,Dual Fuel,4586.0
08/21/2019 23:20:00,EDT,Natural Gas,4196.0
08/21/2019 23:20:00,EDT,Nuclear,5258.0
08/21/2019 23:20:00,EDT,Other Fossil Fuels,51.0
08/21/2019 23:20:00,EDT,Other Renewables,264.0
08/21/2019 23:20:00,EDT,Wind,776.0
08/21/2019 23:20:00,EDT,Hydro,3164.0
08/21/2019 23:25:00,EDT,Dual Fuel,4499.0
08/21/2019 23:25:00,EDT,Natural Gas,4161.0
08/21/2019 23:25:00,EDT,Nuclear,5257.0
08/21/2019 23:25:00,EDT,Other Fossil Fuels,50.0
08/21/2019 23:25:00,EDT,Other Renewables,267.0
08/21/2019 23:25:00,EDT,Wind,761.0
08/21/2019 23:25:00,EDT,Hydro,3173.0
08/21/2019 23:30:00,EDT,Dual Fuel,4437.0
08/21/2019 23:30:00,EDT,Natural Gas,4137.0
08/21/2019 23:30:00,EDT,Nuclear,5256.0
08/21/2019 23:30:00,EDT,Other Fossil Fuels,50.0
08/21/2019 23:30:00,EDT,Other Renewables,268.0
08/21/2019 23:30:00,EDT,Wind,768.0
08/21/2019 23:30:00,EDT,Hydro,3159.0
08/21/2019 23:35:00,EDT,Dual Fuel,4357.0
08/21/2019 23:35:00,EDT,Natural Gas,4117.0
08/21/2019 23:35:00,EDT,Nuclear,5258.0
08/21/2019 23:35:00,EDT,Other Fossil Fuels,51.0
08/21/2019 23:35:00,EDT,Other Renewables,263.0
08/21/2019 23:35:00,EDT,Wind,765.0
08/21/2019 23:35:00,EDT,Hydro,3175.0
08/21/2019 23:40:00,EDT,Dual Fuel,4275.0
08/21/2019 23:40:00,EDT,Natural Gas,4096.0
08/21/2019 23:40:00,EDT,Nuclear,5258.0
08/21/2019 23:40:00,EDT,Other Fossil Fuels,51.0
08/21/2019 23:40:00,EDT,Other Renewables,266.0
08/21/2019 23:40:00,EDT,Wind,773.0
08/21/2019 23:40:00,EDT,Hydro,3172.0
08/21/2019 23:45:00,EDT,Dual Fuel,4244.0
08/21/2019 23:45:00,EDT,Natural Gas,4030.0
08/21/2019 23:45:00,EDT,Nuclear,5260.0
08/21/2019 23:45:00,EDT,Other Fossil Fuels,51.0
08/21/2019 23:45:00,EDT,Other Renewables,259.0
08/21/2019 23:45:00,EDT,Wind,793.0
08/21/2019 23:45:00,EDT,Hydro,3161.0
08/21/2019 23:50:00,EDT,Dual Fuel,4223.0
08/21/2019 23:50:00,EDT,Natural Gas,3995.0
08/21/2019 23:50:00,EDT,Nuclear,5259.0
08/21/2019 23:50:00,EDT,Other Fossil Fuels,51.0
08/21/2019 23:50:00,EDT,Other Renewables,262.0
08/21/2019 23:50:00,EDT,Wind,807.0
08/21/2019 23:50:00,EDT,Hydro,3161.0
08/21/2019 23:55:00,EDT,Dual Fuel,4156.0
08/21/2019 23:55:00,EDT,Natural Gas,3985.0
08/21/2019 23:55:00,EDT,Nuclear,5260.0
08/21/2019 23:55:00,EDT,Other Fossil Fuels,51.0
08/21/2019 23:55:00,EDT,Other Renewables,261.0
08/21/2019 23:55:00,EDT,Wind,851.0
08/21/2019 23:55:00,EDT,Hydro,3146.0