Time Stamp,Time Zone,Fuel Category,Gen MW
08/19/2019 00:05:00,EDT,Dual Fuel,3958.0
08/19/2019 00:05:00,EDT,Natural Gas,3502.0
08/19/2019 00:05:00,EDT,Nuclear,5270.0
08/19/2019 00:05:00,EDT,Other Fossil Fuels,51.0
08/19/2019 00:05:00,EDT,Other Renewables,262.0
08/19/2019 00:05:00,EDT,Wind,732.0
08/19/2019 00:05:00,EDT,Hydro,2530.0
08/19/2019 00:10:00,EDT,Dual Fuel,3929.0
08/19/2019 00:10:00,EDT,Natural Gas,3380.0
08/19/2019 00:10:00,EDT,Nuclear,5270.0
08/19/2019 00:10:00,EDT,Other Fossil Fuels,51.0
08/19/2019 00:10:00,EDT,Other Renewables,261.0
08/19/2019 00:10:00,EDT,Wind,734.0
08/19/2019 00:10:00,EDT,Hydro,2497.0
08/19/2019 00:15:00,EDT,Dual Fuel,3861.0
08/19/2019 00:15:00,EDT,Natural Gas,3336.0
08/19/2019 00:15:00,EDT,Nuclear,5271.0
08/19/2019 00:15:00,EDT,Other Fossil Fuels,51.0
08/19/2019 00:15:00,EDT,Other Renewables,260.0
08/19/2019 00:15:00,EDT,Wind,727.0
08/19/2019 00:15:00,EDT,Hydro,2500.0
08/19/2019 00:20:00,EDT,Dual Fuel,3844.0
08/19/2019 00:20:00,EDT,Natural Gas,3281.0
08/19/2019 00:20:00,EDT,Nuclear,5275.0
08/19/2019 00:20:00,EDT,Other Fossil Fuels,50.0
08/19/2019 00:20:00,EDT,Other Renewables,264.0
08/19/2019 00:20:00,EDT,Wind,724.0
08/19/2019 00:20:00,EDT,Hydro,2505.0
08/19/2019 00:25:00,EDT,Dual Fuel,3807.0
08/19/2019 00:25:00,EDT,Natural Gas,3221.0
08/19/2019 00:25:00,EDT,Nuclear,5277.0
08/19/2019 00:25:00,EDT,Other Fossil Fuels,51.0
08/19/2019 00:25:00,EDT,Other Renewables,263.0
08/19/2019 00:25:00,EDT,Wind,729.0
08/19/2019 00:25:00,EDT,Hydro,2502.0
08/19/2019 00:30:00,EDT,Dual Fuel,3786.0
08/19/2019 00:30:00,EDT,Natural Gas,3180.0
08/19/2019 00:30:00,EDT,Nuclear,5276.0
08/19/2019 00:30:00,EDT,Other Fossil Fuels,51.0
08/19/2019 00:30:00,EDT,Other Renewables,259.0
08/19/2019 00:30:00,EDT,Wind,736.0
08/19/2019 00:30:00,EDT,Hydro,2502.0
08/19/2019 00:35:00,EDT,Dual Fuel,3807.0
08/19/2019 00:35:00,EDT,Natural Gas,3146.0
08/19/2019 00:35:00,EDT,Nuclear,5276.0
08/19/2019 00:35:00,EDT,Other Fossil Fuels,51.0
08/19/2019 00:35:00,EDT,Other Renewables,261.0
08/19/2019 00:35:00,EDT,Wind,749.0
08/19/2019 00:35:00,EDT,Hydro,2471.0
08/19/2019 00:40:00,EDT,Dual Fuel,3772.0
08/19/2019 00:40:00,EDT,Natural Gas,3128.0
08/19/2019 00:40:00,EDT,Nuclear,5275.0
08/19/2019 00:40:00,EDT,Other Fossil Fuels,50.0
08/19/2019 00:40:00,EDT,Other Renewables,259.0
08/19/2019 00:40:00,EDT,Wind,772.0
08/19/2019 00:40:00,EDT,Hydro,2422.0
08/19/2019 00:45:00,EDT,Dual Fuel,3741.0
08/19/2019 00:45:00,EDT,Natural Gas,3117.0
08/19/2019 00:45:00,EDT,Nuclear,5276.0
08/19/2019 00:45:00,EDT,Other Fossil Fuels,51.0
08/19/2019 00:45:00,EDT,Other Renewables,261.0
08/19/2019 00:45:00,EDT,Wind,805.0
08/19/2019 00:45:00,EDT,Hydro,2388.0
08/19/2019 00:50:00,EDT,Dual Fuel,3696.0
08/19/2019 00:50:00,EDT,Natural Gas,3106.0
08/19/2019 00:50:00,EDT,Nuclear,5272.0
08/19/2019 00:50:00,EDT,Other Fossil Fuels,50.0
08/19/2019 00:50:00,EDT,Other Renewables,261.0
08/19/2019 00:50:00,EDT,Wind,833.0
08/19/2019 00:50:00,EDT,Hydro,2360.0
08/19/2019 00:55:00,EDT,Dual Fuel,3597.0
08/19/2019 00:55:00,EDT,Natural Gas,3096.0
08/19/2019 00:55:00,EDT,Nuclear,5274.0
08/19/2019 00:55:00,EDT,Other Fossil Fuels,51.0
08/19/2019 00:55:00,EDT,Other Renewables,261.0
08/19/2019 00:55:00,EDT,Wind,869.0
08/19/2019 00:55:00,EDT,Hydro,2374.0
08/19/2019 01:00:00,EDT,Dual Fuel,3440.0
08/19/2019 01:00:00,EDT,Natural Gas,3097.0
08/19/2019 01:00:00,EDT,Nuclear,5272.0
08/19/2019 01:00:00,EDT,Other Fossil Fuels,51.0
08/19/2019 01:00:00,EDT,Other Renewables,260.0
08/19/2019 01:00:00,EDT,Wind,912.0
08/19/2019 01:00:00,EDT,Hydro,2415.0
08/19/2019 01:05:00,EDT,Dual Fuel,3550.0
08/19/2019 01:05:00,EDT,Natural Gas,3066.0
08/19/2019 01:05:00,EDT,Nuclear,5274.0
08/19/2019 01:05:00,EDT,Other Fossil Fuels,51.0
08/19/2019 01:05:00,EDT,Other Renewables,261.0
08/19/2019 01:05:00,EDT,Wind,934.0
08/19/2019 01:05:00,EDT,Hydro,2489.0
08/19/2019 01:10:00,EDT,Dual Fuel,3605.0
08/19/2019 01:10:00,EDT,Natural Gas,3020.0
08/19/2019 01:10:00,EDT,Nuclear,5271.0
08/19/2019 01:10:00,EDT,Other Fossil Fuels,50.0
08/19/2019 01:10:00,EDT,Other Renewables,260.0
08/19/2019 01:10:00,EDT,Wind,942.0
08/19/2019 01:10:00,EDT,Hydro,2506.0
08/19/2019 01:15:00,EDT,Dual Fuel,3620.0
08/19/2019 01:15:00,EDT,Natural Gas,2969.0
08/19/2019 01:15:00,EDT,Nuclear,5271.0
08/19/2019 01:15:00,EDT,Other Fossil Fuels,51.0
08/19/2019 01:15:00,EDT,Other Renewables,265.0
08/19/2019 01:15:00,EDT,Wind,944.0
08/19/2019 01:15:00,EDT,Hydro,2498.0
08/19/2019 01:20:00,EDT,Dual Fuel,3677.0
08/19/2019 01:20:00,EDT,Natural Gas,2927.0
08/19/2019 01:20:00,EDT,Nuclear,5272.0
08/19/2019 01:20:00,EDT,Other Fossil Fuels,51.0
08/19/2019 01:20:00,EDT,Other Renewables,264.0
08/19/2019 01:20:00,EDT,Wind,941.0
08/19/2019 01:20:00,EDT,Hydro,2506.0
08/19/2019 01:25:00,EDT,Dual Fuel,3712.0
08/19/2019 01:25:00,EDT,Natural Gas,2954.0
08/19/2019 01:25:00,EDT,Nuclear,5271.0
08/19/2019 01:25:00,EDT,Other Fossil Fuels,50.0
08/19/2019 01:25:00,EDT,Other Renewables,266.0
08/19/2019 01:25:00,EDT,Wind,952.0
08/19/2019 01:25:00,EDT,Hydro,2504.0
08/19/2019 01:30:00,EDT,Dual Fuel,3719.0
08/19/2019 01:30:00,EDT,Natural Gas,2974.0
08/19/2019 01:30:00,EDT,Nuclear,5270.0
08/19/2019 01:30:00,EDT,Other Fossil Fuels,50.0
08/19/2019 01:30:00,EDT,Other Renewables,265.0
08/19/2019 01:30:00,EDT,Wind,926.0
08/19/2019 01:30:00,EDT,Hydro,2507.0
08/19/2019 01:35:00,EDT,Dual Fuel,3695.0
08/19/2019 01:35:00,EDT,Natural Gas,2960.0
08/19/2019 01:35:00,EDT,Nuclear,5269.0
08/19/2019 01:35:00,EDT,Other Fossil Fuels,51.0
08/19/2019 01:35:00,EDT,Other Renewables,265.0
08/19/2019 01:35:00,EDT,Wind,905.0
08/19/2019 01:35:00,EDT,Hydro,2503.0
08/19/2019 01:40:00,EDT,Dual Fuel,3686.0
08/19/2019 01:40:00,EDT,Natural Gas,2949.0
08/19/2019 01:40:00,EDT,Nuclear,5267.0
08/19/2019 01:40:00,EDT,Other Fossil Fuels,50.0
08/19/2019 01:40:00,EDT,Other Renewables,263.0
08/19/2019 01:40:00,EDT,Wind,893.0
08/19/2019 01:40:00,EDT,Hydro,2501.0
08/19/2019 01:45:00,EDT,Dual Fuel,3682.0
08/19/2019 01:45:00,EDT,Natural Gas,2975.0
08/19/2019 01:45:00,EDT,Nuclear,5269.0
08/19/2019 01:45:00,EDT,Other Fossil Fuels,51.0
08/19/2019 01:45:00,EDT,Other Renewables,263.0
08/19/2019 01:45:00,EDT,Wind,881.0
08/19/2019 01:45:00,EDT,Hydro,2501.0
08/19/2019 01:50:00,EDT,Dual Fuel,3656.0
08/19/2019 01:50:00,EDT,Natural Gas,2963.0
08/19/2019 01:50:00,EDT,Nuclear,5270.0
08/19/2019 01:50:00,EDT,Other Fossil Fuels,51.0
08/19/2019 01:50:00,EDT,Other Renewables,263.0
08/19/2019 01:50:00,EDT,Wind,912.0
08/19/2019 01:50:00,EDT,Hydro,2512.0
08/19/2019 01:55:00,EDT,Dual Fuel,3606.0
08/19/2019 01:55:00,EDT,Natural Gas,2952.0
08/19/2019 01:55:00,EDT,Nuclear,5268.0
08/19/2019 01:55:00,EDT,Other Fossil Fuels,50.0
08/19/2019 01:55:00,EDT,Other Renewables,265.0
08/19/2019 01:55:00,EDT,Wind,915.0
08/19/2019 01:55:00,EDT,Hydro,2501.0
08/19/2019 02:00:00,EDT,Dual Fuel,3622.0
08/19/2019 02:00:00,EDT,Natural Gas,2915.0
08/19/2019 02:00:00,EDT,Nuclear,5267.0
08/19/2019 02:00:00,EDT,Other Fossil Fuels,50.0
08/19/2019 02:00:00,EDT,Other Renewables,265.0
08/19/2019 02:00:00,EDT,Wind,895.0
08/19/2019 02:00:00,EDT,Hydro,2470.0
08/19/2019 02:05:00,EDT,Dual Fuel,3585.0
08/19/2019 02:05:00,EDT,Natural Gas,2889.0
08/19/2019 02:05:00,EDT,Nuclear,5269.0
08/19/2019 02:05:00,EDT,Other Fossil Fuels,51.0
08/19/2019 02:05:00,EDT,Other Renewables,264.0
08/19/2019 02:05:00,EDT,Wind,869.0
08/19/2019 02:05:00,EDT,Hydro,2430.0
08/19/2019 02:10:00,EDT,Dual Fuel,3642.0
08/19/2019 02:10:00,EDT,Natural Gas,2887.0
08/19/2019 02:10:00,EDT,Nuclear,5268.0
08/19/2019 02:10:00,EDT,Other Fossil Fuels,51.0
08/19/2019 02:10:00,EDT,Other Renewables,261.0
08/19/2019 02:10:00,EDT,Wind,854.0
08/19/2019 02:10:00,EDT,Hydro,2441.0
08/19/2019 02:15:00,EDT,Dual Fuel,3574.0
08/19/2019 02:15:00,EDT,Natural Gas,2889.0
08/19/2019 02:15:00,EDT,Nuclear,5269.0
08/19/2019 02:15:00,EDT,Other Fossil Fuels,51.0
08/19/2019 02:15:00,EDT,Other Renewables,262.0
08/19/2019 02:15:00,EDT,Wind,839.0
08/19/2019 02:15:00,EDT,Hydro,2467.0
08/19/2019 02:20:00,EDT,Dual Fuel,3417.0
08/19/2019 02:20:00,EDT,Natural Gas,2906.0
08/19/2019 02:20:00,EDT,Nuclear,5268.0
08/19/2019 02:20:00,EDT,Other Fossil Fuels,51.0
08/19/2019 02:20:00,EDT,Other Renewables,267.0
08/19/2019 02:20:00,EDT,Wind,842.0
08/19/2019 02:20:00,EDT,Hydro,2422.0
08/19/2019 02:25:00,EDT,Dual Fuel,3302.0
08/19/2019 02:25:00,EDT,Natural Gas,2899.0
08/19/2019 02:25:00,EDT,Nuclear,5271.0
08/19/2019 02:25:00,EDT,Other Fossil Fuels,50.0
08/19/2019 02:25:00,EDT,Other Renewables,263.0
08/19/2019 02:25:00,EDT,Wind,854.0
08/19/2019 02:25:00,EDT,Hydro,2441.0
08/19/2019 02:30:00,EDT,Dual Fuel,3266.0
08/19/2019 02:30:00,EDT,Natural Gas,2888.0
08/19/2019 02:30:00,EDT,Nuclear,5269.0
08/19/2019 02:30:00,EDT,Other Fossil Fuels,51.0
08/19/2019 02:30:00,EDT,Other Renewables,261.0
08/19/2019 02:30:00,EDT,Wind,816.0
08/19/2019 02:30:00,EDT,Hydro,2455.0
08/19/2019 02:35:00,EDT,Dual Fuel,3264.0
08/19/2019 02:35:00,EDT,Natural Gas,2871.0
08/19/2019 02:35:00,EDT,Nuclear,5273.0
08/19/2019 02:35:00,EDT,Other Fossil Fuels,51.0
08/19/2019 02:35:00,EDT,Other Renewables,260.0
08/19/2019 02:35:00,EDT,Wind,779.0
08/19/2019 02:35:00,EDT,Hydro,2478.0
08/19/2019 02:40:00,EDT,Dual Fuel,3267.0
08/19/2019 02:40:00,EDT,Natural Gas,2873.0
08/19/2019 02:40:00,EDT,Nuclear,5272.0
08/19/2019 02:40:00,EDT,Other Fossil Fuels,51.0
08/19/2019 02:40:00,EDT,Other Renewables,265.0
08/19/2019 02:40:00,EDT,Wind,803.0
08/19/2019 02:40:00,EDT,Hydro,2447.0
08/19/2019 02:45:00,EDT,Dual Fuel,3274.0
08/19/2019 02:45:00,EDT,Natural Gas,2886.0
08/19/2019 02:45:00,EDT,Nuclear,5273.0
08/19/2019 02:45:00,EDT,Other Fossil Fuels,51.0
08/19/2019 02:45:00,EDT,Other Renewables,263.0
08/19/2019 02:45:00,EDT,Wind,804.0
08/19/2019 02:45:00,EDT,Hydro,2427.0
08/19/2019 02:50:00,EDT,Dual Fuel,3348.0
08/19/2019 02:50:00,EDT,Natural Gas,2888.0
08/19/2019 02:50:00,EDT,Nuclear,5275.0
08/19/2019 02:50:00,EDT,Other Fossil Fuels,51.0
08/19/2019 02:50:00,EDT,Other Renewables,262.0
08/19/2019 02:50:00,EDT,Wind,792.0
08/19/2019 02:50:00,EDT,Hydro,2429.0
08/19/2019 02:55:00,EDT,Dual Fuel,3408.0
08/19/2019 02:55:00,EDT,Natural Gas,2883.0
08/19/2019 02:55:00,EDT,Nuclear,5274.0
08/19/2019 02:55:00,EDT,Other Fossil Fuels,51.0
08/19/2019 02:55:00,EDT,Other Renewables,264.0
08/19/2019 02:55:00,EDT,Wind,767.0
08/19/2019 02:55:00,EDT,Hydro,2445.0
08/19/2019 03:00:00,EDT,Dual Fuel,3383.0
08/19/2019 03:00:00,EDT,Natural Gas,2883.0
08/19/2019 03:00:00,EDT,Nuclear,5276.0
08/19/2019 03:00:00,EDT,Other Fossil Fuels,51.0
08/19/2019 03:00:00,EDT,Other Renewables,262.0
08/19/2019 03:00:00,EDT,Wind,732.0
08/19/2019 03:00:00,EDT,Hydro,2487.0
08/19/2019 03:05:00,EDT,Dual Fuel,3360.0
08/19/2019 03:05:00,EDT,Natural Gas,2882.0
08/19/2019 03:05:00,EDT,Nuclear,5277.0
08/19/2019 03:05:00,EDT,Other Fossil Fuels,51.0
08/19/2019 03:05:00,EDT,Other Renewables,264.0
08/19/2019 03:05:00,EDT,Wind,740.0
08/19/2019 03:05:00,EDT,Hydro,2594.0
08/19/2019 03:10:00,EDT,Dual Fuel,3362.0
08/19/2019 03:10:00,EDT,Natural Gas,2880.0
08/19/2019 03:10:00,EDT,Nuclear,5277.0
08/19/2019 03:10:00,EDT,Other Fossil Fuels,51.0
08/19/2019 03:10:00,EDT,Other Renewables,261.0
08/19/2019 03:10:00,EDT,Wind,744.0
08/19/2019 03:10:00,EDT,Hydro,2608.0
08/19/2019 03:15:00,EDT,Dual Fuel,3324.0
08/19/2019 03:15:00,EDT,Natural Gas,2879.0
08/19/2019 03:15:00,EDT,Nuclear,5279.0
08/19/2019 03:15:00,EDT,Other Fossil Fuels,51.0
08/19/2019 03:15:00,EDT,Other Renewables,260.0
08/19/2019 03:15:00,EDT,Wind,739.0
08/19/2019 03:15:00,EDT,Hydro,2570.0
08/19/2019 03:20:00,EDT,Dual Fuel,3287.0
08/19/2019 03:20:00,EDT,Natural Gas,2879.0
08/19/2019 03:20:00,EDT,Nuclear,5279.0
08/19/2019 03:20:00,EDT,Other Fossil Fuels,51.0
08/19/2019 03:20:00,EDT,Other Renewables,262.0
08/19/2019 03:20:00,EDT,Wind,728.0
08/19/2019 03:20:00,EDT,Hydro,2567.0
08/19/2019 03:25:00,EDT,Dual Fuel,3291.0
08/19/2019 03:25:00,EDT,Natural Gas,2877.0
08/19/2019 03:25:00,EDT,Nuclear,5278.0
08/19/2019 03:25:00,EDT,Other Fossil Fuels,50.0
08/19/2019 03:25:00,EDT,Other Renewables,264.0
08/19/2019 03:25:00,EDT,Wind,687.0
08/19/2019 03:25:00,EDT,Hydro,2566.0
08/19/2019 03:30:00,EDT,Dual Fuel,3294.0
08/19/2019 03:30:00,EDT,Natural Gas,2888.0
08/19/2019 03:30:00,EDT,Nuclear,5278.0
08/19/2019 03:30:00,EDT,Other Fossil Fuels,51.0
08/19/2019 03:30:00,EDT,Other Renewables,265.0
08/19/2019 03:30:00,EDT,Wind,656.0
08/19/2019 03:30:00,EDT,Hydro,2578.0
08/19/2019 03:35:00,EDT,Dual Fuel,3303.0
08/19/2019 03:35:00,EDT,Natural Gas,2897.0
08/19/2019 03:35:00,EDT,Nuclear,5278.0
08/19/2019 03:35:00,EDT,Other Fossil Fuels,51.0
08/19/2019 03:35:00,EDT,Other Renewables,263.0
08/19/2019 03:35:00,EDT,Wind,660.0
08/19/2019 03:35:00,EDT,Hydro,2576.0
08/19/2019 03:40:00,EDT,Dual Fuel,3271.0
08/19/2019 03:40:00,EDT,Natural Gas,2888.0
08/19/2019 03:40:00,EDT,Nuclear,5280.0
08/19/2019 03:40:00,EDT,Other Fossil Fuels,50.0
08/19/2019 03:40:00,EDT,Other Renewables,263.0
08/19/2019 03:40:00,EDT,Wind,645.0
08/19/2019 03:40:00,EDT,Hydro,2629.0
08/19/2019 03:45:00,EDT,Dual Fuel,3318.0
08/19/2019 03:45:00,EDT,Natural Gas,2887.0
08/19/2019 03:45:00,EDT,Nuclear,5280.0
08/19/2019 03:45:00,EDT,Other Fossil Fuels,50.0
08/19/2019 03:45:00,EDT,Other Renewables,264.0
08/19/2019 03:45:00,EDT,Wind,630.0
08/19/2019 03:45:00,EDT,Hydro,2578.0
08/19/2019 03:50:00,EDT,Dual Fuel,3341.0
08/19/2019 03:50:00,EDT,Natural Gas,2933.0
08/19/2019 03:50:00,EDT,Nuclear,5280.0
08/19/2019 03:50:00,EDT,Other Fossil Fuels,51.0
08/19/2019 03:50:00,EDT,Other Renewables,262.0
08/19/2019 03:50:00,EDT,Wind,634.0
08/19/2019 03:50:00,EDT,Hydro,2573.0
08/19/2019 03:55:00,EDT,Dual Fuel,3313.0
08/19/2019 03:55:00,EDT,Natural Gas,2959.0
08/19/2019 03:55:00,EDT,Nuclear,5281.0
08/19/2019 03:55:00,EDT,Other Fossil Fuels,50.0
08/19/2019 03:55:00,EDT,Other Renewables,261.0
08/19/2019 03:55:00,EDT,Wind,662.0
08/19/2019 03:55:00,EDT,Hydro,2552.0
08/19/2019 04:00:00,EDT,Dual Fuel,3263.0
08/19/2019 04:00:00,EDT,Natural Gas,2958.0
08/19/2019 04:00:00,EDT,Nuclear,5282.0
08/19/2019 04:00:00,EDT,Other Fossil Fuels,51.0
08/19/2019 04:00:00,EDT,Other Renewables,263.0
08/19/2019 04:00:00,EDT,Wind,688.0
08/19/2019 04:00:00,EDT,Hydro,2534.0
08/19/2019 04:05:00,EDT,Dual Fuel,3285.0
08/19/2019 04:05:00,EDT,Natural Gas,3021.0
08/19/2019 04:05:00,EDT,Nuclear,5282.0
08/19/2019 04:05:00,EDT,Other Fossil Fuels,51.0
08/19/2019 04:05:00,EDT,Other Renewables,264.0
08/19/2019 04:05:00,EDT,Wind,715.0
08/19/2019 04:05:00,EDT,Hydro,2490.0
08/19/2019 04:10:00,EDT,Dual Fuel,3292.0
08/19/2019 04:10:00,EDT,Natural Gas,3020.0
08/19/2019 04:10:00,EDT,Nuclear,5281.0
08/19/2019 04:10:00,EDT,Other Fossil Fuels,51.0
08/19/2019 04:10:00,EDT,Other Renewables,265.0
08/19/2019 04:10:00,EDT,Wind,737.0
08/19/2019 04:10:00,EDT,Hydro,2541.0
08/19/2019 04:15:00,EDT,Dual Fuel,3364.0
08/19/2019 04:15:00,EDT,Natural Gas,2981.0
08/19/2019 04:15:00,EDT,Nuclear,5281.0
08/19/2019 04:15:00,EDT,Other Fossil Fuels,50.0
08/19/2019 04:15:00,EDT,Other Renewables,264.0
08/19/2019 04:15:00,EDT,Wind,781.0
08/19/2019 04:15:00,EDT,Hydro,2492.0
08/19/2019 04:20:00,EDT,Dual Fuel,3448.0
08/19/2019 04:20:00,EDT,Natural Gas,3005.0
08/19/2019 04:20:00,EDT,Nuclear,5283.0
08/19/2019 04:20:00,EDT,Other Fossil Fuels,51.0
08/19/2019 04:20:00,EDT,Other Renewables,264.0
08/19/2019 04:20:00,EDT,Wind,795.0
08/19/2019 04:20:00,EDT,Hydro,2454.0
08/19/2019 04:25:00,EDT,Dual Fuel,3479.0
08/19/2019 04:25:00,EDT,Natural Gas,3007.0
08/19/2019 04:25:00,EDT,Nuclear,5283.0
08/19/2019 04:25:00,EDT,Other Fossil Fuels,50.0
08/19/2019 04:25:00,EDT,Other Renewables,264.0
08/19/2019 04:25:00,EDT,Wind,759.0
08/19/2019 04:25:00,EDT,Hydro,2452.0
08/19/2019 04:30:00,EDT,Dual Fuel,3390.0
08/19/2019 04:30:00,EDT,Natural Gas,3008.0
08/19/2019 04:30:00,EDT,Nuclear,5283.0
08/19/2019 04:30:00,EDT,Other Fossil Fuels,51.0
08/19/2019 04:30:00,EDT,Other Renewables,260.0
08/19/2019 04:30:00,EDT,Wind,694.0
08/19/2019 04:30:00,EDT,Hydro,2527.0
08/19/2019 04:35:00,EDT,Dual Fuel,3324.0
08/19/2019 04:35:00,EDT,Natural Gas,3078.0
08/19/2019 04:35:00,EDT,Nuclear,5283.0
08/19/2019 04:35:00,EDT,Other Fossil Fuels,51.0
08/19/2019 04:35:00,EDT,Other Renewables,263.0
08/19/2019 04:35:00,EDT,Wind,674.0
08/19/2019 04:35:00,EDT,Hydro,2529.0
08/19/2019 04:40:00,EDT,Dual Fuel,3301.0
08/19/2019 04:40:00,EDT,Natural Gas,3107.0
08/19/2019 04:40:00,EDT,Nuclear,5284.0
08/19/2019 04:40:00,EDT,Other Fossil Fuels,50.0
08/19/2019 04:40:00,EDT,Other Renewables,264.0
08/19/2019 04:40:00,EDT,Wind,667.0
08/19/2019 04:40:00,EDT,Hydro,2605.0
08/19/2019 04:45:00,EDT,Dual Fuel,3356.0
08/19/2019 04:45:00,EDT,Natural Gas,3106.0
08/19/2019 04:45:00,EDT,Nuclear,5284.0
08/19/2019 04:45:00,EDT,Other Fossil Fuels,51.0
08/19/2019 04:45:00,EDT,Other Renewables,266.0
08/19/2019 04:45:00,EDT,Wind,648.0
08/19/2019 04:45:00,EDT,Hydro,2615.0
08/19/2019 04:50:00,EDT,Dual Fuel,3334.0
08/19/2019 04:50:00,EDT,Natural Gas,3108.0
08/19/2019 04:50:00,EDT,Nuclear,5283.0
08/19/2019 04:50:00,EDT,Other Fossil Fuels,51.0
08/19/2019 04:50:00,EDT,Other Renewables,264.0
08/19/2019 04:50:00,EDT,Wind,622.0
08/19/2019 04:50:00,EDT,Hydro,2574.0
08/19/2019 04:55:00,EDT,Dual Fuel,3285.0
08/19/2019 04:55:00,EDT,Natural Gas,3099.0
08/19/2019 04:55:00,EDT,Nuclear,5283.0
08/19/2019 04:55:00,EDT,Other Fossil Fuels,51.0
08/19/2019 04:55:00,EDT,Other Renewables,262.0
08/19/2019 04:55:00,EDT,Wind,586.0
08/19/2019 04:55:00,EDT,Hydro,2558.0
08/19/2019 05:00:00,EDT,Dual Fuel,3309.0
08/19/2019 05:00:00,EDT,Natural Gas,3055.0
08/19/2019 05:00:00,EDT,Nuclear,5283.0
08/19/2019 05:00:00,EDT,Other Fossil Fuels,51.0
08/19/2019 05:00:00,EDT,Other Renewables,262.0
08/19/2019 05:00:00,EDT,Wind,605.0
08/19/2019 05:00:00,EDT,Hydro,2570.0
08/19/2019 05:05:00,EDT,Dual Fuel,3265.0
08/19/2019 05:05:00,EDT,Natural Gas,3035.0
08/19/2019 05:05:00,EDT,Nuclear,5284.0
08/19/2019 05:05:00,EDT,Other Fossil Fuels,51.0
08/19/2019 05:05:00,EDT,Other Renewables,262.0
08/19/2019 05:05:00,EDT,Wind,672.0
08/19/2019 05:05:00,EDT,Hydro,2518.0
08/19/2019 05:10:00,EDT,Dual Fuel,3286.0
08/19/2019 05:10:00,EDT,Natural Gas,3067.0
08/19/2019 05:10:00,EDT,Nuclear,5283.0
08/19/2019 05:10:00,EDT,Other Fossil Fuels,51.0
08/19/2019 05:10:00,EDT,Other Renewables,264.0
08/19/2019 05:10:00,EDT,Wind,622.0
08/19/2019 05:10:00,EDT,Hydro,2491.0
08/19/2019 05:15:00,EDT,Dual Fuel,3286.0
08/19/2019 05:15:00,EDT,Natural Gas,3051.0
08/19/2019 05:15:00,EDT,Nuclear,5284.0
08/19/2019 05:15:00,EDT,Other Fossil Fuels,51.0
08/19/2019 05:15:00,EDT,Other Renewables,260.0
08/19/2019 05:15:00,EDT,Wind,506.0
08/19/2019 05:15:00,EDT,Hydro,2530.0
08/19/2019 05:20:00,EDT,Dual Fuel,3286.0
08/19/2019 05:20:00,EDT,Natural Gas,3038.0
08/19/2019 05:20:00,EDT,Nuclear,5284.0
08/19/2019 05:20:00,EDT,Other Fossil Fuels,51.0
08/19/2019 05:20:00,EDT,Other Renewables,262.0
08/19/2019 05:20:00,EDT,Wind,467.0
08/19/2019 05:20:00,EDT,Hydro,2564.0
08/19/2019 05:25:00,EDT,Dual Fuel,3287.0
08/19/2019 05:25:00,EDT,Natural Gas,3094.0
08/19/2019 05:25:00,EDT,Nuclear,5285.0
08/19/2019 05:25:00,EDT,Other Fossil Fuels,51.0
08/19/2019 05:25:00,EDT,Other Renewables,262.0
08/19/2019 05:25:00,EDT,Wind,458.0
08/19/2019 05:25:00,EDT,Hydro,2595.0
08/19/2019 05:30:00,EDT,Dual Fuel,3327.0
08/19/2019 05:30:00,EDT,Natural Gas,3193.0
08/19/2019 05:30:00,EDT,Nuclear,5285.0
08/19/2019 05:30:00,EDT,Other Fossil Fuels,51.0
08/19/2019 05:30:00,EDT,Other Renewables,260.0
08/19/2019 05:30:00,EDT,Wind,448.0
08/19/2019 05:30:00,EDT,Hydro,2626.0
08/19/2019 05:35:00,EDT,Dual Fuel,3435.0
08/19/2019 05:35:00,EDT,Natural Gas,3207.0
08/19/2019 05:35:00,EDT,Nuclear,5284.0
08/19/2019 05:35:00,EDT,Other Fossil Fuels,50.0
08/19/2019 05:35:00,EDT,Other Renewables,263.0
08/19/2019 05:35:00,EDT,Wind,442.0
08/19/2019 05:35:00,EDT,Hydro,2710.0
08/19/2019 05:40:00,EDT,Dual Fuel,3512.0
08/19/2019 05:40:00,EDT,Natural Gas,3220.0
08/19/2019 05:40:00,EDT,Nuclear,5284.0
08/19/2019 05:40:00,EDT,Other Fossil Fuels,51.0
08/19/2019 05:40:00,EDT,Other Renewables,262.0
08/19/2019 05:40:00,EDT,Wind,449.0
08/19/2019 05:40:00,EDT,Hydro,2736.0
08/19/2019 05:45:00,EDT,Dual Fuel,3526.0
08/19/2019 05:45:00,EDT,Natural Gas,3230.0
08/19/2019 05:45:00,EDT,Nuclear,5284.0
08/19/2019 05:45:00,EDT,Other Fossil Fuels,51.0
08/19/2019 05:45:00,EDT,Other Renewables,261.0
08/19/2019 05:45:00,EDT,Wind,479.0
08/19/2019 05:45:00,EDT,Hydro,2724.0
08/19/2019 05:50:00,EDT,Dual Fuel,3508.0
08/19/2019 05:50:00,EDT,Natural Gas,3205.0
08/19/2019 05:50:00,EDT,Nuclear,5285.0
08/19/2019 05:50:00,EDT,Other Fossil Fuels,50.0
08/19/2019 05:50:00,EDT,Other Renewables,261.0
08/19/2019 05:50:00,EDT,Wind,510.0
08/19/2019 05:50:00,EDT,Hydro,2631.0
08/19/2019 05:55:00,EDT,Dual Fuel,3436.0
08/19/2019 05:55:00,EDT,Natural Gas,3279.0
08/19/2019 05:55:00,EDT,Nuclear,5287.0
08/19/2019 05:55:00,EDT,Other Fossil Fuels,51.0
08/19/2019 05:55:00,EDT,Other Renewables,262.0
08/19/2019 05:55:00,EDT,Wind,524.0
08/19/2019 05:55:00,EDT,Hydro,2607.0
08/19/2019 06:00:00,EDT,Dual Fuel,3356.0
08/19/2019 06:00:00,EDT,Natural Gas,3398.0
08/19/2019 06:00:00,EDT,Nuclear,5285.0
08/19/2019 06:00:00,EDT,Other Fossil Fuels,50.0
08/19/2019 06:00:00,EDT,Other Renewables,261.0
08/19/2019 06:00:00,EDT,Wind,514.0
08/19/2019 06:00:00,EDT,Hydro,2645.0
08/19/2019 06:05:00,EDT,Dual Fuel,3348.0
08/19/2019 06:05:00,EDT,Natural Gas,3495.0
08/19/2019 06:05:00,EDT,Nuclear,5285.0
08/19/2019 06:05:00,EDT,Other Fossil Fuels,51.0
08/19/2019 06:05:00,EDT,Other Renewables,264.0
08/19/2019 06:05:00,EDT,Wind,511.0
08/19/2019 06:05:00,EDT,Hydro,2779.0
08/19/2019 06:10:00,EDT,Dual Fuel,3463.0
08/19/2019 06:10:00,EDT,Natural Gas,3591.0
08/19/2019 06:10:00,EDT,Nuclear,5283.0
08/19/2019 06:10:00,EDT,Other Fossil Fuels,50.0
08/19/2019 06:10:00,EDT,Other Renewables,264.0
08/19/2019 06:10:00,EDT,Wind,510.0
08/19/2019 06:10:00,EDT,Hydro,2847.0
08/19/2019 06:15:00,EDT,Dual Fuel,3462.0
08/19/2019 06:15:00,EDT,Natural Gas,3658.0
08/19/2019 06:15:00,EDT,Nuclear,5284.0
08/19/2019 06:15:00,EDT,Other Fossil Fuels,50.0
08/19/2019 06:15:00,EDT,Other Renewables,260.0
08/19/2019 06:15:00,EDT,Wind,513.0
08/19/2019 06:15:00,EDT,Hydro,2928.0
08/19/2019 06:20:00,EDT,Dual Fuel,3427.0
08/19/2019 06:20:00,EDT,Natural Gas,3717.0
08/19/2019 06:20:00,EDT,Nuclear,5285.0
08/19/2019 06:20:00,EDT,Other Fossil Fuels,51.0
08/19/2019 06:20:00,EDT,Other Renewables,259.0
08/19/2019 06:20:00,EDT,Wind,494.0
08/19/2019 06:20:00,EDT,Hydro,3000.0
08/19/2019 06:25:00,EDT,Dual Fuel,3465.0
08/19/2019 06:25:00,EDT,Natural Gas,3735.0
08/19/2019 06:25:00,EDT,Nuclear,5283.0
08/19/2019 06:25:00,EDT,Other Fossil Fuels,50.0
08/19/2019 06:25:00,EDT,Other Renewables,262.0
08/19/2019 06:25:00,EDT,Wind,492.0
08/19/2019 06:25:00,EDT,Hydro,3024.0
08/19/2019 06:30:00,EDT,Dual Fuel,3487.0
08/19/2019 06:30:00,EDT,Natural Gas,3755.0
08/19/2019 06:30:00,EDT,Nuclear,5284.0
08/19/2019 06:30:00,EDT,Other Fossil Fuels,51.0
08/19/2019 06:30:00,EDT,Other Renewables,261.0
08/19/2019 06:30:00,EDT,Wind,494.0
08/19/2019 06:30:00,EDT,Hydro,3034.0
08/19/2019 06:35:00,EDT,Dual Fuel,3530.0
08/19/2019 06:35:00,EDT,Natural Gas,3778.0
08/19/2019 06:35:00,EDT,Nuclear,5284.0
08/19/2019 06:35:00,EDT,Other Fossil Fuels,51.0
08/19/2019 06:35:00,EDT,Other Renewables,262.0
08/19/2019 06:35:00,EDT,Wind,498.0
08/19/2019 06:35:00,EDT,Hydro,3061.0
08/19/2019 06:40:00,EDT,Dual Fuel,3586.0
08/19/2019 06:40:00,EDT,Natural Gas,3798.0
08/19/2019 06:40:00,EDT,Nuclear,5284.0
08/19/2019 06:40:00,EDT,Other Fossil Fuels,51.0
08/19/2019 06:40:00,EDT,Other Renewables,262.0
08/19/2019 06:40:00,EDT,Wind,519.0
08/19/2019 06:40:00,EDT,Hydro,3082.0
08/19/2019 06:45:00,EDT,Dual Fuel,3598.0
08/19/2019 06:45:00,EDT,Natural Gas,3857.0
08/19/2019 06:45:00,EDT,Nuclear,5285.0
08/19/2019 06:45:00,EDT,Other Fossil Fuels,50.0
08/19/2019 06:45:00,EDT,Other Renewables,264.0
08/19/2019 06:45:00,EDT,Wind,527.0
08/19/2019 06:45:00,EDT,Hydro,3146.0
08/19/2019 06:50:00,EDT,Dual Fuel,3625.0
08/19/2019 06:50:00,EDT,Natural Gas,3902.0
08/19/2019 06:50:00,EDT,Nuclear,5282.0
08/19/2019 06:50:00,EDT,Other Fossil Fuels,51.0
08/19/2019 06:50:00,EDT,Other Renewables,264.0
08/19/2019 06:50:00,EDT,Wind,537.0
08/19/2019 06:50:00,EDT,Hydro,3157.0
08/19/2019 06:55:00,EDT,Dual Fuel,3637.0
08/19/2019 06:55:00,EDT,Natural Gas,3912.0
08/19/2019 06:55:00,EDT,Nuclear,5283.0
08/19/2019 06:55:00,EDT,Other Fossil Fuels,50.0
08/19/2019 06:55:00,EDT,Other Renewables,264.0
08/19/2019 06:55:00,EDT,Wind,549.0
08/19/2019 06:55:00,EDT,Hydro,3160.0
08/19/2019 07:00:00,EDT,Dual Fuel,3603.0
08/19/2019 07:00:00,EDT,Natural Gas,3932.0
08/19/2019 07:00:00,EDT,Nuclear,5283.0
08/19/2019 07:00:00,EDT,Other Fossil Fuels,51.0
08/19/2019 07:00:00,EDT,Other Renewables,266.0
08/19/2019 07:00:00,EDT,Wind,569.0
08/19/2019 07:00:00,EDT,Hydro,3168.0
08/19/2019 07:05:00,EDT,Dual Fuel,3565.0
08/19/2019 07:05:00,EDT,Natural Gas,3902.0
08/19/2019 07:05:00,EDT,Nuclear,5280.0
08/19/2019 07:05:00,EDT,Other Fossil Fuels,51.0
08/19/2019 07:05:00,EDT,Other Renewables,263.0
08/19/2019 07:05:00,EDT,Wind,580.0
08/19/2019 07:05:00,EDT,Hydro,3145.0
08/19/2019 07:10:00,EDT,Dual Fuel,3610.0
08/19/2019 07:10:00,EDT,Natural Gas,3884.0
08/19/2019 07:10:00,EDT,Nuclear,5280.0
08/19/2019 07:10:00,EDT,Other Fossil Fuels,50.0
08/19/2019 07:10:00,EDT,Other Renewables,267.0
08/19/2019 07:10:00,EDT,Wind,599.0
08/19/2019 07:10:00,EDT,Hydro,3037.0
08/19/2019 07:15:00,EDT,Dual Fuel,3661.0
08/19/2019 07:15:00,EDT,Natural Gas,3950.0
08/19/2019 07:15:00,EDT,Nuclear,5282.0
08/19/2019 07:15:00,EDT,Other Fossil Fuels,51.0
08/19/2019 07:15:00,EDT,Other Renewables,265.0
08/19/2019 07:15:00,EDT,Wind,616.0
08/19/2019 07:15:00,EDT,Hydro,3060.0
08/19/2019 07:20:00,EDT,Dual Fuel,3724.0
08/19/2019 07:20:00,EDT,Natural Gas,3968.0
08/19/2019 07:20:00,EDT,Nuclear,5281.0
08/19/2019 07:20:00,EDT,Other Fossil Fuels,51.0
08/19/2019 07:20:00,EDT,Other Renewables,265.0
08/19/2019 07:20:00,EDT,Wind,611.0
08/19/2019 07:20:00,EDT,Hydro,3079.0
08/19/2019 07:25:00,EDT,Dual Fuel,3826.0
08/19/2019 07:25:00,EDT,Natural Gas,3976.0
08/19/2019 07:25:00,EDT,Nuclear,5280.0
08/19/2019 07:25:00,EDT,Other Fossil Fuels,51.0
08/19/2019 07:25:00,EDT,Other Renewables,265.0
08/19/2019 07:25:00,EDT,Wind,613.0
08/19/2019 07:25:00,EDT,Hydro,3106.0
08/19/2019 07:30:00,EDT,Dual Fuel,3866.0
08/19/2019 07:30:00,EDT,Natural Gas,3965.0
08/19/2019 07:30:00,EDT,Nuclear,5279.0
08/19/2019 07:30:00,EDT,Other Fossil Fuels,51.0
08/19/2019 07:30:00,EDT,Other Renewables,260.0
08/19/2019 07:30:00,EDT,Wind,619.0
08/19/2019 07:30:00,EDT,Hydro,3138.0
08/19/2019 07:35:00,EDT,Dual Fuel,3899.0
08/19/2019 07:35:00,EDT,Natural Gas,3996.0
08/19/2019 07:35:00,EDT,Nuclear,5278.0
08/19/2019 07:35:00,EDT,Other Fossil Fuels,50.0
08/19/2019 07:35:00,EDT,Other Renewables,261.0
08/19/2019 07:35:00,EDT,Wind,614.0
08/19/2019 07:35:00,EDT,Hydro,3202.0
08/19/2019 07:40:00,EDT,Dual Fuel,3964.0
08/19/2019 07:40:00,EDT,Natural Gas,4071.0
08/19/2019 07:40:00,EDT,Nuclear,5275.0
08/19/2019 07:40:00,EDT,Other Fossil Fuels,51.0
08/19/2019 07:40:00,EDT,Other Renewables,260.0
08/19/2019 07:40:00,EDT,Wind,600.0
08/19/2019 07:40:00,EDT,Hydro,3229.0
08/19/2019 07:45:00,EDT,Dual Fuel,4053.0
08/19/2019 07:45:00,EDT,Natural Gas,4073.0
08/19/2019 07:45:00,EDT,Nuclear,5274.0
08/19/2019 07:45:00,EDT,Other Fossil Fuels,51.0
08/19/2019 07:45:00,EDT,Other Renewables,260.0
08/19/2019 07:45:00,EDT,Wind,602.0
08/19/2019 07:45:00,EDT,Hydro,3276.0
08/19/2019 07:50:00,EDT,Dual Fuel,4097.0
08/19/2019 07:50:00,EDT,Natural Gas,4092.0
08/19/2019 07:50:00,EDT,Nuclear,5274.0
08/19/2019 07:50:00,EDT,Other Fossil Fuels,51.0
08/19/2019 07:50:00,EDT,Other Renewables,262.0
08/19/2019 07:50:00,EDT,Wind,589.0
08/19/2019 07:50:00,EDT,Hydro,3326.0
08/19/2019 07:55:00,EDT,Dual Fuel,4161.0
08/19/2019 07:55:00,EDT,Natural Gas,4137.0
08/19/2019 07:55:00,EDT,Nuclear,5274.0
08/19/2019 07:55:00,EDT,Other Fossil Fuels,51.0
08/19/2019 07:55:00,EDT,Other Renewables,268.0
08/19/2019 07:55:00,EDT,Wind,547.0
08/19/2019 07:55:00,EDT,Hydro,3352.0
08/19/2019 08:00:00,EDT,Dual Fuel,4248.0
08/19/2019 08:00:00,EDT,Natural Gas,4180.0
08/19/2019 08:00:00,EDT,Nuclear,5274.0
08/19/2019 08:00:00,EDT,Other Fossil Fuels,50.0
08/19/2019 08:00:00,EDT,Other Renewables,270.0
08/19/2019 08:00:00,EDT,Wind,522.0
08/19/2019 08:00:00,EDT,Hydro,3363.0
08/19/2019 08:05:00,EDT,Dual Fuel,4383.0
08/19/2019 08:05:00,EDT,Natural Gas,4216.0
08/19/2019 08:05:00,EDT,Nuclear,5273.0
08/19/2019 08:05:00,EDT,Other Fossil Fuels,51.0
08/19/2019 08:05:00,EDT,Other Renewables,273.0
08/19/2019 08:05:00,EDT,Wind,518.0
08/19/2019 08:05:00,EDT,Hydro,3345.0
08/19/2019 08:10:00,EDT,Dual Fuel,4504.0
08/19/2019 08:10:00,EDT,Natural Gas,4253.0
08/19/2019 08:10:00,EDT,Nuclear,5271.0
08/19/2019 08:10:00,EDT,Other Fossil Fuels,51.0
08/19/2019 08:10:00,EDT,Other Renewables,271.0
08/19/2019 08:10:00,EDT,Wind,512.0
08/19/2019 08:10:00,EDT,Hydro,3359.0
08/19/2019 08:15:00,EDT,Dual Fuel,4593.0
08/19/2019 08:15:00,EDT,Natural Gas,4246.0
08/19/2019 08:15:00,EDT,Nuclear,5273.0
08/19/2019 08:15:00,EDT,Other Fossil Fuels,59.0
08/19/2019 08:15:00,EDT,Other Renewables,274.0
08/19/2019 08:15:00,EDT,Wind,514.0
08/19/2019 08:15:00,EDT,Hydro,3407.0
08/19/2019 08:20:00,EDT,Dual Fuel,4627.0
08/19/2019 08:20:00,EDT,Natural Gas,4274.0
08/19/2019 08:20:00,EDT,Nuclear,5274.0
08/19/2019 08:20:00,EDT,Other Fossil Fuels,95.0
08/19/2019 08:20:00,EDT,Other Renewables,275.0
08/19/2019 08:20:00,EDT,Wind,519.0
08/19/2019 08:20:00,EDT,Hydro,3415.0
08/19/2019 08:25:00,EDT,Dual Fuel,4695.0
08/19/2019 08:25:00,EDT,Natural Gas,4262.0
08/19/2019 08:25:00,EDT,Nuclear,5274.0
08/19/2019 08:25:00,EDT,Other Fossil Fuels,100.0
08/19/2019 08:25:00,EDT,Other Renewables,275.0
08/19/2019 08:25:00,EDT,Wind,514.0
08/19/2019 08:25:00,EDT,Hydro,3443.0
08/19/2019 08:30:00,EDT,Dual Fuel,4785.0
08/19/2019 08:30:00,EDT,Natural Gas,4259.0
08/19/2019 08:30:00,EDT,Nuclear,5273.0
08/19/2019 08:30:00,EDT,Other Fossil Fuels,100.0
08/19/2019 08:30:00,EDT,Other Renewables,274.0
08/19/2019 08:30:00,EDT,Wind,528.0
08/19/2019 08:30:00,EDT,Hydro,3445.0
08/19/2019 08:35:00,EDT,Dual Fuel,4883.0
08/19/2019 08:35:00,EDT,Natural Gas,4290.0
08/19/2019 08:35:00,EDT,Nuclear,5270.0
08/19/2019 08:35:00,EDT,Other Fossil Fuels,100.0
08/19/2019 08:35:00,EDT,Other Renewables,277.0
08/19/2019 08:35:00,EDT,Wind,542.0
08/19/2019 08:35:00,EDT,Hydro,3453.0
08/19/2019 08:40:00,EDT,Dual Fuel,4931.0
08/19/2019 08:40:00,EDT,Natural Gas,4288.0
08/19/2019 08:40:00,EDT,Nuclear,5270.0
08/19/2019 08:40:00,EDT,Other Fossil Fuels,99.0
08/19/2019 08:40:00,EDT,Other Renewables,278.0
08/19/2019 08:40:00,EDT,Wind,575.0
08/19/2019 08:40:00,EDT,Hydro,3469.0
08/19/2019 08:45:00,EDT,Dual Fuel,5001.0
08/19/2019 08:45:00,EDT,Natural Gas,4293.0
08/19/2019 08:45:00,EDT,Nuclear,5270.0
08/19/2019 08:45:00,EDT,Other Fossil Fuels,100.0
08/19/2019 08:45:00,EDT,Other Renewables,276.0
08/19/2019 08:45:00,EDT,Wind,629.0
08/19/2019 08:45:00,EDT,Hydro,3469.0
08/19/2019 08:50:00,EDT,Dual Fuel,5048.0
08/19/2019 08:50:00,EDT,Natural Gas,4320.0
08/19/2019 08:50:00,EDT,Nuclear,5270.0
08/19/2019 08:50:00,EDT,Other Fossil Fuels,100.0
08/19/2019 08:50:00,EDT,Other Renewables,279.0
08/19/2019 08:50:00,EDT,Wind,664.0
08/19/2019 08:50:00,EDT,Hydro,3442.0
08/19/2019 08:55:00,EDT,Dual Fuel,5103.0
08/19/2019 08:55:00,EDT,Natural Gas,4343.0
08/19/2019 08:55:00,EDT,Nuclear,5267.0
08/19/2019 08:55:00,EDT,Other Fossil Fuels,100.0
08/19/2019 08:55:00,EDT,Other Renewables,279.0
08/19/2019 08:55:00,EDT,Wind,706.0
08/19/2019 08:55:00,EDT,Hydro,3444.0
08/19/2019 09:00:00,EDT,Dual Fuel,5195.0
08/19/2019 09:00:00,EDT,Natural Gas,4414.0
08/19/2019 09:00:00,EDT,Nuclear,5267.0
08/19/2019 09:00:00,EDT,Other Fossil Fuels,100.0
08/19/2019 09:00:00,EDT,Other Renewables,275.0
08/19/2019 09:00:00,EDT,Wind,723.0
08/19/2019 09:00:00,EDT,Hydro,3455.0
08/19/2019 09:05:00,EDT,Dual Fuel,5201.0
08/19/2019 09:05:00,EDT,Natural Gas,4496.0
08/19/2019 09:05:00,EDT,Nuclear,5267.0
08/19/2019 09:05:00,EDT,Other Fossil Fuels,100.0
08/19/2019 09:05:00,EDT,Other Renewables,275.0
08/19/2019 09:05:00,EDT,Wind,713.0
08/19/2019 09:05:00,EDT,Hydro,3459.0
08/19/2019 09:10:00,EDT,Dual Fuel,5309.0
08/19/2019 09:10:00,EDT,Natural Gas,4520.0
08/19/2019 09:10:00,EDT,Nuclear,5267.0
08/19/2019 09:10:00,EDT,Other Fossil Fuels,99.0
08/19/2019 09:10:00,EDT,Other Renewables,280.0
08/19/2019 09:10:00,EDT,Wind,713.0
08/19/2019 09:10:00,EDT,Hydro,3485.0
08/19/2019 09:15:00,EDT,Dual Fuel,5379.0
08/19/2019 09:15:00,EDT,Natural Gas,4509.0
08/19/2019 09:15:00,EDT,Nuclear,5267.0
08/19/2019 09:15:00,EDT,Other Fossil Fuels,100.0
08/19/2019 09:15:00,EDT,Other Renewables,278.0
08/19/2019 09:15:00,EDT,Wind,715.0
08/19/2019 09:15:00,EDT,Hydro,3494.0
08/19/2019 09:20:00,EDT,Dual Fuel,5478.0
08/19/2019 09:20:00,EDT,Natural Gas,4519.0
08/19/2019 09:20:00,EDT,Nuclear,5267.0
08/19/2019 09:20:00,EDT,Other Fossil Fuels,99.0
08/19/2019 09:20:00,EDT,Other Renewables,274.0
08/19/2019 09:20:00,EDT,Wind,690.0
08/19/2019 09:20:00,EDT,Hydro,3468.0
08/19/2019 09:25:00,EDT,Dual Fuel,5553.0
08/19/2019 09:25:00,EDT,Natural Gas,4541.0
08/19/2019 09:25:00,EDT,Nuclear,5268.0
08/19/2019 09:25:00,EDT,Other Fossil Fuels,100.0
08/19/2019 09:25:00,EDT,Other Renewables,277.0
08/19/2019 09:25:00,EDT,Wind,671.0
08/19/2019 09:25:00,EDT,Hydro,3500.0
08/19/2019 09:30:00,EDT,Dual Fuel,5625.0
08/19/2019 09:30:00,EDT,Natural Gas,4568.0
08/19/2019 09:30:00,EDT,Nuclear,5266.0
08/19/2019 09:30:00,EDT,Other Fossil Fuels,100.0
08/19/2019 09:30:00,EDT,Other Renewables,279.0
08/19/2019 09:30:00,EDT,Wind,658.0
08/19/2019 09:30:00,EDT,Hydro,3493.0
08/19/2019 09:35:00,EDT,Dual Fuel,5712.0
08/19/2019 09:35:00,EDT,Natural Gas,4640.0
08/19/2019 09:35:00,EDT,Nuclear,5265.0
08/19/2019 09:35:00,EDT,Other Fossil Fuels,107.0
08/19/2019 09:35:00,EDT,Other Renewables,279.0
08/19/2019 09:35:00,EDT,Wind,652.0
08/19/2019 09:35:00,EDT,Hydro,3458.0
08/19/2019 09:40:00,EDT,Dual Fuel,5786.0
08/19/2019 09:40:00,EDT,Natural Gas,4668.0
08/19/2019 09:40:00,EDT,Nuclear,5265.0
08/19/2019 09:40:00,EDT,Other Fossil Fuels,116.0
08/19/2019 09:40:00,EDT,Other Renewables,269.0
08/19/2019 09:40:00,EDT,Wind,648.0
08/19/2019 09:40:00,EDT,Hydro,3501.0
08/19/2019 09:45:00,EDT,Dual Fuel,5885.0
08/19/2019 09:45:00,EDT,Natural Gas,4619.0
08/19/2019 09:45:00,EDT,Nuclear,5266.0
08/19/2019 09:45:00,EDT,Other Fossil Fuels,116.0
08/19/2019 09:45:00,EDT,Other Renewables,275.0
08/19/2019 09:45:00,EDT,Wind,652.0
08/19/2019 09:45:00,EDT,Hydro,3506.0
08/19/2019 09:50:00,EDT,Dual Fuel,5936.0
08/19/2019 09:50:00,EDT,Natural Gas,4638.0
08/19/2019 09:50:00,EDT,Nuclear,5267.0
08/19/2019 09:50:00,EDT,Other Fossil Fuels,116.0
08/19/2019 09:50:00,EDT,Other Renewables,276.0
08/19/2019 09:50:00,EDT,Wind,653.0
08/19/2019 09:50:00,EDT,Hydro,3472.0
08/19/2019 09:55:00,EDT,Dual Fuel,5985.0
08/19/2019 09:55:00,EDT,Natural Gas,4692.0
08/19/2019 09:55:00,EDT,Nuclear,5263.0
08/19/2019 09:55:00,EDT,Other Fossil Fuels,116.0
08/19/2019 09:55:00,EDT,Other Renewables,276.0
08/19/2019 09:55:00,EDT,Wind,627.0
08/19/2019 09:55:00,EDT,Hydro,3475.0
08/19/2019 10:00:00,EDT,Dual Fuel,6095.0
08/19/2019 10:00:00,EDT,Natural Gas,4756.0
08/19/2019 10:00:00,EDT,Nuclear,5263.0
08/19/2019 10:00:00,EDT,Other Fossil Fuels,116.0
08/19/2019 10:00:00,EDT,Other Renewables,277.0
08/19/2019 10:00:00,EDT,Wind,620.0
08/19/2019 10:00:00,EDT,Hydro,3479.0
08/19/2019 10:05:00,EDT,Dual Fuel,6219.0
08/19/2019 10:05:00,EDT,Natural Gas,4726.0
08/19/2019 10:05:00,EDT,Nuclear,5264.0
08/19/2019 10:05:00,EDT,Other Fossil Fuels,116.0
08/19/2019 10:05:00,EDT,Other Renewables,283.0
08/19/2019 10:05:00,EDT,Wind,638.0
08/19/2019 10:05:00,EDT,Hydro,3547.0
08/19/2019 10:10:00,EDT,Dual Fuel,6336.0
08/19/2019 10:10:00,EDT,Natural Gas,4707.0
08/19/2019 10:10:00,EDT,Nuclear,5264.0
08/19/2019 10:10:00,EDT,Other Fossil Fuels,116.0
08/19/2019 10:10:00,EDT,Other Renewables,287.0
08/19/2019 10:10:00,EDT,Wind,636.0
08/19/2019 10:10:00,EDT,Hydro,3574.0
08/19/2019 10:15:00,EDT,Dual Fuel,6464.0
08/19/2019 10:15:00,EDT,Natural Gas,4723.0
08/19/2019 10:15:00,EDT,Nuclear,5262.0
08/19/2019 10:15:00,EDT,Other Fossil Fuels,115.0
08/19/2019 10:15:00,EDT,Other Renewables,290.0
08/19/2019 10:15:00,EDT,Wind,638.0
08/19/2019 10:15:00,EDT,Hydro,3543.0
08/19/2019 10:20:00,EDT,Dual Fuel,6592.0
08/19/2019 10:20:00,EDT,Natural Gas,4761.0
08/19/2019 10:20:00,EDT,Nuclear,5262.0
08/19/2019 10:20:00,EDT,Other Fossil Fuels,115.0
08/19/2019 10:20:00,EDT,Other Renewables,278.0
08/19/2019 10:20:00,EDT,Wind,630.0
08/19/2019 10:20:00,EDT,Hydro,3529.0
08/19/2019 10:25:00,EDT,Dual Fuel,6687.0
08/19/2019 10:25:00,EDT,Natural Gas,4782.0
08/19/2019 10:25:00,EDT,Nuclear,5262.0
08/19/2019 10:25:00,EDT,Other Fossil Fuels,116.0
08/19/2019 10:25:00,EDT,Other Renewables,272.0
08/19/2019 10:25:00,EDT,Wind,598.0
08/19/2019 10:25:00,EDT,Hydro,3509.0
08/19/2019 10:30:00,EDT,Dual Fuel,6731.0
08/19/2019 10:30:00,EDT,Natural Gas,4788.0
08/19/2019 10:30:00,EDT,Nuclear,5260.0
08/19/2019 10:30:00,EDT,Other Fossil Fuels,116.0
08/19/2019 10:30:00,EDT,Other Renewables,283.0
08/19/2019 10:30:00,EDT,Wind,546.0
08/19/2019 10:30:00,EDT,Hydro,3531.0
08/19/2019 10:35:00,EDT,Dual Fuel,6799.0
08/19/2019 10:35:00,EDT,Natural Gas,4798.0
08/19/2019 10:35:00,EDT,Nuclear,5261.0
08/19/2019 10:35:00,EDT,Other Fossil Fuels,116.0
08/19/2019 10:35:00,EDT,Other Renewables,286.0
08/19/2019 10:35:00,EDT,Wind,521.0
08/19/2019 10:35:00,EDT,Hydro,3547.0
08/19/2019 10:40:00,EDT,Dual Fuel,6919.0
08/19/2019 10:40:00,EDT,Natural Gas,4787.0
08/19/2019 10:40:00,EDT,Nuclear,5260.0
08/19/2019 10:40:00,EDT,Other Fossil Fuels,116.0
08/19/2019 10:40:00,EDT,Other Renewables,276.0
08/19/2019 10:40:00,EDT,Wind,510.0
08/19/2019 10:40:00,EDT,Hydro,3609.0
08/19/2019 10:45:00,EDT,Dual Fuel,7073.0
08/19/2019 10:45:00,EDT,Natural Gas,4785.0
08/19/2019 10:45:00,EDT,Nuclear,5260.0
08/19/2019 10:45:00,EDT,Other Fossil Fuels,118.0
08/19/2019 10:45:00,EDT,Other Renewables,274.0
08/19/2019 10:45:00,EDT,Wind,505.0
08/19/2019 10:45:00,EDT,Hydro,3603.0
08/19/2019 10:50:00,EDT,Dual Fuel,7146.0
08/19/2019 10:50:00,EDT,Natural Gas,4773.0
08/19/2019 10:50:00,EDT,Nuclear,5260.0
08/19/2019 10:50:00,EDT,Other Fossil Fuels,123.0
08/19/2019 10:50:00,EDT,Other Renewables,275.0
08/19/2019 10:50:00,EDT,Wind,496.0
08/19/2019 10:50:00,EDT,Hydro,3603.0
08/19/2019 10:55:00,EDT,Dual Fuel,7194.0
08/19/2019 10:55:00,EDT,Natural Gas,4812.0
08/19/2019 10:55:00,EDT,Nuclear,5260.0
08/19/2019 10:55:00,EDT,Other Fossil Fuels,123.0
08/19/2019 10:55:00,EDT,Other Renewables,292.0
08/19/2019 10:55:00,EDT,Wind,513.0
08/19/2019 10:55:00,EDT,Hydro,3592.0
08/19/2019 11:00:00,EDT,Dual Fuel,7234.0
08/19/2019 11:00:00,EDT,Natural Gas,4856.0
08/19/2019 11:00:00,EDT,Nuclear,5260.0
08/19/2019 11:00:00,EDT,Other Fossil Fuels,123.0
08/19/2019 11:00:00,EDT,Other Renewables,289.0
08/19/2019 11:00:00,EDT,Wind,530.0
08/19/2019 11:00:00,EDT,Hydro,3608.0
08/19/2019 11:05:00,EDT,Dual Fuel,7329.0
08/19/2019 11:05:00,EDT,Natural Gas,4900.0
08/19/2019 11:05:00,EDT,Nuclear,5260.0
08/19/2019 11:05:00,EDT,Other Fossil Fuels,123.0
08/19/2019 11:05:00,EDT,Other Renewables,279.0
08/19/2019 11:05:00,EDT,Wind,538.0
08/19/2019 11:05:00,EDT,Hydro,3594.0
08/19/2019 11:10:00,EDT,Dual Fuel,7422.0
08/19/2019 11:10:00,EDT,Natural Gas,4947.0
08/19/2019 11:10:00,EDT,Nuclear,5259.0
08/19/2019 11:10:00,EDT,Other Fossil Fuels,123.0
08/19/2019 11:10:00,EDT,Other Renewables,279.0
08/19/2019 11:10:00,EDT,Wind,536.0
08/19/2019 11:10:00,EDT,Hydro,3610.0
08/19/2019 11:15:00,EDT,Dual Fuel,7481.0
08/19/2019 11:15:00,EDT,Natural Gas,5016.0
08/19/2019 11:15:00,EDT,Nuclear,5258.0
08/19/2019 11:15:00,EDT,Other Fossil Fuels,123.0
08/19/2019 11:15:00,EDT,Other Renewables,284.0
08/19/2019 11:15:00,EDT,Wind,537.0
08/19/2019 11:15:00,EDT,Hydro,3602.0
08/19/2019 11:20:00,EDT,Dual Fuel,7543.0
08/19/2019 11:20:00,EDT,Natural Gas,5023.0
08/19/2019 11:20:00,EDT,Nuclear,5258.0
08/19/2019 11:20:00,EDT,Other Fossil Fuels,130.0
08/19/2019 11:20:00,EDT,Other Renewables,282.0
08/19/2019 11:20:00,EDT,Wind,532.0
08/19/2019 11:20:00,EDT,Hydro,3605.0
08/19/2019 11:25:00,EDT,Dual Fuel,7612.0
08/19/2019 11:25:00,EDT,Natural Gas,5016.0
08/19/2019 11:25:00,EDT,Nuclear,5259.0
08/19/2019 11:25:00,EDT,Other Fossil Fuels,130.0
08/19/2019 11:25:00,EDT,Other Renewables,292.0
08/19/2019 11:25:00,EDT,Wind,528.0
08/19/2019 11:25:00,EDT,Hydro,3606.0
08/19/2019 11:30:00,EDT,Dual Fuel,7682.0
08/19/2019 11:30:00,EDT,Natural Gas,5020.0
08/19/2019 11:30:00,EDT,Nuclear,5258.0
08/19/2019 11:30:00,EDT,Other Fossil Fuels,130.0
08/19/2019 11:30:00,EDT,Other Renewables,294.0
08/19/2019 11:30:00,EDT,Wind,506.0
08/19/2019 11:30:00,EDT,Hydro,3604.0
08/19/2019 11:35:00,EDT,Dual Fuel,7705.0
08/19/2019 11:35:00,EDT,Natural Gas,5010.0
08/19/2019 11:35:00,EDT,Nuclear,5256.0
08/19/2019 11:35:00,EDT,Other Fossil Fuels,130.0
08/19/2019 11:35:00,EDT,Other Renewables,295.0
08/19/2019 11:35:00,EDT,Wind,518.0
08/19/2019 11:35:00,EDT,Hydro,3626.0
08/19/2019 11:40:00,EDT,Dual Fuel,7728.0
08/19/2019 11:40:00,EDT,Natural Gas,5045.0
08/19/2019 11:40:00,EDT,Nuclear,5254.0
08/19/2019 11:40:00,EDT,Other Fossil Fuels,130.0
08/19/2019 11:40:00,EDT,Other Renewables,295.0
08/19/2019 11:40:00,EDT,Wind,541.0
08/19/2019 11:40:00,EDT,Hydro,3670.0
08/19/2019 11:45:00,EDT,Dual Fuel,7784.0
08/19/2019 11:45:00,EDT,Natural Gas,5043.0
08/19/2019 11:45:00,EDT,Nuclear,5251.0
08/19/2019 11:45:00,EDT,Other Fossil Fuels,130.0
08/19/2019 11:45:00,EDT,Other Renewables,297.0
08/19/2019 11:45:00,EDT,Wind,552.0
08/19/2019 11:45:00,EDT,Hydro,3696.0
08/19/2019 11:50:00,EDT,Dual Fuel,7875.0
08/19/2019 11:50:00,EDT,Natural Gas,5085.0
08/19/2019 11:50:00,EDT,Nuclear,5251.0
08/19/2019 11:50:00,EDT,Other Fossil Fuels,130.0
08/19/2019 11:50:00,EDT,Other Renewables,296.0
08/19/2019 11:50:00,EDT,Wind,553.0
08/19/2019 11:50:00,EDT,Hydro,3671.0
08/19/2019 11:55:00,EDT,Dual Fuel,7974.0
08/19/2019 11:55:00,EDT,Natural Gas,5121.0
08/19/2019 11:55:00,EDT,Nuclear,5248.0
08/19/2019 11:55:00,EDT,Other Fossil Fuels,130.0
08/19/2019 11:55:00,EDT,Other Renewables,292.0
08/19/2019 11:55:00,EDT,Wind,556.0
08/19/2019 11:55:00,EDT,Hydro,3613.0
08/19/2019 12:00:00,EDT,Dual Fuel,8017.0
08/19/2019 12:00:00,EDT,Natural Gas,5134.0
08/19/2019 12:00:00,EDT,Nuclear,5246.0
08/19/2019 12:00:00,EDT,Other Fossil Fuels,130.0
08/19/2019 12:00:00,EDT,Other Renewables,288.0
08/19/2019 12:00:00,EDT,Wind,566.0
08/19/2019 12:00:00,EDT,Hydro,3624.0
08/19/2019 12:05:00,EDT,Dual Fuel,8020.0
08/19/2019 12:05:00,EDT,Natural Gas,5119.0
08/19/2019 12:05:00,EDT,Nuclear,5243.0
08/19/2019 12:05:00,EDT,Other Fossil Fuels,130.0
08/19/2019 12:05:00,EDT,Other Renewables,289.0
08/19/2019 12:05:00,EDT,Wind,578.0
08/19/2019 12:05:00,EDT,Hydro,3697.0
08/19/2019 12:10:00,EDT,Dual Fuel,8050.0
08/19/2019 12:10:00,EDT,Natural Gas,5205.0
08/19/2019 12:10:00,EDT,Nuclear,5245.0
08/19/2019 12:10:00,EDT,Other Fossil Fuels,130.0
08/19/2019 12:10:00,EDT,Other Renewables,289.0
08/19/2019 12:10:00,EDT,Wind,578.0
08/19/2019 12:10:00,EDT,Hydro,3696.0
08/19/2019 12:15:00,EDT,Dual Fuel,8099.0
08/19/2019 12:15:00,EDT,Natural Gas,5269.0
08/19/2019 12:15:00,EDT,Nuclear,5243.0
08/19/2019 12:15:00,EDT,Other Fossil Fuels,130.0
08/19/2019 12:15:00,EDT,Other Renewables,296.0
08/19/2019 12:15:00,EDT,Wind,555.0
08/19/2019 12:15:00,EDT,Hydro,3700.0
08/19/2019 12:20:00,EDT,Dual Fuel,8137.0
08/19/2019 12:20:00,EDT,Natural Gas,5301.0
08/19/2019 12:20:00,EDT,Nuclear,5243.0
08/19/2019 12:20:00,EDT,Other Fossil Fuels,130.0
08/19/2019 12:20:00,EDT,Other Renewables,298.0
08/19/2019 12:20:00,EDT,Wind,564.0
08/19/2019 12:20:00,EDT,Hydro,3713.0
08/19/2019 12:25:00,EDT,Dual Fuel,8167.0
08/19/2019 12:25:00,EDT,Natural Gas,5324.0
08/19/2019 12:25:00,EDT,Nuclear,5244.0
08/19/2019 12:25:00,EDT,Other Fossil Fuels,129.0
08/19/2019 12:25:00,EDT,Other Renewables,298.0
08/19/2019 12:25:00,EDT,Wind,586.0
08/19/2019 12:25:00,EDT,Hydro,3706.0
08/19/2019 12:30:00,EDT,Dual Fuel,8206.0
08/19/2019 12:30:00,EDT,Natural Gas,5329.0
08/19/2019 12:30:00,EDT,Nuclear,5244.0
08/19/2019 12:30:00,EDT,Other Fossil Fuels,129.0
08/19/2019 12:30:00,EDT,Other Renewables,298.0
08/19/2019 12:30:00,EDT,Wind,595.0
08/19/2019 12:30:00,EDT,Hydro,3719.0
08/19/2019 12:35:00,EDT,Dual Fuel,8240.0
08/19/2019 12:35:00,EDT,Natural Gas,5344.0
08/19/2019 12:35:00,EDT,Nuclear,5243.0
08/19/2019 12:35:00,EDT,Other Fossil Fuels,130.0
08/19/2019 12:35:00,EDT,Other Renewables,294.0
08/19/2019 12:35:00,EDT,Wind,627.0
08/19/2019 12:35:00,EDT,Hydro,3726.0
08/19/2019 12:40:00,EDT,Dual Fuel,8283.0
08/19/2019 12:40:00,EDT,Natural Gas,5369.0
08/19/2019 12:40:00,EDT,Nuclear,5243.0
08/19/2019 12:40:00,EDT,Other Fossil Fuels,129.0
08/19/2019 12:40:00,EDT,Other Renewables,291.0
08/19/2019 12:40:00,EDT,Wind,638.0
08/19/2019 12:40:00,EDT,Hydro,3729.0
08/19/2019 12:45:00,EDT,Dual Fuel,8409.0
08/19/2019 12:45:00,EDT,Natural Gas,5385.0
08/19/2019 12:45:00,EDT,Nuclear,5244.0
08/19/2019 12:45:00,EDT,Other Fossil Fuels,129.0
08/19/2019 12:45:00,EDT,Other Renewables,295.0
08/19/2019 12:45:00,EDT,Wind,655.0
08/19/2019 12:45:00,EDT,Hydro,3719.0
08/19/2019 12:50:00,EDT,Dual Fuel,8463.0
08/19/2019 12:50:00,EDT,Natural Gas,5398.0
08/19/2019 12:50:00,EDT,Nuclear,5245.0
08/19/2019 12:50:00,EDT,Other Fossil Fuels,132.0
08/19/2019 12:50:00,EDT,Other Renewables,294.0
08/19/2019 12:50:00,EDT,Wind,646.0
08/19/2019 12:50:00,EDT,Hydro,3737.0
08/19/2019 12:55:00,EDT,Dual Fuel,8505.0
08/19/2019 12:55:00,EDT,Natural Gas,5416.0
08/19/2019 12:55:00,EDT,Nuclear,5244.0
08/19/2019 12:55:00,EDT,Other Fossil Fuels,132.0
08/19/2019 12:55:00,EDT,Other Renewables,296.0
08/19/2019 12:55:00,EDT,Wind,650.0
08/19/2019 12:55:00,EDT,Hydro,3737.0
08/19/2019 13:00:00,EDT,Dual Fuel,8602.0
08/19/2019 13:00:00,EDT,Natural Gas,5402.0
08/19/2019 13:00:00,EDT,Nuclear,5244.0
08/19/2019 13:00:00,EDT,Other Fossil Fuels,133.0
08/19/2019 13:00:00,EDT,Other Renewables,298.0
08/19/2019 13:00:00,EDT,Wind,657.0
08/19/2019 13:00:00,EDT,Hydro,3785.0
08/19/2019 13:05:00,EDT,Dual Fuel,8564.0
08/19/2019 13:05:00,EDT,Natural Gas,5422.0
08/19/2019 13:05:00,EDT,Nuclear,5245.0
08/19/2019 13:05:00,EDT,Other Fossil Fuels,133.0
08/19/2019 13:05:00,EDT,Other Renewables,292.0
08/19/2019 13:05:00,EDT,Wind,680.0
08/19/2019 13:05:00,EDT,Hydro,3860.0
08/19/2019 13:10:00,EDT,Dual Fuel,8575.0
08/19/2019 13:10:00,EDT,Natural Gas,5511.0
08/19/2019 13:10:00,EDT,Nuclear,5248.0
08/19/2019 13:10:00,EDT,Other Fossil Fuels,133.0
08/19/2019 13:10:00,EDT,Other Renewables,294.0
08/19/2019 13:10:00,EDT,Wind,680.0
08/19/2019 13:10:00,EDT,Hydro,3851.0
08/19/2019 13:15:00,EDT,Dual Fuel,8583.0
08/19/2019 13:15:00,EDT,Natural Gas,5535.0
08/19/2019 13:15:00,EDT,Nuclear,5249.0
08/19/2019 13:15:00,EDT,Other Fossil Fuels,132.0
08/19/2019 13:15:00,EDT,Other Renewables,295.0
08/19/2019 13:15:00,EDT,Wind,665.0
08/19/2019 13:15:00,EDT,Hydro,3876.0
08/19/2019 13:20:00,EDT,Dual Fuel,8636.0
08/19/2019 13:20:00,EDT,Natural Gas,5547.0
08/19/2019 13:20:00,EDT,Nuclear,5252.0
08/19/2019 13:20:00,EDT,Other Fossil Fuels,132.0
08/19/2019 13:20:00,EDT,Other Renewables,294.0
08/19/2019 13:20:00,EDT,Wind,659.0
08/19/2019 13:20:00,EDT,Hydro,3883.0
08/19/2019 13:25:00,EDT,Dual Fuel,8689.0
08/19/2019 13:25:00,EDT,Natural Gas,5578.0
08/19/2019 13:25:00,EDT,Nuclear,5249.0
08/19/2019 13:25:00,EDT,Other Fossil Fuels,132.0
08/19/2019 13:25:00,EDT,Other Renewables,296.0
08/19/2019 13:25:00,EDT,Wind,673.0
08/19/2019 13:25:00,EDT,Hydro,3896.0
08/19/2019 13:30:00,EDT,Dual Fuel,8752.0
08/19/2019 13:30:00,EDT,Natural Gas,5595.0
08/19/2019 13:30:00,EDT,Nuclear,5248.0
08/19/2019 13:30:00,EDT,Other Fossil Fuels,132.0
08/19/2019 13:30:00,EDT,Other Renewables,294.0
08/19/2019 13:30:00,EDT,Wind,688.0
08/19/2019 13:30:00,EDT,Hydro,3889.0
08/19/2019 13:35:00,EDT,Dual Fuel,8786.0
08/19/2019 13:35:00,EDT,Natural Gas,5604.0
08/19/2019 13:35:00,EDT,Nuclear,5249.0
08/19/2019 13:35:00,EDT,Other Fossil Fuels,133.0
08/19/2019 13:35:00,EDT,Other Renewables,291.0
08/19/2019 13:35:00,EDT,Wind,679.0
08/19/2019 13:35:00,EDT,Hydro,3902.0
08/19/2019 13:40:00,EDT,Dual Fuel,8800.0
08/19/2019 13:40:00,EDT,Natural Gas,5609.0
08/19/2019 13:40:00,EDT,Nuclear,5249.0
08/19/2019 13:40:00,EDT,Other Fossil Fuels,133.0
08/19/2019 13:40:00,EDT,Other Renewables,292.0
08/19/2019 13:40:00,EDT,Wind,679.0
08/19/2019 13:40:00,EDT,Hydro,3910.0
08/19/2019 13:45:00,EDT,Dual Fuel,8852.0
08/19/2019 13:45:00,EDT,Natural Gas,5613.0
08/19/2019 13:45:00,EDT,Nuclear,5248.0
08/19/2019 13:45:00,EDT,Other Fossil Fuels,133.0
08/19/2019 13:45:00,EDT,Other Renewables,294.0
08/19/2019 13:45:00,EDT,Wind,663.0
08/19/2019 13:45:00,EDT,Hydro,3909.0
08/19/2019 13:50:00,EDT,Dual Fuel,8961.0
08/19/2019 13:50:00,EDT,Natural Gas,5607.0
08/19/2019 13:50:00,EDT,Nuclear,5247.0
08/19/2019 13:50:00,EDT,Other Fossil Fuels,133.0
08/19/2019 13:50:00,EDT,Other Renewables,294.0
08/19/2019 13:50:00,EDT,Wind,663.0
08/19/2019 13:50:00,EDT,Hydro,3916.0
08/19/2019 13:55:00,EDT,Dual Fuel,9005.0
08/19/2019 13:55:00,EDT,Natural Gas,5614.0
08/19/2019 13:55:00,EDT,Nuclear,5245.0
08/19/2019 13:55:00,EDT,Other Fossil Fuels,133.0
08/19/2019 13:55:00,EDT,Other Renewables,291.0
08/19/2019 13:55:00,EDT,Wind,668.0
08/19/2019 13:55:00,EDT,Hydro,3909.0
08/19/2019 14:00:00,EDT,Dual Fuel,9054.0
08/19/2019 14:00:00,EDT,Natural Gas,5617.0
08/19/2019 14:00:00,EDT,Nuclear,5243.0
08/19/2019 14:00:00,EDT,Other Fossil Fuels,133.0
08/19/2019 14:00:00,EDT,Other Renewables,291.0
08/19/2019 14:00:00,EDT,Wind,666.0
08/19/2019 14:00:00,EDT,Hydro,3913.0
08/19/2019 14:05:00,EDT,Dual Fuel,9074.0
08/19/2019 14:05:00,EDT,Natural Gas,5600.0
08/19/2019 14:05:00,EDT,Nuclear,5243.0
08/19/2019 14:05:00,EDT,Other Fossil Fuels,133.0
08/19/2019 14:05:00,EDT,Other Renewables,297.0
08/19/2019 14:05:00,EDT,Wind,638.0
08/19/2019 14:05:00,EDT,Hydro,3920.0
08/19/2019 14:10:00,EDT,Dual Fuel,9032.0
08/19/2019 14:10:00,EDT,Natural Gas,5603.0
08/19/2019 14:10:00,EDT,Nuclear,5244.0
08/19/2019 14:10:00,EDT,Other Fossil Fuels,134.0
08/19/2019 14:10:00,EDT,Other Renewables,297.0
08/19/2019 14:10:00,EDT,Wind,621.0
08/19/2019 14:10:00,EDT,Hydro,3929.0
08/19/2019 14:15:00,EDT,Dual Fuel,9020.0
08/19/2019 14:15:00,EDT,Natural Gas,5648.0
08/19/2019 14:15:00,EDT,Nuclear,5244.0
08/19/2019 14:15:00,EDT,Other Fossil Fuels,133.0
08/19/2019 14:15:00,EDT,Other Renewables,291.0
08/19/2019 14:15:00,EDT,Wind,619.0
08/19/2019 14:15:00,EDT,Hydro,3936.0
08/19/2019 14:20:00,EDT,Dual Fuel,9059.0
08/19/2019 14:20:00,EDT,Natural Gas,5648.0
08/19/2019 14:20:00,EDT,Nuclear,5244.0
08/19/2019 14:20:00,EDT,Other Fossil Fuels,133.0
08/19/2019 14:20:00,EDT,Other Renewables,285.0
08/19/2019 14:20:00,EDT,Wind,601.0
08/19/2019 14:20:00,EDT,Hydro,3932.0
08/19/2019 14:25:00,EDT,Dual Fuel,9085.0
08/19/2019 14:25:00,EDT,Natural Gas,5655.0
08/19/2019 14:25:00,EDT,Nuclear,5245.0
08/19/2019 14:25:00,EDT,Other Fossil Fuels,133.0
08/19/2019 14:25:00,EDT,Other Renewables,291.0
08/19/2019 14:25:00,EDT,Wind,586.0
08/19/2019 14:25:00,EDT,Hydro,3940.0
08/19/2019 14:30:00,EDT,Dual Fuel,9110.0
08/19/2019 14:30:00,EDT,Natural Gas,5657.0
08/19/2019 14:30:00,EDT,Nuclear,5244.0
08/19/2019 14:30:00,EDT,Other Fossil Fuels,133.0
08/19/2019 14:30:00,EDT,Other Renewables,290.0
08/19/2019 14:30:00,EDT,Wind,573.0
08/19/2019 14:30:00,EDT,Hydro,3933.0
08/19/2019 14:35:00,EDT,Dual Fuel,9192.0
08/19/2019 14:35:00,EDT,Natural Gas,5657.0
08/19/2019 14:35:00,EDT,Nuclear,5244.0
08/19/2019 14:35:00,EDT,Other Fossil Fuels,133.0
08/19/2019 14:35:00,EDT,Other Renewables,288.0
08/19/2019 14:35:00,EDT,Wind,566.0
08/19/2019 14:35:00,EDT,Hydro,3929.0
08/19/2019 14:40:00,EDT,Dual Fuel,9224.0
08/19/2019 14:40:00,EDT,Natural Gas,5659.0
08/19/2019 14:40:00,EDT,Nuclear,5243.0
08/19/2019 14:40:00,EDT,Other Fossil Fuels,133.0
08/19/2019 14:40:00,EDT,Other Renewables,287.0
08/19/2019 14:40:00,EDT,Wind,558.0
08/19/2019 14:40:00,EDT,Hydro,3931.0
08/19/2019 14:45:00,EDT,Dual Fuel,9274.0
08/19/2019 14:45:00,EDT,Natural Gas,5661.0
08/19/2019 14:45:00,EDT,Nuclear,5244.0
08/19/2019 14:45:00,EDT,Other Fossil Fuels,130.0
08/19/2019 14:45:00,EDT,Other Renewables,285.0
08/19/2019 14:45:00,EDT,Wind,574.0
08/19/2019 14:45:00,EDT,Hydro,3931.0
08/19/2019 14:50:00,EDT,Dual Fuel,9345.0
08/19/2019 14:50:00,EDT,Natural Gas,5656.0
08/19/2019 14:50:00,EDT,Nuclear,5244.0
08/19/2019 14:50:00,EDT,Other Fossil Fuels,130.0
08/19/2019 14:50:00,EDT,Other Renewables,288.0
08/19/2019 14:50:00,EDT,Wind,584.0
08/19/2019 14:50:00,EDT,Hydro,3927.0
08/19/2019 14:55:00,EDT,Dual Fuel,9375.0
08/19/2019 14:55:00,EDT,Natural Gas,5649.0
08/19/2019 14:55:00,EDT,Nuclear,5243.0
08/19/2019 14:55:00,EDT,Other Fossil Fuels,130.0
08/19/2019 14:55:00,EDT,Other Renewables,292.0
08/19/2019 14:55:00,EDT,Wind,601.0
08/19/2019 14:55:00,EDT,Hydro,3929.0
08/19/2019 15:00:00,EDT,Dual Fuel,9474.0
08/19/2019 15:00:00,EDT,Natural Gas,5663.0
08/19/2019 15:00:00,EDT,Nuclear,5243.0
08/19/2019 15:00:00,EDT,Other Fossil Fuels,130.0
08/19/2019 15:00:00,EDT,Other Renewables,286.0
08/19/2019 15:00:00,EDT,Wind,608.0
08/19/2019 15:00:00,EDT,Hydro,3959.0
08/19/2019 15:05:00,EDT,Dual Fuel,9539.0
08/19/2019 15:05:00,EDT,Natural Gas,5699.0
08/19/2019 15:05:00,EDT,Nuclear,5243.0
08/19/2019 15:05:00,EDT,Other Fossil Fuels,130.0
08/19/2019 15:05:00,EDT,Other Renewables,285.0
08/19/2019 15:05:00,EDT,Wind,614.0
08/19/2019 15:05:00,EDT,Hydro,3960.0
08/19/2019 15:10:00,EDT,Dual Fuel,9594.0
08/19/2019 15:10:00,EDT,Natural Gas,5723.0
08/19/2019 15:10:00,EDT,Nuclear,5239.0
08/19/2019 15:10:00,EDT,Other Fossil Fuels,130.0
08/19/2019 15:10:00,EDT,Other Renewables,283.0
08/19/2019 15:10:00,EDT,Wind,610.0
08/19/2019 15:10:00,EDT,Hydro,3958.0
08/19/2019 15:15:00,EDT,Dual Fuel,9693.0
08/19/2019 15:15:00,EDT,Natural Gas,5718.0
08/19/2019 15:15:00,EDT,Nuclear,5238.0
08/19/2019 15:15:00,EDT,Other Fossil Fuels,133.0
08/19/2019 15:15:00,EDT,Other Renewables,283.0
08/19/2019 15:15:00,EDT,Wind,643.0
08/19/2019 15:15:00,EDT,Hydro,3982.0
08/19/2019 15:20:00,EDT,Dual Fuel,9707.0
08/19/2019 15:20:00,EDT,Natural Gas,5712.0
08/19/2019 15:20:00,EDT,Nuclear,5236.0
08/19/2019 15:20:00,EDT,Other Fossil Fuels,166.0
08/19/2019 15:20:00,EDT,Other Renewables,283.0
08/19/2019 15:20:00,EDT,Wind,655.0
08/19/2019 15:20:00,EDT,Hydro,3972.0
08/19/2019 15:25:00,EDT,Dual Fuel,9780.0
08/19/2019 15:25:00,EDT,Natural Gas,5707.0
08/19/2019 15:25:00,EDT,Nuclear,5238.0
08/19/2019 15:25:00,EDT,Other Fossil Fuels,222.0
08/19/2019 15:25:00,EDT,Other Renewables,287.0
08/19/2019 15:25:00,EDT,Wind,658.0
08/19/2019 15:25:00,EDT,Hydro,3974.0
08/19/2019 15:30:00,EDT,Dual Fuel,9999.0
08/19/2019 15:30:00,EDT,Natural Gas,5668.0
08/19/2019 15:30:00,EDT,Nuclear,5240.0
08/19/2019 15:30:00,EDT,Other Fossil Fuels,260.0
08/19/2019 15:30:00,EDT,Other Renewables,287.0
08/19/2019 15:30:00,EDT,Wind,673.0
08/19/2019 15:30:00,EDT,Hydro,3880.0
08/19/2019 15:35:00,EDT,Dual Fuel,10247.0
08/19/2019 15:35:00,EDT,Natural Gas,5548.0
08/19/2019 15:35:00,EDT,Nuclear,5241.0
08/19/2019 15:35:00,EDT,Other Fossil Fuels,261.0
08/19/2019 15:35:00,EDT,Other Renewables,285.0
08/19/2019 15:35:00,EDT,Wind,682.0
08/19/2019 15:35:00,EDT,Hydro,3654.0
08/19/2019 15:40:00,EDT,Dual Fuel,10232.0
08/19/2019 15:40:00,EDT,Natural Gas,5515.0
08/19/2019 15:40:00,EDT,Nuclear,5241.0
08/19/2019 15:40:00,EDT,Other Fossil Fuels,321.0
08/19/2019 15:40:00,EDT,Other Renewables,287.0
08/19/2019 15:40:00,EDT,Wind,700.0
08/19/2019 15:40:00,EDT,Hydro,3555.0
08/19/2019 15:45:00,EDT,Dual Fuel,10197.0
08/19/2019 15:45:00,EDT,Natural Gas,5511.0
08/19/2019 15:45:00,EDT,Nuclear,5241.0
08/19/2019 15:45:00,EDT,Other Fossil Fuels,346.0
08/19/2019 15:45:00,EDT,Other Renewables,286.0
08/19/2019 15:45:00,EDT,Wind,726.0
08/19/2019 15:45:00,EDT,Hydro,3447.0
08/19/2019 15:50:00,EDT,Dual Fuel,10302.0
08/19/2019 15:50:00,EDT,Natural Gas,5511.0
08/19/2019 15:50:00,EDT,Nuclear,5243.0
08/19/2019 15:50:00,EDT,Other Fossil Fuels,347.0
08/19/2019 15:50:00,EDT,Other Renewables,283.0
08/19/2019 15:50:00,EDT,Wind,746.0
08/19/2019 15:50:00,EDT,Hydro,3423.0
08/19/2019 15:55:00,EDT,Dual Fuel,10381.0
08/19/2019 15:55:00,EDT,Natural Gas,5516.0
08/19/2019 15:55:00,EDT,Nuclear,5243.0
08/19/2019 15:55:00,EDT,Other Fossil Fuels,348.0
08/19/2019 15:55:00,EDT,Other Renewables,284.0
08/19/2019 15:55:00,EDT,Wind,742.0
08/19/2019 15:55:00,EDT,Hydro,3448.0
08/19/2019 16:00:00,EDT,Dual Fuel,10564.0
08/19/2019 16:00:00,EDT,Natural Gas,5502.0
08/19/2019 16:00:00,EDT,Nuclear,5246.0
08/19/2019 16:00:00,EDT,Other Fossil Fuels,358.0
08/19/2019 16:00:00,EDT,Other Renewables,282.0
08/19/2019 16:00:00,EDT,Wind,751.0
08/19/2019 16:00:00,EDT,Hydro,3333.0
08/19/2019 16:05:00,EDT,Dual Fuel,10574.0
08/19/2019 16:05:00,EDT,Natural Gas,5495.0
08/19/2019 16:05:00,EDT,Nuclear,5244.0
08/19/2019 16:05:00,EDT,Other Fossil Fuels,390.0
08/19/2019 16:05:00,EDT,Other Renewables,280.0
08/19/2019 16:05:00,EDT,Wind,733.0
08/19/2019 16:05:00,EDT,Hydro,3272.0
08/19/2019 16:10:00,EDT,Dual Fuel,10602.0
08/19/2019 16:10:00,EDT,Natural Gas,5472.0
08/19/2019 16:10:00,EDT,Nuclear,5244.0
08/19/2019 16:10:00,EDT,Other Fossil Fuels,391.0
08/19/2019 16:10:00,EDT,Other Renewables,282.0
08/19/2019 16:10:00,EDT,Wind,722.0
08/19/2019 16:10:00,EDT,Hydro,3278.0
08/19/2019 16:15:00,EDT,Dual Fuel,10617.0
08/19/2019 16:15:00,EDT,Natural Gas,5396.0
08/19/2019 16:15:00,EDT,Nuclear,5244.0
08/19/2019 16:15:00,EDT,Other Fossil Fuels,391.0
08/19/2019 16:15:00,EDT,Other Renewables,284.0
08/19/2019 16:15:00,EDT,Wind,733.0
08/19/2019 16:15:00,EDT,Hydro,3268.0
08/19/2019 16:20:00,EDT,Dual Fuel,10615.0
08/19/2019 16:20:00,EDT,Natural Gas,5371.0
08/19/2019 16:20:00,EDT,Nuclear,5245.0
08/19/2019 16:20:00,EDT,Other Fossil Fuels,391.0
08/19/2019 16:20:00,EDT,Other Renewables,278.0
08/19/2019 16:20:00,EDT,Wind,726.0
08/19/2019 16:20:00,EDT,Hydro,3254.0
08/19/2019 16:25:00,EDT,Dual Fuel,10582.0
08/19/2019 16:25:00,EDT,Natural Gas,5382.0
08/19/2019 16:25:00,EDT,Nuclear,5246.0
08/19/2019 16:25:00,EDT,Other Fossil Fuels,391.0
08/19/2019 16:25:00,EDT,Other Renewables,281.0
08/19/2019 16:25:00,EDT,Wind,732.0
08/19/2019 16:25:00,EDT,Hydro,3302.0
08/19/2019 16:30:00,EDT,Dual Fuel,10515.0
08/19/2019 16:30:00,EDT,Natural Gas,5358.0
08/19/2019 16:30:00,EDT,Nuclear,5247.0
08/19/2019 16:30:00,EDT,Other Fossil Fuels,391.0
08/19/2019 16:30:00,EDT,Other Renewables,284.0
08/19/2019 16:30:00,EDT,Wind,730.0
08/19/2019 16:30:00,EDT,Hydro,3375.0
08/19/2019 16:35:00,EDT,Dual Fuel,10440.0
08/19/2019 16:35:00,EDT,Natural Gas,5305.0
08/19/2019 16:35:00,EDT,Nuclear,5245.0
08/19/2019 16:35:00,EDT,Other Fossil Fuels,391.0
08/19/2019 16:35:00,EDT,Other Renewables,282.0
08/19/2019 16:35:00,EDT,Wind,747.0
08/19/2019 16:35:00,EDT,Hydro,3312.0
08/19/2019 16:40:00,EDT,Dual Fuel,10396.0
08/19/2019 16:40:00,EDT,Natural Gas,5336.0
08/19/2019 16:40:00,EDT,Nuclear,5246.0
08/19/2019 16:40:00,EDT,Other Fossil Fuels,390.0
08/19/2019 16:40:00,EDT,Other Renewables,279.0
08/19/2019 16:40:00,EDT,Wind,779.0
08/19/2019 16:40:00,EDT,Hydro,3296.0
08/19/2019 16:45:00,EDT,Dual Fuel,10297.0
08/19/2019 16:45:00,EDT,Natural Gas,5405.0
08/19/2019 16:45:00,EDT,Nuclear,5247.0
08/19/2019 16:45:00,EDT,Other Fossil Fuels,391.0
08/19/2019 16:45:00,EDT,Other Renewables,283.0
08/19/2019 16:45:00,EDT,Wind,780.0
08/19/2019 16:45:00,EDT,Hydro,3326.0
08/19/2019 16:50:00,EDT,Dual Fuel,10292.0
08/19/2019 16:50:00,EDT,Natural Gas,5428.0
08/19/2019 16:50:00,EDT,Nuclear,5247.0
08/19/2019 16:50:00,EDT,Other Fossil Fuels,392.0
08/19/2019 16:50:00,EDT,Other Renewables,280.0
08/19/2019 16:50:00,EDT,Wind,790.0
08/19/2019 16:50:00,EDT,Hydro,3385.0
08/19/2019 16:55:00,EDT,Dual Fuel,10286.0
08/19/2019 16:55:00,EDT,Natural Gas,5438.0
08/19/2019 16:55:00,EDT,Nuclear,5247.0
08/19/2019 16:55:00,EDT,Other Fossil Fuels,393.0
08/19/2019 16:55:00,EDT,Other Renewables,270.0
08/19/2019 16:55:00,EDT,Wind,785.0
08/19/2019 16:55:00,EDT,Hydro,3427.0
08/19/2019 17:00:00,EDT,Dual Fuel,10127.0
08/19/2019 17:00:00,EDT,Natural Gas,5473.0
08/19/2019 17:00:00,EDT,Nuclear,5246.0
08/19/2019 17:00:00,EDT,Other Fossil Fuels,394.0
08/19/2019 17:00:00,EDT,Other Renewables,265.0
08/19/2019 17:00:00,EDT,Wind,782.0
08/19/2019 17:00:00,EDT,Hydro,3510.0
08/19/2019 17:05:00,EDT,Dual Fuel,10067.0
08/19/2019 17:05:00,EDT,Natural Gas,5467.0
08/19/2019 17:05:00,EDT,Nuclear,5247.0
08/19/2019 17:05:00,EDT,Other Fossil Fuels,419.0
08/19/2019 17:05:00,EDT,Other Renewables,265.0
08/19/2019 17:05:00,EDT,Wind,792.0
08/19/2019 17:05:00,EDT,Hydro,3471.0
08/19/2019 17:10:00,EDT,Dual Fuel,10101.0
08/19/2019 17:10:00,EDT,Natural Gas,5426.0
08/19/2019 17:10:00,EDT,Nuclear,5248.0
08/19/2019 17:10:00,EDT,Other Fossil Fuels,442.0
08/19/2019 17:10:00,EDT,Other Renewables,267.0
08/19/2019 17:10:00,EDT,Wind,795.0
08/19/2019 17:10:00,EDT,Hydro,3354.0
08/19/2019 17:15:00,EDT,Dual Fuel,9941.0
08/19/2019 17:15:00,EDT,Natural Gas,5490.0
08/19/2019 17:15:00,EDT,Nuclear,5247.0
08/19/2019 17:15:00,EDT,Other Fossil Fuels,441.0
08/19/2019 17:15:00,EDT,Other Renewables,269.0
08/19/2019 17:15:00,EDT,Wind,799.0
08/19/2019 17:15:00,EDT,Hydro,3391.0
08/19/2019 17:20:00,EDT,Dual Fuel,9822.0
08/19/2019 17:20:00,EDT,Natural Gas,5516.0
08/19/2019 17:20:00,EDT,Nuclear,5248.0
08/19/2019 17:20:00,EDT,Other Fossil Fuels,441.0
08/19/2019 17:20:00,EDT,Other Renewables,270.0
08/19/2019 17:20:00,EDT,Wind,789.0
08/19/2019 17:20:00,EDT,Hydro,3425.0
08/19/2019 17:25:00,EDT,Dual Fuel,9789.0
08/19/2019 17:25:00,EDT,Natural Gas,5539.0
08/19/2019 17:25:00,EDT,Nuclear,5247.0
08/19/2019 17:25:00,EDT,Other Fossil Fuels,442.0
08/19/2019 17:25:00,EDT,Other Renewables,268.0
08/19/2019 17:25:00,EDT,Wind,784.0
08/19/2019 17:25:00,EDT,Hydro,3432.0
08/19/2019 17:30:00,EDT,Dual Fuel,9770.0
08/19/2019 17:30:00,EDT,Natural Gas,5519.0
08/19/2019 17:30:00,EDT,Nuclear,5249.0
08/19/2019 17:30:00,EDT,Other Fossil Fuels,441.0
08/19/2019 17:30:00,EDT,Other Renewables,268.0
08/19/2019 17:30:00,EDT,Wind,774.0
08/19/2019 17:30:00,EDT,Hydro,3426.0
08/19/2019 17:35:00,EDT,Dual Fuel,9722.0
08/19/2019 17:35:00,EDT,Natural Gas,5520.0
08/19/2019 17:35:00,EDT,Nuclear,5249.0
08/19/2019 17:35:00,EDT,Other Fossil Fuels,442.0
08/19/2019 17:35:00,EDT,Other Renewables,266.0
08/19/2019 17:35:00,EDT,Wind,775.0
08/19/2019 17:35:00,EDT,Hydro,3405.0
08/19/2019 17:40:00,EDT,Dual Fuel,9706.0
08/19/2019 17:40:00,EDT,Natural Gas,5511.0
08/19/2019 17:40:00,EDT,Nuclear,5251.0
08/19/2019 17:40:00,EDT,Other Fossil Fuels,441.0
08/19/2019 17:40:00,EDT,Other Renewables,267.0
08/19/2019 17:40:00,EDT,Wind,756.0
08/19/2019 17:40:00,EDT,Hydro,3358.0
08/19/2019 17:45:00,EDT,Dual Fuel,9711.0
08/19/2019 17:45:00,EDT,Natural Gas,5493.0
08/19/2019 17:45:00,EDT,Nuclear,5250.0
08/19/2019 17:45:00,EDT,Other Fossil Fuels,442.0
08/19/2019 17:45:00,EDT,Other Renewables,268.0
08/19/2019 17:45:00,EDT,Wind,788.0
08/19/2019 17:45:00,EDT,Hydro,3320.0
08/19/2019 17:50:00,EDT,Dual Fuel,9693.0
08/19/2019 17:50:00,EDT,Natural Gas,5483.0
08/19/2019 17:50:00,EDT,Nuclear,5250.0
08/19/2019 17:50:00,EDT,Other Fossil Fuels,442.0
08/19/2019 17:50:00,EDT,Other Renewables,266.0
08/19/2019 17:50:00,EDT,Wind,780.0
08/19/2019 17:50:00,EDT,Hydro,3319.0
08/19/2019 17:55:00,EDT,Dual Fuel,9647.0
08/19/2019 17:55:00,EDT,Natural Gas,5480.0
08/19/2019 17:55:00,EDT,Nuclear,5249.0
08/19/2019 17:55:00,EDT,Other Fossil Fuels,442.0
08/19/2019 17:55:00,EDT,Other Renewables,270.0
08/19/2019 17:55:00,EDT,Wind,762.0
08/19/2019 17:55:00,EDT,Hydro,3330.0
08/19/2019 18:00:00,EDT,Dual Fuel,9615.0
08/19/2019 18:00:00,EDT,Natural Gas,5524.0
08/19/2019 18:00:00,EDT,Nuclear,5250.0
08/19/2019 18:00:00,EDT,Other Fossil Fuels,442.0
08/19/2019 18:00:00,EDT,Other Renewables,261.0
08/19/2019 18:00:00,EDT,Wind,770.0
08/19/2019 18:00:00,EDT,Hydro,3317.0
08/19/2019 18:05:00,EDT,Dual Fuel,9545.0
08/19/2019 18:05:00,EDT,Natural Gas,5576.0
08/19/2019 18:05:00,EDT,Nuclear,5250.0
08/19/2019 18:05:00,EDT,Other Fossil Fuels,442.0
08/19/2019 18:05:00,EDT,Other Renewables,267.0
08/19/2019 18:05:00,EDT,Wind,772.0
08/19/2019 18:05:00,EDT,Hydro,3326.0
08/19/2019 18:10:00,EDT,Dual Fuel,9444.0
08/19/2019 18:10:00,EDT,Natural Gas,5647.0
08/19/2019 18:10:00,EDT,Nuclear,5252.0
08/19/2019 18:10:00,EDT,Other Fossil Fuels,418.0
08/19/2019 18:10:00,EDT,Other Renewables,264.0
08/19/2019 18:10:00,EDT,Wind,762.0
08/19/2019 18:10:00,EDT,Hydro,3312.0
08/19/2019 18:15:00,EDT,Dual Fuel,9423.0
08/19/2019 18:15:00,EDT,Natural Gas,5681.0
08/19/2019 18:15:00,EDT,Nuclear,5251.0
08/19/2019 18:15:00,EDT,Other Fossil Fuels,397.0
08/19/2019 18:15:00,EDT,Other Renewables,270.0
08/19/2019 18:15:00,EDT,Wind,758.0
08/19/2019 18:15:00,EDT,Hydro,3346.0
08/19/2019 18:20:00,EDT,Dual Fuel,9345.0
08/19/2019 18:20:00,EDT,Natural Gas,5668.0
08/19/2019 18:20:00,EDT,Nuclear,5250.0
08/19/2019 18:20:00,EDT,Other Fossil Fuels,403.0
08/19/2019 18:20:00,EDT,Other Renewables,262.0
08/19/2019 18:20:00,EDT,Wind,753.0
08/19/2019 18:20:00,EDT,Hydro,3396.0
08/19/2019 18:25:00,EDT,Dual Fuel,9242.0
08/19/2019 18:25:00,EDT,Natural Gas,5670.0
08/19/2019 18:25:00,EDT,Nuclear,5251.0
08/19/2019 18:25:00,EDT,Other Fossil Fuels,404.0
08/19/2019 18:25:00,EDT,Other Renewables,270.0
08/19/2019 18:25:00,EDT,Wind,730.0
08/19/2019 18:25:00,EDT,Hydro,3498.0
08/19/2019 18:30:00,EDT,Dual Fuel,9134.0
08/19/2019 18:30:00,EDT,Natural Gas,5689.0
08/19/2019 18:30:00,EDT,Nuclear,5252.0
08/19/2019 18:30:00,EDT,Other Fossil Fuels,381.0
08/19/2019 18:30:00,EDT,Other Renewables,264.0
08/19/2019 18:30:00,EDT,Wind,719.0
08/19/2019 18:30:00,EDT,Hydro,3535.0
08/19/2019 18:35:00,EDT,Dual Fuel,9126.0
08/19/2019 18:35:00,EDT,Natural Gas,5700.0
08/19/2019 18:35:00,EDT,Nuclear,5252.0
08/19/2019 18:35:00,EDT,Other Fossil Fuels,368.0
08/19/2019 18:35:00,EDT,Other Renewables,263.0
08/19/2019 18:35:00,EDT,Wind,700.0
08/19/2019 18:35:00,EDT,Hydro,3607.0
08/19/2019 18:40:00,EDT,Dual Fuel,9069.0
08/19/2019 18:40:00,EDT,Natural Gas,5713.0
08/19/2019 18:40:00,EDT,Nuclear,5249.0
08/19/2019 18:40:00,EDT,Other Fossil Fuels,360.0
08/19/2019 18:40:00,EDT,Other Renewables,262.0
08/19/2019 18:40:00,EDT,Wind,693.0
08/19/2019 18:40:00,EDT,Hydro,3630.0
08/19/2019 18:45:00,EDT,Dual Fuel,8928.0
08/19/2019 18:45:00,EDT,Natural Gas,5722.0
08/19/2019 18:45:00,EDT,Nuclear,5249.0
08/19/2019 18:45:00,EDT,Other Fossil Fuels,358.0
08/19/2019 18:45:00,EDT,Other Renewables,264.0
08/19/2019 18:45:00,EDT,Wind,672.0
08/19/2019 18:45:00,EDT,Hydro,3741.0
08/19/2019 18:50:00,EDT,Dual Fuel,8868.0
08/19/2019 18:50:00,EDT,Natural Gas,5692.0
08/19/2019 18:50:00,EDT,Nuclear,5249.0
08/19/2019 18:50:00,EDT,Other Fossil Fuels,359.0
08/19/2019 18:50:00,EDT,Other Renewables,266.0
08/19/2019 18:50:00,EDT,Wind,661.0
08/19/2019 18:50:00,EDT,Hydro,3671.0
08/19/2019 18:55:00,EDT,Dual Fuel,8765.0
08/19/2019 18:55:00,EDT,Natural Gas,5612.0
08/19/2019 18:55:00,EDT,Nuclear,5248.0
08/19/2019 18:55:00,EDT,Other Fossil Fuels,359.0
08/19/2019 18:55:00,EDT,Other Renewables,269.0
08/19/2019 18:55:00,EDT,Wind,628.0
08/19/2019 18:55:00,EDT,Hydro,3568.0
08/19/2019 19:00:00,EDT,Dual Fuel,8613.0
08/19/2019 19:00:00,EDT,Natural Gas,5545.0
08/19/2019 19:00:00,EDT,Nuclear,5249.0
08/19/2019 19:00:00,EDT,Other Fossil Fuels,358.0
08/19/2019 19:00:00,EDT,Other Renewables,271.0
08/19/2019 19:00:00,EDT,Wind,612.0
08/19/2019 19:00:00,EDT,Hydro,3671.0
08/19/2019 19:05:00,EDT,Dual Fuel,8474.0
08/19/2019 19:05:00,EDT,Natural Gas,5500.0
08/19/2019 19:05:00,EDT,Nuclear,5249.0
08/19/2019 19:05:00,EDT,Other Fossil Fuels,357.0
08/19/2019 19:05:00,EDT,Other Renewables,270.0
08/19/2019 19:05:00,EDT,Wind,599.0
08/19/2019 19:05:00,EDT,Hydro,3754.0
08/19/2019 19:10:00,EDT,Dual Fuel,8439.0
08/19/2019 19:10:00,EDT,Natural Gas,5492.0
08/19/2019 19:10:00,EDT,Nuclear,5250.0
08/19/2019 19:10:00,EDT,Other Fossil Fuels,357.0
08/19/2019 19:10:00,EDT,Other Renewables,270.0
08/19/2019 19:10:00,EDT,Wind,589.0
08/19/2019 19:10:00,EDT,Hydro,3771.0
08/19/2019 19:15:00,EDT,Dual Fuel,8348.0
08/19/2019 19:15:00,EDT,Natural Gas,5490.0
08/19/2019 19:15:00,EDT,Nuclear,5249.0
08/19/2019 19:15:00,EDT,Other Fossil Fuels,356.0
08/19/2019 19:15:00,EDT,Other Renewables,270.0
08/19/2019 19:15:00,EDT,Wind,579.0
08/19/2019 19:15:00,EDT,Hydro,3813.0
08/19/2019 19:20:00,EDT,Dual Fuel,8312.0
08/19/2019 19:20:00,EDT,Natural Gas,5475.0
08/19/2019 19:20:00,EDT,Nuclear,5249.0
08/19/2019 19:20:00,EDT,Other Fossil Fuels,355.0
08/19/2019 19:20:00,EDT,Other Renewables,269.0
08/19/2019 19:20:00,EDT,Wind,574.0
08/19/2019 19:20:00,EDT,Hydro,3814.0
08/19/2019 19:25:00,EDT,Dual Fuel,8278.0
08/19/2019 19:25:00,EDT,Natural Gas,5442.0
08/19/2019 19:25:00,EDT,Nuclear,5248.0
08/19/2019 19:25:00,EDT,Other Fossil Fuels,308.0
08/19/2019 19:25:00,EDT,Other Renewables,267.0
08/19/2019 19:25:00,EDT,Wind,570.0
08/19/2019 19:25:00,EDT,Hydro,3794.0
08/19/2019 19:30:00,EDT,Dual Fuel,8217.0
08/19/2019 19:30:00,EDT,Natural Gas,5450.0
08/19/2019 19:30:00,EDT,Nuclear,5247.0
08/19/2019 19:30:00,EDT,Other Fossil Fuels,268.0
08/19/2019 19:30:00,EDT,Other Renewables,266.0
08/19/2019 19:30:00,EDT,Wind,556.0
08/19/2019 19:30:00,EDT,Hydro,3799.0
08/19/2019 19:35:00,EDT,Dual Fuel,8217.0
08/19/2019 19:35:00,EDT,Natural Gas,5441.0
08/19/2019 19:35:00,EDT,Nuclear,5248.0
08/19/2019 19:35:00,EDT,Other Fossil Fuels,268.0
08/19/2019 19:35:00,EDT,Other Renewables,266.0
08/19/2019 19:35:00,EDT,Wind,545.0
08/19/2019 19:35:00,EDT,Hydro,3810.0
08/19/2019 19:40:00,EDT,Dual Fuel,8197.0
08/19/2019 19:40:00,EDT,Natural Gas,5397.0
08/19/2019 19:40:00,EDT,Nuclear,5248.0
08/19/2019 19:40:00,EDT,Other Fossil Fuels,229.0
08/19/2019 19:40:00,EDT,Other Renewables,267.0
08/19/2019 19:40:00,EDT,Wind,537.0
08/19/2019 19:40:00,EDT,Hydro,3771.0
08/19/2019 19:45:00,EDT,Dual Fuel,8154.0
08/19/2019 19:45:00,EDT,Natural Gas,5419.0
08/19/2019 19:45:00,EDT,Nuclear,5247.0
08/19/2019 19:45:00,EDT,Other Fossil Fuels,133.0
08/19/2019 19:45:00,EDT,Other Renewables,267.0
08/19/2019 19:45:00,EDT,Wind,532.0
08/19/2019 19:45:00,EDT,Hydro,3780.0
08/19/2019 19:50:00,EDT,Dual Fuel,8154.0
08/19/2019 19:50:00,EDT,Natural Gas,5397.0
08/19/2019 19:50:00,EDT,Nuclear,5247.0
08/19/2019 19:50:00,EDT,Other Fossil Fuels,132.0
08/19/2019 19:50:00,EDT,Other Renewables,265.0
08/19/2019 19:50:00,EDT,Wind,536.0
08/19/2019 19:50:00,EDT,Hydro,3825.0
08/19/2019 19:55:00,EDT,Dual Fuel,8138.0
08/19/2019 19:55:00,EDT,Natural Gas,5400.0
08/19/2019 19:55:00,EDT,Nuclear,5247.0
08/19/2019 19:55:00,EDT,Other Fossil Fuels,132.0
08/19/2019 19:55:00,EDT,Other Renewables,266.0
08/19/2019 19:55:00,EDT,Wind,526.0
08/19/2019 19:55:00,EDT,Hydro,3809.0
08/19/2019 20:00:00,EDT,Dual Fuel,8019.0
08/19/2019 20:00:00,EDT,Natural Gas,5361.0
08/19/2019 20:00:00,EDT,Nuclear,5249.0
08/19/2019 20:00:00,EDT,Other Fossil Fuels,132.0
08/19/2019 20:00:00,EDT,Other Renewables,266.0
08/19/2019 20:00:00,EDT,Wind,521.0
08/19/2019 20:00:00,EDT,Hydro,3800.0
08/19/2019 20:05:00,EDT,Dual Fuel,7848.0
08/19/2019 20:05:00,EDT,Natural Gas,5164.0
08/19/2019 20:05:00,EDT,Nuclear,5249.0
08/19/2019 20:05:00,EDT,Other Fossil Fuels,132.0
08/19/2019 20:05:00,EDT,Other Renewables,266.0
08/19/2019 20:05:00,EDT,Wind,511.0
08/19/2019 20:05:00,EDT,Hydro,3845.0
08/19/2019 20:10:00,EDT,Dual Fuel,7679.0
08/19/2019 20:10:00,EDT,Natural Gas,5141.0
08/19/2019 20:10:00,EDT,Nuclear,5250.0
08/19/2019 20:10:00,EDT,Other Fossil Fuels,131.0
08/19/2019 20:10:00,EDT,Other Renewables,264.0
08/19/2019 20:10:00,EDT,Wind,488.0
08/19/2019 20:10:00,EDT,Hydro,3811.0
08/19/2019 20:15:00,EDT,Dual Fuel,7605.0
08/19/2019 20:15:00,EDT,Natural Gas,5168.0
08/19/2019 20:15:00,EDT,Nuclear,5251.0
08/19/2019 20:15:00,EDT,Other Fossil Fuels,104.0
08/19/2019 20:15:00,EDT,Other Renewables,266.0
08/19/2019 20:15:00,EDT,Wind,477.0
08/19/2019 20:15:00,EDT,Hydro,3810.0
08/19/2019 20:20:00,EDT,Dual Fuel,7691.0
08/19/2019 20:20:00,EDT,Natural Gas,5185.0
08/19/2019 20:20:00,EDT,Nuclear,5254.0
08/19/2019 20:20:00,EDT,Other Fossil Fuels,81.0
08/19/2019 20:20:00,EDT,Other Renewables,264.0
08/19/2019 20:20:00,EDT,Wind,472.0
08/19/2019 20:20:00,EDT,Hydro,3807.0
08/19/2019 20:25:00,EDT,Dual Fuel,7712.0
08/19/2019 20:25:00,EDT,Natural Gas,5187.0
08/19/2019 20:25:00,EDT,Nuclear,5255.0
08/19/2019 20:25:00,EDT,Other Fossil Fuels,80.0
08/19/2019 20:25:00,EDT,Other Renewables,263.0
08/19/2019 20:25:00,EDT,Wind,470.0
08/19/2019 20:25:00,EDT,Hydro,3804.0
08/19/2019 20:30:00,EDT,Dual Fuel,7631.0
08/19/2019 20:30:00,EDT,Natural Gas,5205.0
08/19/2019 20:30:00,EDT,Nuclear,5255.0
08/19/2019 20:30:00,EDT,Other Fossil Fuels,81.0
08/19/2019 20:30:00,EDT,Other Renewables,265.0
08/19/2019 20:30:00,EDT,Wind,485.0
08/19/2019 20:30:00,EDT,Hydro,3800.0
08/19/2019 20:35:00,EDT,Dual Fuel,7612.0
08/19/2019 20:35:00,EDT,Natural Gas,5193.0
08/19/2019 20:35:00,EDT,Nuclear,5256.0
08/19/2019 20:35:00,EDT,Other Fossil Fuels,80.0
08/19/2019 20:35:00,EDT,Other Renewables,263.0
08/19/2019 20:35:00,EDT,Wind,489.0
08/19/2019 20:35:00,EDT,Hydro,3796.0
08/19/2019 20:40:00,EDT,Dual Fuel,7559.0
08/19/2019 20:40:00,EDT,Natural Gas,5133.0
08/19/2019 20:40:00,EDT,Nuclear,5256.0
08/19/2019 20:40:00,EDT,Other Fossil Fuels,81.0
08/19/2019 20:40:00,EDT,Other Renewables,265.0
08/19/2019 20:40:00,EDT,Wind,489.0
08/19/2019 20:40:00,EDT,Hydro,3798.0
08/19/2019 20:45:00,EDT,Dual Fuel,7524.0
08/19/2019 20:45:00,EDT,Natural Gas,5126.0
08/19/2019 20:45:00,EDT,Nuclear,5257.0
08/19/2019 20:45:00,EDT,Other Fossil Fuels,75.0
08/19/2019 20:45:00,EDT,Other Renewables,268.0
08/19/2019 20:45:00,EDT,Wind,486.0
08/19/2019 20:45:00,EDT,Hydro,3798.0
08/19/2019 20:50:00,EDT,Dual Fuel,7490.0
08/19/2019 20:50:00,EDT,Natural Gas,5096.0
08/19/2019 20:50:00,EDT,Nuclear,5257.0
08/19/2019 20:50:00,EDT,Other Fossil Fuels,73.0
08/19/2019 20:50:00,EDT,Other Renewables,266.0
08/19/2019 20:50:00,EDT,Wind,484.0
08/19/2019 20:50:00,EDT,Hydro,3792.0
08/19/2019 20:55:00,EDT,Dual Fuel,7425.0
08/19/2019 20:55:00,EDT,Natural Gas,5086.0
08/19/2019 20:55:00,EDT,Nuclear,5259.0
08/19/2019 20:55:00,EDT,Other Fossil Fuels,73.0
08/19/2019 20:55:00,EDT,Other Renewables,264.0
08/19/2019 20:55:00,EDT,Wind,491.0
08/19/2019 20:55:00,EDT,Hydro,3782.0
08/19/2019 21:00:00,EDT,Dual Fuel,7438.0
08/19/2019 21:00:00,EDT,Natural Gas,5048.0
08/19/2019 21:00:00,EDT,Nuclear,5258.0
08/19/2019 21:00:00,EDT,Other Fossil Fuels,73.0
08/19/2019 21:00:00,EDT,Other Renewables,267.0
08/19/2019 21:00:00,EDT,Wind,502.0
08/19/2019 21:00:00,EDT,Hydro,3806.0
08/19/2019 21:05:00,EDT,Dual Fuel,7469.0
08/19/2019 21:05:00,EDT,Natural Gas,5004.0
08/19/2019 21:05:00,EDT,Nuclear,5259.0
08/19/2019 21:05:00,EDT,Other Fossil Fuels,73.0
08/19/2019 21:05:00,EDT,Other Renewables,267.0
08/19/2019 21:05:00,EDT,Wind,506.0
08/19/2019 21:05:00,EDT,Hydro,3762.0
08/19/2019 21:10:00,EDT,Dual Fuel,7415.0
08/19/2019 21:10:00,EDT,Natural Gas,4954.0
08/19/2019 21:10:00,EDT,Nuclear,5259.0
08/19/2019 21:10:00,EDT,Other Fossil Fuels,73.0
08/19/2019 21:10:00,EDT,Other Renewables,266.0
08/19/2019 21:10:00,EDT,Wind,503.0
08/19/2019 21:10:00,EDT,Hydro,3703.0
08/19/2019 21:15:00,EDT,Dual Fuel,7297.0
08/19/2019 21:15:00,EDT,Natural Gas,4926.0
08/19/2019 21:15:00,EDT,Nuclear,5261.0
08/19/2019 21:15:00,EDT,Other Fossil Fuels,73.0
08/19/2019 21:15:00,EDT,Other Renewables,265.0
08/19/2019 21:15:00,EDT,Wind,501.0
08/19/2019 21:15:00,EDT,Hydro,3699.0
08/19/2019 21:20:00,EDT,Dual Fuel,7155.0
08/19/2019 21:20:00,EDT,Natural Gas,4917.0
08/19/2019 21:20:00,EDT,Nuclear,5262.0
08/19/2019 21:20:00,EDT,Other Fossil Fuels,73.0
08/19/2019 21:20:00,EDT,Other Renewables,266.0
08/19/2019 21:20:00,EDT,Wind,507.0
08/19/2019 21:20:00,EDT,Hydro,3739.0
08/19/2019 21:25:00,EDT,Dual Fuel,7062.0
08/19/2019 21:25:00,EDT,Natural Gas,4903.0
08/19/2019 21:25:00,EDT,Nuclear,5262.0
08/19/2019 21:25:00,EDT,Other Fossil Fuels,73.0
08/19/2019 21:25:00,EDT,Other Renewables,267.0
08/19/2019 21:25:00,EDT,Wind,513.0
08/19/2019 21:25:00,EDT,Hydro,3765.0
08/19/2019 21:30:00,EDT,Dual Fuel,7036.0
08/19/2019 21:30:00,EDT,Natural Gas,4903.0
08/19/2019 21:30:00,EDT,Nuclear,5261.0
08/19/2019 21:30:00,EDT,Other Fossil Fuels,73.0
08/19/2019 21:30:00,EDT,Other Renewables,265.0
08/19/2019 21:30:00,EDT,Wind,513.0
08/19/2019 21:30:00,EDT,Hydro,3735.0
08/19/2019 21:35:00,EDT,Dual Fuel,7004.0
08/19/2019 21:35:00,EDT,Natural Gas,4895.0
08/19/2019 21:35:00,EDT,Nuclear,5263.0
08/19/2019 21:35:00,EDT,Other Fossil Fuels,73.0
08/19/2019 21:35:00,EDT,Other Renewables,267.0
08/19/2019 21:35:00,EDT,Wind,521.0
08/19/2019 21:35:00,EDT,Hydro,3654.0
08/19/2019 21:40:00,EDT,Dual Fuel,6972.0
08/19/2019 21:40:00,EDT,Natural Gas,4874.0
08/19/2019 21:40:00,EDT,Nuclear,5264.0
08/19/2019 21:40:00,EDT,Other Fossil Fuels,73.0
08/19/2019 21:40:00,EDT,Other Renewables,267.0
08/19/2019 21:40:00,EDT,Wind,518.0
08/19/2019 21:40:00,EDT,Hydro,3609.0
08/19/2019 21:45:00,EDT,Dual Fuel,6907.0
08/19/2019 21:45:00,EDT,Natural Gas,4859.0
08/19/2019 21:45:00,EDT,Nuclear,5264.0
08/19/2019 21:45:00,EDT,Other Fossil Fuels,73.0
08/19/2019 21:45:00,EDT,Other Renewables,269.0
08/19/2019 21:45:00,EDT,Wind,513.0
08/19/2019 21:45:00,EDT,Hydro,3569.0
08/19/2019 21:50:00,EDT,Dual Fuel,6827.0
08/19/2019 21:50:00,EDT,Natural Gas,4836.0
08/19/2019 21:50:00,EDT,Nuclear,5265.0
08/19/2019 21:50:00,EDT,Other Fossil Fuels,74.0
08/19/2019 21:50:00,EDT,Other Renewables,268.0
08/19/2019 21:50:00,EDT,Wind,510.0
08/19/2019 21:50:00,EDT,Hydro,3539.0
08/19/2019 21:55:00,EDT,Dual Fuel,6741.0
08/19/2019 21:55:00,EDT,Natural Gas,4802.0
08/19/2019 21:55:00,EDT,Nuclear,5266.0
08/19/2019 21:55:00,EDT,Other Fossil Fuels,69.0
08/19/2019 21:55:00,EDT,Other Renewables,267.0
08/19/2019 21:55:00,EDT,Wind,497.0
08/19/2019 21:55:00,EDT,Hydro,3488.0
08/19/2019 22:00:00,EDT,Dual Fuel,6652.0
08/19/2019 22:00:00,EDT,Natural Gas,4769.0
08/19/2019 22:00:00,EDT,Nuclear,5268.0
08/19/2019 22:00:00,EDT,Other Fossil Fuels,67.0
08/19/2019 22:00:00,EDT,Other Renewables,266.0
08/19/2019 22:00:00,EDT,Wind,484.0
08/19/2019 22:00:00,EDT,Hydro,3414.0
08/19/2019 22:05:00,EDT,Dual Fuel,6570.0
08/19/2019 22:05:00,EDT,Natural Gas,4657.0
08/19/2019 22:05:00,EDT,Nuclear,5266.0
08/19/2019 22:05:00,EDT,Other Fossil Fuels,68.0
08/19/2019 22:05:00,EDT,Other Renewables,264.0
08/19/2019 22:05:00,EDT,Wind,475.0
08/19/2019 22:05:00,EDT,Hydro,3300.0
08/19/2019 22:10:00,EDT,Dual Fuel,6410.0
08/19/2019 22:10:00,EDT,Natural Gas,4587.0
08/19/2019 22:10:00,EDT,Nuclear,5265.0
08/19/2019 22:10:00,EDT,Other Fossil Fuels,67.0
08/19/2019 22:10:00,EDT,Other Renewables,265.0
08/19/2019 22:10:00,EDT,Wind,462.0
08/19/2019 22:10:00,EDT,Hydro,3257.0
08/19/2019 22:15:00,EDT,Dual Fuel,6169.0
08/19/2019 22:15:00,EDT,Natural Gas,4613.0
08/19/2019 22:15:00,EDT,Nuclear,5265.0
08/19/2019 22:15:00,EDT,Other Fossil Fuels,67.0
08/19/2019 22:15:00,EDT,Other Renewables,265.0
08/19/2019 22:15:00,EDT,Wind,459.0
08/19/2019 22:15:00,EDT,Hydro,3306.0
08/19/2019 22:20:00,EDT,Dual Fuel,5979.0
08/19/2019 22:20:00,EDT,Natural Gas,4621.0
08/19/2019 22:20:00,EDT,Nuclear,5265.0
08/19/2019 22:20:00,EDT,Other Fossil Fuels,68.0
08/19/2019 22:20:00,EDT,Other Renewables,265.0
08/19/2019 22:20:00,EDT,Wind,459.0
08/19/2019 22:20:00,EDT,Hydro,3369.0
08/19/2019 22:25:00,EDT,Dual Fuel,5859.0
08/19/2019 22:25:00,EDT,Natural Gas,4618.0
08/19/2019 22:25:00,EDT,Nuclear,5266.0
08/19/2019 22:25:00,EDT,Other Fossil Fuels,65.0
08/19/2019 22:25:00,EDT,Other Renewables,266.0
08/19/2019 22:25:00,EDT,Wind,451.0
08/19/2019 22:25:00,EDT,Hydro,3419.0
08/19/2019 22:30:00,EDT,Dual Fuel,5813.0
08/19/2019 22:30:00,EDT,Natural Gas,4616.0
08/19/2019 22:30:00,EDT,Nuclear,5269.0
08/19/2019 22:30:00,EDT,Other Fossil Fuels,52.0
08/19/2019 22:30:00,EDT,Other Renewables,268.0
08/19/2019 22:30:00,EDT,Wind,458.0
08/19/2019 22:30:00,EDT,Hydro,3423.0
08/19/2019 22:35:00,EDT,Dual Fuel,5760.0
08/19/2019 22:35:00,EDT,Natural Gas,4566.0
08/19/2019 22:35:00,EDT,Nuclear,5268.0
08/19/2019 22:35:00,EDT,Other Fossil Fuels,51.0
08/19/2019 22:35:00,EDT,Other Renewables,267.0
08/19/2019 22:35:00,EDT,Wind,446.0
08/19/2019 22:35:00,EDT,Hydro,3348.0
08/19/2019 22:40:00,EDT,Dual Fuel,5641.0
08/19/2019 22:40:00,EDT,Natural Gas,4564.0
08/19/2019 22:40:00,EDT,Nuclear,5267.0
08/19/2019 22:40:00,EDT,Other Fossil Fuels,51.0
08/19/2019 22:40:00,EDT,Other Renewables,266.0
08/19/2019 22:40:00,EDT,Wind,438.0
08/19/2019 22:40:00,EDT,Hydro,3333.0
08/19/2019 22:45:00,EDT,Dual Fuel,5515.0
08/19/2019 22:45:00,EDT,Natural Gas,4539.0
08/19/2019 22:45:00,EDT,Nuclear,5271.0
08/19/2019 22:45:00,EDT,Other Fossil Fuels,51.0
08/19/2019 22:45:00,EDT,Other Renewables,267.0
08/19/2019 22:45:00,EDT,Wind,435.0
08/19/2019 22:45:00,EDT,Hydro,3282.0
08/19/2019 22:50:00,EDT,Dual Fuel,5471.0
08/19/2019 22:50:00,EDT,Natural Gas,4468.0
08/19/2019 22:50:00,EDT,Nuclear,5268.0
08/19/2019 22:50:00,EDT,Other Fossil Fuels,51.0
08/19/2019 22:50:00,EDT,Other Renewables,267.0
08/19/2019 22:50:00,EDT,Wind,427.0
08/19/2019 22:50:00,EDT,Hydro,3240.0
08/19/2019 22:55:00,EDT,Dual Fuel,5408.0
08/19/2019 22:55:00,EDT,Natural Gas,4429.0
08/19/2019 22:55:00,EDT,Nuclear,5267.0
08/19/2019 22:55:00,EDT,Other Fossil Fuels,51.0
08/19/2019 22:55:00,EDT,Other Renewables,265.0
08/19/2019 22:55:00,EDT,Wind,432.0
08/19/2019 22:55:00,EDT,Hydro,3161.0
08/19/2019 23:00:00,EDT,Dual Fuel,5320.0
08/19/2019 23:00:00,EDT,Natural Gas,4364.0
08/19/2019 23:00:00,EDT,Nuclear,5268.0
08/19/2019 23:00:00,EDT,Other Fossil Fuels,51.0
08/19/2019 23:00:00,EDT,Other Renewables,264.0
08/19/2019 23:00:00,EDT,Wind,426.0
08/19/2019 23:00:00,EDT,Hydro,3201.0
08/19/2019 23:05:00,EDT,Dual Fuel,5222.0
08/19/2019 23:05:00,EDT,Natural Gas,4321.0
08/19/2019 23:05:00,EDT,Nuclear,5269.0
08/19/2019 23:05:00,EDT,Other Fossil Fuels,51.0
08/19/2019 23:05:00,EDT,Other Renewables,267.0
08/19/2019 23:05:00,EDT,Wind,426.0
08/19/2019 23:05:00,EDT,Hydro,3156.0
08/19/2019 23:10:00,EDT,Dual Fuel,5133.0
08/19/2019 23:10:00,EDT,Natural Gas,4266.0
08/19/2019 23:10:00,EDT,Nuclear,5268.0
08/19/2019 23:10:00,EDT,Other Fossil Fuels,51.0
08/19/2019 23:10:00,EDT,Other Renewables,270.0
08/19/2019 23:10:00,EDT,Wind,436.0
08/19/2019 23:10:00,EDT,Hydro,3085.0
08/19/2019 23:15:00,EDT,Dual Fuel,5064.0
08/19/2019 23:15:00,EDT,Natural Gas,4183.0
08/19/2019 23:15:00,EDT,Nuclear,5268.0
08/19/2019 23:15:00,EDT,Other Fossil Fuels,51.0
08/19/2019 23:15:00,EDT,Other Renewables,272.0
08/19/2019 23:15:00,EDT,Wind,428.0
08/19/2019 23:15:00,EDT,Hydro,3043.0
08/19/2019 23:20:00,EDT,Dual Fuel,4978.0
08/19/2019 23:20:00,EDT,Natural Gas,4146.0
08/19/2019 23:20:00,EDT,Nuclear,5268.0
08/19/2019 23:20:00,EDT,Other Fossil Fuels,50.0
08/19/2019 23:20:00,EDT,Other Renewables,270.0
08/19/2019 23:20:00,EDT,Wind,414.0
08/19/2019 23:20:00,EDT,Hydro,3034.0
08/19/2019 23:25:00,EDT,Dual Fuel,4844.0
08/19/2019 23:25:00,EDT,Natural Gas,4155.0
08/19/2019 23:25:00,EDT,Nuclear,5270.0
08/19/2019 23:25:00,EDT,Other Fossil Fuels,51.0
08/19/2019 23:25:00,EDT,Other Renewables,269.0
08/19/2019 23:25:00,EDT,Wind,402.0
08/19/2019 23:25:00,EDT,Hydro,3065.0
08/19/2019 23:30:00,EDT,Dual Fuel,4730.0
08/19/2019 23:30:00,EDT,Natural Gas,4125.0
08/19/2019 23:30:00,EDT,Nuclear,5272.0
08/19/2019 23:30:00,EDT,Other Fossil Fuels,51.0
08/19/2019 23:30:00,EDT,Other Renewables,267.0
08/19/2019 23:30:00,EDT,Wind,387.0
08/19/2019 23:30:00,EDT,Hydro,3074.0
08/19/2019 23:35:00,EDT,Dual Fuel,4614.0
08/19/2019 23:35:00,EDT,Natural Gas,4118.0
08/19/2019 23:35:00,EDT,Nuclear,5271.0
08/19/2019 23:35:00,EDT,Other Fossil Fuels,51.0
08/19/2019 23:35:00,EDT,Other Renewables,265.0
08/19/2019 23:35:00,EDT,Wind,375.0
08/19/2019 23:35:00,EDT,Hydro,3058.0
08/19/2019 23:40:00,EDT,Dual Fuel,4536.0
08/19/2019 23:40:00,EDT,Natural Gas,4082.0
08/19/2019 23:40:00,EDT,Nuclear,5271.0
08/19/2019 23:40:00,EDT,Other Fossil Fuels,51.0
08/19/2019 23:40:00,EDT,Other Renewables,262.0
08/19/2019 23:40:00,EDT,Wind,361.0
08/19/2019 23:40:00,EDT,Hydro,3047.0
08/19/2019 23:45:00,EDT,Dual Fuel,4473.0
08/19/2019 23:45:00,EDT,Natural Gas,4035.0
08/19/2019 23:45:00,EDT,Nuclear,5269.0
08/19/2019 23:45:00,EDT,Other Fossil Fuels,51.0
08/19/2019 23:45:00,EDT,Other Renewables,265.0
08/19/2019 23:45:00,EDT,Wind,343.0
08/19/2019 23:45:00,EDT,Hydro,3057.0
08/19/2019 23:50:00,EDT,Dual Fuel,4429.0
08/19/2019 23:50:00,EDT,Natural Gas,4013.0
08/19/2019 23:50:00,EDT,Nuclear,5268.0
08/19/2019 23:50:00,EDT,Other Fossil Fuels,50.0
08/19/2019 23:50:00,EDT,Other Renewables,268.0
08/19/2019 23:50:00,EDT,Wind,327.0
08/19/2019 23:50:00,EDT,Hydro,3054.0
08/19/2019 23:55:00,EDT,Dual Fuel,4269.0
08/19/2019 23:55:00,EDT,Natural Gas,4034.0
08/19/2019 23:55:00,EDT,Nuclear,5268.0
08/19/2019 23:55:00,EDT,Other Fossil Fuels,51.0
08/19/2019 23:55:00,EDT,Other Renewables,264.0
08/19/2019 23:55:00,EDT,Wind,315.0
08/19/2019 23:55:00,EDT,Hydro,3008.0