Time Stamp,Time Zone,Fuel Category,Gen MW
08/14/2019 00:05:00,EDT,Dual Fuel,3952.0
08/14/2019 00:05:00,EDT,Natural Gas,3108.0
08/14/2019 00:05:00,EDT,Nuclear,5245.0
08/14/2019 00:05:00,EDT,Other Fossil Fuels,51.0
08/14/2019 00:05:00,EDT,Other Renewables,269.0
08/14/2019 00:05:00,EDT,Wind,36.0
08/14/2019 00:05:00,EDT,Hydro,2490.0
08/14/2019 00:10:00,EDT,Dual Fuel,4048.0
08/14/2019 00:10:00,EDT,Natural Gas,3010.0
08/14/2019 00:10:00,EDT,Nuclear,5248.0
08/14/2019 00:10:00,EDT,Other Fossil Fuels,50.0
08/14/2019 00:10:00,EDT,Other Renewables,275.0
08/14/2019 00:10:00,EDT,Wind,37.0
08/14/2019 00:10:00,EDT,Hydro,2447.0
08/14/2019 00:15:00,EDT,Dual Fuel,4052.0
08/14/2019 00:15:00,EDT,Natural Gas,2948.0
08/14/2019 00:15:00,EDT,Nuclear,5249.0
08/14/2019 00:15:00,EDT,Other Fossil Fuels,51.0
08/14/2019 00:15:00,EDT,Other Renewables,273.0
08/14/2019 00:15:00,EDT,Wind,40.0
08/14/2019 00:15:00,EDT,Hydro,2461.0
08/14/2019 00:20:00,EDT,Dual Fuel,4060.0
08/14/2019 00:20:00,EDT,Natural Gas,2935.0
08/14/2019 00:20:00,EDT,Nuclear,5250.0
08/14/2019 00:20:00,EDT,Other Fossil Fuels,51.0
08/14/2019 00:20:00,EDT,Other Renewables,269.0
08/14/2019 00:20:00,EDT,Wind,43.0
08/14/2019 00:20:00,EDT,Hydro,2419.0
08/14/2019 00:25:00,EDT,Dual Fuel,4050.0
08/14/2019 00:25:00,EDT,Natural Gas,2914.0
08/14/2019 00:25:00,EDT,Nuclear,5248.0
08/14/2019 00:25:00,EDT,Other Fossil Fuels,50.0
08/14/2019 00:25:00,EDT,Other Renewables,269.0
08/14/2019 00:25:00,EDT,Wind,45.0
08/14/2019 00:25:00,EDT,Hydro,2390.0
08/14/2019 00:30:00,EDT,Dual Fuel,3977.0
08/14/2019 00:30:00,EDT,Natural Gas,2879.0
08/14/2019 00:30:00,EDT,Nuclear,5252.0
08/14/2019 00:30:00,EDT,Other Fossil Fuels,50.0
08/14/2019 00:30:00,EDT,Other Renewables,272.0
08/14/2019 00:30:00,EDT,Wind,46.0
08/14/2019 00:30:00,EDT,Hydro,2328.0
08/14/2019 00:35:00,EDT,Dual Fuel,3937.0
08/14/2019 00:35:00,EDT,Natural Gas,2865.0
08/14/2019 00:35:00,EDT,Nuclear,5252.0
08/14/2019 00:35:00,EDT,Other Fossil Fuels,51.0
08/14/2019 00:35:00,EDT,Other Renewables,270.0
08/14/2019 00:35:00,EDT,Wind,46.0
08/14/2019 00:35:00,EDT,Hydro,2357.0
08/14/2019 00:40:00,EDT,Dual Fuel,3832.0
08/14/2019 00:40:00,EDT,Natural Gas,2837.0
08/14/2019 00:40:00,EDT,Nuclear,5254.0
08/14/2019 00:40:00,EDT,Other Fossil Fuels,50.0
08/14/2019 00:40:00,EDT,Other Renewables,268.0
08/14/2019 00:40:00,EDT,Wind,47.0
08/14/2019 00:40:00,EDT,Hydro,2334.0
08/14/2019 00:45:00,EDT,Dual Fuel,3705.0
08/14/2019 00:45:00,EDT,Natural Gas,2845.0
08/14/2019 00:45:00,EDT,Nuclear,5253.0
08/14/2019 00:45:00,EDT,Other Fossil Fuels,50.0
08/14/2019 00:45:00,EDT,Other Renewables,271.0
08/14/2019 00:45:00,EDT,Wind,50.0
08/14/2019 00:45:00,EDT,Hydro,2342.0
08/14/2019 00:50:00,EDT,Dual Fuel,3612.0
08/14/2019 00:50:00,EDT,Natural Gas,2843.0
08/14/2019 00:50:00,EDT,Nuclear,5254.0
08/14/2019 00:50:00,EDT,Other Fossil Fuels,51.0
08/14/2019 00:50:00,EDT,Other Renewables,273.0
08/14/2019 00:50:00,EDT,Wind,55.0
08/14/2019 00:50:00,EDT,Hydro,2338.0
08/14/2019 00:55:00,EDT,Dual Fuel,3530.0
08/14/2019 00:55:00,EDT,Natural Gas,2839.0
08/14/2019 00:55:00,EDT,Nuclear,5254.0
08/14/2019 00:55:00,EDT,Other Fossil Fuels,51.0
08/14/2019 00:55:00,EDT,Other Renewables,272.0
08/14/2019 00:55:00,EDT,Wind,58.0
08/14/2019 00:55:00,EDT,Hydro,2353.0
08/14/2019 01:00:00,EDT,Dual Fuel,3468.0
08/14/2019 01:00:00,EDT,Natural Gas,2837.0
08/14/2019 01:00:00,EDT,Nuclear,5256.0
08/14/2019 01:00:00,EDT,Other Fossil Fuels,50.0
08/14/2019 01:00:00,EDT,Other Renewables,268.0
08/14/2019 01:00:00,EDT,Wind,61.0
08/14/2019 01:00:00,EDT,Hydro,2404.0
08/14/2019 01:05:00,EDT,Dual Fuel,3373.0
08/14/2019 01:05:00,EDT,Natural Gas,2823.0
08/14/2019 01:05:00,EDT,Nuclear,5255.0
08/14/2019 01:05:00,EDT,Other Fossil Fuels,50.0
08/14/2019 01:05:00,EDT,Other Renewables,272.0
08/14/2019 01:05:00,EDT,Wind,65.0
08/14/2019 01:05:00,EDT,Hydro,2490.0
08/14/2019 01:10:00,EDT,Dual Fuel,3318.0
08/14/2019 01:10:00,EDT,Natural Gas,2812.0
08/14/2019 01:10:00,EDT,Nuclear,5256.0
08/14/2019 01:10:00,EDT,Other Fossil Fuels,51.0
08/14/2019 01:10:00,EDT,Other Renewables,273.0
08/14/2019 01:10:00,EDT,Wind,68.0
08/14/2019 01:10:00,EDT,Hydro,2491.0
08/14/2019 01:15:00,EDT,Dual Fuel,3299.0
08/14/2019 01:15:00,EDT,Natural Gas,2790.0
08/14/2019 01:15:00,EDT,Nuclear,5256.0
08/14/2019 01:15:00,EDT,Other Fossil Fuels,51.0
08/14/2019 01:15:00,EDT,Other Renewables,267.0
08/14/2019 01:15:00,EDT,Wind,73.0
08/14/2019 01:15:00,EDT,Hydro,2504.0
08/14/2019 01:20:00,EDT,Dual Fuel,3311.0
08/14/2019 01:20:00,EDT,Natural Gas,2805.0
08/14/2019 01:20:00,EDT,Nuclear,5256.0
08/14/2019 01:20:00,EDT,Other Fossil Fuels,51.0
08/14/2019 01:20:00,EDT,Other Renewables,269.0
08/14/2019 01:20:00,EDT,Wind,77.0
08/14/2019 01:20:00,EDT,Hydro,2502.0
08/14/2019 01:25:00,EDT,Dual Fuel,3340.0
08/14/2019 01:25:00,EDT,Natural Gas,2811.0
08/14/2019 01:25:00,EDT,Nuclear,5256.0
08/14/2019 01:25:00,EDT,Other Fossil Fuels,50.0
08/14/2019 01:25:00,EDT,Other Renewables,275.0
08/14/2019 01:25:00,EDT,Wind,80.0
08/14/2019 01:25:00,EDT,Hydro,2508.0
08/14/2019 01:30:00,EDT,Dual Fuel,3320.0
08/14/2019 01:30:00,EDT,Natural Gas,2809.0
08/14/2019 01:30:00,EDT,Nuclear,5257.0
08/14/2019 01:30:00,EDT,Other Fossil Fuels,51.0
08/14/2019 01:30:00,EDT,Other Renewables,271.0
08/14/2019 01:30:00,EDT,Wind,84.0
08/14/2019 01:30:00,EDT,Hydro,2513.0
08/14/2019 01:35:00,EDT,Dual Fuel,3297.0
08/14/2019 01:35:00,EDT,Natural Gas,2807.0
08/14/2019 01:35:00,EDT,Nuclear,5259.0
08/14/2019 01:35:00,EDT,Other Fossil Fuels,51.0
08/14/2019 01:35:00,EDT,Other Renewables,274.0
08/14/2019 01:35:00,EDT,Wind,93.0
08/14/2019 01:35:00,EDT,Hydro,2509.0
08/14/2019 01:40:00,EDT,Dual Fuel,3268.0
08/14/2019 01:40:00,EDT,Natural Gas,2801.0
08/14/2019 01:40:00,EDT,Nuclear,5258.0
08/14/2019 01:40:00,EDT,Other Fossil Fuels,51.0
08/14/2019 01:40:00,EDT,Other Renewables,273.0
08/14/2019 01:40:00,EDT,Wind,103.0
08/14/2019 01:40:00,EDT,Hydro,2511.0
08/14/2019 01:45:00,EDT,Dual Fuel,3232.0
08/14/2019 01:45:00,EDT,Natural Gas,2783.0
08/14/2019 01:45:00,EDT,Nuclear,5259.0
08/14/2019 01:45:00,EDT,Other Fossil Fuels,51.0
08/14/2019 01:45:00,EDT,Other Renewables,271.0
08/14/2019 01:45:00,EDT,Wind,108.0
08/14/2019 01:45:00,EDT,Hydro,2504.0
08/14/2019 01:50:00,EDT,Dual Fuel,3243.0
08/14/2019 01:50:00,EDT,Natural Gas,2766.0
08/14/2019 01:50:00,EDT,Nuclear,5259.0
08/14/2019 01:50:00,EDT,Other Fossil Fuels,51.0
08/14/2019 01:50:00,EDT,Other Renewables,266.0
08/14/2019 01:50:00,EDT,Wind,106.0
08/14/2019 01:50:00,EDT,Hydro,2506.0
08/14/2019 01:55:00,EDT,Dual Fuel,3219.0
08/14/2019 01:55:00,EDT,Natural Gas,2747.0
08/14/2019 01:55:00,EDT,Nuclear,5261.0
08/14/2019 01:55:00,EDT,Other Fossil Fuels,51.0
08/14/2019 01:55:00,EDT,Other Renewables,267.0
08/14/2019 01:55:00,EDT,Wind,108.0
08/14/2019 01:55:00,EDT,Hydro,2502.0
08/14/2019 02:00:00,EDT,Dual Fuel,3199.0
08/14/2019 02:00:00,EDT,Natural Gas,2719.0
08/14/2019 02:00:00,EDT,Nuclear,5259.0
08/14/2019 02:00:00,EDT,Other Fossil Fuels,51.0
08/14/2019 02:00:00,EDT,Other Renewables,270.0
08/14/2019 02:00:00,EDT,Wind,106.0
08/14/2019 02:00:00,EDT,Hydro,2534.0
08/14/2019 02:05:00,EDT,Dual Fuel,3192.0
08/14/2019 02:05:00,EDT,Natural Gas,2721.0
08/14/2019 02:05:00,EDT,Nuclear,5261.0
08/14/2019 02:05:00,EDT,Other Fossil Fuels,51.0
08/14/2019 02:05:00,EDT,Other Renewables,267.0
08/14/2019 02:05:00,EDT,Wind,103.0
08/14/2019 02:05:00,EDT,Hydro,2607.0
08/14/2019 02:10:00,EDT,Dual Fuel,3203.0
08/14/2019 02:10:00,EDT,Natural Gas,2732.0
08/14/2019 02:10:00,EDT,Nuclear,5260.0
08/14/2019 02:10:00,EDT,Other Fossil Fuels,50.0
08/14/2019 02:10:00,EDT,Other Renewables,265.0
08/14/2019 02:10:00,EDT,Wind,109.0
08/14/2019 02:10:00,EDT,Hydro,2615.0
08/14/2019 02:15:00,EDT,Dual Fuel,3198.0
08/14/2019 02:15:00,EDT,Natural Gas,2691.0
08/14/2019 02:15:00,EDT,Nuclear,5261.0
08/14/2019 02:15:00,EDT,Other Fossil Fuels,51.0
08/14/2019 02:15:00,EDT,Other Renewables,268.0
08/14/2019 02:15:00,EDT,Wind,112.0
08/14/2019 02:15:00,EDT,Hydro,2613.0
08/14/2019 02:20:00,EDT,Dual Fuel,3196.0
08/14/2019 02:20:00,EDT,Natural Gas,2697.0
08/14/2019 02:20:00,EDT,Nuclear,5261.0
08/14/2019 02:20:00,EDT,Other Fossil Fuels,51.0
08/14/2019 02:20:00,EDT,Other Renewables,268.0
08/14/2019 02:20:00,EDT,Wind,109.0
08/14/2019 02:20:00,EDT,Hydro,2609.0
08/14/2019 02:25:00,EDT,Dual Fuel,3211.0
08/14/2019 02:25:00,EDT,Natural Gas,2702.0
08/14/2019 02:25:00,EDT,Nuclear,5261.0
08/14/2019 02:25:00,EDT,Other Fossil Fuels,50.0
08/14/2019 02:25:00,EDT,Other Renewables,270.0
08/14/2019 02:25:00,EDT,Wind,110.0
08/14/2019 02:25:00,EDT,Hydro,2607.0
08/14/2019 02:30:00,EDT,Dual Fuel,3186.0
08/14/2019 02:30:00,EDT,Natural Gas,2695.0
08/14/2019 02:30:00,EDT,Nuclear,5262.0
08/14/2019 02:30:00,EDT,Other Fossil Fuels,51.0
08/14/2019 02:30:00,EDT,Other Renewables,273.0
08/14/2019 02:30:00,EDT,Wind,116.0
08/14/2019 02:30:00,EDT,Hydro,2611.0
08/14/2019 02:35:00,EDT,Dual Fuel,3144.0
08/14/2019 02:35:00,EDT,Natural Gas,2673.0
08/14/2019 02:35:00,EDT,Nuclear,5263.0
08/14/2019 02:35:00,EDT,Other Fossil Fuels,51.0
08/14/2019 02:35:00,EDT,Other Renewables,272.0
08/14/2019 02:35:00,EDT,Wind,116.0
08/14/2019 02:35:00,EDT,Hydro,2608.0
08/14/2019 02:40:00,EDT,Dual Fuel,3118.0
08/14/2019 02:40:00,EDT,Natural Gas,2656.0
08/14/2019 02:40:00,EDT,Nuclear,5261.0
08/14/2019 02:40:00,EDT,Other Fossil Fuels,51.0
08/14/2019 02:40:00,EDT,Other Renewables,273.0
08/14/2019 02:40:00,EDT,Wind,122.0
08/14/2019 02:40:00,EDT,Hydro,2609.0
08/14/2019 02:45:00,EDT,Dual Fuel,3079.0
08/14/2019 02:45:00,EDT,Natural Gas,2627.0
08/14/2019 02:45:00,EDT,Nuclear,5262.0
08/14/2019 02:45:00,EDT,Other Fossil Fuels,51.0
08/14/2019 02:45:00,EDT,Other Renewables,273.0
08/14/2019 02:45:00,EDT,Wind,128.0
08/14/2019 02:45:00,EDT,Hydro,2602.0
08/14/2019 02:50:00,EDT,Dual Fuel,3089.0
08/14/2019 02:50:00,EDT,Natural Gas,2642.0
08/14/2019 02:50:00,EDT,Nuclear,5262.0
08/14/2019 02:50:00,EDT,Other Fossil Fuels,51.0
08/14/2019 02:50:00,EDT,Other Renewables,275.0
08/14/2019 02:50:00,EDT,Wind,128.0
08/14/2019 02:50:00,EDT,Hydro,2602.0
08/14/2019 02:55:00,EDT,Dual Fuel,3086.0
08/14/2019 02:55:00,EDT,Natural Gas,2658.0
08/14/2019 02:55:00,EDT,Nuclear,5261.0
08/14/2019 02:55:00,EDT,Other Fossil Fuels,51.0
08/14/2019 02:55:00,EDT,Other Renewables,277.0
08/14/2019 02:55:00,EDT,Wind,123.0
08/14/2019 02:55:00,EDT,Hydro,2604.0
08/14/2019 03:00:00,EDT,Dual Fuel,3087.0
08/14/2019 03:00:00,EDT,Natural Gas,2639.0
08/14/2019 03:00:00,EDT,Nuclear,5261.0
08/14/2019 03:00:00,EDT,Other Fossil Fuels,51.0
08/14/2019 03:00:00,EDT,Other Renewables,275.0
08/14/2019 03:00:00,EDT,Wind,119.0
08/14/2019 03:00:00,EDT,Hydro,2607.0
08/14/2019 03:05:00,EDT,Dual Fuel,3068.0
08/14/2019 03:05:00,EDT,Natural Gas,2613.0
08/14/2019 03:05:00,EDT,Nuclear,5261.0
08/14/2019 03:05:00,EDT,Other Fossil Fuels,51.0
08/14/2019 03:05:00,EDT,Other Renewables,277.0
08/14/2019 03:05:00,EDT,Wind,117.0
08/14/2019 03:05:00,EDT,Hydro,2608.0
08/14/2019 03:10:00,EDT,Dual Fuel,3040.0
08/14/2019 03:10:00,EDT,Natural Gas,2613.0
08/14/2019 03:10:00,EDT,Nuclear,5260.0
08/14/2019 03:10:00,EDT,Other Fossil Fuels,51.0
08/14/2019 03:10:00,EDT,Other Renewables,278.0
08/14/2019 03:10:00,EDT,Wind,117.0
08/14/2019 03:10:00,EDT,Hydro,2604.0
08/14/2019 03:15:00,EDT,Dual Fuel,3041.0
08/14/2019 03:15:00,EDT,Natural Gas,2626.0
08/14/2019 03:15:00,EDT,Nuclear,5261.0
08/14/2019 03:15:00,EDT,Other Fossil Fuels,51.0
08/14/2019 03:15:00,EDT,Other Renewables,275.0
08/14/2019 03:15:00,EDT,Wind,114.0
08/14/2019 03:15:00,EDT,Hydro,2607.0
08/14/2019 03:20:00,EDT,Dual Fuel,3028.0
08/14/2019 03:20:00,EDT,Natural Gas,2639.0
08/14/2019 03:20:00,EDT,Nuclear,5261.0
08/14/2019 03:20:00,EDT,Other Fossil Fuels,50.0
08/14/2019 03:20:00,EDT,Other Renewables,273.0
08/14/2019 03:20:00,EDT,Wind,115.0
08/14/2019 03:20:00,EDT,Hydro,2610.0
08/14/2019 03:25:00,EDT,Dual Fuel,3048.0
08/14/2019 03:25:00,EDT,Natural Gas,2637.0
08/14/2019 03:25:00,EDT,Nuclear,5259.0
08/14/2019 03:25:00,EDT,Other Fossil Fuels,50.0
08/14/2019 03:25:00,EDT,Other Renewables,274.0
08/14/2019 03:25:00,EDT,Wind,120.0
08/14/2019 03:25:00,EDT,Hydro,2609.0
08/14/2019 03:30:00,EDT,Dual Fuel,3037.0
08/14/2019 03:30:00,EDT,Natural Gas,2618.0
08/14/2019 03:30:00,EDT,Nuclear,5261.0
08/14/2019 03:30:00,EDT,Other Fossil Fuels,50.0
08/14/2019 03:30:00,EDT,Other Renewables,275.0
08/14/2019 03:30:00,EDT,Wind,117.0
08/14/2019 03:30:00,EDT,Hydro,2607.0
08/14/2019 03:35:00,EDT,Dual Fuel,3042.0
08/14/2019 03:35:00,EDT,Natural Gas,2618.0
08/14/2019 03:35:00,EDT,Nuclear,5262.0
08/14/2019 03:35:00,EDT,Other Fossil Fuels,51.0
08/14/2019 03:35:00,EDT,Other Renewables,274.0
08/14/2019 03:35:00,EDT,Wind,112.0
08/14/2019 03:35:00,EDT,Hydro,2606.0
08/14/2019 03:40:00,EDT,Dual Fuel,3044.0
08/14/2019 03:40:00,EDT,Natural Gas,2609.0
08/14/2019 03:40:00,EDT,Nuclear,5262.0
08/14/2019 03:40:00,EDT,Other Fossil Fuels,51.0
08/14/2019 03:40:00,EDT,Other Renewables,272.0
08/14/2019 03:40:00,EDT,Wind,112.0
08/14/2019 03:40:00,EDT,Hydro,2600.0
08/14/2019 03:45:00,EDT,Dual Fuel,3081.0
08/14/2019 03:45:00,EDT,Natural Gas,2607.0
08/14/2019 03:45:00,EDT,Nuclear,5262.0
08/14/2019 03:45:00,EDT,Other Fossil Fuels,51.0
08/14/2019 03:45:00,EDT,Other Renewables,276.0
08/14/2019 03:45:00,EDT,Wind,112.0
08/14/2019 03:45:00,EDT,Hydro,2604.0
08/14/2019 03:50:00,EDT,Dual Fuel,3034.0
08/14/2019 03:50:00,EDT,Natural Gas,2611.0
08/14/2019 03:50:00,EDT,Nuclear,5264.0
08/14/2019 03:50:00,EDT,Other Fossil Fuels,51.0
08/14/2019 03:50:00,EDT,Other Renewables,271.0
08/14/2019 03:50:00,EDT,Wind,111.0
08/14/2019 03:50:00,EDT,Hydro,2601.0
08/14/2019 03:55:00,EDT,Dual Fuel,3079.0
08/14/2019 03:55:00,EDT,Natural Gas,2606.0
08/14/2019 03:55:00,EDT,Nuclear,5266.0
08/14/2019 03:55:00,EDT,Other Fossil Fuels,50.0
08/14/2019 03:55:00,EDT,Other Renewables,269.0
08/14/2019 03:55:00,EDT,Wind,106.0
08/14/2019 03:55:00,EDT,Hydro,2601.0
08/14/2019 04:00:00,EDT,Dual Fuel,3069.0
08/14/2019 04:00:00,EDT,Natural Gas,2604.0
08/14/2019 04:00:00,EDT,Nuclear,5266.0
08/14/2019 04:00:00,EDT,Other Fossil Fuels,51.0
08/14/2019 04:00:00,EDT,Other Renewables,270.0
08/14/2019 04:00:00,EDT,Wind,105.0
08/14/2019 04:00:00,EDT,Hydro,2598.0
08/14/2019 04:05:00,EDT,Dual Fuel,3160.0
08/14/2019 04:05:00,EDT,Natural Gas,2597.0
08/14/2019 04:05:00,EDT,Nuclear,5264.0
08/14/2019 04:05:00,EDT,Other Fossil Fuels,51.0
08/14/2019 04:05:00,EDT,Other Renewables,268.0
08/14/2019 04:05:00,EDT,Wind,102.0
08/14/2019 04:05:00,EDT,Hydro,2595.0
08/14/2019 04:10:00,EDT,Dual Fuel,3151.0
08/14/2019 04:10:00,EDT,Natural Gas,2661.0
08/14/2019 04:10:00,EDT,Nuclear,5265.0
08/14/2019 04:10:00,EDT,Other Fossil Fuels,51.0
08/14/2019 04:10:00,EDT,Other Renewables,264.0
08/14/2019 04:10:00,EDT,Wind,101.0
08/14/2019 04:10:00,EDT,Hydro,2596.0
08/14/2019 04:15:00,EDT,Dual Fuel,3128.0
08/14/2019 04:15:00,EDT,Natural Gas,2680.0
08/14/2019 04:15:00,EDT,Nuclear,5265.0
08/14/2019 04:15:00,EDT,Other Fossil Fuels,51.0
08/14/2019 04:15:00,EDT,Other Renewables,270.0
08/14/2019 04:15:00,EDT,Wind,102.0
08/14/2019 04:15:00,EDT,Hydro,2600.0
08/14/2019 04:20:00,EDT,Dual Fuel,3130.0
08/14/2019 04:20:00,EDT,Natural Gas,2692.0
08/14/2019 04:20:00,EDT,Nuclear,5263.0
08/14/2019 04:20:00,EDT,Other Fossil Fuels,51.0
08/14/2019 04:20:00,EDT,Other Renewables,271.0
08/14/2019 04:20:00,EDT,Wind,100.0
08/14/2019 04:20:00,EDT,Hydro,2598.0
08/14/2019 04:25:00,EDT,Dual Fuel,3150.0
08/14/2019 04:25:00,EDT,Natural Gas,2703.0
08/14/2019 04:25:00,EDT,Nuclear,5262.0
08/14/2019 04:25:00,EDT,Other Fossil Fuels,51.0
08/14/2019 04:25:00,EDT,Other Renewables,270.0
08/14/2019 04:25:00,EDT,Wind,96.0
08/14/2019 04:25:00,EDT,Hydro,2600.0
08/14/2019 04:30:00,EDT,Dual Fuel,3079.0
08/14/2019 04:30:00,EDT,Natural Gas,2730.0
08/14/2019 04:30:00,EDT,Nuclear,5262.0
08/14/2019 04:30:00,EDT,Other Fossil Fuels,51.0
08/14/2019 04:30:00,EDT,Other Renewables,268.0
08/14/2019 04:30:00,EDT,Wind,86.0
08/14/2019 04:30:00,EDT,Hydro,2595.0
08/14/2019 04:35:00,EDT,Dual Fuel,3081.0
08/14/2019 04:35:00,EDT,Natural Gas,2756.0
08/14/2019 04:35:00,EDT,Nuclear,5261.0
08/14/2019 04:35:00,EDT,Other Fossil Fuels,51.0
08/14/2019 04:35:00,EDT,Other Renewables,265.0
08/14/2019 04:35:00,EDT,Wind,79.0
08/14/2019 04:35:00,EDT,Hydro,2593.0
08/14/2019 04:40:00,EDT,Dual Fuel,3094.0
08/14/2019 04:40:00,EDT,Natural Gas,2765.0
08/14/2019 04:40:00,EDT,Nuclear,5261.0
08/14/2019 04:40:00,EDT,Other Fossil Fuels,51.0
08/14/2019 04:40:00,EDT,Other Renewables,264.0
08/14/2019 04:40:00,EDT,Wind,71.0
08/14/2019 04:40:00,EDT,Hydro,2583.0
08/14/2019 04:45:00,EDT,Dual Fuel,3122.0
08/14/2019 04:45:00,EDT,Natural Gas,2799.0
08/14/2019 04:45:00,EDT,Nuclear,5262.0
08/14/2019 04:45:00,EDT,Other Fossil Fuels,51.0
08/14/2019 04:45:00,EDT,Other Renewables,267.0
08/14/2019 04:45:00,EDT,Wind,66.0
08/14/2019 04:45:00,EDT,Hydro,2580.0
08/14/2019 04:50:00,EDT,Dual Fuel,3147.0
08/14/2019 04:50:00,EDT,Natural Gas,2822.0
08/14/2019 04:50:00,EDT,Nuclear,5262.0
08/14/2019 04:50:00,EDT,Other Fossil Fuels,50.0
08/14/2019 04:50:00,EDT,Other Renewables,270.0
08/14/2019 04:50:00,EDT,Wind,66.0
08/14/2019 04:50:00,EDT,Hydro,2573.0
08/14/2019 04:55:00,EDT,Dual Fuel,3208.0
08/14/2019 04:55:00,EDT,Natural Gas,2815.0
08/14/2019 04:55:00,EDT,Nuclear,5261.0
08/14/2019 04:55:00,EDT,Other Fossil Fuels,51.0
08/14/2019 04:55:00,EDT,Other Renewables,269.0
08/14/2019 04:55:00,EDT,Wind,66.0
08/14/2019 04:55:00,EDT,Hydro,2579.0
08/14/2019 05:00:00,EDT,Dual Fuel,3244.0
08/14/2019 05:00:00,EDT,Natural Gas,2812.0
08/14/2019 05:00:00,EDT,Nuclear,5261.0
08/14/2019 05:00:00,EDT,Other Fossil Fuels,50.0
08/14/2019 05:00:00,EDT,Other Renewables,270.0
08/14/2019 05:00:00,EDT,Wind,62.0
08/14/2019 05:00:00,EDT,Hydro,2574.0
08/14/2019 05:05:00,EDT,Dual Fuel,3257.0
08/14/2019 05:05:00,EDT,Natural Gas,2814.0
08/14/2019 05:05:00,EDT,Nuclear,5262.0
08/14/2019 05:05:00,EDT,Other Fossil Fuels,51.0
08/14/2019 05:05:00,EDT,Other Renewables,270.0
08/14/2019 05:05:00,EDT,Wind,64.0
08/14/2019 05:05:00,EDT,Hydro,2572.0
08/14/2019 05:10:00,EDT,Dual Fuel,3336.0
08/14/2019 05:10:00,EDT,Natural Gas,2872.0
08/14/2019 05:10:00,EDT,Nuclear,5263.0
08/14/2019 05:10:00,EDT,Other Fossil Fuels,51.0
08/14/2019 05:10:00,EDT,Other Renewables,266.0
08/14/2019 05:10:00,EDT,Wind,63.0
08/14/2019 05:10:00,EDT,Hydro,2601.0
08/14/2019 05:15:00,EDT,Dual Fuel,3394.0
08/14/2019 05:15:00,EDT,Natural Gas,2932.0
08/14/2019 05:15:00,EDT,Nuclear,5262.0
08/14/2019 05:15:00,EDT,Other Fossil Fuels,50.0
08/14/2019 05:15:00,EDT,Other Renewables,266.0
08/14/2019 05:15:00,EDT,Wind,62.0
08/14/2019 05:15:00,EDT,Hydro,2584.0
08/14/2019 05:20:00,EDT,Dual Fuel,3421.0
08/14/2019 05:20:00,EDT,Natural Gas,2962.0
08/14/2019 05:20:00,EDT,Nuclear,5263.0
08/14/2019 05:20:00,EDT,Other Fossil Fuels,51.0
08/14/2019 05:20:00,EDT,Other Renewables,272.0
08/14/2019 05:20:00,EDT,Wind,58.0
08/14/2019 05:20:00,EDT,Hydro,2563.0
08/14/2019 05:25:00,EDT,Dual Fuel,3447.0
08/14/2019 05:25:00,EDT,Natural Gas,2978.0
08/14/2019 05:25:00,EDT,Nuclear,5263.0
08/14/2019 05:25:00,EDT,Other Fossil Fuels,50.0
08/14/2019 05:25:00,EDT,Other Renewables,269.0
08/14/2019 05:25:00,EDT,Wind,54.0
08/14/2019 05:25:00,EDT,Hydro,2570.0
08/14/2019 05:30:00,EDT,Dual Fuel,3473.0
08/14/2019 05:30:00,EDT,Natural Gas,3058.0
08/14/2019 05:30:00,EDT,Nuclear,5261.0
08/14/2019 05:30:00,EDT,Other Fossil Fuels,51.0
08/14/2019 05:30:00,EDT,Other Renewables,264.0
08/14/2019 05:30:00,EDT,Wind,51.0
08/14/2019 05:30:00,EDT,Hydro,2573.0
08/14/2019 05:35:00,EDT,Dual Fuel,3501.0
08/14/2019 05:35:00,EDT,Natural Gas,3115.0
08/14/2019 05:35:00,EDT,Nuclear,5261.0
08/14/2019 05:35:00,EDT,Other Fossil Fuels,51.0
08/14/2019 05:35:00,EDT,Other Renewables,268.0
08/14/2019 05:35:00,EDT,Wind,49.0
08/14/2019 05:35:00,EDT,Hydro,2575.0
08/14/2019 05:40:00,EDT,Dual Fuel,3595.0
08/14/2019 05:40:00,EDT,Natural Gas,3132.0
08/14/2019 05:40:00,EDT,Nuclear,5260.0
08/14/2019 05:40:00,EDT,Other Fossil Fuels,50.0
08/14/2019 05:40:00,EDT,Other Renewables,268.0
08/14/2019 05:40:00,EDT,Wind,50.0
08/14/2019 05:40:00,EDT,Hydro,2545.0
08/14/2019 05:45:00,EDT,Dual Fuel,3588.0
08/14/2019 05:45:00,EDT,Natural Gas,3141.0
08/14/2019 05:45:00,EDT,Nuclear,5263.0
08/14/2019 05:45:00,EDT,Other Fossil Fuels,51.0
08/14/2019 05:45:00,EDT,Other Renewables,266.0
08/14/2019 05:45:00,EDT,Wind,51.0
08/14/2019 05:45:00,EDT,Hydro,2568.0
08/14/2019 05:50:00,EDT,Dual Fuel,3545.0
08/14/2019 05:50:00,EDT,Natural Gas,3199.0
08/14/2019 05:50:00,EDT,Nuclear,5259.0
08/14/2019 05:50:00,EDT,Other Fossil Fuels,50.0
08/14/2019 05:50:00,EDT,Other Renewables,266.0
08/14/2019 05:50:00,EDT,Wind,53.0
08/14/2019 05:50:00,EDT,Hydro,2647.0
08/14/2019 05:55:00,EDT,Dual Fuel,3521.0
08/14/2019 05:55:00,EDT,Natural Gas,3316.0
08/14/2019 05:55:00,EDT,Nuclear,5262.0
08/14/2019 05:55:00,EDT,Other Fossil Fuels,51.0
08/14/2019 05:55:00,EDT,Other Renewables,266.0
08/14/2019 05:55:00,EDT,Wind,52.0
08/14/2019 05:55:00,EDT,Hydro,2645.0
08/14/2019 06:00:00,EDT,Dual Fuel,3450.0
08/14/2019 06:00:00,EDT,Natural Gas,3413.0
08/14/2019 06:00:00,EDT,Nuclear,5261.0
08/14/2019 06:00:00,EDT,Other Fossil Fuels,51.0
08/14/2019 06:00:00,EDT,Other Renewables,268.0
08/14/2019 06:00:00,EDT,Wind,52.0
08/14/2019 06:00:00,EDT,Hydro,2706.0
08/14/2019 06:05:00,EDT,Dual Fuel,3408.0
08/14/2019 06:05:00,EDT,Natural Gas,3488.0
08/14/2019 06:05:00,EDT,Nuclear,5264.0
08/14/2019 06:05:00,EDT,Other Fossil Fuels,51.0
08/14/2019 06:05:00,EDT,Other Renewables,269.0
08/14/2019 06:05:00,EDT,Wind,51.0
08/14/2019 06:05:00,EDT,Hydro,2843.0
08/14/2019 06:10:00,EDT,Dual Fuel,3408.0
08/14/2019 06:10:00,EDT,Natural Gas,3506.0
08/14/2019 06:10:00,EDT,Nuclear,5261.0
08/14/2019 06:10:00,EDT,Other Fossil Fuels,51.0
08/14/2019 06:10:00,EDT,Other Renewables,266.0
08/14/2019 06:10:00,EDT,Wind,51.0
08/14/2019 06:10:00,EDT,Hydro,2960.0
08/14/2019 06:15:00,EDT,Dual Fuel,3370.0
08/14/2019 06:15:00,EDT,Natural Gas,3574.0
08/14/2019 06:15:00,EDT,Nuclear,5259.0
08/14/2019 06:15:00,EDT,Other Fossil Fuels,51.0
08/14/2019 06:15:00,EDT,Other Renewables,266.0
08/14/2019 06:15:00,EDT,Wind,53.0
08/14/2019 06:15:00,EDT,Hydro,3128.0
08/14/2019 06:20:00,EDT,Dual Fuel,3355.0
08/14/2019 06:20:00,EDT,Natural Gas,3600.0
08/14/2019 06:20:00,EDT,Nuclear,5260.0
08/14/2019 06:20:00,EDT,Other Fossil Fuels,51.0
08/14/2019 06:20:00,EDT,Other Renewables,263.0
08/14/2019 06:20:00,EDT,Wind,53.0
08/14/2019 06:20:00,EDT,Hydro,3251.0
08/14/2019 06:25:00,EDT,Dual Fuel,3422.0
08/14/2019 06:25:00,EDT,Natural Gas,3590.0
08/14/2019 06:25:00,EDT,Nuclear,5263.0
08/14/2019 06:25:00,EDT,Other Fossil Fuels,51.0
08/14/2019 06:25:00,EDT,Other Renewables,264.0
08/14/2019 06:25:00,EDT,Wind,63.0
08/14/2019 06:25:00,EDT,Hydro,3299.0
08/14/2019 06:30:00,EDT,Dual Fuel,3469.0
08/14/2019 06:30:00,EDT,Natural Gas,3587.0
08/14/2019 06:30:00,EDT,Nuclear,5264.0
08/14/2019 06:30:00,EDT,Other Fossil Fuels,50.0
08/14/2019 06:30:00,EDT,Other Renewables,266.0
08/14/2019 06:30:00,EDT,Wind,80.0
08/14/2019 06:30:00,EDT,Hydro,3297.0
08/14/2019 06:35:00,EDT,Dual Fuel,3578.0
08/14/2019 06:35:00,EDT,Natural Gas,3591.0
08/14/2019 06:35:00,EDT,Nuclear,5264.0
08/14/2019 06:35:00,EDT,Other Fossil Fuels,51.0
08/14/2019 06:35:00,EDT,Other Renewables,265.0
08/14/2019 06:35:00,EDT,Wind,89.0
08/14/2019 06:35:00,EDT,Hydro,3294.0
08/14/2019 06:40:00,EDT,Dual Fuel,3642.0
08/14/2019 06:40:00,EDT,Natural Gas,3606.0
08/14/2019 06:40:00,EDT,Nuclear,5264.0
08/14/2019 06:40:00,EDT,Other Fossil Fuels,51.0
08/14/2019 06:40:00,EDT,Other Renewables,264.0
08/14/2019 06:40:00,EDT,Wind,84.0
08/14/2019 06:40:00,EDT,Hydro,3296.0
08/14/2019 06:45:00,EDT,Dual Fuel,3746.0
08/14/2019 06:45:00,EDT,Natural Gas,3598.0
08/14/2019 06:45:00,EDT,Nuclear,5262.0
08/14/2019 06:45:00,EDT,Other Fossil Fuels,51.0
08/14/2019 06:45:00,EDT,Other Renewables,268.0
08/14/2019 06:45:00,EDT,Wind,80.0
08/14/2019 06:45:00,EDT,Hydro,3291.0
08/14/2019 06:50:00,EDT,Dual Fuel,3871.0
08/14/2019 06:50:00,EDT,Natural Gas,3597.0
08/14/2019 06:50:00,EDT,Nuclear,5265.0
08/14/2019 06:50:00,EDT,Other Fossil Fuels,50.0
08/14/2019 06:50:00,EDT,Other Renewables,267.0
08/14/2019 06:50:00,EDT,Wind,79.0
08/14/2019 06:50:00,EDT,Hydro,3293.0
08/14/2019 06:55:00,EDT,Dual Fuel,3935.0
08/14/2019 06:55:00,EDT,Natural Gas,3615.0
08/14/2019 06:55:00,EDT,Nuclear,5264.0
08/14/2019 06:55:00,EDT,Other Fossil Fuels,50.0
08/14/2019 06:55:00,EDT,Other Renewables,269.0
08/14/2019 06:55:00,EDT,Wind,78.0
08/14/2019 06:55:00,EDT,Hydro,3293.0
08/14/2019 07:00:00,EDT,Dual Fuel,3924.0
08/14/2019 07:00:00,EDT,Natural Gas,3611.0
08/14/2019 07:00:00,EDT,Nuclear,5263.0
08/14/2019 07:00:00,EDT,Other Fossil Fuels,51.0
08/14/2019 07:00:00,EDT,Other Renewables,268.0
08/14/2019 07:00:00,EDT,Wind,75.0
08/14/2019 07:00:00,EDT,Hydro,3334.0
08/14/2019 07:05:00,EDT,Dual Fuel,3679.0
08/14/2019 07:05:00,EDT,Natural Gas,3580.0
08/14/2019 07:05:00,EDT,Nuclear,5264.0
08/14/2019 07:05:00,EDT,Other Fossil Fuels,51.0
08/14/2019 07:05:00,EDT,Other Renewables,267.0
08/14/2019 07:05:00,EDT,Wind,67.0
08/14/2019 07:05:00,EDT,Hydro,3465.0
08/14/2019 07:10:00,EDT,Dual Fuel,3514.0
08/14/2019 07:10:00,EDT,Natural Gas,3629.0
08/14/2019 07:10:00,EDT,Nuclear,5265.0
08/14/2019 07:10:00,EDT,Other Fossil Fuels,51.0
08/14/2019 07:10:00,EDT,Other Renewables,270.0
08/14/2019 07:10:00,EDT,Wind,60.0
08/14/2019 07:10:00,EDT,Hydro,3480.0
08/14/2019 07:15:00,EDT,Dual Fuel,3617.0
08/14/2019 07:15:00,EDT,Natural Gas,3660.0
08/14/2019 07:15:00,EDT,Nuclear,5264.0
08/14/2019 07:15:00,EDT,Other Fossil Fuels,51.0
08/14/2019 07:15:00,EDT,Other Renewables,267.0
08/14/2019 07:15:00,EDT,Wind,58.0
08/14/2019 07:15:00,EDT,Hydro,3515.0
08/14/2019 07:20:00,EDT,Dual Fuel,3670.0
08/14/2019 07:20:00,EDT,Natural Gas,3668.0
08/14/2019 07:20:00,EDT,Nuclear,5265.0
08/14/2019 07:20:00,EDT,Other Fossil Fuels,50.0
08/14/2019 07:20:00,EDT,Other Renewables,267.0
08/14/2019 07:20:00,EDT,Wind,60.0
08/14/2019 07:20:00,EDT,Hydro,3527.0
08/14/2019 07:25:00,EDT,Dual Fuel,3704.0
08/14/2019 07:25:00,EDT,Natural Gas,3658.0
08/14/2019 07:25:00,EDT,Nuclear,5265.0
08/14/2019 07:25:00,EDT,Other Fossil Fuels,51.0
08/14/2019 07:25:00,EDT,Other Renewables,268.0
08/14/2019 07:25:00,EDT,Wind,62.0
08/14/2019 07:25:00,EDT,Hydro,3569.0
08/14/2019 07:30:00,EDT,Dual Fuel,3770.0
08/14/2019 07:30:00,EDT,Natural Gas,3626.0
08/14/2019 07:30:00,EDT,Nuclear,5264.0
08/14/2019 07:30:00,EDT,Other Fossil Fuels,51.0
08/14/2019 07:30:00,EDT,Other Renewables,269.0
08/14/2019 07:30:00,EDT,Wind,63.0
08/14/2019 07:30:00,EDT,Hydro,3579.0
08/14/2019 07:35:00,EDT,Dual Fuel,3800.0
08/14/2019 07:35:00,EDT,Natural Gas,3634.0
08/14/2019 07:35:00,EDT,Nuclear,5265.0
08/14/2019 07:35:00,EDT,Other Fossil Fuels,51.0
08/14/2019 07:35:00,EDT,Other Renewables,267.0
08/14/2019 07:35:00,EDT,Wind,63.0
08/14/2019 07:35:00,EDT,Hydro,3599.0
08/14/2019 07:40:00,EDT,Dual Fuel,3849.0
08/14/2019 07:40:00,EDT,Natural Gas,3635.0
08/14/2019 07:40:00,EDT,Nuclear,5265.0
08/14/2019 07:40:00,EDT,Other Fossil Fuels,51.0
08/14/2019 07:40:00,EDT,Other Renewables,266.0
08/14/2019 07:40:00,EDT,Wind,60.0
08/14/2019 07:40:00,EDT,Hydro,3617.0
08/14/2019 07:45:00,EDT,Dual Fuel,3931.0
08/14/2019 07:45:00,EDT,Natural Gas,3624.0
08/14/2019 07:45:00,EDT,Nuclear,5266.0
08/14/2019 07:45:00,EDT,Other Fossil Fuels,59.0
08/14/2019 07:45:00,EDT,Other Renewables,268.0
08/14/2019 07:45:00,EDT,Wind,62.0
08/14/2019 07:45:00,EDT,Hydro,3617.0
08/14/2019 07:50:00,EDT,Dual Fuel,3994.0
08/14/2019 07:50:00,EDT,Natural Gas,3614.0
08/14/2019 07:50:00,EDT,Nuclear,5266.0
08/14/2019 07:50:00,EDT,Other Fossil Fuels,65.0
08/14/2019 07:50:00,EDT,Other Renewables,270.0
08/14/2019 07:50:00,EDT,Wind,69.0
08/14/2019 07:50:00,EDT,Hydro,3606.0
08/14/2019 07:55:00,EDT,Dual Fuel,4024.0
08/14/2019 07:55:00,EDT,Natural Gas,3621.0
08/14/2019 07:55:00,EDT,Nuclear,5265.0
08/14/2019 07:55:00,EDT,Other Fossil Fuels,65.0
08/14/2019 07:55:00,EDT,Other Renewables,267.0
08/14/2019 07:55:00,EDT,Wind,69.0
08/14/2019 07:55:00,EDT,Hydro,3617.0
08/14/2019 08:00:00,EDT,Dual Fuel,4050.0
08/14/2019 08:00:00,EDT,Natural Gas,3645.0
08/14/2019 08:00:00,EDT,Nuclear,5266.0
08/14/2019 08:00:00,EDT,Other Fossil Fuels,66.0
08/14/2019 08:00:00,EDT,Other Renewables,269.0
08/14/2019 08:00:00,EDT,Wind,70.0
08/14/2019 08:00:00,EDT,Hydro,3609.0
08/14/2019 08:05:00,EDT,Dual Fuel,4038.0
08/14/2019 08:05:00,EDT,Natural Gas,3715.0
08/14/2019 08:05:00,EDT,Nuclear,5266.0
08/14/2019 08:05:00,EDT,Other Fossil Fuels,66.0
08/14/2019 08:05:00,EDT,Other Renewables,265.0
08/14/2019 08:05:00,EDT,Wind,66.0
08/14/2019 08:05:00,EDT,Hydro,3565.0
08/14/2019 08:10:00,EDT,Dual Fuel,3975.0
08/14/2019 08:10:00,EDT,Natural Gas,3716.0
08/14/2019 08:10:00,EDT,Nuclear,5268.0
08/14/2019 08:10:00,EDT,Other Fossil Fuels,67.0
08/14/2019 08:10:00,EDT,Other Renewables,265.0
08/14/2019 08:10:00,EDT,Wind,61.0
08/14/2019 08:10:00,EDT,Hydro,3558.0
08/14/2019 08:15:00,EDT,Dual Fuel,4073.0
08/14/2019 08:15:00,EDT,Natural Gas,3730.0
08/14/2019 08:15:00,EDT,Nuclear,5267.0
08/14/2019 08:15:00,EDT,Other Fossil Fuels,67.0
08/14/2019 08:15:00,EDT,Other Renewables,266.0
08/14/2019 08:15:00,EDT,Wind,54.0
08/14/2019 08:15:00,EDT,Hydro,3566.0
08/14/2019 08:20:00,EDT,Dual Fuel,4012.0
08/14/2019 08:20:00,EDT,Natural Gas,3734.0
08/14/2019 08:20:00,EDT,Nuclear,5266.0
08/14/2019 08:20:00,EDT,Other Fossil Fuels,67.0
08/14/2019 08:20:00,EDT,Other Renewables,263.0
08/14/2019 08:20:00,EDT,Wind,50.0
08/14/2019 08:20:00,EDT,Hydro,3591.0
08/14/2019 08:25:00,EDT,Dual Fuel,4101.0
08/14/2019 08:25:00,EDT,Natural Gas,3762.0
08/14/2019 08:25:00,EDT,Nuclear,5267.0
08/14/2019 08:25:00,EDT,Other Fossil Fuels,68.0
08/14/2019 08:25:00,EDT,Other Renewables,264.0
08/14/2019 08:25:00,EDT,Wind,47.0
08/14/2019 08:25:00,EDT,Hydro,3546.0
08/14/2019 08:30:00,EDT,Dual Fuel,4134.0
08/14/2019 08:30:00,EDT,Natural Gas,3758.0
08/14/2019 08:30:00,EDT,Nuclear,5267.0
08/14/2019 08:30:00,EDT,Other Fossil Fuels,68.0
08/14/2019 08:30:00,EDT,Other Renewables,264.0
08/14/2019 08:30:00,EDT,Wind,42.0
08/14/2019 08:30:00,EDT,Hydro,3563.0
08/14/2019 08:35:00,EDT,Dual Fuel,4166.0
08/14/2019 08:35:00,EDT,Natural Gas,3777.0
08/14/2019 08:35:00,EDT,Nuclear,5268.0
08/14/2019 08:35:00,EDT,Other Fossil Fuels,68.0
08/14/2019 08:35:00,EDT,Other Renewables,266.0
08/14/2019 08:35:00,EDT,Wind,39.0
08/14/2019 08:35:00,EDT,Hydro,3590.0
08/14/2019 08:40:00,EDT,Dual Fuel,4207.0
08/14/2019 08:40:00,EDT,Natural Gas,3783.0
08/14/2019 08:40:00,EDT,Nuclear,5268.0
08/14/2019 08:40:00,EDT,Other Fossil Fuels,68.0
08/14/2019 08:40:00,EDT,Other Renewables,267.0
08/14/2019 08:40:00,EDT,Wind,34.0
08/14/2019 08:40:00,EDT,Hydro,3592.0
08/14/2019 08:45:00,EDT,Dual Fuel,4256.0
08/14/2019 08:45:00,EDT,Natural Gas,3797.0
08/14/2019 08:45:00,EDT,Nuclear,5267.0
08/14/2019 08:45:00,EDT,Other Fossil Fuels,68.0
08/14/2019 08:45:00,EDT,Other Renewables,265.0
08/14/2019 08:45:00,EDT,Wind,29.0
08/14/2019 08:45:00,EDT,Hydro,3599.0
08/14/2019 08:50:00,EDT,Dual Fuel,4287.0
08/14/2019 08:50:00,EDT,Natural Gas,3781.0
08/14/2019 08:50:00,EDT,Nuclear,5266.0
08/14/2019 08:50:00,EDT,Other Fossil Fuels,68.0
08/14/2019 08:50:00,EDT,Other Renewables,268.0
08/14/2019 08:50:00,EDT,Wind,27.0
08/14/2019 08:50:00,EDT,Hydro,3620.0
08/14/2019 08:55:00,EDT,Dual Fuel,4353.0
08/14/2019 08:55:00,EDT,Natural Gas,3803.0
08/14/2019 08:55:00,EDT,Nuclear,5268.0
08/14/2019 08:55:00,EDT,Other Fossil Fuels,68.0
08/14/2019 08:55:00,EDT,Other Renewables,268.0
08/14/2019 08:55:00,EDT,Wind,23.0
08/14/2019 08:55:00,EDT,Hydro,3599.0
08/14/2019 09:00:00,EDT,Dual Fuel,4486.0
08/14/2019 09:00:00,EDT,Natural Gas,3831.0
08/14/2019 09:00:00,EDT,Nuclear,5267.0
08/14/2019 09:00:00,EDT,Other Fossil Fuels,68.0
08/14/2019 09:00:00,EDT,Other Renewables,269.0
08/14/2019 09:00:00,EDT,Wind,18.0
08/14/2019 09:00:00,EDT,Hydro,3442.0
08/14/2019 09:05:00,EDT,Dual Fuel,4646.0
08/14/2019 09:05:00,EDT,Natural Gas,3841.0
08/14/2019 09:05:00,EDT,Nuclear,5264.0
08/14/2019 09:05:00,EDT,Other Fossil Fuels,68.0
08/14/2019 09:05:00,EDT,Other Renewables,267.0
08/14/2019 09:05:00,EDT,Wind,16.0
08/14/2019 09:05:00,EDT,Hydro,3326.0
08/14/2019 09:10:00,EDT,Dual Fuel,4690.0
08/14/2019 09:10:00,EDT,Natural Gas,3807.0
08/14/2019 09:10:00,EDT,Nuclear,5263.0
08/14/2019 09:10:00,EDT,Other Fossil Fuels,66.0
08/14/2019 09:10:00,EDT,Other Renewables,268.0
08/14/2019 09:10:00,EDT,Wind,15.0
08/14/2019 09:10:00,EDT,Hydro,3332.0
08/14/2019 09:15:00,EDT,Dual Fuel,4789.0
08/14/2019 09:15:00,EDT,Natural Gas,3793.0
08/14/2019 09:15:00,EDT,Nuclear,5264.0
08/14/2019 09:15:00,EDT,Other Fossil Fuels,58.0
08/14/2019 09:15:00,EDT,Other Renewables,273.0
08/14/2019 09:15:00,EDT,Wind,16.0
08/14/2019 09:15:00,EDT,Hydro,3330.0
08/14/2019 09:20:00,EDT,Dual Fuel,4902.0
08/14/2019 09:20:00,EDT,Natural Gas,3713.0
08/14/2019 09:20:00,EDT,Nuclear,5262.0
08/14/2019 09:20:00,EDT,Other Fossil Fuels,51.0
08/14/2019 09:20:00,EDT,Other Renewables,274.0
08/14/2019 09:20:00,EDT,Wind,15.0
08/14/2019 09:20:00,EDT,Hydro,3346.0
08/14/2019 09:25:00,EDT,Dual Fuel,4921.0
08/14/2019 09:25:00,EDT,Natural Gas,3734.0
08/14/2019 09:25:00,EDT,Nuclear,5259.0
08/14/2019 09:25:00,EDT,Other Fossil Fuels,50.0
08/14/2019 09:25:00,EDT,Other Renewables,282.0
08/14/2019 09:25:00,EDT,Wind,12.0
08/14/2019 09:25:00,EDT,Hydro,3344.0
08/14/2019 09:30:00,EDT,Dual Fuel,4956.0
08/14/2019 09:30:00,EDT,Natural Gas,3773.0
08/14/2019 09:30:00,EDT,Nuclear,5257.0
08/14/2019 09:30:00,EDT,Other Fossil Fuels,50.0
08/14/2019 09:30:00,EDT,Other Renewables,283.0
08/14/2019 09:30:00,EDT,Wind,7.0
08/14/2019 09:30:00,EDT,Hydro,3335.0
08/14/2019 09:35:00,EDT,Dual Fuel,5005.0
08/14/2019 09:35:00,EDT,Natural Gas,3745.0
08/14/2019 09:35:00,EDT,Nuclear,5259.0
08/14/2019 09:35:00,EDT,Other Fossil Fuels,51.0
08/14/2019 09:35:00,EDT,Other Renewables,285.0
08/14/2019 09:35:00,EDT,Wind,5.0
08/14/2019 09:35:00,EDT,Hydro,3325.0
08/14/2019 09:40:00,EDT,Dual Fuel,5008.0
08/14/2019 09:40:00,EDT,Natural Gas,3801.0
08/14/2019 09:40:00,EDT,Nuclear,5258.0
08/14/2019 09:40:00,EDT,Other Fossil Fuels,51.0
08/14/2019 09:40:00,EDT,Other Renewables,281.0
08/14/2019 09:40:00,EDT,Wind,3.0
08/14/2019 09:40:00,EDT,Hydro,3341.0
08/14/2019 09:45:00,EDT,Dual Fuel,5090.0
08/14/2019 09:45:00,EDT,Natural Gas,3811.0
08/14/2019 09:45:00,EDT,Nuclear,5251.0
08/14/2019 09:45:00,EDT,Other Fossil Fuels,58.0
08/14/2019 09:45:00,EDT,Other Renewables,280.0
08/14/2019 09:45:00,EDT,Wind,2.0
08/14/2019 09:45:00,EDT,Hydro,3350.0
08/14/2019 09:50:00,EDT,Dual Fuel,5204.0
08/14/2019 09:50:00,EDT,Natural Gas,3819.0
08/14/2019 09:50:00,EDT,Nuclear,5246.0
08/14/2019 09:50:00,EDT,Other Fossil Fuels,60.0
08/14/2019 09:50:00,EDT,Other Renewables,280.0
08/14/2019 09:50:00,EDT,Wind,1.0
08/14/2019 09:50:00,EDT,Hydro,3359.0
08/14/2019 09:52:37,EDT,Dual Fuel,5199.0
08/14/2019 09:52:37,EDT,Natural Gas,3835.0
08/14/2019 09:52:37,EDT,Nuclear,5245.0
08/14/2019 09:52:37,EDT,Other Fossil Fuels,61.0
08/14/2019 09:52:37,EDT,Other Renewables,274.0
08/14/2019 09:52:37,EDT,Wind,1.0
08/14/2019 09:52:37,EDT,Hydro,3373.0
08/14/2019 09:55:00,EDT,Dual Fuel,5182.0
08/14/2019 09:55:00,EDT,Natural Gas,3747.0
08/14/2019 09:55:00,EDT,Nuclear,5257.0
08/14/2019 09:55:00,EDT,Other Fossil Fuels,51.0
08/14/2019 09:55:00,EDT,Other Renewables,273.0
08/14/2019 09:55:00,EDT,Wind,2.0
08/14/2019 09:55:00,EDT,Hydro,3426.0
08/14/2019 10:00:00,EDT,Dual Fuel,5307.0
08/14/2019 10:00:00,EDT,Natural Gas,3770.0
08/14/2019 10:00:00,EDT,Nuclear,5259.0
08/14/2019 10:00:00,EDT,Other Fossil Fuels,51.0
08/14/2019 10:00:00,EDT,Other Renewables,273.0
08/14/2019 10:00:00,EDT,Wind,1.0
08/14/2019 10:00:00,EDT,Hydro,3422.0
08/14/2019 10:03:19,EDT,Dual Fuel,5402.0
08/14/2019 10:03:19,EDT,Natural Gas,3924.0
08/14/2019 10:03:19,EDT,Nuclear,5258.0
08/14/2019 10:03:19,EDT,Other Fossil Fuels,51.0
08/14/2019 10:03:19,EDT,Other Renewables,271.0
08/14/2019 10:03:19,EDT,Wind,1.0
08/14/2019 10:03:19,EDT,Hydro,3418.0
08/14/2019 10:05:00,EDT,Dual Fuel,5428.0
08/14/2019 10:05:00,EDT,Natural Gas,3972.0
08/14/2019 10:05:00,EDT,Nuclear,5258.0
08/14/2019 10:05:00,EDT,Other Fossil Fuels,51.0
08/14/2019 10:05:00,EDT,Other Renewables,273.0
08/14/2019 10:05:00,EDT,Wind,1.0
08/14/2019 10:05:00,EDT,Hydro,3427.0
08/14/2019 10:10:00,EDT,Dual Fuel,5426.0
08/14/2019 10:10:00,EDT,Natural Gas,4002.0
08/14/2019 10:10:00,EDT,Nuclear,5257.0
08/14/2019 10:10:00,EDT,Other Fossil Fuels,50.0
08/14/2019 10:10:00,EDT,Other Renewables,279.0
08/14/2019 10:10:00,EDT,Wind,1.0
08/14/2019 10:10:00,EDT,Hydro,3359.0
08/14/2019 10:15:00,EDT,Dual Fuel,5443.0
08/14/2019 10:15:00,EDT,Natural Gas,3988.0
08/14/2019 10:15:00,EDT,Nuclear,5258.0
08/14/2019 10:15:00,EDT,Other Fossil Fuels,51.0
08/14/2019 10:15:00,EDT,Other Renewables,279.0
08/14/2019 10:15:00,EDT,Wind,1.0
08/14/2019 10:15:00,EDT,Hydro,3369.0
08/14/2019 10:20:00,EDT,Dual Fuel,5473.0
08/14/2019 10:20:00,EDT,Natural Gas,3946.0
08/14/2019 10:20:00,EDT,Nuclear,5256.0
08/14/2019 10:20:00,EDT,Other Fossil Fuels,51.0
08/14/2019 10:20:00,EDT,Other Renewables,276.0
08/14/2019 10:20:00,EDT,Wind,1.0
08/14/2019 10:20:00,EDT,Hydro,3423.0
08/14/2019 10:25:00,EDT,Dual Fuel,5427.0
08/14/2019 10:25:00,EDT,Natural Gas,3886.0
08/14/2019 10:25:00,EDT,Nuclear,5249.0
08/14/2019 10:25:00,EDT,Other Fossil Fuels,57.0
08/14/2019 10:25:00,EDT,Other Renewables,261.0
08/14/2019 10:25:00,EDT,Wind,1.0
08/14/2019 10:25:00,EDT,Hydro,3400.0
08/14/2019 10:30:00,EDT,Dual Fuel,5439.0
08/14/2019 10:30:00,EDT,Natural Gas,3861.0
08/14/2019 10:30:00,EDT,Nuclear,5244.0
08/14/2019 10:30:00,EDT,Other Fossil Fuels,61.0
08/14/2019 10:30:00,EDT,Other Renewables,256.0
08/14/2019 10:30:00,EDT,Wind,1.0
08/14/2019 10:30:00,EDT,Hydro,3426.0
08/14/2019 10:35:00,EDT,Dual Fuel,5433.0
08/14/2019 10:35:00,EDT,Natural Gas,3915.0
08/14/2019 10:35:00,EDT,Nuclear,5258.0
08/14/2019 10:35:00,EDT,Other Fossil Fuels,54.0
08/14/2019 10:35:00,EDT,Other Renewables,264.0
08/14/2019 10:35:00,EDT,Wind,0.0
08/14/2019 10:35:00,EDT,Hydro,3381.0
08/14/2019 10:40:00,EDT,Dual Fuel,5476.0
08/14/2019 10:40:00,EDT,Natural Gas,3962.0
08/14/2019 10:40:00,EDT,Nuclear,5260.0
08/14/2019 10:40:00,EDT,Other Fossil Fuels,59.0
08/14/2019 10:40:00,EDT,Other Renewables,267.0
08/14/2019 10:40:00,EDT,Wind,0.0
08/14/2019 10:40:00,EDT,Hydro,3241.0
08/14/2019 10:45:00,EDT,Dual Fuel,5585.0
08/14/2019 10:45:00,EDT,Natural Gas,4014.0
08/14/2019 10:45:00,EDT,Nuclear,5260.0
08/14/2019 10:45:00,EDT,Other Fossil Fuels,64.0
08/14/2019 10:45:00,EDT,Other Renewables,269.0
08/14/2019 10:45:00,EDT,Wind,1.0
08/14/2019 10:45:00,EDT,Hydro,3148.0
08/14/2019 10:50:00,EDT,Dual Fuel,5668.0
08/14/2019 10:50:00,EDT,Natural Gas,4109.0
08/14/2019 10:50:00,EDT,Nuclear,5261.0
08/14/2019 10:50:00,EDT,Other Fossil Fuels,69.0
08/14/2019 10:50:00,EDT,Other Renewables,272.0
08/14/2019 10:50:00,EDT,Wind,1.0
08/14/2019 10:50:00,EDT,Hydro,3102.0
08/14/2019 10:55:00,EDT,Dual Fuel,5723.0
08/14/2019 10:55:00,EDT,Natural Gas,4162.0
08/14/2019 10:55:00,EDT,Nuclear,5262.0
08/14/2019 10:55:00,EDT,Other Fossil Fuels,74.0
08/14/2019 10:55:00,EDT,Other Renewables,274.0
08/14/2019 10:55:00,EDT,Wind,2.0
08/14/2019 10:55:00,EDT,Hydro,3068.0
08/14/2019 11:00:00,EDT,Dual Fuel,5748.0
08/14/2019 11:00:00,EDT,Natural Gas,4163.0
08/14/2019 11:00:00,EDT,Nuclear,5258.0
08/14/2019 11:00:00,EDT,Other Fossil Fuels,76.0
08/14/2019 11:00:00,EDT,Other Renewables,273.0
08/14/2019 11:00:00,EDT,Wind,2.0
08/14/2019 11:00:00,EDT,Hydro,3039.0
08/14/2019 11:05:00,EDT,Dual Fuel,5625.0
08/14/2019 11:05:00,EDT,Natural Gas,4067.0
08/14/2019 11:05:00,EDT,Nuclear,5256.0
08/14/2019 11:05:00,EDT,Other Fossil Fuels,70.0
08/14/2019 11:05:00,EDT,Other Renewables,274.0
08/14/2019 11:05:00,EDT,Wind,2.0
08/14/2019 11:05:00,EDT,Hydro,3071.0
08/14/2019 11:10:00,EDT,Dual Fuel,5466.0
08/14/2019 11:10:00,EDT,Natural Gas,4005.0
08/14/2019 11:10:00,EDT,Nuclear,5256.0
08/14/2019 11:10:00,EDT,Other Fossil Fuels,68.0
08/14/2019 11:10:00,EDT,Other Renewables,277.0
08/14/2019 11:10:00,EDT,Wind,2.0
08/14/2019 11:10:00,EDT,Hydro,3152.0
08/14/2019 11:15:00,EDT,Dual Fuel,5519.0
08/14/2019 11:15:00,EDT,Natural Gas,4053.0
08/14/2019 11:15:00,EDT,Nuclear,5256.0
08/14/2019 11:15:00,EDT,Other Fossil Fuels,74.0
08/14/2019 11:15:00,EDT,Other Renewables,275.0
08/14/2019 11:15:00,EDT,Wind,2.0
08/14/2019 11:15:00,EDT,Hydro,3019.0
08/14/2019 11:20:00,EDT,Dual Fuel,5634.0
08/14/2019 11:20:00,EDT,Natural Gas,4107.0
08/14/2019 11:20:00,EDT,Nuclear,5257.0
08/14/2019 11:20:00,EDT,Other Fossil Fuels,82.0
08/14/2019 11:20:00,EDT,Other Renewables,273.0
08/14/2019 11:20:00,EDT,Wind,3.0
08/14/2019 11:20:00,EDT,Hydro,2932.0
08/14/2019 11:25:00,EDT,Dual Fuel,5725.0
08/14/2019 11:25:00,EDT,Natural Gas,4158.0
08/14/2019 11:25:00,EDT,Nuclear,5257.0
08/14/2019 11:25:00,EDT,Other Fossil Fuels,89.0
08/14/2019 11:25:00,EDT,Other Renewables,276.0
08/14/2019 11:25:00,EDT,Wind,3.0
08/14/2019 11:25:00,EDT,Hydro,2811.0
08/14/2019 11:30:00,EDT,Dual Fuel,5735.0
08/14/2019 11:30:00,EDT,Natural Gas,4185.0
08/14/2019 11:30:00,EDT,Nuclear,5254.0
08/14/2019 11:30:00,EDT,Other Fossil Fuels,93.0
08/14/2019 11:30:00,EDT,Other Renewables,274.0
08/14/2019 11:30:00,EDT,Wind,4.0
08/14/2019 11:30:00,EDT,Hydro,2745.0
08/14/2019 11:35:00,EDT,Dual Fuel,5692.0
08/14/2019 11:35:00,EDT,Natural Gas,4142.0
08/14/2019 11:35:00,EDT,Nuclear,5252.0
08/14/2019 11:35:00,EDT,Other Fossil Fuels,90.0
08/14/2019 11:35:00,EDT,Other Renewables,271.0
08/14/2019 11:35:00,EDT,Wind,6.0
08/14/2019 11:35:00,EDT,Hydro,2834.0
08/14/2019 11:40:00,EDT,Dual Fuel,5592.0
08/14/2019 11:40:00,EDT,Natural Gas,4046.0
08/14/2019 11:40:00,EDT,Nuclear,5252.0
08/14/2019 11:40:00,EDT,Other Fossil Fuels,78.0
08/14/2019 11:40:00,EDT,Other Renewables,278.0
08/14/2019 11:40:00,EDT,Wind,9.0
08/14/2019 11:40:00,EDT,Hydro,2986.0
08/14/2019 11:45:00,EDT,Dual Fuel,5491.0
08/14/2019 11:45:00,EDT,Natural Gas,4041.0
08/14/2019 11:45:00,EDT,Nuclear,5254.0
08/14/2019 11:45:00,EDT,Other Fossil Fuels,74.0
08/14/2019 11:45:00,EDT,Other Renewables,277.0
08/14/2019 11:45:00,EDT,Wind,11.0
08/14/2019 11:45:00,EDT,Hydro,3104.0
08/14/2019 11:50:00,EDT,Dual Fuel,5343.0
08/14/2019 11:50:00,EDT,Natural Gas,4024.0
08/14/2019 11:50:00,EDT,Nuclear,5252.0
08/14/2019 11:50:00,EDT,Other Fossil Fuels,66.0
08/14/2019 11:50:00,EDT,Other Renewables,276.0
08/14/2019 11:50:00,EDT,Wind,9.0
08/14/2019 11:50:00,EDT,Hydro,3239.0
08/14/2019 11:55:00,EDT,Dual Fuel,5224.0
08/14/2019 11:55:00,EDT,Natural Gas,4036.0
08/14/2019 11:55:00,EDT,Nuclear,5251.0
08/14/2019 11:55:00,EDT,Other Fossil Fuels,61.0
08/14/2019 11:55:00,EDT,Other Renewables,280.0
08/14/2019 11:55:00,EDT,Wind,6.0
08/14/2019 11:55:00,EDT,Hydro,3364.0
08/14/2019 12:00:00,EDT,Dual Fuel,5140.0
08/14/2019 12:00:00,EDT,Natural Gas,4073.0
08/14/2019 12:00:00,EDT,Nuclear,5251.0
08/14/2019 12:00:00,EDT,Other Fossil Fuels,57.0
08/14/2019 12:00:00,EDT,Other Renewables,275.0
08/14/2019 12:00:00,EDT,Wind,8.0
08/14/2019 12:00:00,EDT,Hydro,3435.0
08/14/2019 12:05:00,EDT,Dual Fuel,5186.0
08/14/2019 12:05:00,EDT,Natural Gas,4116.0
08/14/2019 12:05:00,EDT,Nuclear,5251.0
08/14/2019 12:05:00,EDT,Other Fossil Fuels,55.0
08/14/2019 12:05:00,EDT,Other Renewables,279.0
08/14/2019 12:05:00,EDT,Wind,12.0
08/14/2019 12:05:00,EDT,Hydro,3415.0
08/14/2019 12:10:00,EDT,Dual Fuel,5255.0
08/14/2019 12:10:00,EDT,Natural Gas,4144.0
08/14/2019 12:10:00,EDT,Nuclear,5251.0
08/14/2019 12:10:00,EDT,Other Fossil Fuels,53.0
08/14/2019 12:10:00,EDT,Other Renewables,280.0
08/14/2019 12:10:00,EDT,Wind,14.0
08/14/2019 12:10:00,EDT,Hydro,3475.0
08/14/2019 12:15:00,EDT,Dual Fuel,5315.0
08/14/2019 12:15:00,EDT,Natural Gas,4142.0
08/14/2019 12:15:00,EDT,Nuclear,5252.0
08/14/2019 12:15:00,EDT,Other Fossil Fuels,52.0
08/14/2019 12:15:00,EDT,Other Renewables,283.0
08/14/2019 12:15:00,EDT,Wind,18.0
08/14/2019 12:15:00,EDT,Hydro,3488.0
08/14/2019 12:20:00,EDT,Dual Fuel,5423.0
08/14/2019 12:20:00,EDT,Natural Gas,4112.0
08/14/2019 12:20:00,EDT,Nuclear,5251.0
08/14/2019 12:20:00,EDT,Other Fossil Fuels,51.0
08/14/2019 12:20:00,EDT,Other Renewables,280.0
08/14/2019 12:20:00,EDT,Wind,21.0
08/14/2019 12:20:00,EDT,Hydro,3508.0
08/14/2019 12:25:00,EDT,Dual Fuel,5505.0
08/14/2019 12:25:00,EDT,Natural Gas,4131.0
08/14/2019 12:25:00,EDT,Nuclear,5250.0
08/14/2019 12:25:00,EDT,Other Fossil Fuels,51.0
08/14/2019 12:25:00,EDT,Other Renewables,278.0
08/14/2019 12:25:00,EDT,Wind,18.0
08/14/2019 12:25:00,EDT,Hydro,3535.0
08/14/2019 12:30:00,EDT,Dual Fuel,5590.0
08/14/2019 12:30:00,EDT,Natural Gas,4158.0
08/14/2019 12:30:00,EDT,Nuclear,5250.0
08/14/2019 12:30:00,EDT,Other Fossil Fuels,56.0
08/14/2019 12:30:00,EDT,Other Renewables,274.0
08/14/2019 12:30:00,EDT,Wind,15.0
08/14/2019 12:30:00,EDT,Hydro,3542.0
08/14/2019 12:35:00,EDT,Dual Fuel,5656.0
08/14/2019 12:35:00,EDT,Natural Gas,4187.0
08/14/2019 12:35:00,EDT,Nuclear,5252.0
08/14/2019 12:35:00,EDT,Other Fossil Fuels,62.0
08/14/2019 12:35:00,EDT,Other Renewables,277.0
08/14/2019 12:35:00,EDT,Wind,16.0
08/14/2019 12:35:00,EDT,Hydro,3408.0
08/14/2019 12:40:00,EDT,Dual Fuel,5697.0
08/14/2019 12:40:00,EDT,Natural Gas,4203.0
08/14/2019 12:40:00,EDT,Nuclear,5250.0
08/14/2019 12:40:00,EDT,Other Fossil Fuels,63.0
08/14/2019 12:40:00,EDT,Other Renewables,276.0
08/14/2019 12:40:00,EDT,Wind,16.0
08/14/2019 12:40:00,EDT,Hydro,3364.0
08/14/2019 12:45:00,EDT,Dual Fuel,5707.0
08/14/2019 12:45:00,EDT,Natural Gas,4191.0
08/14/2019 12:45:00,EDT,Nuclear,5251.0
08/14/2019 12:45:00,EDT,Other Fossil Fuels,59.0
08/14/2019 12:45:00,EDT,Other Renewables,276.0
08/14/2019 12:45:00,EDT,Wind,17.0
08/14/2019 12:45:00,EDT,Hydro,3387.0
08/14/2019 12:50:00,EDT,Dual Fuel,5674.0
08/14/2019 12:50:00,EDT,Natural Gas,4144.0
08/14/2019 12:50:00,EDT,Nuclear,5252.0
08/14/2019 12:50:00,EDT,Other Fossil Fuels,60.0
08/14/2019 12:50:00,EDT,Other Renewables,280.0
08/14/2019 12:50:00,EDT,Wind,18.0
08/14/2019 12:50:00,EDT,Hydro,3376.0
08/14/2019 12:55:00,EDT,Dual Fuel,5653.0
08/14/2019 12:55:00,EDT,Natural Gas,4109.0
08/14/2019 12:55:00,EDT,Nuclear,5254.0
08/14/2019 12:55:00,EDT,Other Fossil Fuels,70.0
08/14/2019 12:55:00,EDT,Other Renewables,279.0
08/14/2019 12:55:00,EDT,Wind,17.0
08/14/2019 12:55:00,EDT,Hydro,3372.0
08/14/2019 13:00:00,EDT,Dual Fuel,5669.0
08/14/2019 13:00:00,EDT,Natural Gas,4135.0
08/14/2019 13:00:00,EDT,Nuclear,5254.0
08/14/2019 13:00:00,EDT,Other Fossil Fuels,70.0
08/14/2019 13:00:00,EDT,Other Renewables,282.0
08/14/2019 13:00:00,EDT,Wind,17.0
08/14/2019 13:00:00,EDT,Hydro,3353.0
08/14/2019 13:05:00,EDT,Dual Fuel,5636.0
08/14/2019 13:05:00,EDT,Natural Gas,4113.0
08/14/2019 13:05:00,EDT,Nuclear,5253.0
08/14/2019 13:05:00,EDT,Other Fossil Fuels,70.0
08/14/2019 13:05:00,EDT,Other Renewables,283.0
08/14/2019 13:05:00,EDT,Wind,20.0
08/14/2019 13:05:00,EDT,Hydro,3268.0
08/14/2019 13:10:00,EDT,Dual Fuel,5637.0
08/14/2019 13:10:00,EDT,Natural Gas,4174.0
08/14/2019 13:10:00,EDT,Nuclear,5255.0
08/14/2019 13:10:00,EDT,Other Fossil Fuels,70.0
08/14/2019 13:10:00,EDT,Other Renewables,281.0
08/14/2019 13:10:00,EDT,Wind,22.0
08/14/2019 13:10:00,EDT,Hydro,3122.0
08/14/2019 13:15:00,EDT,Dual Fuel,5699.0
08/14/2019 13:15:00,EDT,Natural Gas,4217.0
08/14/2019 13:15:00,EDT,Nuclear,5255.0
08/14/2019 13:15:00,EDT,Other Fossil Fuels,70.0
08/14/2019 13:15:00,EDT,Other Renewables,281.0
08/14/2019 13:15:00,EDT,Wind,24.0
08/14/2019 13:15:00,EDT,Hydro,3067.0
08/14/2019 13:20:00,EDT,Dual Fuel,5711.0
08/14/2019 13:20:00,EDT,Natural Gas,4254.0
08/14/2019 13:20:00,EDT,Nuclear,5257.0
08/14/2019 13:20:00,EDT,Other Fossil Fuels,70.0
08/14/2019 13:20:00,EDT,Other Renewables,278.0
08/14/2019 13:20:00,EDT,Wind,24.0
08/14/2019 13:20:00,EDT,Hydro,3017.0
08/14/2019 13:25:00,EDT,Dual Fuel,5678.0
08/14/2019 13:25:00,EDT,Natural Gas,4227.0
08/14/2019 13:25:00,EDT,Nuclear,5256.0
08/14/2019 13:25:00,EDT,Other Fossil Fuels,70.0
08/14/2019 13:25:00,EDT,Other Renewables,279.0
08/14/2019 13:25:00,EDT,Wind,26.0
08/14/2019 13:25:00,EDT,Hydro,3118.0
08/14/2019 13:30:00,EDT,Dual Fuel,5622.0
08/14/2019 13:30:00,EDT,Natural Gas,4222.0
08/14/2019 13:30:00,EDT,Nuclear,5257.0
08/14/2019 13:30:00,EDT,Other Fossil Fuels,70.0
08/14/2019 13:30:00,EDT,Other Renewables,279.0
08/14/2019 13:30:00,EDT,Wind,28.0
08/14/2019 13:30:00,EDT,Hydro,3240.0
08/14/2019 13:35:00,EDT,Dual Fuel,5450.0
08/14/2019 13:35:00,EDT,Natural Gas,4226.0
08/14/2019 13:35:00,EDT,Nuclear,5256.0
08/14/2019 13:35:00,EDT,Other Fossil Fuels,70.0
08/14/2019 13:35:00,EDT,Other Renewables,280.0
08/14/2019 13:35:00,EDT,Wind,33.0
08/14/2019 13:35:00,EDT,Hydro,3420.0
08/14/2019 13:40:00,EDT,Dual Fuel,5371.0
08/14/2019 13:40:00,EDT,Natural Gas,4231.0
08/14/2019 13:40:00,EDT,Nuclear,5257.0
08/14/2019 13:40:00,EDT,Other Fossil Fuels,70.0
08/14/2019 13:40:00,EDT,Other Renewables,284.0
08/14/2019 13:40:00,EDT,Wind,34.0
08/14/2019 13:40:00,EDT,Hydro,3488.0
08/14/2019 13:45:00,EDT,Dual Fuel,5365.0
08/14/2019 13:45:00,EDT,Natural Gas,4261.0
08/14/2019 13:45:00,EDT,Nuclear,5257.0
08/14/2019 13:45:00,EDT,Other Fossil Fuels,70.0
08/14/2019 13:45:00,EDT,Other Renewables,282.0
08/14/2019 13:45:00,EDT,Wind,35.0
08/14/2019 13:45:00,EDT,Hydro,3481.0
08/14/2019 13:50:00,EDT,Dual Fuel,5440.0
08/14/2019 13:50:00,EDT,Natural Gas,4314.0
08/14/2019 13:50:00,EDT,Nuclear,5258.0
08/14/2019 13:50:00,EDT,Other Fossil Fuels,70.0
08/14/2019 13:50:00,EDT,Other Renewables,289.0
08/14/2019 13:50:00,EDT,Wind,39.0
08/14/2019 13:50:00,EDT,Hydro,3478.0
08/14/2019 13:55:00,EDT,Dual Fuel,5492.0
08/14/2019 13:55:00,EDT,Natural Gas,4321.0
08/14/2019 13:55:00,EDT,Nuclear,5257.0
08/14/2019 13:55:00,EDT,Other Fossil Fuels,70.0
08/14/2019 13:55:00,EDT,Other Renewables,297.0
08/14/2019 13:55:00,EDT,Wind,42.0
08/14/2019 13:55:00,EDT,Hydro,3504.0
08/14/2019 14:00:00,EDT,Dual Fuel,5570.0
08/14/2019 14:00:00,EDT,Natural Gas,4338.0
08/14/2019 14:00:00,EDT,Nuclear,5258.0
08/14/2019 14:00:00,EDT,Other Fossil Fuels,70.0
08/14/2019 14:00:00,EDT,Other Renewables,292.0
08/14/2019 14:00:00,EDT,Wind,45.0
08/14/2019 14:00:00,EDT,Hydro,3428.0
08/14/2019 14:05:00,EDT,Dual Fuel,5655.0
08/14/2019 14:05:00,EDT,Natural Gas,4396.0
08/14/2019 14:05:00,EDT,Nuclear,5260.0
08/14/2019 14:05:00,EDT,Other Fossil Fuels,76.0
08/14/2019 14:05:00,EDT,Other Renewables,289.0
08/14/2019 14:05:00,EDT,Wind,55.0
08/14/2019 14:05:00,EDT,Hydro,3280.0
08/14/2019 14:10:00,EDT,Dual Fuel,5726.0
08/14/2019 14:10:00,EDT,Natural Gas,4449.0
08/14/2019 14:10:00,EDT,Nuclear,5259.0
08/14/2019 14:10:00,EDT,Other Fossil Fuels,90.0
08/14/2019 14:10:00,EDT,Other Renewables,289.0
08/14/2019 14:10:00,EDT,Wind,56.0
08/14/2019 14:10:00,EDT,Hydro,3182.0
08/14/2019 14:15:00,EDT,Dual Fuel,5776.0
08/14/2019 14:15:00,EDT,Natural Gas,4460.0
08/14/2019 14:15:00,EDT,Nuclear,5257.0
08/14/2019 14:15:00,EDT,Other Fossil Fuels,76.0
08/14/2019 14:15:00,EDT,Other Renewables,285.0
08/14/2019 14:15:00,EDT,Wind,55.0
08/14/2019 14:15:00,EDT,Hydro,3158.0
08/14/2019 14:20:00,EDT,Dual Fuel,5745.0
08/14/2019 14:20:00,EDT,Natural Gas,4411.0
08/14/2019 14:20:00,EDT,Nuclear,5259.0
08/14/2019 14:20:00,EDT,Other Fossil Fuels,72.0
08/14/2019 14:20:00,EDT,Other Renewables,285.0
08/14/2019 14:20:00,EDT,Wind,49.0
08/14/2019 14:20:00,EDT,Hydro,3244.0
08/14/2019 14:25:00,EDT,Dual Fuel,5583.0
08/14/2019 14:25:00,EDT,Natural Gas,4335.0
08/14/2019 14:25:00,EDT,Nuclear,5258.0
08/14/2019 14:25:00,EDT,Other Fossil Fuels,69.0
08/14/2019 14:25:00,EDT,Other Renewables,285.0
08/14/2019 14:25:00,EDT,Wind,50.0
08/14/2019 14:25:00,EDT,Hydro,3379.0
08/14/2019 14:30:00,EDT,Dual Fuel,5469.0
08/14/2019 14:30:00,EDT,Natural Gas,4332.0
08/14/2019 14:30:00,EDT,Nuclear,5259.0
08/14/2019 14:30:00,EDT,Other Fossil Fuels,68.0
08/14/2019 14:30:00,EDT,Other Renewables,281.0
08/14/2019 14:30:00,EDT,Wind,46.0
08/14/2019 14:30:00,EDT,Hydro,3472.0
08/14/2019 14:35:00,EDT,Dual Fuel,5410.0
08/14/2019 14:35:00,EDT,Natural Gas,4421.0
08/14/2019 14:35:00,EDT,Nuclear,5259.0
08/14/2019 14:35:00,EDT,Other Fossil Fuels,68.0
08/14/2019 14:35:00,EDT,Other Renewables,280.0
08/14/2019 14:35:00,EDT,Wind,41.0
08/14/2019 14:35:00,EDT,Hydro,3570.0
08/14/2019 14:40:00,EDT,Dual Fuel,5465.0
08/14/2019 14:40:00,EDT,Natural Gas,4451.0
08/14/2019 14:40:00,EDT,Nuclear,5258.0
08/14/2019 14:40:00,EDT,Other Fossil Fuels,68.0
08/14/2019 14:40:00,EDT,Other Renewables,286.0
08/14/2019 14:40:00,EDT,Wind,37.0
08/14/2019 14:40:00,EDT,Hydro,3599.0
08/14/2019 14:45:00,EDT,Dual Fuel,5556.0
08/14/2019 14:45:00,EDT,Natural Gas,4471.0
08/14/2019 14:45:00,EDT,Nuclear,5259.0
08/14/2019 14:45:00,EDT,Other Fossil Fuels,67.0
08/14/2019 14:45:00,EDT,Other Renewables,284.0
08/14/2019 14:45:00,EDT,Wind,36.0
08/14/2019 14:45:00,EDT,Hydro,3519.0
08/14/2019 14:50:00,EDT,Dual Fuel,5604.0
08/14/2019 14:50:00,EDT,Natural Gas,4468.0
08/14/2019 14:50:00,EDT,Nuclear,5257.0
08/14/2019 14:50:00,EDT,Other Fossil Fuels,68.0
08/14/2019 14:50:00,EDT,Other Renewables,278.0
08/14/2019 14:50:00,EDT,Wind,38.0
08/14/2019 14:50:00,EDT,Hydro,3550.0
08/14/2019 14:55:00,EDT,Dual Fuel,5609.0
08/14/2019 14:55:00,EDT,Natural Gas,4474.0
08/14/2019 14:55:00,EDT,Nuclear,5259.0
08/14/2019 14:55:00,EDT,Other Fossil Fuels,67.0
08/14/2019 14:55:00,EDT,Other Renewables,285.0
08/14/2019 14:55:00,EDT,Wind,36.0
08/14/2019 14:55:00,EDT,Hydro,3630.0
08/14/2019 15:00:00,EDT,Dual Fuel,5585.0
08/14/2019 15:00:00,EDT,Natural Gas,4458.0
08/14/2019 15:00:00,EDT,Nuclear,5258.0
08/14/2019 15:00:00,EDT,Other Fossil Fuels,67.0
08/14/2019 15:00:00,EDT,Other Renewables,281.0
08/14/2019 15:00:00,EDT,Wind,34.0
08/14/2019 15:00:00,EDT,Hydro,3625.0
08/14/2019 15:05:00,EDT,Dual Fuel,5562.0
08/14/2019 15:05:00,EDT,Natural Gas,4429.0
08/14/2019 15:05:00,EDT,Nuclear,5257.0
08/14/2019 15:05:00,EDT,Other Fossil Fuels,67.0
08/14/2019 15:05:00,EDT,Other Renewables,284.0
08/14/2019 15:05:00,EDT,Wind,32.0
08/14/2019 15:05:00,EDT,Hydro,3582.0
08/14/2019 15:10:00,EDT,Dual Fuel,5552.0
08/14/2019 15:10:00,EDT,Natural Gas,4412.0
08/14/2019 15:10:00,EDT,Nuclear,5258.0
08/14/2019 15:10:00,EDT,Other Fossil Fuels,67.0
08/14/2019 15:10:00,EDT,Other Renewables,281.0
08/14/2019 15:10:00,EDT,Wind,37.0
08/14/2019 15:10:00,EDT,Hydro,3474.0
08/14/2019 15:15:00,EDT,Dual Fuel,5523.0
08/14/2019 15:15:00,EDT,Natural Gas,4407.0
08/14/2019 15:15:00,EDT,Nuclear,5257.0
08/14/2019 15:15:00,EDT,Other Fossil Fuels,67.0
08/14/2019 15:15:00,EDT,Other Renewables,286.0
08/14/2019 15:15:00,EDT,Wind,38.0
08/14/2019 15:15:00,EDT,Hydro,3545.0
08/14/2019 15:20:00,EDT,Dual Fuel,5546.0
08/14/2019 15:20:00,EDT,Natural Gas,4401.0
08/14/2019 15:20:00,EDT,Nuclear,5257.0
08/14/2019 15:20:00,EDT,Other Fossil Fuels,67.0
08/14/2019 15:20:00,EDT,Other Renewables,284.0
08/14/2019 15:20:00,EDT,Wind,41.0
08/14/2019 15:20:00,EDT,Hydro,3593.0
08/14/2019 15:25:00,EDT,Dual Fuel,5592.0
08/14/2019 15:25:00,EDT,Natural Gas,4421.0
08/14/2019 15:25:00,EDT,Nuclear,5257.0
08/14/2019 15:25:00,EDT,Other Fossil Fuels,67.0
08/14/2019 15:25:00,EDT,Other Renewables,282.0
08/14/2019 15:25:00,EDT,Wind,40.0
08/14/2019 15:25:00,EDT,Hydro,3555.0
08/14/2019 15:30:00,EDT,Dual Fuel,5604.0
08/14/2019 15:30:00,EDT,Natural Gas,4373.0
08/14/2019 15:30:00,EDT,Nuclear,5256.0
08/14/2019 15:30:00,EDT,Other Fossil Fuels,67.0
08/14/2019 15:30:00,EDT,Other Renewables,280.0
08/14/2019 15:30:00,EDT,Wind,42.0
08/14/2019 15:30:00,EDT,Hydro,3613.0
08/14/2019 15:35:00,EDT,Dual Fuel,5655.0
08/14/2019 15:35:00,EDT,Natural Gas,4318.0
08/14/2019 15:35:00,EDT,Nuclear,5257.0
08/14/2019 15:35:00,EDT,Other Fossil Fuels,67.0
08/14/2019 15:35:00,EDT,Other Renewables,276.0
08/14/2019 15:35:00,EDT,Wind,43.0
08/14/2019 15:35:00,EDT,Hydro,3513.0
08/14/2019 15:40:00,EDT,Dual Fuel,5644.0
08/14/2019 15:40:00,EDT,Natural Gas,4310.0
08/14/2019 15:40:00,EDT,Nuclear,5257.0
08/14/2019 15:40:00,EDT,Other Fossil Fuels,67.0
08/14/2019 15:40:00,EDT,Other Renewables,276.0
08/14/2019 15:40:00,EDT,Wind,40.0
08/14/2019 15:40:00,EDT,Hydro,3472.0
08/14/2019 15:45:00,EDT,Dual Fuel,5629.0
08/14/2019 15:45:00,EDT,Natural Gas,4316.0
08/14/2019 15:45:00,EDT,Nuclear,5256.0
08/14/2019 15:45:00,EDT,Other Fossil Fuels,67.0
08/14/2019 15:45:00,EDT,Other Renewables,273.0
08/14/2019 15:45:00,EDT,Wind,40.0
08/14/2019 15:45:00,EDT,Hydro,3513.0
08/14/2019 15:50:00,EDT,Dual Fuel,5672.0
08/14/2019 15:50:00,EDT,Natural Gas,4354.0
08/14/2019 15:50:00,EDT,Nuclear,5258.0
08/14/2019 15:50:00,EDT,Other Fossil Fuels,68.0
08/14/2019 15:50:00,EDT,Other Renewables,276.0
08/14/2019 15:50:00,EDT,Wind,41.0
08/14/2019 15:50:00,EDT,Hydro,3464.0
08/14/2019 15:55:00,EDT,Dual Fuel,5710.0
08/14/2019 15:55:00,EDT,Natural Gas,4366.0
08/14/2019 15:55:00,EDT,Nuclear,5256.0
08/14/2019 15:55:00,EDT,Other Fossil Fuels,67.0
08/14/2019 15:55:00,EDT,Other Renewables,274.0
08/14/2019 15:55:00,EDT,Wind,39.0
08/14/2019 15:55:00,EDT,Hydro,3459.0
08/14/2019 16:00:00,EDT,Dual Fuel,5690.0
08/14/2019 16:00:00,EDT,Natural Gas,4337.0
08/14/2019 16:00:00,EDT,Nuclear,5257.0
08/14/2019 16:00:00,EDT,Other Fossil Fuels,67.0
08/14/2019 16:00:00,EDT,Other Renewables,274.0
08/14/2019 16:00:00,EDT,Wind,42.0
08/14/2019 16:00:00,EDT,Hydro,3550.0
08/14/2019 16:05:00,EDT,Dual Fuel,5687.0
08/14/2019 16:05:00,EDT,Natural Gas,4319.0
08/14/2019 16:05:00,EDT,Nuclear,5257.0
08/14/2019 16:05:00,EDT,Other Fossil Fuels,68.0
08/14/2019 16:05:00,EDT,Other Renewables,275.0
08/14/2019 16:05:00,EDT,Wind,48.0
08/14/2019 16:05:00,EDT,Hydro,3622.0
08/14/2019 16:10:00,EDT,Dual Fuel,5708.0
08/14/2019 16:10:00,EDT,Natural Gas,4342.0
08/14/2019 16:10:00,EDT,Nuclear,5256.0
08/14/2019 16:10:00,EDT,Other Fossil Fuels,67.0
08/14/2019 16:10:00,EDT,Other Renewables,281.0
08/14/2019 16:10:00,EDT,Wind,49.0
08/14/2019 16:10:00,EDT,Hydro,3721.0
08/14/2019 16:11:31,EDT,Dual Fuel,5719.0
08/14/2019 16:11:31,EDT,Natural Gas,4363.0
08/14/2019 16:11:31,EDT,Nuclear,5255.0
08/14/2019 16:11:31,EDT,Other Fossil Fuels,67.0
08/14/2019 16:11:31,EDT,Other Renewables,289.0
08/14/2019 16:11:31,EDT,Wind,50.0
08/14/2019 16:11:31,EDT,Hydro,3699.0
08/14/2019 16:14:55,EDT,Dual Fuel,5742.0
08/14/2019 16:14:55,EDT,Natural Gas,4379.0
08/14/2019 16:14:55,EDT,Nuclear,5255.0
08/14/2019 16:14:55,EDT,Other Fossil Fuels,67.0
08/14/2019 16:14:55,EDT,Other Renewables,291.0
08/14/2019 16:14:55,EDT,Wind,50.0
08/14/2019 16:14:55,EDT,Hydro,3663.0
08/14/2019 16:15:00,EDT,Dual Fuel,5760.0
08/14/2019 16:15:00,EDT,Natural Gas,4399.0
08/14/2019 16:15:00,EDT,Nuclear,5259.0
08/14/2019 16:15:00,EDT,Other Fossil Fuels,67.0
08/14/2019 16:15:00,EDT,Other Renewables,291.0
08/14/2019 16:15:00,EDT,Wind,53.0
08/14/2019 16:15:00,EDT,Hydro,3618.0
08/14/2019 16:20:00,EDT,Dual Fuel,5780.0
08/14/2019 16:20:00,EDT,Natural Gas,4429.0
08/14/2019 16:20:00,EDT,Nuclear,5255.0
08/14/2019 16:20:00,EDT,Other Fossil Fuels,70.0
08/14/2019 16:20:00,EDT,Other Renewables,290.0
08/14/2019 16:20:00,EDT,Wind,54.0
08/14/2019 16:20:00,EDT,Hydro,3559.0
08/14/2019 16:25:00,EDT,Dual Fuel,5825.0
08/14/2019 16:25:00,EDT,Natural Gas,4489.0
08/14/2019 16:25:00,EDT,Nuclear,5257.0
08/14/2019 16:25:00,EDT,Other Fossil Fuels,75.0
08/14/2019 16:25:00,EDT,Other Renewables,284.0
08/14/2019 16:25:00,EDT,Wind,53.0
08/14/2019 16:25:00,EDT,Hydro,3464.0
08/14/2019 16:30:00,EDT,Dual Fuel,5859.0
08/14/2019 16:30:00,EDT,Natural Gas,4526.0
08/14/2019 16:30:00,EDT,Nuclear,5255.0
08/14/2019 16:30:00,EDT,Other Fossil Fuels,80.0
08/14/2019 16:30:00,EDT,Other Renewables,281.0
08/14/2019 16:30:00,EDT,Wind,50.0
08/14/2019 16:30:00,EDT,Hydro,3399.0
08/14/2019 16:35:00,EDT,Dual Fuel,5880.0
08/14/2019 16:35:00,EDT,Natural Gas,4554.0
08/14/2019 16:35:00,EDT,Nuclear,5255.0
08/14/2019 16:35:00,EDT,Other Fossil Fuels,86.0
08/14/2019 16:35:00,EDT,Other Renewables,276.0
08/14/2019 16:35:00,EDT,Wind,47.0
08/14/2019 16:35:00,EDT,Hydro,3421.0
08/14/2019 16:40:00,EDT,Dual Fuel,5903.0
08/14/2019 16:40:00,EDT,Natural Gas,4567.0
08/14/2019 16:40:00,EDT,Nuclear,5254.0
08/14/2019 16:40:00,EDT,Other Fossil Fuels,92.0
08/14/2019 16:40:00,EDT,Other Renewables,276.0
08/14/2019 16:40:00,EDT,Wind,45.0
08/14/2019 16:40:00,EDT,Hydro,3373.0
08/14/2019 16:45:00,EDT,Dual Fuel,5920.0
08/14/2019 16:45:00,EDT,Natural Gas,4577.0
08/14/2019 16:45:00,EDT,Nuclear,5253.0
08/14/2019 16:45:00,EDT,Other Fossil Fuels,98.0
08/14/2019 16:45:00,EDT,Other Renewables,280.0
08/14/2019 16:45:00,EDT,Wind,45.0
08/14/2019 16:45:00,EDT,Hydro,3350.0
08/14/2019 16:50:00,EDT,Dual Fuel,5930.0
08/14/2019 16:50:00,EDT,Natural Gas,4575.0
08/14/2019 16:50:00,EDT,Nuclear,5256.0
08/14/2019 16:50:00,EDT,Other Fossil Fuels,108.0
08/14/2019 16:50:00,EDT,Other Renewables,278.0
08/14/2019 16:50:00,EDT,Wind,47.0
08/14/2019 16:50:00,EDT,Hydro,3382.0
08/14/2019 16:55:00,EDT,Dual Fuel,5940.0
08/14/2019 16:55:00,EDT,Natural Gas,4541.0
08/14/2019 16:55:00,EDT,Nuclear,5256.0
08/14/2019 16:55:00,EDT,Other Fossil Fuels,109.0
08/14/2019 16:55:00,EDT,Other Renewables,274.0
08/14/2019 16:55:00,EDT,Wind,49.0
08/14/2019 16:55:00,EDT,Hydro,3470.0
08/14/2019 17:00:00,EDT,Dual Fuel,5915.0
08/14/2019 17:00:00,EDT,Natural Gas,4446.0
08/14/2019 17:00:00,EDT,Nuclear,5254.0
08/14/2019 17:00:00,EDT,Other Fossil Fuels,101.0
08/14/2019 17:00:00,EDT,Other Renewables,275.0
08/14/2019 17:00:00,EDT,Wind,56.0
08/14/2019 17:00:00,EDT,Hydro,3578.0
08/14/2019 17:05:00,EDT,Dual Fuel,5798.0
08/14/2019 17:05:00,EDT,Natural Gas,4359.0
08/14/2019 17:05:00,EDT,Nuclear,5255.0
08/14/2019 17:05:00,EDT,Other Fossil Fuels,94.0
08/14/2019 17:05:00,EDT,Other Renewables,278.0
08/14/2019 17:05:00,EDT,Wind,54.0
08/14/2019 17:05:00,EDT,Hydro,3578.0
08/14/2019 17:10:00,EDT,Dual Fuel,5689.0
08/14/2019 17:10:00,EDT,Natural Gas,4347.0
08/14/2019 17:10:00,EDT,Nuclear,5256.0
08/14/2019 17:10:00,EDT,Other Fossil Fuels,88.0
08/14/2019 17:10:00,EDT,Other Renewables,279.0
08/14/2019 17:10:00,EDT,Wind,55.0
08/14/2019 17:10:00,EDT,Hydro,3570.0
08/14/2019 17:15:00,EDT,Dual Fuel,5690.0
08/14/2019 17:15:00,EDT,Natural Gas,4379.0
08/14/2019 17:15:00,EDT,Nuclear,5255.0
08/14/2019 17:15:00,EDT,Other Fossil Fuels,83.0
08/14/2019 17:15:00,EDT,Other Renewables,277.0
08/14/2019 17:15:00,EDT,Wind,58.0
08/14/2019 17:15:00,EDT,Hydro,3562.0
08/14/2019 17:20:00,EDT,Dual Fuel,5839.0
08/14/2019 17:20:00,EDT,Natural Gas,4427.0
08/14/2019 17:20:00,EDT,Nuclear,5255.0
08/14/2019 17:20:00,EDT,Other Fossil Fuels,82.0
08/14/2019 17:20:00,EDT,Other Renewables,275.0
08/14/2019 17:20:00,EDT,Wind,58.0
08/14/2019 17:20:00,EDT,Hydro,3456.0
08/14/2019 17:25:00,EDT,Dual Fuel,5915.0
08/14/2019 17:25:00,EDT,Natural Gas,4470.0
08/14/2019 17:25:00,EDT,Nuclear,5255.0
08/14/2019 17:25:00,EDT,Other Fossil Fuels,82.0
08/14/2019 17:25:00,EDT,Other Renewables,276.0
08/14/2019 17:25:00,EDT,Wind,58.0
08/14/2019 17:25:00,EDT,Hydro,3391.0
08/14/2019 17:30:00,EDT,Dual Fuel,5926.0
08/14/2019 17:30:00,EDT,Natural Gas,4446.0
08/14/2019 17:30:00,EDT,Nuclear,5256.0
08/14/2019 17:30:00,EDT,Other Fossil Fuels,78.0
08/14/2019 17:30:00,EDT,Other Renewables,276.0
08/14/2019 17:30:00,EDT,Wind,58.0
08/14/2019 17:30:00,EDT,Hydro,3510.0
08/14/2019 17:35:00,EDT,Dual Fuel,5844.0
08/14/2019 17:35:00,EDT,Natural Gas,4387.0
08/14/2019 17:35:00,EDT,Nuclear,5254.0
08/14/2019 17:35:00,EDT,Other Fossil Fuels,74.0
08/14/2019 17:35:00,EDT,Other Renewables,275.0
08/14/2019 17:35:00,EDT,Wind,57.0
08/14/2019 17:35:00,EDT,Hydro,3587.0
08/14/2019 17:40:00,EDT,Dual Fuel,5734.0
08/14/2019 17:40:00,EDT,Natural Gas,4355.0
08/14/2019 17:40:00,EDT,Nuclear,5255.0
08/14/2019 17:40:00,EDT,Other Fossil Fuels,72.0
08/14/2019 17:40:00,EDT,Other Renewables,274.0
08/14/2019 17:40:00,EDT,Wind,56.0
08/14/2019 17:40:00,EDT,Hydro,3623.0
08/14/2019 17:45:00,EDT,Dual Fuel,5753.0
08/14/2019 17:45:00,EDT,Natural Gas,4391.0
08/14/2019 17:45:00,EDT,Nuclear,5255.0
08/14/2019 17:45:00,EDT,Other Fossil Fuels,74.0
08/14/2019 17:45:00,EDT,Other Renewables,277.0
08/14/2019 17:45:00,EDT,Wind,58.0
08/14/2019 17:45:00,EDT,Hydro,3619.0
08/14/2019 17:50:00,EDT,Dual Fuel,5862.0
08/14/2019 17:50:00,EDT,Natural Gas,4446.0
08/14/2019 17:50:00,EDT,Nuclear,5254.0
08/14/2019 17:50:00,EDT,Other Fossil Fuels,78.0
08/14/2019 17:50:00,EDT,Other Renewables,277.0
08/14/2019 17:50:00,EDT,Wind,58.0
08/14/2019 17:50:00,EDT,Hydro,3613.0
08/14/2019 17:55:00,EDT,Dual Fuel,5902.0
08/14/2019 17:55:00,EDT,Natural Gas,4477.0
08/14/2019 17:55:00,EDT,Nuclear,5257.0
08/14/2019 17:55:00,EDT,Other Fossil Fuels,79.0
08/14/2019 17:55:00,EDT,Other Renewables,271.0
08/14/2019 17:55:00,EDT,Wind,59.0
08/14/2019 17:55:00,EDT,Hydro,3613.0
08/14/2019 18:00:00,EDT,Dual Fuel,5926.0
08/14/2019 18:00:00,EDT,Natural Gas,4512.0
08/14/2019 18:00:00,EDT,Nuclear,5258.0
08/14/2019 18:00:00,EDT,Other Fossil Fuels,79.0
08/14/2019 18:00:00,EDT,Other Renewables,271.0
08/14/2019 18:00:00,EDT,Wind,61.0
08/14/2019 18:00:00,EDT,Hydro,3535.0
08/14/2019 18:05:00,EDT,Dual Fuel,5955.0
08/14/2019 18:05:00,EDT,Natural Gas,4566.0
08/14/2019 18:05:00,EDT,Nuclear,5258.0
08/14/2019 18:05:00,EDT,Other Fossil Fuels,84.0
08/14/2019 18:05:00,EDT,Other Renewables,275.0
08/14/2019 18:05:00,EDT,Wind,63.0
08/14/2019 18:05:00,EDT,Hydro,3460.0
08/14/2019 18:10:00,EDT,Dual Fuel,5989.0
08/14/2019 18:10:00,EDT,Natural Gas,4591.0
08/14/2019 18:10:00,EDT,Nuclear,5257.0
08/14/2019 18:10:00,EDT,Other Fossil Fuels,89.0
08/14/2019 18:10:00,EDT,Other Renewables,272.0
08/14/2019 18:10:00,EDT,Wind,67.0
08/14/2019 18:10:00,EDT,Hydro,3390.0
08/14/2019 18:15:00,EDT,Dual Fuel,5991.0
08/14/2019 18:15:00,EDT,Natural Gas,4583.0
08/14/2019 18:15:00,EDT,Nuclear,5257.0
08/14/2019 18:15:00,EDT,Other Fossil Fuels,89.0
08/14/2019 18:15:00,EDT,Other Renewables,273.0
08/14/2019 18:15:00,EDT,Wind,68.0
08/14/2019 18:15:00,EDT,Hydro,3267.0
08/14/2019 18:20:00,EDT,Dual Fuel,5885.0
08/14/2019 18:20:00,EDT,Natural Gas,4508.0
08/14/2019 18:20:00,EDT,Nuclear,5258.0
08/14/2019 18:20:00,EDT,Other Fossil Fuels,83.0
08/14/2019 18:20:00,EDT,Other Renewables,274.0
08/14/2019 18:20:00,EDT,Wind,67.0
08/14/2019 18:20:00,EDT,Hydro,3308.0
08/14/2019 18:25:00,EDT,Dual Fuel,5672.0
08/14/2019 18:25:00,EDT,Natural Gas,4480.0
08/14/2019 18:25:00,EDT,Nuclear,5257.0
08/14/2019 18:25:00,EDT,Other Fossil Fuels,78.0
08/14/2019 18:25:00,EDT,Other Renewables,269.0
08/14/2019 18:25:00,EDT,Wind,70.0
08/14/2019 18:25:00,EDT,Hydro,3434.0
08/14/2019 18:30:00,EDT,Dual Fuel,5597.0
08/14/2019 18:30:00,EDT,Natural Gas,4457.0
08/14/2019 18:30:00,EDT,Nuclear,5259.0
08/14/2019 18:30:00,EDT,Other Fossil Fuels,75.0
08/14/2019 18:30:00,EDT,Other Renewables,263.0
08/14/2019 18:30:00,EDT,Wind,74.0
08/14/2019 18:30:00,EDT,Hydro,3535.0
08/14/2019 18:35:00,EDT,Dual Fuel,5607.0
08/14/2019 18:35:00,EDT,Natural Gas,4451.0
08/14/2019 18:35:00,EDT,Nuclear,5258.0
08/14/2019 18:35:00,EDT,Other Fossil Fuels,72.0
08/14/2019 18:35:00,EDT,Other Renewables,268.0
08/14/2019 18:35:00,EDT,Wind,74.0
08/14/2019 18:35:00,EDT,Hydro,3584.0
08/14/2019 18:40:00,EDT,Dual Fuel,5657.0
08/14/2019 18:40:00,EDT,Natural Gas,4443.0
08/14/2019 18:40:00,EDT,Nuclear,5258.0
08/14/2019 18:40:00,EDT,Other Fossil Fuels,70.0
08/14/2019 18:40:00,EDT,Other Renewables,271.0
08/14/2019 18:40:00,EDT,Wind,75.0
08/14/2019 18:40:00,EDT,Hydro,3591.0
08/14/2019 18:45:00,EDT,Dual Fuel,5660.0
08/14/2019 18:45:00,EDT,Natural Gas,4422.0
08/14/2019 18:45:00,EDT,Nuclear,5257.0
08/14/2019 18:45:00,EDT,Other Fossil Fuels,69.0
08/14/2019 18:45:00,EDT,Other Renewables,273.0
08/14/2019 18:45:00,EDT,Wind,82.0
08/14/2019 18:45:00,EDT,Hydro,3587.0
08/14/2019 18:50:00,EDT,Dual Fuel,5742.0
08/14/2019 18:50:00,EDT,Natural Gas,4440.0
08/14/2019 18:50:00,EDT,Nuclear,5258.0
08/14/2019 18:50:00,EDT,Other Fossil Fuels,68.0
08/14/2019 18:50:00,EDT,Other Renewables,270.0
08/14/2019 18:50:00,EDT,Wind,86.0
08/14/2019 18:50:00,EDT,Hydro,3577.0
08/14/2019 18:55:00,EDT,Dual Fuel,5822.0
08/14/2019 18:55:00,EDT,Natural Gas,4471.0
08/14/2019 18:55:00,EDT,Nuclear,5259.0
08/14/2019 18:55:00,EDT,Other Fossil Fuels,68.0
08/14/2019 18:55:00,EDT,Other Renewables,270.0
08/14/2019 18:55:00,EDT,Wind,90.0
08/14/2019 18:55:00,EDT,Hydro,3491.0
08/14/2019 19:00:00,EDT,Dual Fuel,5831.0
08/14/2019 19:00:00,EDT,Natural Gas,4459.0
08/14/2019 19:00:00,EDT,Nuclear,5261.0
08/14/2019 19:00:00,EDT,Other Fossil Fuels,68.0
08/14/2019 19:00:00,EDT,Other Renewables,272.0
08/14/2019 19:00:00,EDT,Wind,92.0
08/14/2019 19:00:00,EDT,Hydro,3464.0
08/14/2019 19:05:00,EDT,Dual Fuel,5759.0
08/14/2019 19:05:00,EDT,Natural Gas,4401.0
08/14/2019 19:05:00,EDT,Nuclear,5262.0
08/14/2019 19:05:00,EDT,Other Fossil Fuels,68.0
08/14/2019 19:05:00,EDT,Other Renewables,271.0
08/14/2019 19:05:00,EDT,Wind,93.0
08/14/2019 19:05:00,EDT,Hydro,3541.0
08/14/2019 19:10:00,EDT,Dual Fuel,5721.0
08/14/2019 19:10:00,EDT,Natural Gas,4356.0
08/14/2019 19:10:00,EDT,Nuclear,5263.0
08/14/2019 19:10:00,EDT,Other Fossil Fuels,67.0
08/14/2019 19:10:00,EDT,Other Renewables,274.0
08/14/2019 19:10:00,EDT,Wind,97.0
08/14/2019 19:10:00,EDT,Hydro,3544.0
08/14/2019 19:15:00,EDT,Dual Fuel,5668.0
08/14/2019 19:15:00,EDT,Natural Gas,4359.0
08/14/2019 19:15:00,EDT,Nuclear,5261.0
08/14/2019 19:15:00,EDT,Other Fossil Fuels,67.0
08/14/2019 19:15:00,EDT,Other Renewables,272.0
08/14/2019 19:15:00,EDT,Wind,98.0
08/14/2019 19:15:00,EDT,Hydro,3509.0
08/14/2019 19:20:00,EDT,Dual Fuel,5673.0
08/14/2019 19:20:00,EDT,Natural Gas,4368.0
08/14/2019 19:20:00,EDT,Nuclear,5261.0
08/14/2019 19:20:00,EDT,Other Fossil Fuels,68.0
08/14/2019 19:20:00,EDT,Other Renewables,267.0
08/14/2019 19:20:00,EDT,Wind,100.0
08/14/2019 19:20:00,EDT,Hydro,3433.0
08/14/2019 19:25:00,EDT,Dual Fuel,5713.0
08/14/2019 19:25:00,EDT,Natural Gas,4352.0
08/14/2019 19:25:00,EDT,Nuclear,5262.0
08/14/2019 19:25:00,EDT,Other Fossil Fuels,67.0
08/14/2019 19:25:00,EDT,Other Renewables,268.0
08/14/2019 19:25:00,EDT,Wind,103.0
08/14/2019 19:25:00,EDT,Hydro,3390.0
08/14/2019 19:30:00,EDT,Dual Fuel,5706.0
08/14/2019 19:30:00,EDT,Natural Gas,4339.0
08/14/2019 19:30:00,EDT,Nuclear,5261.0
08/14/2019 19:30:00,EDT,Other Fossil Fuels,67.0
08/14/2019 19:30:00,EDT,Other Renewables,268.0
08/14/2019 19:30:00,EDT,Wind,103.0
08/14/2019 19:30:00,EDT,Hydro,3368.0
08/14/2019 19:35:00,EDT,Dual Fuel,5667.0
08/14/2019 19:35:00,EDT,Natural Gas,4310.0
08/14/2019 19:35:00,EDT,Nuclear,5263.0
08/14/2019 19:35:00,EDT,Other Fossil Fuels,68.0
08/14/2019 19:35:00,EDT,Other Renewables,266.0
08/14/2019 19:35:00,EDT,Wind,104.0
08/14/2019 19:35:00,EDT,Hydro,3431.0
08/14/2019 19:40:00,EDT,Dual Fuel,5639.0
08/14/2019 19:40:00,EDT,Natural Gas,4289.0
08/14/2019 19:40:00,EDT,Nuclear,5261.0
08/14/2019 19:40:00,EDT,Other Fossil Fuels,67.0
08/14/2019 19:40:00,EDT,Other Renewables,270.0
08/14/2019 19:40:00,EDT,Wind,104.0
08/14/2019 19:40:00,EDT,Hydro,3445.0
08/14/2019 19:45:00,EDT,Dual Fuel,5607.0
08/14/2019 19:45:00,EDT,Natural Gas,4294.0
08/14/2019 19:45:00,EDT,Nuclear,5263.0
08/14/2019 19:45:00,EDT,Other Fossil Fuels,68.0
08/14/2019 19:45:00,EDT,Other Renewables,264.0
08/14/2019 19:45:00,EDT,Wind,95.0
08/14/2019 19:45:00,EDT,Hydro,3423.0
08/14/2019 19:50:00,EDT,Dual Fuel,5530.0
08/14/2019 19:50:00,EDT,Natural Gas,4283.0
08/14/2019 19:50:00,EDT,Nuclear,5262.0
08/14/2019 19:50:00,EDT,Other Fossil Fuels,68.0
08/14/2019 19:50:00,EDT,Other Renewables,267.0
08/14/2019 19:50:00,EDT,Wind,99.0
08/14/2019 19:50:00,EDT,Hydro,3384.0
08/14/2019 19:55:00,EDT,Dual Fuel,5491.0
08/14/2019 19:55:00,EDT,Natural Gas,4265.0
08/14/2019 19:55:00,EDT,Nuclear,5263.0
08/14/2019 19:55:00,EDT,Other Fossil Fuels,68.0
08/14/2019 19:55:00,EDT,Other Renewables,268.0
08/14/2019 19:55:00,EDT,Wind,103.0
08/14/2019 19:55:00,EDT,Hydro,3370.0
08/14/2019 20:00:00,EDT,Dual Fuel,5522.0
08/14/2019 20:00:00,EDT,Natural Gas,4255.0
08/14/2019 20:00:00,EDT,Nuclear,5262.0
08/14/2019 20:00:00,EDT,Other Fossil Fuels,67.0
08/14/2019 20:00:00,EDT,Other Renewables,265.0
08/14/2019 20:00:00,EDT,Wind,110.0
08/14/2019 20:00:00,EDT,Hydro,3359.0
08/14/2019 20:05:00,EDT,Dual Fuel,5548.0
08/14/2019 20:05:00,EDT,Natural Gas,4208.0
08/14/2019 20:05:00,EDT,Nuclear,5260.0
08/14/2019 20:05:00,EDT,Other Fossil Fuels,68.0
08/14/2019 20:05:00,EDT,Other Renewables,265.0
08/14/2019 20:05:00,EDT,Wind,117.0
08/14/2019 20:05:00,EDT,Hydro,3403.0
08/14/2019 20:10:00,EDT,Dual Fuel,5551.0
08/14/2019 20:10:00,EDT,Natural Gas,4229.0
08/14/2019 20:10:00,EDT,Nuclear,5257.0
08/14/2019 20:10:00,EDT,Other Fossil Fuels,65.0
08/14/2019 20:10:00,EDT,Other Renewables,269.0
08/14/2019 20:10:00,EDT,Wind,124.0
08/14/2019 20:10:00,EDT,Hydro,3418.0
08/14/2019 20:13:01,EDT,Dual Fuel,5575.0
08/14/2019 20:13:01,EDT,Natural Gas,4235.0
08/14/2019 20:13:01,EDT,Nuclear,5258.0
08/14/2019 20:13:01,EDT,Other Fossil Fuels,52.0
08/14/2019 20:13:01,EDT,Other Renewables,271.0
08/14/2019 20:13:01,EDT,Wind,130.0
08/14/2019 20:13:01,EDT,Hydro,3330.0
08/14/2019 20:15:00,EDT,Dual Fuel,5550.0
08/14/2019 20:15:00,EDT,Natural Gas,4214.0
08/14/2019 20:15:00,EDT,Nuclear,5259.0
08/14/2019 20:15:00,EDT,Other Fossil Fuels,51.0
08/14/2019 20:15:00,EDT,Other Renewables,271.0
08/14/2019 20:15:00,EDT,Wind,128.0
08/14/2019 20:15:00,EDT,Hydro,3372.0
08/14/2019 20:16:19,EDT,Dual Fuel,5532.0
08/14/2019 20:16:19,EDT,Natural Gas,4204.0
08/14/2019 20:16:19,EDT,Nuclear,5259.0
08/14/2019 20:16:19,EDT,Other Fossil Fuels,50.0
08/14/2019 20:16:19,EDT,Other Renewables,269.0
08/14/2019 20:16:19,EDT,Wind,122.0
08/14/2019 20:16:19,EDT,Hydro,3369.0
08/14/2019 20:20:00,EDT,Dual Fuel,5556.0
08/14/2019 20:20:00,EDT,Natural Gas,4198.0
08/14/2019 20:20:00,EDT,Nuclear,5257.0
08/14/2019 20:20:00,EDT,Other Fossil Fuels,51.0
08/14/2019 20:20:00,EDT,Other Renewables,269.0
08/14/2019 20:20:00,EDT,Wind,117.0
08/14/2019 20:20:00,EDT,Hydro,3335.0
08/14/2019 20:25:00,EDT,Dual Fuel,5610.0
08/14/2019 20:25:00,EDT,Natural Gas,4206.0
08/14/2019 20:25:00,EDT,Nuclear,5256.0
08/14/2019 20:25:00,EDT,Other Fossil Fuels,51.0
08/14/2019 20:25:00,EDT,Other Renewables,269.0
08/14/2019 20:25:00,EDT,Wind,119.0
08/14/2019 20:25:00,EDT,Hydro,3225.0
08/14/2019 20:30:00,EDT,Dual Fuel,5651.0
08/14/2019 20:30:00,EDT,Natural Gas,4220.0
08/14/2019 20:30:00,EDT,Nuclear,5252.0
08/14/2019 20:30:00,EDT,Other Fossil Fuels,55.0
08/14/2019 20:30:00,EDT,Other Renewables,263.0
08/14/2019 20:30:00,EDT,Wind,121.0
08/14/2019 20:30:00,EDT,Hydro,3111.0
08/14/2019 20:35:00,EDT,Dual Fuel,5683.0
08/14/2019 20:35:00,EDT,Natural Gas,4240.0
08/14/2019 20:35:00,EDT,Nuclear,5254.0
08/14/2019 20:35:00,EDT,Other Fossil Fuels,58.0
08/14/2019 20:35:00,EDT,Other Renewables,265.0
08/14/2019 20:35:00,EDT,Wind,122.0
08/14/2019 20:35:00,EDT,Hydro,3116.0
08/14/2019 20:40:00,EDT,Dual Fuel,5712.0
08/14/2019 20:40:00,EDT,Natural Gas,4262.0
08/14/2019 20:40:00,EDT,Nuclear,5253.0
08/14/2019 20:40:00,EDT,Other Fossil Fuels,56.0
08/14/2019 20:40:00,EDT,Other Renewables,270.0
08/14/2019 20:40:00,EDT,Wind,123.0
08/14/2019 20:40:00,EDT,Hydro,3159.0
08/14/2019 20:45:00,EDT,Dual Fuel,5757.0
08/14/2019 20:45:00,EDT,Natural Gas,4283.0
08/14/2019 20:45:00,EDT,Nuclear,5254.0
08/14/2019 20:45:00,EDT,Other Fossil Fuels,56.0
08/14/2019 20:45:00,EDT,Other Renewables,270.0
08/14/2019 20:45:00,EDT,Wind,122.0
08/14/2019 20:45:00,EDT,Hydro,3083.0
08/14/2019 20:46:33,EDT,Dual Fuel,5752.0
08/14/2019 20:46:33,EDT,Natural Gas,4252.0
08/14/2019 20:46:33,EDT,Nuclear,5255.0
08/14/2019 20:46:33,EDT,Other Fossil Fuels,54.0
08/14/2019 20:46:33,EDT,Other Renewables,270.0
08/14/2019 20:46:33,EDT,Wind,121.0
08/14/2019 20:46:33,EDT,Hydro,3113.0
08/14/2019 20:50:00,EDT,Dual Fuel,5717.0
08/14/2019 20:50:00,EDT,Natural Gas,4229.0
08/14/2019 20:50:00,EDT,Nuclear,5253.0
08/14/2019 20:50:00,EDT,Other Fossil Fuels,53.0
08/14/2019 20:50:00,EDT,Other Renewables,271.0
08/14/2019 20:50:00,EDT,Wind,122.0
08/14/2019 20:50:00,EDT,Hydro,3093.0
08/14/2019 20:50:57,EDT,Dual Fuel,5683.0
08/14/2019 20:50:57,EDT,Natural Gas,4187.0
08/14/2019 20:50:57,EDT,Nuclear,5255.0
08/14/2019 20:50:57,EDT,Other Fossil Fuels,53.0
08/14/2019 20:50:57,EDT,Other Renewables,273.0
08/14/2019 20:50:57,EDT,Wind,121.0
08/14/2019 20:50:57,EDT,Hydro,3056.0
08/14/2019 20:55:00,EDT,Dual Fuel,5714.0
08/14/2019 20:55:00,EDT,Natural Gas,4181.0
08/14/2019 20:55:00,EDT,Nuclear,5255.0
08/14/2019 20:55:00,EDT,Other Fossil Fuels,52.0
08/14/2019 20:55:00,EDT,Other Renewables,271.0
08/14/2019 20:55:00,EDT,Wind,120.0
08/14/2019 20:55:00,EDT,Hydro,3025.0
08/14/2019 21:00:00,EDT,Dual Fuel,5729.0
08/14/2019 21:00:00,EDT,Natural Gas,4153.0
08/14/2019 21:00:00,EDT,Nuclear,5254.0
08/14/2019 21:00:00,EDT,Other Fossil Fuels,51.0
08/14/2019 21:00:00,EDT,Other Renewables,266.0
08/14/2019 21:00:00,EDT,Wind,115.0
08/14/2019 21:00:00,EDT,Hydro,2950.0
08/14/2019 21:05:00,EDT,Dual Fuel,5733.0
08/14/2019 21:05:00,EDT,Natural Gas,4118.0
08/14/2019 21:05:00,EDT,Nuclear,5254.0
08/14/2019 21:05:00,EDT,Other Fossil Fuels,51.0
08/14/2019 21:05:00,EDT,Other Renewables,267.0
08/14/2019 21:05:00,EDT,Wind,111.0
08/14/2019 21:05:00,EDT,Hydro,2851.0
08/14/2019 21:07:39,EDT,Dual Fuel,5712.0
08/14/2019 21:07:39,EDT,Natural Gas,4089.0
08/14/2019 21:07:39,EDT,Nuclear,5253.0
08/14/2019 21:07:39,EDT,Other Fossil Fuels,51.0
08/14/2019 21:07:39,EDT,Other Renewables,268.0
08/14/2019 21:07:39,EDT,Wind,117.0
08/14/2019 21:07:39,EDT,Hydro,2705.0
08/14/2019 21:10:00,EDT,Dual Fuel,5647.0
08/14/2019 21:10:00,EDT,Natural Gas,4104.0
08/14/2019 21:10:00,EDT,Nuclear,5252.0
08/14/2019 21:10:00,EDT,Other Fossil Fuels,50.0
08/14/2019 21:10:00,EDT,Other Renewables,268.0
08/14/2019 21:10:00,EDT,Wind,117.0
08/14/2019 21:10:00,EDT,Hydro,2803.0
08/14/2019 21:12:15,EDT,Dual Fuel,5616.0
08/14/2019 21:12:15,EDT,Natural Gas,4108.0
08/14/2019 21:12:15,EDT,Nuclear,5254.0
08/14/2019 21:12:15,EDT,Other Fossil Fuels,51.0
08/14/2019 21:12:15,EDT,Other Renewables,266.0
08/14/2019 21:12:15,EDT,Wind,118.0
08/14/2019 21:12:15,EDT,Hydro,2860.0
08/14/2019 21:15:00,EDT,Dual Fuel,5578.0
08/14/2019 21:15:00,EDT,Natural Gas,4109.0
08/14/2019 21:15:00,EDT,Nuclear,5252.0
08/14/2019 21:15:00,EDT,Other Fossil Fuels,51.0
08/14/2019 21:15:00,EDT,Other Renewables,266.0
08/14/2019 21:15:00,EDT,Wind,117.0
08/14/2019 21:15:00,EDT,Hydro,2865.0
08/14/2019 21:20:00,EDT,Dual Fuel,5553.0
08/14/2019 21:20:00,EDT,Natural Gas,4102.0
08/14/2019 21:20:00,EDT,Nuclear,5250.0
08/14/2019 21:20:00,EDT,Other Fossil Fuels,51.0
08/14/2019 21:20:00,EDT,Other Renewables,266.0
08/14/2019 21:20:00,EDT,Wind,115.0
08/14/2019 21:20:00,EDT,Hydro,2868.0
08/14/2019 21:25:00,EDT,Dual Fuel,5465.0
08/14/2019 21:25:00,EDT,Natural Gas,4098.0
08/14/2019 21:25:00,EDT,Nuclear,5252.0
08/14/2019 21:25:00,EDT,Other Fossil Fuels,50.0
08/14/2019 21:25:00,EDT,Other Renewables,262.0
08/14/2019 21:25:00,EDT,Wind,113.0
08/14/2019 21:25:00,EDT,Hydro,2904.0
08/14/2019 21:30:00,EDT,Dual Fuel,5381.0
08/14/2019 21:30:00,EDT,Natural Gas,4089.0
08/14/2019 21:30:00,EDT,Nuclear,5253.0
08/14/2019 21:30:00,EDT,Other Fossil Fuels,51.0
08/14/2019 21:30:00,EDT,Other Renewables,260.0
08/14/2019 21:30:00,EDT,Wind,113.0
08/14/2019 21:30:00,EDT,Hydro,2915.0
08/14/2019 21:35:00,EDT,Dual Fuel,5329.0
08/14/2019 21:35:00,EDT,Natural Gas,4084.0
08/14/2019 21:35:00,EDT,Nuclear,5256.0
08/14/2019 21:35:00,EDT,Other Fossil Fuels,51.0
08/14/2019 21:35:00,EDT,Other Renewables,260.0
08/14/2019 21:35:00,EDT,Wind,115.0
08/14/2019 21:35:00,EDT,Hydro,3024.0
08/14/2019 21:40:00,EDT,Dual Fuel,5327.0
08/14/2019 21:40:00,EDT,Natural Gas,4094.0
08/14/2019 21:40:00,EDT,Nuclear,5256.0
08/14/2019 21:40:00,EDT,Other Fossil Fuels,51.0
08/14/2019 21:40:00,EDT,Other Renewables,263.0
08/14/2019 21:40:00,EDT,Wind,116.0
08/14/2019 21:40:00,EDT,Hydro,3019.0
08/14/2019 21:45:00,EDT,Dual Fuel,5263.0
08/14/2019 21:45:00,EDT,Natural Gas,4110.0
08/14/2019 21:45:00,EDT,Nuclear,5256.0
08/14/2019 21:45:00,EDT,Other Fossil Fuels,53.0
08/14/2019 21:45:00,EDT,Other Renewables,262.0
08/14/2019 21:45:00,EDT,Wind,118.0
08/14/2019 21:45:00,EDT,Hydro,2913.0
08/14/2019 21:50:00,EDT,Dual Fuel,4975.0
08/14/2019 21:50:00,EDT,Natural Gas,4140.0
08/14/2019 21:50:00,EDT,Nuclear,5253.0
08/14/2019 21:50:00,EDT,Other Fossil Fuels,55.0
08/14/2019 21:50:00,EDT,Other Renewables,262.0
08/14/2019 21:50:00,EDT,Wind,120.0
08/14/2019 21:50:00,EDT,Hydro,2860.0
08/14/2019 21:55:00,EDT,Dual Fuel,4951.0
08/14/2019 21:55:00,EDT,Natural Gas,4139.0
08/14/2019 21:55:00,EDT,Nuclear,5254.0
08/14/2019 21:55:00,EDT,Other Fossil Fuels,51.0
08/14/2019 21:55:00,EDT,Other Renewables,259.0
08/14/2019 21:55:00,EDT,Wind,119.0
08/14/2019 21:55:00,EDT,Hydro,2751.0
08/14/2019 22:00:00,EDT,Dual Fuel,4915.0
08/14/2019 22:00:00,EDT,Natural Gas,4064.0
08/14/2019 22:00:00,EDT,Nuclear,5251.0
08/14/2019 22:00:00,EDT,Other Fossil Fuels,51.0
08/14/2019 22:00:00,EDT,Other Renewables,263.0
08/14/2019 22:00:00,EDT,Wind,121.0
08/14/2019 22:00:00,EDT,Hydro,2735.0
08/14/2019 22:05:00,EDT,Dual Fuel,4796.0
08/14/2019 22:05:00,EDT,Natural Gas,3986.0
08/14/2019 22:05:00,EDT,Nuclear,5251.0
08/14/2019 22:05:00,EDT,Other Fossil Fuels,51.0
08/14/2019 22:05:00,EDT,Other Renewables,266.0
08/14/2019 22:05:00,EDT,Wind,124.0
08/14/2019 22:05:00,EDT,Hydro,2778.0
08/14/2019 22:10:00,EDT,Dual Fuel,4644.0
08/14/2019 22:10:00,EDT,Natural Gas,3932.0
08/14/2019 22:10:00,EDT,Nuclear,5251.0
08/14/2019 22:10:00,EDT,Other Fossil Fuels,50.0
08/14/2019 22:10:00,EDT,Other Renewables,264.0
08/14/2019 22:10:00,EDT,Wind,126.0
08/14/2019 22:10:00,EDT,Hydro,2857.0
08/14/2019 22:15:00,EDT,Dual Fuel,4502.0
08/14/2019 22:15:00,EDT,Natural Gas,3916.0
08/14/2019 22:15:00,EDT,Nuclear,5251.0
08/14/2019 22:15:00,EDT,Other Fossil Fuels,51.0
08/14/2019 22:15:00,EDT,Other Renewables,260.0
08/14/2019 22:15:00,EDT,Wind,128.0
08/14/2019 22:15:00,EDT,Hydro,2831.0
08/14/2019 22:20:00,EDT,Dual Fuel,4446.0
08/14/2019 22:20:00,EDT,Natural Gas,3942.0
08/14/2019 22:20:00,EDT,Nuclear,5248.0
08/14/2019 22:20:00,EDT,Other Fossil Fuels,50.0
08/14/2019 22:20:00,EDT,Other Renewables,261.0
08/14/2019 22:20:00,EDT,Wind,130.0
08/14/2019 22:20:00,EDT,Hydro,2890.0
08/14/2019 22:25:00,EDT,Dual Fuel,4525.0
08/14/2019 22:25:00,EDT,Natural Gas,3951.0
08/14/2019 22:25:00,EDT,Nuclear,5248.0
08/14/2019 22:25:00,EDT,Other Fossil Fuels,50.0
08/14/2019 22:25:00,EDT,Other Renewables,262.0
08/14/2019 22:25:00,EDT,Wind,138.0
08/14/2019 22:25:00,EDT,Hydro,2764.0
08/14/2019 22:30:00,EDT,Dual Fuel,4541.0
08/14/2019 22:30:00,EDT,Natural Gas,3950.0
08/14/2019 22:30:00,EDT,Nuclear,5249.0
08/14/2019 22:30:00,EDT,Other Fossil Fuels,50.0
08/14/2019 22:30:00,EDT,Other Renewables,262.0
08/14/2019 22:30:00,EDT,Wind,141.0
08/14/2019 22:30:00,EDT,Hydro,2669.0
08/14/2019 22:35:00,EDT,Dual Fuel,4553.0
08/14/2019 22:35:00,EDT,Natural Gas,3945.0
08/14/2019 22:35:00,EDT,Nuclear,5249.0
08/14/2019 22:35:00,EDT,Other Fossil Fuels,51.0
08/14/2019 22:35:00,EDT,Other Renewables,259.0
08/14/2019 22:35:00,EDT,Wind,142.0
08/14/2019 22:35:00,EDT,Hydro,2619.0
08/14/2019 22:40:00,EDT,Dual Fuel,4534.0
08/14/2019 22:40:00,EDT,Natural Gas,3940.0
08/14/2019 22:40:00,EDT,Nuclear,5248.0
08/14/2019 22:40:00,EDT,Other Fossil Fuels,51.0
08/14/2019 22:40:00,EDT,Other Renewables,259.0
08/14/2019 22:40:00,EDT,Wind,146.0
08/14/2019 22:40:00,EDT,Hydro,2539.0
08/14/2019 22:45:00,EDT,Dual Fuel,4483.0
08/14/2019 22:45:00,EDT,Natural Gas,3926.0
08/14/2019 22:45:00,EDT,Nuclear,5248.0
08/14/2019 22:45:00,EDT,Other Fossil Fuels,51.0
08/14/2019 22:45:00,EDT,Other Renewables,259.0
08/14/2019 22:45:00,EDT,Wind,143.0
08/14/2019 22:45:00,EDT,Hydro,2490.0
08/14/2019 22:50:00,EDT,Dual Fuel,4495.0
08/14/2019 22:50:00,EDT,Natural Gas,3946.0
08/14/2019 22:50:00,EDT,Nuclear,5247.0
08/14/2019 22:50:00,EDT,Other Fossil Fuels,54.0
08/14/2019 22:50:00,EDT,Other Renewables,258.0
08/14/2019 22:50:00,EDT,Wind,144.0
08/14/2019 22:50:00,EDT,Hydro,2369.0
08/14/2019 22:55:00,EDT,Dual Fuel,4504.0
08/14/2019 22:55:00,EDT,Natural Gas,3962.0
08/14/2019 22:55:00,EDT,Nuclear,5246.0
08/14/2019 22:55:00,EDT,Other Fossil Fuels,55.0
08/14/2019 22:55:00,EDT,Other Renewables,262.0
08/14/2019 22:55:00,EDT,Wind,148.0
08/14/2019 22:55:00,EDT,Hydro,2321.0
08/14/2019 23:00:00,EDT,Dual Fuel,4481.0
08/14/2019 23:00:00,EDT,Natural Gas,3897.0
08/14/2019 23:00:00,EDT,Nuclear,5249.0
08/14/2019 23:00:00,EDT,Other Fossil Fuels,51.0
08/14/2019 23:00:00,EDT,Other Renewables,263.0
08/14/2019 23:00:00,EDT,Wind,147.0
08/14/2019 23:00:00,EDT,Hydro,2331.0
08/14/2019 23:05:00,EDT,Dual Fuel,4423.0
08/14/2019 23:05:00,EDT,Natural Gas,3856.0
08/14/2019 23:05:00,EDT,Nuclear,5246.0
08/14/2019 23:05:00,EDT,Other Fossil Fuels,51.0
08/14/2019 23:05:00,EDT,Other Renewables,265.0
08/14/2019 23:05:00,EDT,Wind,146.0
08/14/2019 23:05:00,EDT,Hydro,2403.0
08/14/2019 23:10:00,EDT,Dual Fuel,4503.0
08/14/2019 23:10:00,EDT,Natural Gas,3847.0
08/14/2019 23:10:00,EDT,Nuclear,5246.0
08/14/2019 23:10:00,EDT,Other Fossil Fuels,51.0
08/14/2019 23:10:00,EDT,Other Renewables,261.0
08/14/2019 23:10:00,EDT,Wind,138.0
08/14/2019 23:10:00,EDT,Hydro,2357.0
08/14/2019 23:15:00,EDT,Dual Fuel,4358.0
08/14/2019 23:15:00,EDT,Natural Gas,3805.0
08/14/2019 23:15:00,EDT,Nuclear,5245.0
08/14/2019 23:15:00,EDT,Other Fossil Fuels,51.0
08/14/2019 23:15:00,EDT,Other Renewables,265.0
08/14/2019 23:15:00,EDT,Wind,133.0
08/14/2019 23:15:00,EDT,Hydro,2424.0
08/14/2019 23:20:00,EDT,Dual Fuel,4141.0
08/14/2019 23:20:00,EDT,Natural Gas,3729.0
08/14/2019 23:20:00,EDT,Nuclear,5246.0
08/14/2019 23:20:00,EDT,Other Fossil Fuels,51.0
08/14/2019 23:20:00,EDT,Other Renewables,270.0
08/14/2019 23:20:00,EDT,Wind,129.0
08/14/2019 23:20:00,EDT,Hydro,2553.0
08/14/2019 23:25:00,EDT,Dual Fuel,3999.0
08/14/2019 23:25:00,EDT,Natural Gas,3641.0
08/14/2019 23:25:00,EDT,Nuclear,5248.0
08/14/2019 23:25:00,EDT,Other Fossil Fuels,51.0
08/14/2019 23:25:00,EDT,Other Renewables,270.0
08/14/2019 23:25:00,EDT,Wind,130.0
08/14/2019 23:25:00,EDT,Hydro,2636.0
08/14/2019 23:30:00,EDT,Dual Fuel,3936.0
08/14/2019 23:30:00,EDT,Natural Gas,3633.0
08/14/2019 23:30:00,EDT,Nuclear,5246.0
08/14/2019 23:30:00,EDT,Other Fossil Fuels,51.0
08/14/2019 23:30:00,EDT,Other Renewables,262.0
08/14/2019 23:30:00,EDT,Wind,131.0
08/14/2019 23:30:00,EDT,Hydro,2582.0
08/14/2019 23:35:00,EDT,Dual Fuel,3869.0
08/14/2019 23:35:00,EDT,Natural Gas,3656.0
08/14/2019 23:35:00,EDT,Nuclear,5246.0
08/14/2019 23:35:00,EDT,Other Fossil Fuels,51.0
08/14/2019 23:35:00,EDT,Other Renewables,262.0
08/14/2019 23:35:00,EDT,Wind,127.0
08/14/2019 23:35:00,EDT,Hydro,2590.0
08/14/2019 23:40:00,EDT,Dual Fuel,3825.0
08/14/2019 23:40:00,EDT,Natural Gas,3596.0
08/14/2019 23:40:00,EDT,Nuclear,5247.0
08/14/2019 23:40:00,EDT,Other Fossil Fuels,51.0
08/14/2019 23:40:00,EDT,Other Renewables,262.0
08/14/2019 23:40:00,EDT,Wind,119.0
08/14/2019 23:40:00,EDT,Hydro,2603.0
08/14/2019 23:45:00,EDT,Dual Fuel,3821.0
08/14/2019 23:45:00,EDT,Natural Gas,3448.0
08/14/2019 23:45:00,EDT,Nuclear,5248.0
08/14/2019 23:45:00,EDT,Other Fossil Fuels,51.0
08/14/2019 23:45:00,EDT,Other Renewables,262.0
08/14/2019 23:45:00,EDT,Wind,113.0
08/14/2019 23:45:00,EDT,Hydro,2617.0
08/14/2019 23:50:00,EDT,Dual Fuel,3853.0
08/14/2019 23:50:00,EDT,Natural Gas,3366.0
08/14/2019 23:50:00,EDT,Nuclear,5247.0
08/14/2019 23:50:00,EDT,Other Fossil Fuels,50.0
08/14/2019 23:50:00,EDT,Other Renewables,264.0
08/14/2019 23:50:00,EDT,Wind,110.0
08/14/2019 23:50:00,EDT,Hydro,2683.0
08/14/2019 23:55:00,EDT,Dual Fuel,3800.0
08/14/2019 23:55:00,EDT,Natural Gas,3359.0
08/14/2019 23:55:00,EDT,Nuclear,5248.0
08/14/2019 23:55:00,EDT,Other Fossil Fuels,51.0
08/14/2019 23:55:00,EDT,Other Renewables,264.0
08/14/2019 23:55:00,EDT,Wind,110.0
08/14/2019 23:55:00,EDT,Hydro,2629.0